<?xml version="1.0" encoding="utf-8"?>
<!-- Generator: Adobe Illustrator 23.0.1, SVG Export Plug-In . SVG Version: 6.00 Build 0)  -->
<svg version="1.1" id="Layer_1" xmlns="http://www.w3.org/2000/svg" xmlns:xlink="http://www.w3.org/1999/xlink" x="0px" y="0px"
	 viewBox="0 0 200 200" style="enable-background:new 0 0 200 200;" xml:space="preserve">
<style type="text/css">
	.st0{clip-path:url(#SVGID_2_);}
	.st1{opacity:0.51;fill:#98A175;}
	.st2{fill:#080C0D;}
	.st3{fill:#FD1A16;}
	.st4{opacity:0.25;fill:#DDDBDB;}
	.st5{fill:#CF1712;}
	.st6{fill:#172224;}
	.st7{fill:#FEFDEF;}
	.st8{fill:#A6A7A8;}
	.st9{fill:#CCCCCC;stroke:#1A1A1A;stroke-miterlimit:10;}
	.st10{fill:#B0140F;}
	.st11{fill:#094349;}
	.st12{fill:#B20808;}
	.st13{opacity:0.15;fill:#79D4E1;}
	.st14{fill:#04242B;}
	.st15{fill:#D1DAF2;}
	.st16{fill:#B21616;}
	.st17{fill:#F04341;}
	.st18{opacity:0.5;fill:#700C09;}
	.st19{fill:#E4EBF9;}
	.st20{fill:#BF1111;}
	.st21{opacity:0.14;fill:#DDDBDB;}
	.st22{opacity:0.36;fill:#444B4D;}
	.st23{opacity:0.74;}
	.st24{fill:#4D4D4D;}
	.st25{fill:#9E9D9E;}
	.st26{opacity:0.22;fill:#444B4D;}
	.st27{fill:#911A1D;}
	.st28{fill:#BD2225;}
	.st29{fill:#232323;}
	.st30{fill:#B01F24;}
	.st31{fill:#C92127;}
	.st32{fill:#B72025;}
	.st33{fill:#333333;}
	.st34{fill:#1C1717;}
	.st35{fill:#BA2026;}
	.st36{fill:#1E1E1E;}
	.st37{fill:#4E5C61;}
	.st38{clip-path:url(#SVGID_4_);fill:#607983;}
	.st39{clip-path:url(#SVGID_4_);fill:#50646B;}
	.st40{clip-path:url(#SVGID_4_);fill:#2F3435;}
	.st41{clip-path:url(#SVGID_4_);fill:#373C3D;}
	.st42{opacity:0.56;fill:#FFFFFF;}
	.st43{opacity:0.56;fill:#919191;}
	.st44{fill:#B8272B;}
	.st45{fill:#F2F2F2;}
	.st46{fill:#261F1F;}
	.st47{fill:#212121;}
	.st48{opacity:0.51;fill:#444B4D;}
	.st49{opacity:0.35;fill:#FFFFFF;}
	.st50{opacity:0.62;fill:#DEDFE2;}
	.st51{fill:#553256;}
	.st52{fill:#2E3E5B;}
	.st53{fill:#332A29;}
	.st54{fill:#7F5D44;}
	.st55{fill:#A9ABA8;}
	.st56{fill:#3F3534;}
	.st57{fill:#4F4D4C;}
	.st58{opacity:0.25;fill:#69747C;}
	.st59{fill:#364A7C;}
	.st60{fill:#435A89;}
	.st61{fill:#98B4DB;}
	.st62{fill:#EBEFF2;}
	.st63{fill:#FCA78D;}
	.st64{fill:#FFFFFF;}
	.st65{fill:#F79673;}
	.st66{fill:#EA8A6C;}
	.st67{fill:#744628;}
	.st68{fill:#D38462;}
	.st69{fill:#844F31;}
	.st70{fill:#242D22;}
	.st71{fill:#9D9F9A;}
	.st72{fill:#8F918A;}
	.st73{fill:#FF0609;}
	.st74{fill:#2C2D29;}
	.st75{opacity:0.8;fill:#FFFFFF;}
	.st76{opacity:0.2;}
	.st77{fill:#0098D4;}
	.st78{fill:#E2B698;}
	.st79{fill:#F7C79F;}
	.st80{fill:#F0F0F0;}
	.st81{fill:#CACACA;}
	.st82{fill:#E4E4E4;}
	.st83{fill:#979797;}
	.st84{fill:#AF9B89;}
	.st85{fill:#626262;}
	.st86{fill:#BEAB97;}
	.st87{fill:#B1B1B1;}
	.st88{fill:url(#SVGID_5_);}
	.st89{clip-path:url(#SVGID_7_);}
	.st90{fill:#1B6DB3;}
	.st91{fill:#878787;}
	.st92{fill:#C6C6C6;}
	.st93{fill:#3C3C3B;}
	.st94{fill:#F5B493;}
	.st95{fill:#432918;}
	.st96{fill:#EB9C7A;}
	.st97{fill:#223A61;}
	.st98{fill:#496999;}
	.st99{fill:#314D7A;}
	.st100{fill:#EDEDED;}
	.st101{fill:url(#SVGID_8_);}
	.st102{clip-path:url(#SVGID_10_);}
	.st103{fill:#999999;}
	.st104{fill:url(#SVGID_11_);}
	.st105{fill:#DD73BB;}
	.st106{fill:#D144A4;}
	.st107{fill:#C61089;}
	.st108{fill:#960E63;}
	.st109{fill:url(#SVGID_12_);}
	.st110{fill:url(#SVGID_13_);}
	.st111{fill:#8383BF;}
	.st112{fill:#585AA7;}
	.st113{fill:#2D3091;}
	.st114{fill:#1E1F72;}
	.st115{fill:url(#SVGID_14_);}
	.st116{fill:url(#SVGID_15_);}
	.st117{fill:#66CEF5;}
	.st118{fill:#34BDF1;}
	.st119{fill:#01AFEE;}
	.st120{fill:#0090DE;}
	.st121{fill:url(#SVGID_16_);}
	.st122{fill:url(#SVGID_17_);}
	.st123{fill:#67C996;}
	.st124{fill:#34B775;}
	.st125{fill:#009C52;}
	.st126{fill:#007D3B;}
	.st127{fill:url(#SVGID_18_);}
	.st128{fill:url(#SVGID_19_);}
	.st129{fill:#FEE068;}
	.st130{fill:#FFD538;}
	.st131{fill:#FFC905;}
	.st132{fill:#FFAE00;}
	.st133{fill:url(#SVGID_20_);}
	.st134{fill:url(#SVGID_21_);}
	.st135{fill:#F8AC7A;}
	.st136{fill:#F4914D;}
	.st137{fill:#F77128;}
	.st138{fill:#F65400;}
	.st139{fill:url(#SVGID_22_);}
	.st140{fill:url(#SVGID_23_);}
	.st141{fill:#F4777D;}
	.st142{fill:#F04951;}
	.st143{fill:#EB1C24;}
	.st144{fill:#B11519;}
	.st145{fill:url(#SVGID_24_);}
	.st146{fill:#383838;}
	.st147{fill:#ED2424;}
	.st148{fill:#CE2227;}
	.st149{fill:#EE4041;}
	.st150{fill:#2D2525;}
	.st151{fill:#4A3D3D;}
	.st152{opacity:0.88;fill:#A7D8DF;}
	.st153{clip-path:url(#SVGID_26_);fill:#5F7982;}
	.st154{clip-path:url(#SVGID_26_);fill:#50595C;}
	.st155{opacity:0.64;clip-path:url(#SVGID_26_);fill:#FFFFFF;}
	.st156{fill:#2E2A2A;}
	.st157{opacity:0.2;clip-path:url(#SVGID_28_);fill:#981C1F;}
	.st158{clip-path:url(#SVGID_30_);fill:#FFFFFF;}
	.st159{opacity:0.64;clip-path:url(#SVGID_32_);fill:#FFFFFF;}
	.st160{fill:#0D212B;}
	.st161{clip-path:url(#SVGID_34_);}
	.st162{fill:#F58529;}
	.st163{fill:#FAA829;}
	.st164{fill:#0C1C29;}
	.st165{fill:none;stroke:#142E3C;stroke-width:1.1353;stroke-miterlimit:10;}
	.st166{fill:#EAE7E7;}
	.st167{fill:#97A9B8;}
	.st168{fill:#31A84D;}
	.st169{fill:#B72A33;}
	.st170{fill:#788FA0;}
	.st171{fill:#1E0D0D;}
	.st172{fill:#1A568C;}
	.st173{fill:#F7A282;}
	.st174{fill:#EF9073;}
	.st175{fill:#6A98D0;}
	.st176{fill:#3D71B7;}
	.st177{fill:#5A382F;}
	.st178{fill:#F4F9FC;}
	.st179{fill:#EEA53F;}
	.st180{fill:#8E5C3F;}
</style>
<g>
	<g>
		<g>
			<rect x="41.21" y="103.43" class="st71" width="2.89" height="57.66"/>
			<rect x="30.95" y="161.09" class="st71" width="2.89" height="7.32"/>
			<rect x="91.5" y="161.09" class="st71" width="2.89" height="7.32"/>
			<rect x="81.24" y="103.43" class="st71" width="2.89" height="57.66"/>
			<rect x="33.84" y="161.09" class="st72" width="57.66" height="2.89"/>
		</g>
		<g>
			<path class="st73" d="M7.77,76.37h1.5l-2.46,4.66c0,0,0.84,1.33,1.3,1.67c0.9,0.67,2.95,1.33,4.05,1.58
				c3.69,0.82,11.43,2.57,15.06,1.5c0.48-0.14,0.78-0.65,0.96-1.11c0.33-0.83,0-3.59,0-3.59L27,73.16l7.37,2.78
				c0,0,0.47,2.76,0.96,3.53c1.11,1.72,4.43,4.41,6.3,5.23c5.69,2.51,18.41,3.3,24.62,3.42c5.43,0.11,16.49-0.39,21.63-2.14
				c2.3-0.78,6.87-2.95,8.44-4.81c0.9-1.06,1.92-5.23,1.92-5.23l7.58-2.78c0,0-1.27,5.58-1.5,7.48c-0.15,1.22-1.18,4.15-0.21,4.91
				c1.98,1.55,13.46-0.51,17.62-2.03c0.99-0.36,3.74-1.92,3.74-1.92l-1.5-4.91l1.5-0.32c0,0,2.13,6.29,2.67,8.44
				c0.21,0.82,0.63,2.47,0.64,3.31c0.06,4.59-2.33,13.98-5.13,17.62c-0.72,0.94-2.95,2.03-4.06,2.46
				c-4.44,1.73-13.96,3.16-18.69,3.74c-8.61,1.05-25.99,1.52-34.66,1.6c-7.76,0.07-23.32,0.03-31.03-0.85
				c-6.39-0.73-19.85-1.57-25.21-5.13c-0.59-0.39-1.31-1.7-1.6-2.35c-1.82-4.07-3.86-12.87-4.27-17.3c-0.1-1.06-0.25-3.23,0-4.27
				C4.61,81.65,7.77,76.37,7.77,76.37z"/>
			<path class="st74" d="M27.84,99.81c0,0,2.99,5.19,4.59,6.3c1.75,1.22,6.12,1.99,8.22,2.35c6.26,1.08,19.02,1.21,25.37,1.17
				c7.48-0.04,26.63-0.98,29.85-1.71c1.11-0.25,3.07-1.52,3.95-2.24c1.51-1.23,5.13-5.87,5.13-5.87s-29.2,1.18-38.93,1.17
				C56.48,100.99,27.84,99.81,27.84,99.81z"/>
			<path class="st74" d="M21.28,100.06c0,0-11.34-1.22-11.64,1.71c-0.41,3.93,14.85,5.45,14.85,5.45L21.28,100.06z"/>
			<path class="st74" d="M111.26,100.06c0,0,11.34-1.22,11.64,1.71c0.41,3.93-14.85,5.45-14.85,5.45L111.26,100.06z"/>
			<path class="st75" d="M38.87,92.8c-4.76,0-9.53-0.06-14.27-0.6c-4.73-0.54-9.55-1.59-13.76-3.88c-1.11-0.6-2.17-1.3-3.15-2.09
				c-0.68-0.55-1.66,0.41-0.97,0.97c3.7,3,8.25,4.65,12.87,5.6c4.81,0.99,9.76,1.27,14.66,1.35c1.54,0.03,3.08,0.03,4.62,0.03
				C39.76,94.18,39.76,92.8,38.87,92.8z"/>
			<path class="st75" d="M96.31,92.51c-0.61,0.02-1.2,0.16-1.81,0.2c-0.85,0.06-1.69,0.11-2.54,0.15c-1.62,0.09-3.25,0.16-4.88,0.21
				c-3.25,0.11-6.49,0.16-9.74,0.17c-6.49,0.03-12.98-0.07-19.46-0.11c-4.42-0.02-8.84,0-13.26,0.11c-0.88,0.02-0.89,1.4,0,1.37
				c12.99-0.33,25.97,0.19,38.96-0.08c2.21-0.05,4.42-0.12,6.63-0.22c1.11-0.05,2.21-0.11,3.32-0.18c0.52-0.03,1.04-0.07,1.56-0.1
				c0.41-0.03,0.82-0.14,1.23-0.16C97.2,93.85,97.2,92.47,96.31,92.51z"/>
		</g>
	</g>
	<g>
		<ellipse class="st76" cx="166.03" cy="167.09" rx="21.92" ry="6.22"/>
		<path class="st77" d="M195.99,145.68c-3.01-7.67-6.01-13.86-9.17-18.89c-1.44-2.3-4.24-5.18-8.38-8.63
			c-3.36-2.81-7.61-5.99-12.72-9.52c-1.79-1.24-3.55-2.42-5.21-3.52c0,0,0,0,0,0c-3.81-2.52-7.12-4.6-9.12-5.84c0,0,0,0,0,0
			c-0.18-0.11-0.35-0.22-0.51-0.31c-0.94-0.58-1.48-0.9-1.5-0.92l-0.02-0.01c-0.04-0.02-4.22-2.25-5.64-2.95
			c-1.11-0.55-2.67-1.21-4.32-1.92c-2.85-1.22-6.09-2.6-7.86-3.74c-2.15-1.38-5.91-4.59-7.46-6.37c-0.17-0.19-0.49-0.71-0.75-1.14v0
			c-0.12-0.2-0.23-0.39-0.3-0.5l-0.66,0.38c0.02,0.04,0.1,0.17,0.21,0.35c0.26,0.43,0.68,1.12,0.92,1.41
			c1.58,1.82,5.43,5.1,7.62,6.51c1.83,1.17,5.09,2.57,7.97,3.8c1.64,0.7,3.19,1.36,4.28,1.9c1.37,0.68,5.39,2.82,5.61,2.93
			c0.09,0.05,0.71,0.43,1.75,1.07c0.91,0.56,2.15,1.33,3.61,2.26c1.88,1.19,4.14,2.65,6.57,4.28c0,0,0,0,0,0
			c5.59,3.73,12.15,8.34,17.31,12.68c3.56,2.99,6.46,5.85,7.93,8.2c3.17,5.06,6.19,11.3,9.22,19.07c0.14,0.35,0.28,0.78,0.42,1.24
			C195.86,146.88,195.92,146.28,195.99,145.68z"/>
		<path class="st78" d="M117.74,76.59c0,0,1,0.93,1.18,1.31c0.22,0.49,0.08,1.96,0.08,1.96l2.34,1.9l2.37-0.82c0,0,1,0.13,1.33,0.13
			c0.38,0,1.5-0.13,1.5-0.13l1.3-4.81l-6.58-0.47L117.74,76.59z"/>
		<path class="st79" d="M121.59,75.89l-1.26,0.36l-1.34,0.38l-1.91,0.54c0,0,0,0,0,0l-0.1,0.03l-0.3,0.09l-0.49,0.14l-0.8,0.23
			c-0.28,0.08-0.57-0.08-0.64-0.36l-0.09-0.31c-0.07-0.26,0.06-0.52,0.29-0.62c0.02-0.01,0.04-0.02,0.06-0.02l0.82-0.23l0.48-0.14
			l1.6-0.46l1.54-0.44l1.76-0.5c0.06-0.02,0.12-0.02,0.17-0.02c0.06,0,0.11,0.02,0.16,0.04l0.02,0.01c0.07,0.03,0.14,0.08,0.19,0.14
			c0.05,0.05,0.08,0.12,0.1,0.19l0.09,0.31C122.03,75.53,121.87,75.81,121.59,75.89z"/>
		<g>
			<path class="st80" d="M116.8,78.28c0,0.16-0.01,0.31-0.03,0.46c-0.01,0.08-0.03,0.15-0.06,0.24c-0.01,0.02-0.02,0.04-0.03,0.06
				l-0.01,0.02l-0.01,0.01v0.01l-0.01,0l-0.02,0.03c-0.02,0.03-0.03,0.04-0.05,0.05c-0.02,0.02-0.03,0.03-0.04,0.04
				c-0.11,0.09-0.21,0.14-0.3,0.18c-0.09,0.04-0.18,0.07-0.25,0.09c-0.07,0.02-0.13,0.03-0.17,0.03c-0.04,0-0.06,0-0.06,0
				s0.01-0.02,0.03-0.05c0.02-0.03,0.06-0.08,0.1-0.13c0.05-0.06,0.1-0.12,0.17-0.19c0.06-0.07,0.14-0.15,0.2-0.22l0.02-0.03
				c0.01-0.01,0.01-0.02,0.01-0.02l0.01-0.01v0l0,0v0l0,0c0-0.01,0-0.01,0.01-0.02c0.01-0.03,0.02-0.09,0.02-0.15
				c0.01-0.11,0.01-0.25,0-0.39c-0.01-0.14-0.03-0.29-0.05-0.42c-0.02-0.14-0.06-0.29-0.1-0.44c-0.04-0.15-0.08-0.3-0.11-0.45
				c-0.04-0.15-0.08-0.29-0.12-0.43c-0.04-0.15-0.08-0.3-0.12-0.44c-0.03-0.12-0.06-0.23-0.09-0.33c-0.03-0.11-0.06-0.22-0.08-0.31
				c-0.02-0.06-0.03-0.12-0.04-0.17c-0.01-0.03-0.01-0.05-0.02-0.07c-0.03-0.13-0.05-0.21-0.05-0.21l0.4-0.13
				c0,0,0.03,0.07,0.08,0.2c0.03,0.07,0.05,0.14,0.09,0.23c0,0,0,0.01,0,0.01c0.03,0.09,0.07,0.19,0.1,0.29
				c0.03,0.1,0.07,0.21,0.11,0.33c0.01,0.01,0.01,0.02,0.01,0.03c0.04,0.13,0.08,0.27,0.12,0.41c0.04,0.14,0.08,0.29,0.12,0.44
				c0.04,0.14,0.07,0.29,0.1,0.44c0,0.01,0,0.02,0.01,0.03c0.02,0.1,0.04,0.21,0.06,0.32c0.01,0.05,0.02,0.1,0.03,0.16
				c0.02,0.15,0.03,0.28,0.03,0.41C116.8,78.23,116.8,78.26,116.8,78.28z"/>
			<path class="st81" d="M120.15,72.61c0.06,0.2-0.04,0.41-0.22,0.48c-0.01,0-0.02,0.01-0.04,0.01l-1.32,0.41
				c-0.21,0.07-0.43-0.05-0.5-0.26c-0.03-0.1-0.02-0.21,0.03-0.3c0.05-0.09,0.13-0.16,0.23-0.19l1.32-0.41
				c0.01,0,0.02-0.01,0.04-0.01C119.89,72.29,120.09,72.41,120.15,72.61z"/>
			<g>
				
					<rect x="114.82" y="71" transform="matrix(0.1937 -0.9811 0.9811 0.1937 22.7438 170.9353)" class="st82" width="1.08" height="1.27"/>
				<path class="st80" d="M119.86,62.76l-1.43,7.25l-0.53,0.31l-1.42,0.57l-1.86-0.37l-1.1-1.07l-0.37-0.49l1.43-7.25
					c0.02-0.09,0.1-0.15,0.2-0.13l4.96,0.98C119.82,62.58,119.88,62.67,119.86,62.76z"/>
				<path class="st81" d="M120.17,63.03c-0.02,0.09-0.11,0.15-0.2,0.13l-5.66-1.12c-0.09-0.02-0.15-0.11-0.13-0.2l0.22-1.13
					c0.02-0.09,0.11-0.15,0.2-0.13l5.66,1.12c0.09,0.02,0.15,0.11,0.13,0.2L120.17,63.03z"/>
				
					<rect x="117.24" y="60.41" transform="matrix(0.1934 -0.9811 0.9811 0.1934 34.9902 164.4026)" class="st82" width="0.47" height="1.02"/>
				<polygon class="st81" points="116.09,71.22 114.85,70.98 114.61,70.53 116.48,70.9 				"/>
			</g>
			<path class="st81" d="M116.24,75.36l-1.39-0.12l-0.64-2.04l0.36-1.23l2.7-0.84c0,0,0.41,0.09,0.51,0.18
				c0.1,0.1,0.22,0.52,0.22,0.52l-0.29,0.09c0,0-0.08-0.25-0.14-0.31c-0.08-0.06-0.18-0.14-0.39-0.07
				c-0.53,0.19-0.54,0.72-0.54,0.72L116.24,75.36z"/>
			
				<rect x="119.11" y="72.5" transform="matrix(0.9545 -0.2981 0.2981 0.9545 -16.3094 38.857)" class="st82" width="0.24" height="0.79"/>
			<path class="st82" d="M119.69,72.34l0.23,0.75c-0.01,0-0.02,0.01-0.04,0.01l-0.19,0.06l-0.24-0.76l0.19-0.06
				C119.67,72.34,119.68,72.34,119.69,72.34z"/>
			<path class="st80" d="M123.4,81.9l-0.92,0.28L122,81.64l-1.06,0.33l-1.86-2.54l-0.97,0.3l-0.08-0.27c0,0,1.65-1.39,1.63-1.59
				c-0.02-0.15-0.22-0.53-0.47-0.94c-0.07-0.1-0.13-0.21-0.2-0.31c-0.21-0.32-0.43-0.62-0.61-0.82c-0.09-0.1-0.16-0.17-0.21-0.21
				c-0.05-0.04-0.14-0.07-0.25-0.09c-0.02-0.01-0.03-0.01-0.04-0.01c-0.39-0.07-0.94-0.07-0.94-0.07s-0.03,0.01-0.08,0.03
				c-0.13,0.04-0.38,0.12-0.48,0.09c-0.1-0.03-0.18-0.12-0.23-0.21c-0.08-0.13-0.11-0.26-0.11-0.26l-0.25-0.78
				c0,0-0.36-0.29-0.37-0.44c-0.02-0.17,0.33-0.61,0.33-0.61s-0.1-0.61-0.1-1.02c0-0.12,0.01-0.23,0.04-0.3
				c0.04-0.13,0.22-0.37,0.35-0.41c0,0,0,0,0.01,0c0.01,0,0.01,0,0.01,0c0.38-0.11,0.47,0.14,0.58,0.26
				c0.03,0.04,0.07,0.11,0.1,0.19v0c0.08,0.25,0.14,0.6,0.14,0.6s1.2,0.05,1.58,0.15c0.05,0.01,0.09,0.03,0.1,0.04
				c0.13,0.1,0.3,0.36,0.45,0.62c0.19,0.34,0.35,0.68,0.35,0.68l0.12,0.03h0l1.42,0.34l0.24,0.06l0.27,0.06l0.16,0.04l0.02,0.01
				l0.16,0.04l0.03,0.1c0,0,0,0,0,0c-0.06,0.04-1.05,0.68-1.28,1.01c-0.07,0.1-0.17,0.36-0.15,0.48c0,0.01,0,0.01,0,0.01
				c0.03,0.11,0.16,0.28,0.28,0.42c0.09,0.11,0.17,0.19,0.17,0.19s0.95,1.28,1.22,1.74c0.32,0.54,0.85,1.66,1.07,2.25
				C123.17,81.11,123.4,81.9,123.4,81.9z"/>
			<path class="st82" d="M122.28,74.09L122.28,74.09c-0.05,0.05-0.1,0.08-0.17,0.1l-0.34,0.11l-0.65,0.2l-1.27,0.4c0,0,0,0,0,0
				l-1.97,0.61l-0.51,0.16c-0.2,0.06-0.41-0.02-0.51-0.2c-0.02-0.03-0.03-0.05-0.04-0.09c-0.03-0.12-0.02-0.23,0.03-0.33
				c0.05-0.1,0.14-0.18,0.26-0.22l0.22-0.07l1.48-0.46l0.66-0.21h0l2.05-0.64l0.34-0.11c0.23-0.07,0.48,0.06,0.55,0.29
				C122.46,73.8,122.4,73.98,122.28,74.09z"/>
			<path class="st81" d="M117.26,74.62c-0.13-0.42,0.1-0.86,0.52-0.99c0.42-0.13,0.86,0.1,0.99,0.52c0.13,0.42-0.1,0.86-0.52,0.99
				C117.83,75.27,117.39,75.04,117.26,74.62z"/>
			
				<rect x="113.97" y="73.36" transform="matrix(0.9548 -0.2972 0.2972 0.9548 -16.915 37.3084)" class="st82" width="0.57" height="1.87"/>
			<path class="st81" d="M113.61,76c0.03,0.09,0.12,0.14,0.21,0.11l0.48-0.15c0.09-0.03,0.14-0.12,0.11-0.21l-0.75-2.42
				c-0.03-0.09-0.12-0.14-0.21-0.11l-0.48,0.15c-0.09,0.03-0.14,0.12-0.11,0.21L113.61,76z"/>
			<polygon class="st82" points="112.66,74.44 113.09,74.31 113.02,74.09 112.6,74.22 			"/>
			<path class="st82" d="M116.01,72.24c-0.05-0.15,0.04-0.3,0.18-0.35c0.15-0.04,0.3,0.04,0.35,0.18c0.05,0.15-0.04,0.3-0.18,0.35
				C116.21,72.47,116.06,72.39,116.01,72.24z"/>
			<path class="st82" d="M116,74.04c-0.05-0.15,0.04-0.3,0.18-0.35c0.15-0.05,0.3,0.04,0.35,0.18c0.05,0.15-0.04,0.3-0.18,0.35
				C116.2,74.27,116.04,74.19,116,74.04z"/>
			<path class="st83" d="M122.28,74.09L122.28,74.09c-0.05,0.05-0.1,0.08-0.17,0.1l-0.34,0.11v0l-0.05-0.15l-0.21-0.68l0.34-0.11
				c0.23-0.07,0.48,0.06,0.55,0.29C122.46,73.8,122.4,73.98,122.28,74.09z"/>
		</g>
		<path class="st76" d="M121.77,74.3L121.77,74.3l-0.65,0.2l0.27,0.06c0.06,0,0.11,0.02,0.16,0.04l0.02,0.01l0.16,0.04l0.03,0.1
			c0,0,0,0,0,0c0.05,0.05,0.08,0.12,0.1,0.19l0.09,0.31c0.08,0.28-0.08,0.57-0.36,0.64l-1.26,0.36c0.03,0.11,0.16,0.28,0.28,0.42
			c-0.47,0-1.02,0.1-1.31,0.22c-0.03,0.01-0.07,0.03-0.11,0.05c-0.07-0.1-0.13-0.21-0.2-0.31l-1.91,0.54c0,0,0,0,0,0l-0.1,0.03
			c0.34-0.49,0.92-1.01,1.4-1.39c0.45-0.36,0.81-0.61,0.81-0.61s0.1-0.05,0.27-0.13c0.11-0.05,0.24-0.11,0.39-0.18c0,0,0,0,0,0
			c0.31-0.14,0.68-0.31,1.03-0.46c0.32-0.13,0.62-0.24,0.84-0.3c0.05-0.01,0.09-0.02,0.14-0.03c0.11-0.02,0.25-0.02,0.42-0.02
			c-0.04,0.05-0.1,0.08-0.17,0.1L121.77,74.3z"/>
		<path class="st79" d="M124.94,74.44c0,0-2.3-0.32-2.98-0.2c-0.7,0.12-2.67,1.1-2.67,1.1s-2.63,1.77-2.51,2.79
			c0.05,0.39,0.55,0.28,0.79,0.21c0.48-0.14,1.3-1.1,1.82-1.32c0.44-0.18,1.48-0.33,1.91-0.12c0.59,0.29,0.65,1.27,1.69,2.02
			c0.5,0.35,2.41,0.39,2.41,0.39l0.46-3.52L124.94,74.44z"/>
		<path class="st78" d="M117.07,77.18C117.07,77.18,117.07,77.18,117.07,77.18l-1.69,0.48c-0.28,0.08-0.57-0.08-0.64-0.36
			l-0.09-0.31c-0.07-0.26,0.06-0.52,0.29-0.62l1.66-0.47c0.28-0.08,0.57,0.08,0.64,0.36l0.09,0.31
			C117.42,76.82,117.3,77.07,117.07,77.18z"/>
		<path class="st79" d="M120.63,78.26c0.16,0.24,0.2,0.5,0.07,0.59l-2.82,1.98c-0.13,0.09-0.36-0.03-0.53-0.27l-0.19-0.27
			c-0.16-0.24-0.2-0.5-0.07-0.59l2.82-1.98c0.13-0.09,0.36,0.03,0.53,0.27L120.63,78.26z"/>
		<path class="st79" d="M121.76,79.38c0.18,0.23,0.22,0.49,0.09,0.59l-2.82,2.21c-0.13,0.1-0.37-0.01-0.55-0.23l-0.2-0.26
			c-0.18-0.23-0.22-0.49-0.09-0.59l2.82-2.21c0.13-0.1,0.37,0.01,0.55,0.23L121.76,79.38z"/>
		<path class="st79" d="M122.54,80.54c0.17,0.19,0.23,0.42,0.13,0.52l-2.26,2.04c-0.1,0.09-0.32,0.01-0.5-0.19l-0.2-0.22
			c-0.17-0.19-0.23-0.43-0.13-0.52l2.26-2.04c0.1-0.09,0.32-0.01,0.5,0.19L122.54,80.54z"/>
		<g>
			<path class="st84" d="M172.26,163.09c-0.01,0.44-0.45,1.72-0.45,1.72l-4.19,0.6c0,0-1.27-0.5-1.72-0.52
				c-0.74-0.04-2.92,0.52-2.92,0.52h-8.71c0,0-2.62-0.34-3.33-0.82c-0.08-0.06-0.18-0.15-0.28-0.25c-0.06-0.06-0.12-0.13-0.18-0.2
				l0,0c-0.08-0.1-0.15-0.2-0.22-0.3c-0.06-0.1-0.12-0.21-0.16-0.3c-0.03-0.08-0.05-0.15-0.06-0.21c-0.06-0.53,0.42-1.61,0.82-1.95
				c0.39-0.33,1.33-0.55,2.33-0.7c1.56-0.23,3.26-0.27,3.26-0.27l1.64-2.27l0.99-1.37l1.17-0.06l3.39-0.18l7.78,2.39
				c0,0,0.52,1.9,0.73,3.24C172.23,162.52,172.27,162.86,172.26,163.09z"/>
			<path class="st85" d="M161.96,165.16c-2.54,0.22-5.11,0.3-7.64-0.04c-0.86-0.11-2.81-0.25-3.83-0.99l0,0
				c-0.16-0.2-0.3-0.41-0.38-0.61c-0.03-0.08-0.05-0.15-0.06-0.21c-0.06-0.53,0.42-1.6,0.82-1.95c0.39-0.33,1.33-0.55,2.33-0.7
				c2.98,0.89,7.12,0.79,9.24,3.35C162.82,164.48,162.57,165.11,161.96,165.16z"/>
			<path class="st33" d="M172.26,163.09c-0.01,0.44-0.45,1.72-0.45,1.72l-4.19,0.6c0,0-1.27-0.5-1.72-0.52
				c-0.74-0.05-2.92,0.52-2.92,0.52h-8.71c0,0-2.62-0.34-3.33-0.82c-0.27-0.18-0.69-0.68-0.84-1.06c4.54,1.24,9.6,1.4,14.22,0.6
				c1.6-0.28,3.14-0.68,4.65-1.25c0.94-0.35,2.08-0.84,3.11-0.74c0.03,0,0.05,0.01,0.08,0.01
				C172.23,162.52,172.27,162.86,172.26,163.09z"/>
		</g>
		<path class="st76" d="M166.27,159.6c-0.16,0.59-0.85,1.05-1.47,0.83c-1.18-0.42-2.48,0.07-3.65-0.4c-0.52-0.21-0.97-0.46-1.42-0.8
			c-0.21-0.16-0.41-0.32-0.63-0.46c-0.11-0.07-0.22-0.14-0.33-0.2c-0.08-0.04-0.12-0.06-0.12-0.06c-0.21-0.09-0.4-0.22-0.54-0.38
			l0.99-1.37l1.17-0.06c0.16,0.1,0.31,0.21,0.47,0.32c0.21,0.16,0.41,0.32,0.63,0.46c0.1,0.07,0.42,0.25,0.42,0.25
			c0.53,0.18,1.07,0.13,1.63,0.13c0.69-0.01,1.37,0.04,2.02,0.27C166.05,158.35,166.45,158.94,166.27,159.6z"/>
		<g>
			<path class="st86" d="M182.78,168.22c-0.02,0.52-0.52,2-0.52,2l-4.86,0.69c0,0-1.48-0.58-2-0.61c-0.86-0.05-3.39,0.61-3.39,0.61
				H161.9c0,0-3.04-0.39-3.86-0.95c-0.04-0.03-0.08-0.06-0.12-0.1c-0.02-0.02-0.04-0.03-0.06-0.05c-0.07-0.06-0.14-0.14-0.22-0.22
				c-0.05-0.05-0.09-0.1-0.14-0.16l0-0.01c-0.09-0.11-0.18-0.23-0.25-0.35c-0.04-0.06-0.07-0.12-0.1-0.18
				c-0.03-0.06-0.06-0.12-0.08-0.17c-0.04-0.09-0.06-0.17-0.07-0.25c-0.07-0.61,0.48-1.86,0.95-2.26c0.46-0.38,1.55-0.64,2.7-0.81
				c1.81-0.26,3.79-0.31,3.79-0.31l1.59-2.22l0.78-1.08l2.94-0.6c1.17-0.05,2.34-0.22,3.5-0.18c0.63,0.02,1.26,0.13,1.88,0.28
				l6.69,2.06c0,0,0.16,0.57,0.34,1.34c0.18,0.74,0.39,1.67,0.51,2.43C182.75,167.56,182.79,167.94,182.78,168.22z"/>
			<path class="st85" d="M170.82,170.63c-2.95,0.26-5.94,0.35-8.87-0.05c-1-0.13-3.26-0.29-4.45-1.14l0-0.01
				c-0.18-0.23-0.35-0.48-0.44-0.7c-0.04-0.09-0.06-0.17-0.07-0.24c-0.07-0.61,0.48-1.86,0.95-2.26c0.46-0.38,1.55-0.64,2.7-0.81
				c3.46,1.03,8.27,0.92,10.72,3.89C171.82,169.83,171.52,170.56,170.82,170.63z"/>
			<path class="st33" d="M182.78,168.22c-0.02,0.52-0.52,2-0.52,2l-4.86,0.69c0,0-1.48-0.58-2-0.61c-0.86-0.05-3.39,0.61-3.39,0.61
				H161.9c0,0-3.04-0.39-3.86-0.95c-0.31-0.21-0.8-0.79-0.97-1.23c5.27,1.45,11.14,1.62,16.51,0.7c1.86-0.32,3.64-0.79,5.4-1.46
				c1.09-0.41,2.42-0.98,3.61-0.86c0.03,0,0.06,0.01,0.09,0.01C182.75,167.56,182.79,167.94,182.78,168.22z"/>
		</g>
		<path class="st76" d="M182.16,164.69c-1.76,0.15-3.53-0.11-5.25-0.49c-0.87-0.19-1.74-0.41-2.61-0.62c-0.2-0.05-0.4-0.1-0.6-0.14
			c-0.02,0-0.04-0.01-0.05-0.01c-0.03,0-0.06-0.01-0.1-0.01c-0.25-0.02-0.5-0.02-0.74-0.02c-2.13,0.04-4.88,0.73-6.78-0.53
			l0.78-1.08l2.94-0.6c1.17-0.05,2.34-0.22,3.5-0.18c0.63,0.02,1.26,0.13,1.88,0.28l6.69,2.06
			C181.82,163.35,181.98,163.92,182.16,164.69z"/>
		<path class="st79" d="M142.97,41.81c0,0,0.16-0.88,0.12-1.17c-0.04-0.31-0.26-0.94-0.41-1.22c-0.16-0.31-0.45-0.9-0.56-1.24
			c-0.41-1.26,0.43-3.65,0.43-3.65l1.71-0.15L150,38.1l-0.52,4.71l-4.47,0.76L142.97,41.81z"/>
		<polygon class="st87" points="145.79,46.58 143.54,44.37 142.97,41.81 147.53,42.68 146.71,45.63 		"/>
		<path class="st81" d="M151.22,97.11c0,0-1.14,6.03-1.17,8.07c-0.07,4.16,1.82,16.54,1.82,16.54s0.78,9.26,1.56,12.24
			c0.53,2.03,2.39,5.87,2.73,7.94c0.26,1.57-0.12,4.79,0,6.38c0.15,2.1,1.21,8.33,1.21,8.33l5.04,2.47h4.04l1.69-31.91l-9.05-26.18
			L151.22,97.11z"/>
		<path class="st80" d="M152.4,54.73c0,0-4.87,4.19-5.99,5.34c-1.1,1.12-3.12,4.12-3.96,5.44c-0.66,1.04-1.85,3.22-2.64,4.17
			c-0.66,0.79-2.28,1.92-3.26,2.24c-1.37,0.46-5.32,0.43-7.16,0.54c-1.16,0.07-4.6,0.52-4.6,0.52s-0.18,3.08,0,4.08
			c0.51,2.89,1.56,4.34,1.56,4.34s7.19,0.37,9.55,0c3.27-0.52,12.59-4.08,12.59-4.08l4.95-6.68L152.4,54.73z"/>
		<path class="st80" d="M151.5,56.19l0.64-5.57l-0.46-2.03l-0.84-3.7l-2.16-3.84l-0.19-0.33l-6.47-5.03c0,0-0.76-4.16,4.13-7.34
			c0.46-0.3,0.92-0.55,1.38-0.76c0.39-0.18,0.77-0.32,1.15-0.44c2.29-0.72,4.4-0.47,5.94-0.1c1.48,0.35,3.7,1.58,4.82,2.61
			c0.27,0.24,0.62,0.63,0.97,1.1c0.23,0.32,0.46,0.67,0.67,1.05c0.28,0.53,0.52,1.12,0.63,1.71c0.28,1.52,0.47,3.01,0.87,3.91
			c0.64,1.45,4.17,4.2,4.17,4.2l4.91,3.21l0.69,2.8L151.5,56.19z"/>
		<path class="st82" d="M183.82,163.61l-3.47,0.87c0,0-5.67-1.97-7.64-2.26c-2.15-0.31-8.68,0-8.68,0l0.69-12.15l-2.26-12.5
			l-3.82-8.86l0.17-6.95l-4.51-19.97l-3.99-3.47c0,0-1.56-4.24-1.74-5.73c-0.17-1.47,0.46-4.43,0.35-5.9
			c-0.17-2.26-1.91-8.86-1.91-8.86l-0.87-9.2l3.65-10.07c0,0,3.27-5.89,4.63-7.68c1.14-1.5,3.97-4.19,5.4-5.27
			c1.29-0.97,3.7-1.69,6.12-2.04c4.06-0.59,6.94,1.63,6.94,1.63l0.91,1.81l4.65,9.3l0.35,22.75l0.04,3.23l0.13,9.96
			c0,0,1.85,11.57,1.74,15.45c-0.14,4.84-4.16,14.33-3.3,19.1c0.21,1.19,2.08,3.01,2.43,4.17c0.92,3.08,0.69,12.85,0.69,12.85
			l1.39,7.64L183.82,163.61z"/>
		<path class="st76" d="M178.83,82.29c-1.27,1.96-2.85,4.62-2.85,4.62l-0.92-0.33c-0.25,0.81-0.68,2.13-0.97,2.65
			c-0.39,0.69-2.02,2.45-2.02,2.45l-0.01-0.01l-0.01,2.59c0,0.45-0.43,0.81-0.96,0.81c-0.53,0-0.96-0.37-0.96-0.82l0.01-3.26h-0.02
			l-0.01,3.73c0,0.45-0.43,0.81-0.96,0.81c-0.53,0-0.96-0.37-0.96-0.82l0.01-3.72h-0.02L168.18,95c0,0.45-0.43,0.81-0.96,0.81
			c-0.53,0-0.96-0.37-0.96-0.82l0.01-4.01h-0.02l-0.02,4.64c0,0.45-0.43,0.81-0.96,0.81c-0.53,0-0.96-0.37-0.96-0.82l0.02-4.95
			l-0.02,0c0,0-0.03-0.54,0-0.72c0.1-0.67,0.61-1.94,0.91-2.54c0.47-0.94,2.35-3.48,2.35-3.48l-0.83-0.29l1.65-3.23l3.39-7.9
			c0,0-0.61-1.54-0.69-2.08c-0.11-0.69,0-2.78,0-2.78l-4.34-3.65l-7.03-7.4c0,0-0.82-3.32-0.57-4.18c0.56-1.94,3.5-5.24,5.34-6.08
			c1.58-0.72,4.9-0.91,6.62-0.65c0.6,0.09,1.74,0.69,2.69,1.34l4.65,9.3l0.35,22.75L178.83,82.29z"/>
		<path class="st79" d="M165.81,83.54c0,0-1.88,2.54-2.35,3.48c-0.3,0.6-0.81,1.87-0.91,2.54c-0.03,0.18,0,0.72,0,0.72l1.63,0.33
			h1.89h1.11h2.28l0.85,0.69c0,0,1.63-1.76,2.01-2.45c0.43-0.76,1.17-3.31,1.17-3.31L165.81,83.54z"/>
		<path class="st79" d="M164.47,95.24c0,0.45-0.43,0.81-0.96,0.81l0,0c-0.53,0-0.96-0.37-0.96-0.82l0.02-5.15
			c0-0.45,0.43-0.81,0.96-0.81l0,0c0.53,0,0.96,0.37,0.96,0.82L164.47,95.24z"/>
		<path class="st79" d="M166.41,94.62c0,0.45-0.43,0.81-0.96,0.81l0,0c-0.53,0-0.96-0.37-0.96-0.82l0.02-5.15
			c0-0.45,0.43-0.81,0.96-0.81l0,0c0.53,0,0.96,0.37,0.96,0.82L166.41,94.62z"/>
		<path class="st79" d="M168.35,94.33c0,0.45-0.43,0.81-0.96,0.81l0,0c-0.53,0-0.96-0.37-0.96-0.82l0.02-5.16
			c0-0.45,0.43-0.81,0.96-0.81l0,0c0.53,0,0.96,0.37,0.96,0.82L168.35,94.33z"/>
		<path class="st79" d="M170.28,93.87c0,0.45-0.43,0.81-0.96,0.81l0,0c-0.53,0-0.96-0.37-0.96-0.82l0.02-5.16
			c0-0.45,0.43-0.81,0.96-0.81l0,0c0.53,0,0.96,0.37,0.96,0.82L170.28,93.87z"/>
		<path class="st80" d="M157.38,52.02c-0.25,0.86,0.57,4.18,0.57,4.18l7.03,7.41l4.34,3.65c0,0-0.11,2.09,0,2.78
			c0.09,0.54,0.69,2.08,0.69,2.08l-3.39,7.9l-1.65,3.23l9.22,3.28c0,0,2.85-4.78,3.97-6.25c1.67-2.19,5.65-6.24,6.51-8.86
			c0.24-0.72,0.2-2.3,0-3.04c-0.71-2.66-5.47-9.55-5.47-9.55s-3.86-8.72-5.9-11.11c-0.76-0.89-3.04-2.28-3.98-2.43
			c-1.72-0.26-5.03-0.06-6.62,0.65C160.87,46.77,157.94,50.07,157.38,52.02z"/>
		<path class="st87" d="M160.39,30.75c-2.88,1.43-6.23,0.96-9.37,1.3c-0.77-1.64-1.64-3.23-2.35-4.9c-0.38,0.12-0.76,0.26-1.15,0.44
			c0.78,1.84,1.75,3.58,2.58,5.4c-0.29,2.6-0.19,5.22-0.19,7.82c0,0.8,1.24,0.8,1.24,0c0-2.47-0.09-4.95,0.15-7.41c0,0,0,0,0,0
			c0.03-0.04,0.06-0.09,0.07-0.15c3.28-0.31,6.7,0.09,9.69-1.45C160.85,31.43,160.62,31.07,160.39,30.75z"/>
		<path class="st76" d="M155.38,44.37c-0.54,1.26-2.4,3.12-3.71,4.22l-0.84-3.7l-2.16-3.84c0.48-0.65,1-1.22,1.5-1.37
			c0.59-0.18,1.88,0.26,2.41,0.59c0.78,0.48,2.43,1.51,2.8,2.34C155.56,43.02,155.55,43.97,155.38,44.37z"/>
		<path class="st81" d="M148.14,49.84c-0.93-0.08-2.35-1.38-2.58-2.28c-0.29-1.11,0.57-3.47,1.17-4.45c0.58-0.94,1.74-3.1,2.8-3.43
			c0.59-0.18,1.88,0.26,2.41,0.59c0.78,0.48,2.43,1.51,2.8,2.34c0.18,0.4,0.17,1.35,0,1.76c-0.63,1.46-3.03,3.73-4.3,4.69
			C149.95,49.42,148.78,49.89,148.14,49.84z"/>
		<polygon class="st76" points="157.33,62.29 160.17,62.29 165.46,65.85 159.97,63.29 		"/>
		<polygon class="st76" points="162.55,65.85 165.46,67.2 168.01,70.59 		"/>
		<polygon class="st76" points="152.1,75.94 154.39,75.51 158.59,77.75 154.34,76.17 		"/>
		<polygon class="st76" points="161.39,81.37 162.84,82.09 163.52,83.04 		"/>
		<polygon class="st76" points="169.99,67.2 172.32,66.3 173.91,66.3 		"/>
		<polygon class="st76" points="172.32,67.49 174.43,67.2 176.58,67.49 174.45,67.35 		"/>
		<polygon class="st76" points="171.95,55.48 176.23,56.19 178.58,59.55 175.27,56.69 		"/>
		<polygon class="st76" points="171.95,83.04 173.3,83.04 175.02,82.77 173.21,83.25 		"/>
		<polygon class="st76" points="130.68,76.76 133.29,77.2 136.15,78.86 		"/>
		<polygon class="st76" points="130.33,79.59 131.7,80.2 133.73,80.77 131.25,80.18 		"/>
		<polygon class="st76" points="145.09,72.33 145.95,73.53 145.52,76.12 145.33,73.81 		"/>
		<polygon class="st76" points="145.28,70.24 145.95,71.42 146.14,72.72 146.09,71.08 		"/>
		<polygon class="st76" points="156.51,36.84 158.59,36.46 161.79,37.86 158.59,37.16 		"/>
		<polygon class="st76" points="161.39,39.64 163.12,40.06 164.98,41.15 162.93,40.4 		"/>
		<polygon class="st76" points="157.59,44.41 159.43,43.47 163.19,43.08 159.75,43.75 		"/>
		<polygon class="st76" points="146.52,36.02 147.22,36.84 148.67,37.61 		"/>
		<polygon class="st76" points="151.29,100.94 152.39,102.46 153.91,103.37 151.77,102.37 		"/>
		<polygon class="st76" points="152.39,103.75 153.02,104.28 154.39,104.56 		"/>
		<polygon class="st76" points="171.09,109.81 174.45,111.82 176.58,115.73 173.83,112.77 		"/>
		<polygon class="st76" points="157.33,101.51 159.69,100.08 164.49,100.08 160.07,100.79 		"/>
		<polygon class="st76" points="172.76,119.07 174.48,121.26 176.1,126.99 173.83,122.31 		"/>
		<polygon class="st76" points="166.03,135.58 168.36,138.34 173.48,141.3 167.61,139.2 		"/>
		<polygon class="st76" points="169.33,143.31 174.43,145.79 170.3,144.98 		"/>
		<polygon class="st76" points="177.15,157.71 179.44,159.1 181.35,162.12 178.83,159.92 		"/>
		<polygon class="st76" points="160.45,154.18 161.6,156.09 163.03,157.14 		"/>
		<polygon class="st76" points="157.84,143.31 159.1,144.98 161.15,148.94 159.5,144.55 		"/>
		<linearGradient id="SVGID_2_" gradientUnits="userSpaceOnUse" x1="88.9207" y1="89.1227" x2="114.249" y2="77.3551">
			<stop  offset="0.1675" style="stop-color:#FFFFFF"/>
			<stop  offset="0.8966" style="stop-color:#FF0609"/>
		</linearGradient>
		<path style="fill:url(#SVGID_2_);" d="M112.59,74.22l-11.47,0.61c-0.21,0.68-0.59,1.35-1.15,1.98c-3.24,3.63-4.54,7.51-9.59,9.14
			c-0.96,0.31-1.93,0.51-2.93,0.66l4.38,9.78l20.83-21.9L112.59,74.22z"/>
	</g>
</g>
</svg>
