<?xml version="1.0" encoding="utf-8"?>
<!-- Generator: Adobe Illustrator 23.0.1, SVG Export Plug-In . SVG Version: 6.00 Build 0)  -->
<svg version="1.1" id="Layer_1" xmlns="http://www.w3.org/2000/svg" xmlns:xlink="http://www.w3.org/1999/xlink" x="0px" y="0px"
	 viewBox="0 0 200 200" style="enable-background:new 0 0 200 200;" xml:space="preserve">
<style type="text/css">
	.st0{fill:#1D1F27;}
	.st1{fill:#F5A11B;}
	.st2{fill:#CA562B;}
	.st3{opacity:0.15;}
	.st4{fill:#F2F2F2;}
	.st5{opacity:0.1;}
</style>
<path class="st0" d="M51.48,79.56l1.55,1.64c0.87,0.92,2.24,1.29,3.6,0.99l2.43-0.54l-1.9,1.6c-1.07,0.9-1.6,2.22-1.39,3.47
	l0.36,2.23l-1.55-1.64c-0.87-0.92-2.24-1.29-3.6-0.99l-2.43,0.54l1.9-1.6c1.07-0.9,1.6-2.22,1.39-3.47L51.48,79.56z M31.41,80.2
	c0.38,2.33-0.61,4.79-2.6,6.47l-3.55,2.99l4.53-1.01c2.54-0.57,5.1,0.13,6.72,1.84l2.89,3.05l-0.68-4.15
	c-0.38-2.33,0.61-4.79,2.6-6.47l3.55-2.99l-4.53,1.01c-2.54,0.57-5.1-0.13-6.72-1.84l-2.89-3.05L31.41,80.2z M47.47,65.08
	c0.25,1.51-0.39,3.1-1.68,4.18l-2.29,1.93l2.93-0.66c1.64-0.37,3.3,0.08,4.35,1.19l1.87,1.97l-0.44-2.68
	c-0.25-1.51,0.39-3.1,1.68-4.18l2.29-1.93l-2.93,0.66c-1.64,0.37-3.3-0.08-4.35-1.19l-1.87-1.97L47.47,65.08z M33.94,66.16
	c0.14,0.85-0.22,1.76-0.95,2.37l-1.3,1.1l1.66-0.37c0.93-0.21,1.87,0.05,2.47,0.68l1.06,1.12l-0.25-1.52
	c-0.14-0.85,0.22-1.76,0.95-2.37l1.3-1.1l-1.66,0.37c-0.93,0.21-1.87-0.05-2.47-0.68l-1.06-1.12L33.94,66.16z"/>
<g>
	<g>
		<path class="st1" d="M110.96,137.01c-0.49,0.57-0.99,1.11-1.55,1.51c-0.02,0.02-0.05,0.03-0.07,0.05c-1.45,1.03-3.1,1.66-4.82,1.9
			c-2.56-2.38-5.18-4.71-7.72-7.09c-0.83-0.78-1.65-1.55-2.47-2.32c-2.21-2.07-4.41-4.15-6.62-6.22c-2.65-2.48-5.31-4.97-7.98-7.43
			c-2.91-2.68-5.83-5.35-8.77-8c-6.38-5.76-12.85-11.43-19.41-16.98c1.43-0.06,2.85-0.37,4.19-0.94c1.44-0.61,2.78-1.48,3.88-2.59
			c1.63-1.64,3.59-5.51,6.45-4.15c1.64,0.77,2.28,2.93,3.18,4.37c0.79,1.27,1.84,2.28,3.2,2.91c0.43,0.2,0.88,0.36,1.35,0.49
			c0,0,0,0,0.01,0c0.28,0.08,0.57,0.13,0.86,0.18c0.15,0.02,0.29,0.04,0.44,0.06c0.05,0.04,0.09,0.09,0.14,0.13
			c2.32,2.26,4.75,4.45,7.15,6.63c-1.05-0.41-2.18-0.63-3.39-0.59c-3.48,0.13-6.83,2.66-6.47,6.41c0.46,4.71,4.88,6.64,8.2,9.38
			c0.48,0.39,0.93,0.8,1.34,1.23c1.31,2.62,2.96,5.1,4.86,7.19c0.39,0.43,0.79,0.84,1.22,1.23c1.26,1.18,2.69,2.21,4.26,2.96
			c2.51,1.21,5.26,1.71,7.9,2.51C104.71,131.18,107.76,134.09,110.96,137.01z"/>
		<path class="st1" d="M90.74,48.08c-0.99,2.14-1.91,4.32-2.84,6.47c-1.93,4.47-3.75,8.98-5.48,13.53
			c-1.77,4.62-3.37,9.31-4.77,14.05c-0.92,3.12-1.89,6.28-2.71,9.46c-0.01,0.03-0.02,0.06-0.02,0.09c-0.38-0.04-0.76-0.11-1.12-0.21
			c-1.46-0.4-2.76-1.29-3.73-2.82c-0.05-0.07-0.09-0.15-0.14-0.23c-1.19-1.98-2.14-4.76-4.81-4.93c-3.66-0.23-5.29,4.15-7.86,5.99
			c-0.07,0.05-0.13,0.09-0.2,0.13c-1.86,1.29-4.01,2.02-6.21,2.21c3.26-6.63,6.32-13.35,9.13-20.2c1.9-4.65,3.73-9.34,5.48-14.05
			c1.16-3.12,2.53-6.35,3.57-9.63c1.27,0.55,2.51,1.79,3.71,2.66c0.42,0.3,0.85,0.56,1.26,0.73c2.16,0.86,3.98-0.27,5.71-1.51
			c1.8-1.29,3.68-2.18,5.78-2.45c0.62-0.08,1.25-0.11,1.91-0.08C88.66,47.36,89.74,47.65,90.74,48.08z"/>
		<path class="st1" d="M117.12,83.68c0.12,5.53-2.02,10.71-3.28,16c-0.77,3.21-0.93,7.24-2.5,10.25c-1.74,0.78-3.55,1.39-5.5,1.71
			c-2.82,0.46-5.78,0.39-8.5-0.56c-0.42-0.14-0.82-0.31-1.2-0.49c-0.31-0.28-0.62-0.57-0.93-0.85c-3.37-3.08-6.76-6.14-10.16-9.18
			c-1.01-0.9-2.02-1.82-3.03-2.73c-1.87-1.7-3.74-3.4-5.66-5.04c-0.25-0.21-0.5-0.42-0.74-0.63c-0.04-0.03-0.08-0.07-0.12-0.1
			c0.03-0.11,0.07-0.22,0.1-0.34c0.91-3.01,1.78-6.03,2.78-9.01c1.57-4.69,3.2-9.36,4.9-14.01c1.76-4.84,3.68-9.61,5.71-14.34
			c0.82-1.89,1.69-3.75,2.55-5.62c1.18,1.1,2.38,2.2,3.57,3.29c0.19,0.17,0.38,0.34,0.57,0.52c0.02,0.02,0.03,0.03,0.05,0.05
			c1.28,1.16,2.56,2.32,3.86,3.47c0.41,0.37,0.82,0.74,1.23,1.11c2.53,2.26,5.07,4.53,7.63,6.77c1.25,1.51,2.44,3.07,3.51,4.74
			C114.85,73.13,117,78.26,117.12,83.68z"/>
	</g>
	<path class="st2" d="M183.13,133.85c-0.3,0.77-0.6,1.55-0.92,2.32c-0.43,1.05-0.88,2.09-1.36,3.12c-2.5,5.31-5.6,10.41-9.5,14.82
		c-6.37,7.2-15.09,12.89-24.68,13.91c-0.6,0.07-1.2,0.11-1.8,0.14c-0.59-1.44-1.29-2.83-1.97-4.16c-1.49-2.89-3.23-5.65-5.21-8.23
		c-2.26-2.94-4.78-5.62-7.55-8c4.79,1.16,10.03,1.52,14.81,0.64c0.13-0.02,0.1-0.23-0.03-0.23c-5.92,0.12-11.53-0.46-17.08-2.27
		c-0.49-0.16-0.98-0.33-1.47-0.51c-0.28-0.1-0.56-0.21-0.84-0.32c-3.22-1.26-6.34-2.93-9.14-4.94c-1.4-1-2.68-2.12-3.94-3.28
		c-0.25-0.23-0.51-0.47-0.76-0.7c-0.89-0.83-1.77-1.66-2.68-2.47c-2.14-1.9-4.42-3.49-7.12-4.47c-3.49-1.25-7.25-1.64-10.47-3.61
		c-2.55-1.56-4.41-3.68-6-6.03c-1.9-2.8-3.41-5.93-5.26-8.79c-0.05-0.07-0.17-0.03-0.14,0.06c0.39,1.26,0.86,2.51,1.42,3.75
		c-1-1.06-2.14-1.99-3.27-2.97c-1.61-1.4-3.79-3.49-4.36-5.75c-0.29-1.13-0.17-2.31,0.63-3.45c2.07-2.97,6.26-2.56,9.02-0.98
		c2.74,1.57,4.75,4.02,6.97,6.21c1.46,1.45,3.03,2.62,4.72,3.49c0.92,0.47,1.87,0.86,2.85,1.15c2.24,0.66,4.65,0.85,7.22,0.52
		c1.67-0.21,3.34-0.62,4.97-1.18c-0.46,0.52-1,0.98-1.64,1.37c-0.27,0.17-0.56,0.32-0.86,0.45c-0.08,0.03-0.02,0.15,0.05,0.13
		c1.59-0.4,2.74-1.26,3.6-2.38c0.23-0.3,0.44-0.61,0.62-0.94c0.16-0.27,0.3-0.54,0.43-0.83c1.05-2.27,1.46-5.04,1.94-7.38
		c1.19-5.78,3.63-11.36,3.79-17.33c0.15-5.46-1.76-10.81-4.55-15.4c-0.47-0.77-0.96-1.52-1.48-2.26c-0.96-1.4-2.01-2.75-3.08-4.06
		c-1.51-1.37-3.03-2.72-4.56-4.06c-0.4-0.35-0.79-0.7-1.19-1.05c-0.56-0.5-1.12-0.99-1.67-1.48c-1.57-1.39-3.15-2.78-4.74-4.16
		c2.65-0.64,5.31-0.91,8.18-0.63c4.11,0.4,8.28,1.87,11.75,4.11c0,0,0,0,0,0c0.09,0.05,0.18,0.11,0.26,0.17
		c7.03,4.65,11.17,11.65,14.62,19.1c0.03,0.06,0.12,0.02,0.1-0.04c-1.6-5.59-4.67-11.05-8.77-15.36c-1.8-1.89-3.79-3.56-5.95-4.92
		c-0.83-0.52-1.7-1.01-2.62-1.45c0.16-0.05,0.32-0.09,0.48-0.13c7.68-1.93,15.35,2.1,19.67,8.83c2.24,3.5,3.62,7.45,4.46,11.5
		c0,0.02,0.01,0.04,0.01,0.06c0,0,0,0.01,0,0.02c0.09,0.44,0.17,0.89,0.25,1.33c0.73,4.21,0.86,8.49,1.6,12.69
		c0.02,0.15,0.24,0.1,0.25-0.03c0.08-1.55,0.11-3.15,0.06-4.78c-0.06-2-0.22-4.03-0.51-6.05c5.58,7.99,7.05,18.12,9.15,27.63
		c1.1,4.97,2.81,10.97,5.84,15.78c0.74,1.17,1.55,2.27,2.45,3.26c1.93,2.13,4.25,3.79,7.06,4.67c1.04,0.56,2.11,1.08,3.2,1.57
		c3.51,1.55,7.17,2.77,10.92,3.58C180.57,133.45,181.85,133.68,183.13,133.85z"/>
	<path class="st3" d="M117.12,83.68c0.12,5.53-2.02,10.71-3.28,16c-0.77,3.21-0.93,7.24-2.5,10.25c-1.74,0.78-3.55,1.39-5.5,1.71
		c-2.82,0.46-5.78,0.39-8.5-0.56c-0.42-0.14-0.82-0.31-1.2-0.49c-0.31-0.28-0.62-0.57-0.93-0.85c3.85,1.45,7.96,2.31,11.48,0.46
		c2.34-1.24,3.99-3.54,4.93-6.01c0.95-2.48,1.26-5.14,1.5-7.78c0.63-7.01,0.75-14.22-1.31-20.95c-2.27-7.38-6.97-13.62-12.22-19.4
		c0.41,0.37,0.82,0.74,1.23,1.11c2.53,2.26,5.07,4.53,7.63,6.77c1.25,1.51,2.44,3.07,3.51,4.74C114.85,73.13,117,78.26,117.12,83.68
		z"/>
	<path class="st3" d="M110.96,137.01c-0.49,0.57-0.99,1.11-1.55,1.51c-0.02,0.02-0.05,0.03-0.07,0.05c-0.7-1.05-1.59-1.98-2.58-2.74
		c-2.36-1.82-5.26-2.82-8.13-3.61c-1.43-0.39-2.88-0.76-4.3-1.16c-2.21-2.07-4.41-4.15-6.62-6.22c-2.65-2.48-5.31-4.97-7.98-7.43
		c-2.91-2.68-5.83-5.35-8.77-8c-0.66-3-0.03-6.32,1.92-8.7c1.15-1.4,2.75-2.66,2.89-4.46c0.09-1.18-0.51-2.34-1.35-3.17
		c-0.2-0.2-0.4-0.38-0.62-0.55c0.28,0.08,0.57,0.13,0.86,0.18c0.15,0.02,0.29,0.04,0.44,0.06c0.05,0.04,0.09,0.09,0.14,0.13
		c2.32,2.26,4.75,4.45,7.15,6.63c-1.05-0.41-2.18-0.63-3.39-0.59c-3.48,0.13-6.83,2.66-6.47,6.41c0.46,4.71,4.88,6.64,8.2,9.38
		c0.48,0.39,0.93,0.8,1.34,1.23c1.31,2.62,2.96,5.1,4.86,7.19c0.39,0.43,0.79,0.84,1.22,1.23c1.26,1.18,2.69,2.21,4.26,2.96
		c2.51,1.21,5.26,1.71,7.9,2.51C104.71,131.18,107.76,134.09,110.96,137.01z"/>
	<path class="st3" d="M72.75,50.61c-1.38,0.91-2.58,2.11-3.58,3.44c-1.56,2.07-2.66,4.45-3.72,6.82C62.65,67.13,60.13,73.51,57.9,80
		c-1.07,3.11-2.05,6.63-0.84,9.61c-1.86,1.29-4.01,2.02-6.21,2.21c3.26-6.63,6.32-13.35,9.13-20.2c1.9-4.65,3.73-9.34,5.48-14.05
		c1.16-3.12,2.53-6.35,3.57-9.63C70.3,48.49,71.54,49.73,72.75,50.61z"/>
	<path class="st4" d="M179.67,131.82c-3.82-0.84-7.55-2.1-11.1-3.76c-1.5-0.7-2.98-1.47-4.43-2.28c0,0,0,0,0,0
		c-3.3-2.44-6.05-5.39-8.19-9.04c-3.09-5.28-4.64-10.99-5.89-16.94c-1.79-8.51-3.6-18.39-9.69-24.98
		c-1.02-5.6-3.04-11.03-6.42-15.34c-4.36-5.58-12.34-9.47-19.22-6.99c-0.34,0.12-0.67,0.26-1,0.41c-5.44-2.47-12.06-3.4-17.63-1.31
		c-0.6-0.52-1.2-1.03-1.8-1.55c-0.81-0.69-1.61-1.38-2.42-2.06c-0.26-0.22-0.52-0.45-0.79-0.67l-0.43-0.36
		c-0.42-0.11-0.85-0.2-1.29-0.27h0c-2.95-0.44-6.2,0.15-8.36,1.42c-1.31,0.76-2.41,1.87-3.79,2.51c-2.64,1.22-4.38-0.74-6.3-2.14
		c-0.49-0.36-1.11-0.7-1.76-0.92c-0.37-0.13-0.74-0.22-1.11-0.25c-0.05,0.12-0.09,0.24-0.13,0.36c-1.06,2.85-1.95,5.81-2.98,8.6
		c-1.74,4.72-3.56,9.4-5.46,14.06c-2.9,7.1-5.87,14.18-8.98,21.2c-0.02,0.03-0.03,0.07-0.04,0.1c-0.03,0.07-0.07,0.14-0.1,0.22
		c-0.03,0.06-0.05,0.11-0.08,0.17c0.11,0.1,0.22,0.2,0.34,0.3c0.04,0.04,0.08,0.08,0.13,0.12c0.15,0.13,0.29,0.26,0.44,0.4
		c9.28,8.42,18.58,16.82,27.8,25.33c5.73,5.29,11.43,10.6,17.03,16.02c2.15,2.08,4.24,4.24,6.35,6.38c0.15,0.15,0.29,0.3,0.44,0.44
		c0.58,0.07,1.17,0.09,1.75,0.06c0.19-0.01,0.39-0.02,0.57-0.04c1.02-0.11,2.03-0.36,2.98-0.76c1.24-0.52,2.4-1.28,3.35-2.24
		c0.09-0.1,0.19-0.2,0.29-0.31c0.81,0.73,1.64,1.46,2.5,2.15c4.04,3.24,8.66,5.77,13.62,7.28c0.3,0.09,0.6,0.18,0.91,0.26
		c3.04,2.68,5.82,5.66,8.23,8.89c1.8,2.41,3.43,4.96,4.83,7.63c0.72,1.38,1.33,2.82,1.92,4.26c0.07,0.17,0.15,0.35,0.22,0.52
		c0.3,0.02,0.59,0.04,0.88,0.05c0.08,0,0.17,0.01,0.25,0.01c10.16,0.24,19.71-4.99,26.37-12.74c4.04-4.7,7.17-10.07,9.81-15.66
		c0.11-0.24,0.23-0.48,0.34-0.72c0.87-1.85,1.73-3.74,2.54-5.66c0.18-0.43,0.36-0.86,0.54-1.29 M91.54,48.73
		c1.18,1.1,2.38,2.2,3.57,3.29c0.19,0.17,0.38,0.34,0.57,0.52c1.7,1.55,3.42,3.09,5.14,4.62c2.53,2.26,5.07,4.53,7.63,6.77
		c1.25,1.51,2.44,3.07,3.51,4.74c2.88,4.47,5.04,9.6,5.15,15.02c0.12,5.53-2.02,10.71-3.28,16c-0.77,3.21-0.93,7.24-2.5,10.25
		c-1.74,0.78-3.55,1.39-5.5,1.71c-2.82,0.46-5.78,0.39-8.5-0.56c-0.42-0.14-0.82-0.31-1.2-0.49c-3.68-3.37-7.37-6.71-11.09-10.03
		c-2.87-2.57-5.73-5.24-8.68-7.78c-0.25-0.21-0.5-0.42-0.74-0.63c-0.04-0.03-0.08-0.07-0.12-0.1c0.03-0.11,0.07-0.22,0.1-0.34
		c0.91-3.01,1.78-6.03,2.78-9.01c1.57-4.69,3.2-9.36,4.9-14.01c1.76-4.84,3.68-9.61,5.71-14.34C89.81,52.46,90.68,50.6,91.54,48.73z
		 M50.85,91.81c3.26-6.63,6.32-13.35,9.13-20.2c1.9-4.65,3.73-9.34,5.48-14.05c1.16-3.12,2.53-6.35,3.57-9.63
		c1.72,0.74,3.37,2.75,4.98,3.4c2.16,0.86,3.98-0.27,5.71-1.51c2.32-1.67,4.79-2.66,7.69-2.53c1.25,0.06,2.32,0.35,3.32,0.78
		c-0.99,2.14-1.91,4.32-2.84,6.47c-1.93,4.47-3.75,8.98-5.48,13.53c-1.77,4.62-3.37,9.31-4.77,14.05c-0.92,3.12-1.89,6.28-2.71,9.46
		c-0.01,0.03-0.02,0.06-0.02,0.09c-0.38-0.04-0.76-0.11-1.12-0.21c-1.46-0.4-2.76-1.29-3.73-2.82c-1.26-1.99-2.17-4.98-4.95-5.16
		c-3.66-0.23-5.29,4.15-7.86,5.99C55.34,90.85,53.13,91.62,50.85,91.81z M109.41,138.52c-1.47,1.05-3.15,1.7-4.89,1.95
		c-2.56-2.38-5.18-4.71-7.72-7.09c-3.03-2.85-6.06-5.7-9.09-8.55c-2.65-2.48-5.31-4.97-7.98-7.43
		c-9.23-8.51-18.59-16.88-28.19-24.98c1.43-0.06,2.85-0.37,4.19-0.94c1.44-0.61,2.78-1.48,3.88-2.59c1.63-1.64,3.59-5.51,6.45-4.15
		c1.64,0.77,2.28,2.93,3.18,4.37c0.79,1.27,1.84,2.28,3.2,2.91c0.69,0.32,1.45,0.55,2.23,0.67c0.15,0.02,0.29,0.04,0.44,0.06
		c0.05,0.04,0.09,0.09,0.14,0.13c2.32,2.26,4.75,4.45,7.15,6.63c-1.05-0.41-2.18-0.63-3.39-0.59c-3.48,0.13-6.83,2.66-6.47,6.41
		c0.46,4.71,4.88,6.64,8.2,9.38c0.48,0.39,0.93,0.8,1.34,1.23c1.31,2.62,2.96,5.1,4.86,7.19c0.39,0.43,0.79,0.84,1.22,1.23
		c1.26,1.18,2.69,2.21,4.26,2.96c2.51,1.21,5.26,1.71,7.9,2.51c4.41,1.33,7.46,4.24,10.66,7.17
		C110.47,137.59,109.97,138.12,109.41,138.52z M180.85,139.29c-2.5,5.31-5.6,10.41-9.5,14.82c-6.76,7.65-16.18,13.59-26.48,14.05
		c-0.59-1.44-1.29-2.83-1.97-4.16c-1.49-2.89-3.23-5.65-5.21-8.23c-2.26-2.94-4.78-5.62-7.55-8c4.79,1.16,10.03,1.52,14.81,0.64
		c0.13-0.02,0.1-0.23-0.03-0.23c-5.92,0.12-11.53-0.46-17.08-2.27c-0.49-0.16-0.98-0.33-1.47-0.51c-0.28-0.1-0.56-0.21-0.84-0.32
		c-3.22-1.26-6.34-2.93-9.14-4.94c-1.4-1-2.68-2.12-3.94-3.28c-0.25-0.23-0.51-0.47-0.76-0.7c-0.89-0.83-1.77-1.66-2.68-2.47
		c-2.14-1.9-4.42-3.49-7.12-4.47c-3.49-1.25-7.25-1.64-10.47-3.61c-5.61-3.44-7.86-9.56-11.26-14.82c-0.05-0.07-0.17-0.03-0.14,0.06
		c0.39,1.26,0.86,2.51,1.42,3.75c-1-1.06-2.14-1.99-3.27-2.97c-2.42-2.09-6.12-5.76-3.73-9.2c2.07-2.97,6.26-2.56,9.02-0.98
		c2.74,1.57,4.75,4.02,6.97,6.21c1.46,1.45,3.03,2.62,4.72,3.49c0.92,0.47,1.87,0.86,2.85,1.15c2.24,0.66,4.65,0.85,7.22,0.52
		c1.67-0.21,3.34-0.62,4.97-1.18c-0.66,0.74-1.47,1.37-2.5,1.82c-0.08,0.03-0.02,0.15,0.05,0.13c1.59-0.4,2.74-1.26,3.6-2.38
		c0.23-0.3,0.44-0.61,0.62-0.94c0.16-0.27,0.3-0.54,0.43-0.83c1.05-2.27,1.46-5.04,1.94-7.38c1.19-5.78,3.63-11.36,3.79-17.33
		c0.15-5.46-1.76-10.81-4.55-15.4c-0.47-0.77-0.96-1.52-1.48-2.26c-0.96-1.4-2.01-2.75-3.08-4.06c-1.9-1.72-3.83-3.42-5.75-5.11
		c-0.56-0.5-1.12-0.99-1.67-1.48c-1.57-1.39-3.15-2.78-4.74-4.16c2.65-0.64,5.31-0.91,8.18-0.63c1.46,0.14,2.92,0.41,4.34,0.8
		c2.72,0.75,5.32,1.92,7.68,3.48c7.03,4.65,11.17,11.65,14.62,19.1c0.03,0.06,0.12,0.02,0.1-0.04c-2.3-8.03-7.63-15.8-14.72-20.27
		c-0.83-0.52-1.7-1.01-2.62-1.45c0.16-0.05,0.32-0.09,0.48-0.13c7.68-1.93,15.35,2.1,19.67,8.83c2.24,3.5,3.62,7.45,4.46,11.5
		c0,0.02,0.01,0.04,0.01,0.06c0.09,0.45,0.18,0.9,0.25,1.35c0.73,4.21,0.86,8.49,1.6,12.69c0.02,0.15,0.24,0.1,0.25-0.03
		c0.19-3.47,0.07-7.17-0.46-10.83c5.58,7.99,7.05,18.12,9.15,27.63c1.1,4.97,2.81,10.97,5.84,15.78c0.74,1.17,1.55,2.27,2.46,3.27
		c1.92,2.13,4.24,3.79,7.06,4.67c1.04,0.56,2.11,1.08,3.2,1.57c3.51,1.55,7.17,2.77,10.92,3.58c1.27,0.27,2.55,0.5,3.83,0.67
		C182.43,135.69,181.69,137.51,180.85,139.29z"/>
	<g>
		<path class="st5" d="M105.02,51.61c4.11,0.4,8.28,1.87,11.75,4.11c-2.6-1.01-5.43-1.42-8.19-1.09c-1.08,0.13-2.2,0.38-3.02,1.1
			c-0.89,0.77-1.26,2.02-1.11,3.2c-0.4-0.35-0.79-0.7-1.19-1.05c-0.56-0.5-1.12-0.99-1.67-1.48c-1.57-1.39-3.15-2.78-4.74-4.16
			C99.49,51.6,102.16,51.33,105.02,51.61z"/>
		<path class="st5" d="M139.03,73.44c0,0.02,0.01,0.04,0.01,0.06c-0.53-2.25-1.21-4.45-2.23-6.52c-1.9-3.87-5.18-7.3-9.36-8.35
			c-1.56-0.39-3.14,0.05-4.46,0.96c-1.8-1.89-3.79-3.56-5.95-4.92c-0.83-0.52-1.7-1.01-2.62-1.45c0.16-0.05,0.32-0.09,0.48-0.13
			c7.68-1.93,15.35,2.1,19.67,8.83C136.8,65.44,138.18,69.39,139.03,73.44z"/>
		<path class="st5" d="M183.13,133.85c-0.3,0.77-0.6,1.55-0.92,2.32c-6.86-2.14-13.53-4.86-20.02-7.93
			c-3.27-1.55-6.58-3.25-8.99-5.95c-3.42-3.83-4.58-9.14-5.28-14.23c-0.71-5.07-1.1-10.19-2.08-15.21
			c-0.75-3.85-3.18-6.72-4.65-10.12c-0.06-2-0.22-4.03-0.51-6.05c5.58,7.99,7.05,18.12,9.15,27.63c1.1,4.97,2.81,10.97,5.84,15.78
			c0.74,1.17,1.55,2.27,2.45,3.26c1.93,2.13,4.25,3.79,7.06,4.67c1.04,0.56,2.11,1.08,3.2,1.57c3.51,1.55,7.17,2.77,10.92,3.58
			C180.57,133.45,181.85,133.68,183.13,133.85z"/>
		<path class="st5" d="M110.17,111.63c-0.46,0.52-1,0.98-1.64,1.37c-0.4,0.17-0.81,0.3-1.22,0.4c-1.92,0.44-3.93,0.22-5.9-0.02
			c-2.29-0.28-4.59-0.57-6.76-1.35c-2.17-0.77-4.25-2.04-5.53-3.96l-4.37-3.73c-1.47-0.86-2.89-1.79-4.57-2.04
			c-1.69-0.25-3.51,0.05-4.84,1.12c-0.77,0.61-1.33,1.5-1.54,2.46c-0.29-1.13-0.17-2.31,0.63-3.45c2.07-2.97,6.26-2.56,9.02-0.98
			c2.74,1.57,4.75,4.02,6.97,6.21c1.46,1.45,3.03,2.62,4.72,3.49c0.92,0.47,1.87,0.86,2.85,1.15c2.24,0.66,4.65,0.85,7.22,0.52
			C106.88,112.59,108.54,112.19,110.17,111.63z"/>
		<path class="st5" d="M146.68,168.01c-0.6,0.07-1.2,0.11-1.8,0.14c-0.59-1.44-1.29-2.83-1.97-4.16c-1.49-2.89-3.23-5.65-5.21-8.23
			c-2.26-2.94-4.78-5.62-7.55-8c4.79,1.16,10.03,1.52,14.81,0.64c0.13-0.02,0.1-0.23-0.03-0.23c-5.92,0.12-11.53-0.46-17.08-2.27
			c-0.49-0.16-0.98-0.33-1.47-0.51c-0.28-0.1-0.56-0.21-0.84-0.32c-3.22-1.26-6.34-2.93-9.14-4.94c-1.4-1-2.68-2.12-3.94-3.28
			c-0.25-0.23-0.51-0.47-0.76-0.7c-0.89-0.83-1.77-1.66-2.68-2.47c-2.14-1.9-4.42-3.49-7.12-4.47c-3.49-1.25-7.25-1.64-10.47-3.61
			c-2.55-1.56-4.41-3.68-6-6.03c2.18,2.37,4.96,4.23,7.96,5.48c4.32,1.8,9.22,2.12,13.29,4.43c4.24,2.41,7.05,6.69,10.79,9.84
			c4.13,3.47,9.34,5.48,14.65,6.54c5.3,1.05,10.73,1.2,16.13,1.32c-2.34,1.48-4.51,2.75-7.08,3.77c-1.18,3.88-0.25,7.64,1.39,11.35
			C143.51,164.46,144.93,166.42,146.68,168.01z"/>
	</g>
	<g>
		<path class="st1" d="M83.26,78.39c-1.01,3.19-2.03,6.66-1.12,9.88c0.77,2.72,2.77,4.71,4.68,6.56c3.71,3.59,7.43,7.19,11.14,10.78
			c1.3,1.26,2.94,2.61,4.58,2.04c1.94-0.68,2.44-3.48,2.57-5.77c0.92-15.73-0.04-32.52-7.86-45.56c-0.66-1.09-1.38-2.18-2.39-2.85
			c-4.58-3.07-5.58,5.93-6.59,9.12C86.61,67.86,84.93,73.13,83.26,78.39z"/>
		<path class="st1" d="M75.37,82.27c-0.37,1.02-1,2.24-2.09,2.21c-1.87-0.05-1.59-3.23-3.1-4.33c-1.66-1.21-4.15,0.88-5.99-0.05
			c-1.6-0.81-1.42-3.12-0.97-4.86c1.02-3.96,2.15-7.89,3.4-11.79c0.69-2.15,1.47-4.37,3.07-5.96c1.42-1.41,3.33-2.17,5.19-2.9
			c2.38-0.94,6.37-3.53,8.93-1.91c2.79,1.76,0.17,5.8-0.65,8.07C80.57,67.92,77.99,75.1,75.37,82.27z"/>
		<path class="st1" d="M69.75,102.7c0.81-1.25,0.05-2.9-0.83-4.1c-1.04-1.44-9.09-9.62-9.7-6.52
			C58.47,95.86,67.28,101.11,69.75,102.7z"/>
	</g>
	<path class="st2" d="M108.33,115.33c4.24-1.12,7.75-4.33,9.87-8.17c2.12-3.84,2.98-8.27,3.18-12.66
		c0.43-9.55-2.21-19.21-7.44-27.22c-0.74-1.14-1.55-2.28-1.86-3.6c-0.3-1.32,0.04-2.91,1.2-3.63c1.82-1.14,4.1,0.47,5.54,2.06
		c2.46,2.7,4.62,5.69,6.49,8.83c0.89,1.49,2.14,3.23,2.62,4.91c0.38,1.31-0.22,2.85,1.55,3.46c1.19,0.41,2.57-0.19,3.28-1.23
		c0.71-1.04,0.81-2.4,0.49-3.62c-0.47-1.8-1.75-3.31-2.19-5.12c-0.22-0.91-0.15-2.02,0.61-2.56c0.7-0.5,1.73-0.26,2.37,0.31
		c0.64,0.58,0.97,1.41,1.25,2.22c0.99,2.92,1.49,5.98,1.98,9.02c1.37,8.43,2.73,16.87,4.1,25.3c0.52,3.24,1.84,5.86,2.69,8.98
		c0.96,3.53,2.23,6.99,4.49,9.92c3.21,4.17,8.01,6.8,12.87,8.81c2.83,1.17,5.76,2.19,8.32,3.88c2.56,1.68,4.78,4.16,5.36,7.17
		c0.9,4.63-2.16,9.03-5.3,12.56c-2.29,2.57-4.75,5.07-7.78,6.71c-3.02,1.64-6.7,2.36-9.95,1.22c-3.25-1.14-5.84-4.4-5.53-7.83
		c0.3-3.43,4.68-6.87,7.93-5.75c-2.69-4.34-6.06-9.13-11.13-9.73c-2.34-0.27-4.67,0.42-7.01,0.69c-5.01,0.58-10.23-0.9-14.19-4.02
		c-3.55-2.79-6.08-6.79-9.89-9.21c-5.4-3.42-12.4-3.1-18.17-5.85c-5.59-2.67-9.42-7.92-13.01-12.96c-0.39-0.54-0.78-1.11-0.89-1.77
		c-0.11-0.66,0.18-1.43,0.8-1.66c0.63-0.23,1.45,0.42,1.2,1.04c3.82,4.88,8.23,8.5,13.94,10.89
		C99.94,118.31,104.35,116.38,108.33,115.33z"/>
</g>
</svg>
