<?xml version="1.0" encoding="utf-8"?>
<!-- Generator: Adobe Illustrator 23.0.1, SVG Export Plug-In . SVG Version: 6.00 Build 0)  -->
<svg version="1.1" id="Layer_1" xmlns="http://www.w3.org/2000/svg" xmlns:xlink="http://www.w3.org/1999/xlink" x="0px" y="0px"
	 viewBox="0 0 200 200" style="enable-background:new 0 0 200 200;" xml:space="preserve">
<style type="text/css">
	.st0{fill:#E6E6E6;}
	.st1{clip-path:url(#SVGID_2_);}
	.st2{fill:#D58A73;}
	.st3{fill:#FFFFFF;}
	.st4{fill:#D78C74;}
	.st5{opacity:0.05;}
	.st6{fill:#381911;}
	.st7{fill:#E5A185;}
	.st8{opacity:0.38;}
	.st9{fill:#E5A084;}
	.st10{fill:#E59F83;}
	.st11{fill:#E49E83;}
	.st12{fill:#E49D82;}
	.st13{fill:#E49C81;}
	.st14{fill:#E49B80;}
	.st15{fill:#E49A80;}
	.st16{fill:#E3997F;}
	.st17{fill:#E3987E;}
	.st18{fill:#E3977D;}
	.st19{fill:#E3967C;}
	.st20{fill:#E2957C;}
	.st21{fill:#E2947B;}
	.st22{fill:#E2937A;}
	.st23{fill:#E29279;}
	.st24{fill:#E29179;}
	.st25{fill:#E19078;}
	.st26{fill:#E18F77;}
	.st27{fill:#E18E76;}
	.st28{fill:#E18D75;}
	.st29{fill:#E18C75;}
	.st30{fill:#E08B74;}
	.st31{fill:#E08A73;}
	.st32{fill:#E08972;}
	.st33{fill:#E08872;}
	.st34{fill:#DF8771;}
	.st35{fill:#DF8670;}
	.st36{fill:#DF856F;}
	.st37{fill:#DF846F;}
	.st38{fill:#DF836E;}
	.st39{fill:#DE826D;}
	.st40{fill:#DE816C;}
	.st41{fill:#DE806B;}
	.st42{fill:#DE7F6B;}
	.st43{fill:#DE7E6A;}
	.st44{fill:#DD7D69;}
	.st45{fill:#DD7C68;}
	.st46{fill:#DD7B68;}
	.st47{fill:#DD7A67;}
	.st48{fill:#DD7A66;}
	.st49{fill:#DC7965;}
	.st50{fill:#DC7864;}
	.st51{fill:#DC7764;}
	.st52{fill:#DC7663;}
	.st53{fill:#DB7562;}
	.st54{fill:#DB7461;}
	.st55{fill:#DB7361;}
	.st56{fill:#DB7260;}
	.st57{fill:#DB715F;}
	.st58{fill:#DA705E;}
	.st59{fill:#DA6F5D;}
	.st60{fill:#DA6E5D;}
	.st61{fill:#DA6D5C;}
	.st62{fill:#DA6C5B;}
	.st63{fill:#D96B5A;}
	.st64{fill:#D96A5A;}
	.st65{fill:#D96959;}
	.st66{fill:#D96858;}
	.st67{fill:#D86757;}
	.st68{fill:#D86657;}
	.st69{fill:#D86556;}
	.st70{fill:#D86455;}
	.st71{fill:#D86354;}
	.st72{fill:#D76253;}
	.st73{fill:#D76153;}
	.st74{fill:#D76052;}
	.st75{fill:#D75F51;}
	.st76{fill:#D75E50;}
	.st77{fill:#D65D50;}
	.st78{fill:#D65C4F;}
	.st79{fill:#D65B4E;}
	.st80{fill:#D65A4D;}
	.st81{fill:#D5594C;}
	.st82{fill:#D5584C;}
	.st83{fill:#D5574B;}
	.st84{fill:#D5564A;}
	.st85{fill:#D55549;}
	.st86{fill:#D45449;}
	.st87{fill:#D45348;}
	.st88{fill:#D45247;}
	.st89{fill:url(#XMLID_8_);}
	.st90{fill:url(#XMLID_9_);}
	.st91{fill:#422E26;}
	.st92{fill:#6C332E;}
	.st93{opacity:0.35;fill:#C3BBA5;}
	.st94{opacity:0.2;fill:#FFFFFF;}
	.st95{fill:#4F372D;}
	.st96{opacity:0.14;fill:#422E26;}
	.st97{opacity:0.12;fill:#FFFFFF;}
	.st98{opacity:0.16;}
	.st99{fill:#465884;}
	.st100{opacity:0.04;}
	.st101{fill:#334363;}
	.st102{fill:#4C618C;}
	.st103{fill:#4F648E;}
	.st104{opacity:0.08;}
	.st105{fill:#E2E2E2;}
	.st106{fill:#EAEAEA;}
	.st107{fill:#BCB4B3;}
	.st108{fill:#755046;}
	.st109{opacity:0.5;fill:#D78C74;}
	.st110{fill:#3A3838;}
	.st111{fill:#F4F4F4;}
	.st112{fill:#494646;}
	.st113{fill:#514F4F;}
	.st114{fill:#333B49;}
	.st115{fill:#FFCA35;}
	.st116{opacity:0.5;fill:#FFCA35;}
	.st117{fill:#5F6368;}
	.st118{fill:#EF3030;}
	.st119{clip-path:url(#SVGID_4_);}
	.st120{fill:#F2866D;}
	.st121{fill:#FF9D2E;}
	.st122{fill:#574E49;}
	.st123{fill:#323436;}
	.st124{fill:#DB5C04;}
	.st125{fill:#FB822D;}
	.st126{fill:#55ABBD;}
	.st127{fill:#4F565C;}
	.st128{fill:#292F33;}
	.st129{fill:#FB6902;}
	.st130{fill:#E83427;}
	.st131{fill:#444A4F;}
	.st132{fill:#47403C;}
	.st133{fill:#3B3532;}
	.st134{fill:#78695E;}
	.st135{fill:#4C98A8;}
	.st136{fill:#C9EEF5;}
	.st137{opacity:0.7;fill:#FFFFFF;}
	.st138{opacity:0.2;}
	.st139{fill:#B6D8DE;}
	.st140{fill:#FDA73E;}
	.st141{fill:#95A4AD;}
	.st142{fill:#353D42;}
	.st143{fill:#E05E02;}
	.st144{fill:#4D4D4D;}
	.st145{fill:#616161;}
	.st146{fill:#8F8F8F;}
	.st147{fill:#FFA480;}
	.st148{fill:#2FB4BA;}
	.st149{fill:#9B72C4;}
	.st150{fill:#BDAEA3;}
	.st151{fill:#DB92DA;}
	.st152{fill:#E67B5A;}
	.st153{fill:#F94850;}
	.st154{fill:#FFB187;}
	.st155{fill:#FFB086;}
	.st156{fill:#FFAF85;}
	.st157{fill:#FFAE85;}
	.st158{fill:#FFAD84;}
	.st159{fill:#FFAC83;}
	.st160{fill:#FFAB82;}
	.st161{fill:#FFAA81;}
	.st162{fill:#FFA980;}
	.st163{fill:#FFA880;}
	.st164{fill:#FFA77F;}
	.st165{fill:#FFA67E;}
	.st166{fill:#FFA57D;}
	.st167{fill:#FFA47C;}
	.st168{fill:#FFA37C;}
	.st169{fill:#FFA27B;}
	.st170{fill:#FFA17A;}
	.st171{fill:#FFA079;}
	.st172{fill:#FF9F78;}
	.st173{fill:#FF9E77;}
	.st174{fill:#FF9D77;}
	.st175{fill:#FF9C76;}
	.st176{fill:#FF9B75;}
	.st177{fill:#FF9A74;}
	.st178{fill:#FF9973;}
	.st179{fill:#FF9872;}
	.st180{fill:#FF9771;}
	.st181{fill:#FF9670;}
	.st182{fill:#FF956F;}
	.st183{fill:#FF946F;}
	.st184{fill:#FF936E;}
	.st185{fill:#FF926D;}
	.st186{fill:#FF916C;}
	.st187{fill:#FF906B;}
	.st188{fill:#FF8F6A;}
	.st189{fill:#FF8E6A;}
	.st190{fill:#FF8D69;}
	.st191{fill:#FF8C68;}
	.st192{fill:#FF8B67;}
	.st193{fill:#FF8A66;}
	.st194{fill:#FF8966;}
	.st195{fill:#FF8865;}
	.st196{fill:#FF8764;}
	.st197{fill:#FF8663;}
	.st198{fill:#FF8562;}
	.st199{fill:#FF8461;}
	.st200{fill:#FF8361;}
	.st201{fill:#FF8260;}
	.st202{fill:#FF815F;}
	.st203{fill:#421C16;}
	.st204{fill:#703024;}
	.st205{fill:#00BAEB;}
	.st206{fill:#118793;}
	.st207{fill:#572619;}
	.st208{fill:#00AAD6;}
	.st209{fill:#00A2CC;}
	.st210{fill:#BF1B2D;}
	.st211{fill:#A12F2F;}
	.st212{fill:#8A8A8A;}
	.st213{fill:#404040;}
	.st214{fill:#F44E4E;}
	.st215{fill:#303030;}
	.st216{fill:#CAE1FC;}
	.st217{opacity:0.3;fill:#DA97B8;}
	.st218{opacity:0.6;fill:#CBCFFF;}
	.st219{fill:#EEF0FF;}
	.st220{fill:#7AB6F6;}
	.st221{fill:#6977A4;}
	.st222{opacity:0.3;fill:#FFFFFF;}
	.st223{fill:#F5B29C;}
	.st224{fill:#2E90EC;}
	.st225{fill:#3D4166;}
	.st226{fill:#FA7071;}
	.st227{fill:#3C5670;}
	.st228{fill:#FA989C;}
	.st229{fill:#D05C53;}
	.st230{fill:#5C595E;}
	.st231{fill:#E6DFEA;}
	.st232{fill:#C9C9DD;}
	.st233{opacity:0.3;}
	.st234{opacity:0.6;fill:#A8BCFF;}
	.st235{fill:#999DB8;}
	.st236{fill:#0B1238;}
	.st237{fill:#2D3170;}
	.st238{fill:#5C75C3;}
	.st239{fill:#0B124A;}
	.st240{fill:#2E3054;}
	.st241{fill:#B9B3C0;}
	.st242{fill:#595D8B;}
	.st243{fill:#0B2B4A;}
	.st244{opacity:0.25;fill:#EEF0FF;}
	.st245{fill:#C68824;}
	.st246{fill:#A36D1F;}
	.st247{fill:#CECECE;}
	.st248{fill:#C9C9C9;}
	.st249{fill:#BCBCBC;}
	.st250{fill:#E5E5E5;}
	.st251{fill:#424242;}
	.st252{fill:#CCCCCC;}
	.st253{fill:#FFBF3C;}
	.st254{fill:#D3D5D3;}
	.st255{fill:#46676C;}
	.st256{fill:url(#SVGID_5_);}
	.st257{fill:#98B1C7;}
	.st258{fill:url(#SVGID_6_);}
	.st259{fill:url(#SVGID_7_);}
	.st260{fill:#0E1714;}
	.st261{fill:#BFD2E1;}
	.st262{fill:url(#SVGID_8_);}
	.st263{fill:url(#SVGID_9_);}
	.st264{fill:url(#SVGID_10_);}
	.st265{fill:url(#SVGID_11_);}
	.st266{fill:url(#SVGID_12_);}
	.st267{fill:url(#SVGID_13_);}
	.st268{fill:url(#SVGID_14_);}
	.st269{fill:url(#SVGID_15_);}
	.st270{fill:url(#SVGID_16_);}
	.st271{fill:url(#SVGID_17_);}
	.st272{fill:url(#SVGID_18_);}
	.st273{fill:#1D2C2C;}
	.st274{fill:#ECEBF3;}
	.st275{fill:url(#SVGID_19_);}
	.st276{fill:#0074A6;}
	.st277{fill:url(#SVGID_20_);}
	.st278{fill:url(#SVGID_21_);}
	.st279{fill:url(#SVGID_22_);}
	.st280{fill:url(#SVGID_23_);}
	.st281{fill:#80979A;}
	.st282{fill:url(#SVGID_24_);}
	.st283{fill:url(#SVGID_25_);}
	.st284{fill:#3A4848;}
	.st285{fill:#FFBD95;}
	.st286{fill:#B8B3B3;}
	.st287{fill:#A39D9D;}
	.st288{fill:#8D3B26;}
	.st289{fill:#191919;}
	.st290{fill:#00233F;}
	.st291{fill:#002D56;}
	.st292{fill:#D7D4D4;}
	.st293{fill:#CFCCCC;}
	.st294{fill:#004877;}
</style>
<circle class="st0" cx="100" cy="100" r="100"/>
<g>
	<path class="st216" d="M159.75,82.18c0,36.5-29.59,66.1-66.1,66.1c-36.5,0-66.1-29.59-66.1-66.1c0-36.5,29.59-66.1,66.1-66.1
		C130.16,16.09,159.75,45.68,159.75,82.18z"/>
	<path class="st217" d="M124.95,115.22c0,31.47-25.51,56.97-56.97,56.97C36.51,172.2,11,146.69,11,115.22
		c0-31.46,25.51-56.97,56.97-56.97C99.44,58.25,124.95,83.76,124.95,115.22z"/>
	
		<ellipse transform="matrix(0.3179 -0.9481 0.9481 0.3179 -15.6148 194.3884)" class="st218" cx="127.29" cy="108.05" rx="61.71" ry="61.71"/>
	<g>
		<g>
			<rect x="38.15" y="156.08" class="st219" width="128.36" height="2.01"/>
			<rect x="38.15" y="115.88" class="st219" width="128.36" height="1.26"/>
			<rect x="39.15" y="87.15" class="st219" width="128.36" height="0.97"/>
			<path class="st219" d="M150.35,127.46c-8.23,0-14.9,6.67-14.9,14.9c0,8.23,6.67,14.9,14.9,14.9c8.23,0,14.9-6.67,14.9-14.9
				C165.24,134.13,158.57,127.46,150.35,127.46z M150.35,151.23c-4.9,0-8.87-3.97-8.87-8.87s3.97-8.87,8.87-8.87
				c4.9,0,8.87,3.97,8.87,8.87S155.25,151.23,150.35,151.23z"/>
			<path class="st219" d="M127.29,133.21c-6.41,0-11.61,5.2-11.61,11.61c0,6.41,5.2,11.61,11.61,11.61c6.41,0,11.61-5.2,11.61-11.61
				C138.9,138.41,133.7,133.21,127.29,133.21z M127.29,151.41c-3.64,0-6.59-2.95-6.59-6.59c0-3.64,2.95-6.59,6.59-6.59
				c3.64,0,6.59,2.95,6.59,6.59C133.87,148.46,130.93,151.41,127.29,151.41z"/>
			<rect x="160.64" y="80.5" class="st219" width="0.94" height="85.53"/>
			<rect x="77.44" y="81.47" class="st219" width="1.04" height="85.53"/>
			<rect x="109.73" y="82.89" class="st219" width="1.04" height="85.53"/>
			<rect x="135.85" y="84.32" class="st219" width="1.04" height="85.53"/>
			<path class="st219" d="M108.37,136.33l-6.21-2.7c-0.63-0.27-1.36,0.02-1.63,0.64l-7.5,17.28c-0.27,0.63,0.02,1.36,0.64,1.63
				l6.21,2.7c0.62,0.27,1.36-0.02,1.63-0.64l7.5-17.28C109.28,137.34,108.99,136.6,108.37,136.33z M100.56,154.66
				c-0.05,0.02-0.1,0.02-0.14,0c-0.04-0.02-0.08-0.05-0.1-0.1l-1.69-4.29l-4.29,1.69c-0.1,0.04-0.2-0.01-0.24-0.1
				c-0.04-0.1,0.01-0.2,0.1-0.24l4.47-1.76c0.1-0.04,0.2,0.01,0.24,0.1l1.76,4.46C100.7,154.52,100.66,154.62,100.56,154.66z
				 M101.75,151.93c-0.05,0.02-0.1,0.02-0.14,0c-0.04-0.02-0.08-0.05-0.1-0.1l-1.69-4.29l-4.29,1.69c-0.1,0.04-0.2-0.01-0.24-0.1
				c-0.04-0.1,0.01-0.2,0.1-0.24l4.47-1.76c0.1-0.04,0.2,0.01,0.24,0.1l1.76,4.46C101.89,151.79,101.84,151.9,101.75,151.93z
				 M102.93,149.21c-0.05,0.02-0.1,0.02-0.14,0c-0.04-0.02-0.08-0.05-0.1-0.1l-1.69-4.29l-4.29,1.69c-0.1,0.04-0.2-0.01-0.24-0.1
				c-0.04-0.1,0.01-0.2,0.11-0.24l4.47-1.76c0.1-0.04,0.2,0.01,0.24,0.1l1.76,4.47C103.07,149.06,103.03,149.17,102.93,149.21z
				 M104.11,146.48c-0.05,0.02-0.1,0.02-0.14,0c-0.04-0.02-0.08-0.05-0.1-0.1l-1.69-4.29l-4.29,1.69c-0.1,0.04-0.2-0.01-0.24-0.1
				c-0.04-0.1,0.01-0.2,0.11-0.24l4.47-1.76c0.1-0.04,0.2,0.01,0.24,0.11l1.76,4.46C104.26,146.33,104.21,146.44,104.11,146.48z
				 M105.3,143.75c-0.05,0.02-0.1,0.02-0.14,0c-0.04-0.02-0.08-0.05-0.1-0.1l-1.69-4.29l-4.29,1.69c-0.1,0.04-0.2-0.01-0.24-0.1
				c-0.04-0.1,0.01-0.2,0.1-0.24l4.47-1.76c0.1-0.04,0.2,0.01,0.24,0.1l1.76,4.47C105.44,143.6,105.39,143.71,105.3,143.75z
				 M106.48,141.02c-0.05,0.02-0.1,0.02-0.14,0c-0.04-0.02-0.08-0.05-0.1-0.1l-1.69-4.29l-4.29,1.69c-0.1,0.04-0.2-0.01-0.24-0.1
				s0.01-0.2,0.1-0.24l4.47-1.76c0.1-0.04,0.2,0.01,0.24,0.1l1.76,4.47C106.63,140.88,106.58,140.98,106.48,141.02z"/>
			<path class="st219" d="M50.87,107.39l0,7.04c0,0.71,0.58,1.29,1.29,1.29l19.58-0.01c0.71,0,1.29-0.58,1.29-1.29l0-7.04
				c0-0.71-0.58-1.29-1.29-1.29l-19.58,0.01C51.45,106.1,50.87,106.68,50.87,107.39z M71.58,107.23c0.04,0.04,0.06,0.09,0.06,0.14
				c0,0.05-0.02,0.1-0.06,0.14l-3.39,3.39l3.39,3.39c0.08,0.08,0.08,0.2,0,0.27c-0.08,0.08-0.2,0.08-0.27,0l-3.53-3.53
				c-0.08-0.08-0.08-0.2,0-0.27l3.53-3.53C71.38,107.16,71.5,107.16,71.58,107.23z M68.49,107.23c0.04,0.04,0.06,0.09,0.06,0.14
				c0,0.05-0.02,0.1-0.06,0.14l-3.39,3.39l3.39,3.39c0.08,0.08,0.08,0.2,0,0.27c-0.08,0.08-0.2,0.08-0.27,0l-3.53-3.53
				c-0.08-0.08-0.08-0.2,0-0.27l3.53-3.53C68.29,107.16,68.41,107.16,68.49,107.23z M65.39,107.24c0.04,0.04,0.06,0.09,0.06,0.14
				c0,0.05-0.02,0.1-0.06,0.14l-3.39,3.39l3.39,3.39c0.08,0.08,0.08,0.2,0,0.27c-0.08,0.08-0.2,0.08-0.27,0l-3.53-3.53
				c-0.08-0.08-0.08-0.2,0-0.27l3.53-3.53C65.2,107.16,65.32,107.16,65.39,107.24z M62.3,107.24c0.04,0.04,0.06,0.09,0.06,0.14
				c0,0.05-0.02,0.1-0.06,0.14l-3.39,3.39l3.39,3.39c0.08,0.08,0.08,0.2,0,0.27c-0.08,0.08-0.2,0.08-0.27,0l-3.53-3.53
				c-0.08-0.08-0.08-0.2,0-0.27l3.53-3.53C62.11,107.16,62.23,107.16,62.3,107.24z M59.21,107.24c0.04,0.04,0.06,0.09,0.06,0.14
				c0,0.05-0.02,0.1-0.06,0.14l-3.39,3.39l3.39,3.39c0.08,0.08,0.08,0.2,0,0.27c-0.08,0.08-0.2,0.08-0.27,0l-3.53-3.53
				c-0.08-0.08-0.08-0.2,0-0.27l3.53-3.53C59.01,107.16,59.14,107.16,59.21,107.24z M56.12,107.24c0.04,0.04,0.06,0.09,0.06,0.14
				c0,0.05-0.02,0.1-0.06,0.14l-3.39,3.39l3.39,3.39c0.08,0.08,0.08,0.2,0,0.27c-0.07,0.08-0.2,0.08-0.27,0l-3.53-3.53
				c-0.08-0.08-0.08-0.2,0-0.27l3.53-3.53C55.92,107.17,56.04,107.17,56.12,107.24z"/>
			<path class="st219" d="M120.69,70.71h-0.89h-0.41v-0.4h0.67v-2.14h-5.27v2.14h0.67v0.4h-0.93c-0.82,0-1.48,0.6-1.48,1.34v14.02
				c0,0.74,0.66,1.34,1.48,1.34h5.27h5.47c0.82,0,1.48-0.6,1.48-1.34v-8.08L120.69,70.71z"/>
			<path class="st219" d="M95.55,104.87h-0.61h-0.28v-0.27h0.45v-1.46h-3.59v1.46h0.45v0.27h-0.63c-0.56,0-1.01,0.41-1.01,0.91v9.56
				c0,0.5,0.45,0.91,1.01,0.91h3.59h3.73c0.56,0,1.01-0.41,1.01-0.91v-5.51L95.55,104.87z"/>
			<path class="st219" d="M130.7,74.01h-0.73h-0.33v-0.32h0.54v-1.73h-4.27v1.73h0.54v0.32h-0.75c-0.67,0-1.2,0.48-1.2,1.08v11.37
				c0,0.6,0.54,1.08,1.2,1.08h4.27h5.6c0.66,0,1.2-0.48,1.2-1.08v-6.55L130.7,74.01z"/>
			<path class="st219" d="M85.78,103.13h-0.69h-0.32v-0.31h0.52v-1.65h-4.08v1.65h0.52v0.31h-0.72c-0.63,0-1.15,0.46-1.15,1.03
				v10.85c0,0.57,0.51,1.03,1.15,1.03h4.08h5.34c0.63,0,1.15-0.46,1.15-1.03v-6.25L85.78,103.13z"/>
			<path class="st219" d="M106.26,107.95c0,0,10.6,7.82,10.95,7.82l10.12,0.1c0.46,0,0.83-0.38,0.83-0.87l0.03-6.56
				c0-0.48-0.37-0.88-0.82-0.88l-8.88-0.3c-0.46,0-0.69,0.35-0.83,0.87c-0.14,0.51-1.26,4.16-1.26,4.16l-10.06-4.48
				C105.92,107.61,105.88,107.68,106.26,107.95z M120.62,109.21c0-0.48,0.43-0.87,0.95-0.87l4.43,0.04c0.52,0,0.94,0.4,0.94,0.88
				l0,0.93c0,0.48-0.43,0.87-0.95,0.87l-4.43-0.04c-0.52-0.01-0.94-0.4-0.94-0.88L120.62,109.21z"/>
			<rect x="61.82" y="143.46" class="st219" width="21.78" height="12.6"/>
			<rect x="66.65" y="139.73" class="st219" width="13.03" height="7.54"/>
			<rect x="69.11" y="137.93" class="st219" width="1.42" height="4.99"/>
		</g>
		<rect x="95.71" y="79.69" class="st219" width="10.19" height="7.82"/>
	</g>
	<path class="st220" d="M110.41,51.29c0,5.32-4.31,9.63-9.63,9.63c-5.32,0-9.63-4.31-9.63-9.63c0-5.32,4.31-9.63,9.63-9.63
		C106.1,41.66,110.41,45.97,110.41,51.29z"/>
	<g>
		<polygon class="st221" points="76.29,90.03 60.33,90.03 53.79,88.7 53.79,80.34 51.48,80.34 51.48,92.57 52.4,92.57 53.79,92.57 
			60.13,92.57 64.87,92.57 76.29,92.57 		"/>
		<polygon class="st221" points="76.41,89.23 60.45,89.23 53.9,87.89 53.9,79.53 51.59,79.53 51.59,91.77 52.52,91.77 53.9,91.77 
			60.25,91.77 64.98,91.77 76.41,91.77 		"/>
	</g>
	<rect x="43.1" y="50.64" class="st221" width="8.72" height="118.05"/>
	<rect x="45.81" y="50.51" class="st222" width="3.57" height="117.93"/>
	<g>
		<polygon class="st221" points="122.86,90.03 138.82,90.03 145.37,88.7 145.37,80.34 147.68,80.34 147.68,92.57 146.75,92.57 
			145.37,92.57 139.02,92.57 134.29,92.57 122.86,92.57 		"/>
		<polygon class="st221" points="122.75,89.23 138.71,89.23 145.25,87.89 145.25,79.53 147.56,79.53 147.56,91.77 146.64,91.77 
			145.25,91.77 138.91,91.77 134.17,91.77 122.75,91.77 		"/>
	</g>
	<path class="st223" d="M67.46,99.32c2.25-0.37,1.79-2.86,2.61-4.33c0.77-1.39,2.9-4.52,2.75-5.37c-0.16-0.85-1.58-1.57-2.27-1.41
		c-0.69,0.15-2.39,2.78-2.4,4.66C68.14,95.33,64.66,97.14,67.46,99.32z"/>
	<path class="st224" d="M53.44,103.12c-0.96,1.45-0.99,3.15,1.66,3.47c2.65,0.32,8.32,0.46,11.45-4.29
		c3.13-4.76,3.99-7.63,3.99-7.63l-2.67-0.93c0,0-1.66,5.26-5.69,7.64C58.14,103.75,54.54,101.46,53.44,103.12z"/>
	<g>
		<g>
			<path class="st225" d="M71.1,96.8c0,1.01-0.78,1.83-1.74,1.83h-7.85c-0.96,0-1.75-0.82-1.75-1.83v-14c0-1.01,0.78-1.83,1.75-1.83
				h7.85c0.96,0,1.74,0.82,1.74,1.83V96.8z"/>
		</g>
		<g>
			<path class="st225" d="M127.17,96.8c0,1.01,0.78,1.83,1.74,1.83h7.85c0.96,0,1.75-0.82,1.75-1.83v-14c0-1.01-0.78-1.83-1.75-1.83
				h-7.85c-0.96,0-1.74,0.82-1.74,1.83V96.8z"/>
		</g>
		<g>
			<rect x="130.14" y="54.88" class="st226" width="4.44" height="1.59"/>
			<path class="st226" d="M132.46,54.74c0,0,0.25-6.91,6.35-3.99c6.1,2.92,3.18,4.25,0.76,5.31c-2.41,1.06-6.86,0.13-6.86,0.13
				L132.46,54.74z"/>
		</g>
		<g>
			<rect x="63.43" y="55.12" class="st226" width="4.45" height="1.59"/>
			<path class="st226" d="M65.56,54.97c0,0-0.25-6.91-6.35-3.99c-6.1,2.92-3.17,4.25-0.76,5.31c2.41,1.06,6.86,0.13,6.86,0.13
				L65.56,54.97z"/>
		</g>
		<path class="st226" d="M132.16,56.18c0,0-8.44-16.13-11.05-16.13c-1.56,0-6.84-2.33-22.2-1.66c-15.8,0.29-19.95,2.19-21.47,2.57
			C74.89,41.6,65.8,56.18,65.8,56.18c-12.13,9.33-6.34,33.77-6.98,31.34c5.45,5.25,28.82,5.88,40.16,5.86
			c11.35,0.01,34.71-0.61,40.16-5.86C139.14,87.52,144.81,65.92,132.16,56.18z"/>
		<path class="st227" d="M127.71,83.41c-4.8,1.22-28.94,1.07-28.94,1.07h-0.28c0,0-24.14,0.15-28.94-1.07c0,0-0.44,5.17,3.78,6.08
			c3.8,0.82,21.53,1.15,25,1.21v0.01c0,0,0.11,0,0.3,0c0.19,0,0.3,0,0.3,0l0-0.01c3.47-0.06,21.2-0.38,25-1.21
			C128.15,88.58,127.71,83.41,127.71,83.41z"/>
		<g>
			<path class="st227" d="M130.55,83.94c0,0,6.62-2.43,7.05-0.23c0.44,2.21-7.27,4.41-7.27,4.41S131.85,85.39,130.55,83.94z"/>
			<path class="st227" d="M66.43,83.94c0,0-6.62-2.43-7.05-0.23c-0.44,2.21,7.27,4.41,7.27,4.41S65.12,85.39,66.43,83.94z"/>
		</g>
		<path class="st227" d="M68.12,56.13c0,0,38.43-3.06,61.67,0.15c0,0-7.01-13.32-8.62-14.24c0,0-7.31-2.42-22.51-1.97
			c-15.2,0.44-15.57,1.42-20.75,1.97C77.91,42.05,72.36,48.02,68.12,56.13z"/>
		<path class="st228" d="M129.94,58.01c-2.26,3.73-9.6,13.69,2.04,14.76C143.61,73.83,132.7,53.44,129.94,58.01z"/>
		<path class="st228" d="M68.87,58.31c2.26,3.73,9.6,13.69-2.04,14.76C55.2,74.13,66.11,53.75,68.87,58.31z"/>
		<path class="st229" d="M126.96,57.02c0,0-15.76-1.49-26.99-1.08c-11.23,0.41-28.3,1.08-28.3,1.08l-0.79,0.32
			c0,0,3.64,9.56,6.96,14.04c3.24,4.37,8.29,5.19,21.47,4.95c13.17,0.24,18.23-0.58,21.47-4.95c3.32-4.48,6.96-14.04,6.96-14.04
			L126.96,57.02z"/>
		<path class="st226" d="M126.96,56.71c0,0-15.76-1.37-26.99-0.99c-11.23,0.37-28.3,0.99-28.3,0.99l-0.79,0.3
			c0,0,3.64,8.78,6.96,12.9c3.24,4.02,8.29,4.77,21.47,4.55c13.17,0.22,18.23-0.53,21.47-4.55c3.32-4.12,6.96-12.9,6.96-12.9
			L126.96,56.71z"/>
		<path class="st228" d="M126.71,57.85c0,0-15.89-0.62-27.22-0.45c-11.33,0.17-28.54,0.45-28.54,0.45l-0.8,0.13
			c0,0,3.67,3.98,7.02,5.85c3.27,1.82,8.37,2.16,21.65,2.06c13.29,0.1,18.39-0.24,21.66-2.06c3.35-1.87,7.02-5.85,7.02-5.85
			L126.71,57.85z"/>
		<path class="st229" d="M137.96,74.28c-4.77,0.75-21.31,3.29-38.9,3.16c-17.58-0.13-34.13-2.41-38.9-3.16c0,0-1.12,2.27,0.32,4.42
			c1.78,2.66,8.17,3.41,13.3,3.67c4.7,0.23,17.06,0.87,25.76,0.88c8.7,0.01,20.1-0.64,24.79-0.88c5.13-0.25,11.52-1.01,13.3-3.67
			C139.08,76.56,137.96,74.28,137.96,74.28z"/>
		<path class="st225" d="M79.37,69.72c0.3,0.44,0.6,0.85,0.9,1.22c2.95,3.64,7.55,4.33,19.54,4.13c11.99,0.2,16.59-0.48,19.54-4.13
			c0.3-0.37,0.6-0.78,0.9-1.22H79.37z"/>
		<path class="st228" d="M132.91,57.01c-0.18-0.16-0.36-0.31-0.54-0.46c-1.49-0.31-4.15-0.77-7.78-1.05
			c-5.83-0.46-25.31-0.91-25.31-0.91h-0.66c0,0-19.49,0.46-25.32,0.91c-4.18,0.33-7.06,0.89-8.36,1.18
			c-0.11,0.09-0.21,0.18-0.31,0.28c1.08,0.19,3.81,0.57,6.24,0.22c3.1-0.46,20.59-1.22,27.9-1.29h0.36
			c7.31,0.08,24.8,0.84,27.9,1.29C129.22,57.49,131.66,57.21,132.91,57.01z"/>
		<g>
			<path class="st230" d="M122.16,71.6c0.61-2.44,2.53-4.7,6.37-5.54c3.84-0.84,8.83-2.86,9.98,1.93c1.15,4.79-3.99,4.87-6.83,5.21
				C128.83,73.53,121.54,74.03,122.16,71.6z"/>
			<path class="st231" d="M122.59,71.62c0.58-2.21,2.4-4.26,6.04-5.02c3.64-0.76,8.36-2.59,9.45,1.75c1.09,4.34-3.78,4.41-6.47,4.72
				C128.92,73.37,122.01,73.83,122.59,71.62z"/>
			<path class="st232" d="M135.41,69.44c0,1.86-1.55,3.37-3.46,3.37c-1.91,0-3.46-1.51-3.46-3.37c0-1.86,1.55-3.37,3.46-3.37
				C133.86,66.07,135.41,67.58,135.41,69.44z"/>
			<path class="st230" d="M134.53,69.53c0,1.65-1.33,2.98-2.97,2.98c-1.64,0-2.97-1.34-2.97-2.98c0-1.65,1.33-2.98,2.97-2.98
				C133.2,66.55,134.53,67.89,134.53,69.53z"/>
			<path class="st3" d="M134.23,69.53c0,1.55-1.22,2.8-2.71,2.8c-1.5,0-2.71-1.25-2.71-2.8c0-1.55,1.21-2.8,2.71-2.8
				C133.01,66.73,134.23,67.98,134.23,69.53z"/>
		</g>
		<g>
			<path class="st230" d="M76.16,71.6c-0.61-2.44-2.53-4.7-6.37-5.54c-3.84-0.84-8.83-2.86-9.98,1.93
				c-1.15,4.79,3.99,4.87,6.83,5.21C69.48,73.53,76.77,74.03,76.16,71.6z"/>
			<path class="st231" d="M75.72,71.62c-0.58-2.21-2.4-4.26-6.04-5.02c-3.64-0.76-8.36-2.59-9.45,1.75
				c-1.09,4.34,3.78,4.41,6.47,4.72C69.39,73.37,76.3,73.83,75.72,71.62z"/>
			<path class="st232" d="M62.91,69.44c0,1.86,1.55,3.37,3.46,3.37c1.91,0,3.46-1.51,3.46-3.37c0-1.86-1.55-3.37-3.46-3.37
				C64.45,66.07,62.91,67.58,62.91,69.44z"/>
			<path class="st230" d="M63.78,69.53c0,1.65,1.33,2.98,2.97,2.98c1.64,0,2.97-1.34,2.97-2.98c0-1.65-1.33-2.98-2.97-2.98
				C65.11,66.55,63.78,67.89,63.78,69.53z"/>
			<path class="st3" d="M64.08,69.53c0,1.55,1.21,2.8,2.71,2.8c1.5,0,2.71-1.25,2.71-2.8c0-1.55-1.21-2.8-2.71-2.8
				C65.3,66.73,64.08,67.98,64.08,69.53z"/>
		</g>
		<g class="st233">
			<path class="st3" d="M81.77,72.36c0.14,0.1,0.28,0.19,0.42,0.29h34.75c0.14-0.09,0.28-0.19,0.42-0.29H81.77z"/>
			<path class="st3" d="M113.1,74.12c0.39-0.08,0.77-0.18,1.12-0.29h-29.3c0.35,0.11,0.73,0.2,1.12,0.29H113.1z"/>
			<path class="st3" d="M83,73.1c0.2,0.1,0.41,0.19,0.63,0.28h31.88c0.22-0.09,0.43-0.19,0.63-0.28H83z"/>
			<path class="st3" d="M80.87,71.62c0.1,0.1,0.21,0.19,0.32,0.29h36.76c0.11-0.09,0.21-0.19,0.32-0.29H80.87z"/>
			<path class="st3" d="M80.17,70.87c0.08,0.1,0.17,0.19,0.25,0.28h38.28c0.08-0.09,0.17-0.19,0.25-0.28H80.17z"/>
			<path class="st3" d="M79.59,70.13c0.07,0.1,0.15,0.19,0.22,0.29h39.51c0.07-0.09,0.15-0.19,0.22-0.29H79.59z"/>
		</g>
		<g class="st233">
			<path class="st3" d="M124.47,89.34c0.36-0.12,0.68-0.27,0.97-0.46H71.83c0.29,0.18,0.61,0.33,0.97,0.46H124.47z"/>
			<path class="st3" d="M70.31,87.22c0.08,0.15,0.17,0.31,0.27,0.46h56.1c0.1-0.15,0.19-0.3,0.27-0.46H70.31z"/>
			<path class="st3" d="M69.72,85.54c0.03,0.15,0.07,0.3,0.11,0.46h57.61c0.04-0.15,0.08-0.31,0.11-0.46H69.72z"/>
		</g>
		<path class="st222" d="M99,41.04c-8.82,0-19.11,0.98-23.03,4.9c-3.92,3.92,1.72,2.94,11.52,0.24c9.8-2.7,23.28-2.21,31.85,1.72
			c8.58,3.92,2.94-5.39-6.37-6.13S99,41.04,99,41.04z"/>
	</g>
	<rect x="147.33" y="50.64" class="st221" width="8.72" height="118.05"/>
	<rect x="149.77" y="50.51" class="st222" width="3.57" height="117.93"/>
	<rect x="143.56" y="167.44" class="st221" width="17.14" height="3.37"/>
	<path class="st234" d="M100.57,171.95c0,1.03-7.06,1.86-15.78,1.86c-8.71,0-15.78-0.83-15.78-1.86c0-1.03,7.07-1.86,15.78-1.86
		C93.51,170.09,100.57,170.92,100.57,171.95z"/>
	<path class="st234" d="M115.53,173.14c0,1.03-7.06,1.86-15.78,1.86c-8.71,0-15.78-0.83-15.78-1.86c0-1.03,7.07-1.86,15.78-1.86
		C108.46,171.28,115.53,172.11,115.53,173.14z"/>
	<path class="st217" d="M160.77,177.99c0,1.3-7.01,2.36-15.65,2.36c-8.64,0-15.65-1.06-15.65-2.36c0-1.3,7.01-2.36,15.65-2.36
		C153.76,175.63,160.77,176.68,160.77,177.99z"/>
	<path class="st217" d="M92.21,181.91c0,1.1-6.13,2-13.69,2c-7.56,0-13.69-0.9-13.69-2c0-1.1,6.13-2,13.69-2
		C86.08,179.91,92.21,180.81,92.21,181.91z"/>
	<g>
		<path class="st235" d="M132.19,87.89l-1.54,1.54l1.46,1.46l1.54-1.54c0.22,0.73,0.04,1.56-0.54,2.14c-0.84,0.84-2.21,0.84-3.05,0
			c-0.84-0.84-0.84-2.21,0-3.05C130.63,87.86,131.46,87.68,132.19,87.89z"/>
		
			<rect x="122.52" y="93.46" transform="matrix(0.7065 -0.7078 0.7078 0.7065 -29.2978 117.9143)" class="st235" width="9.96" height="1.63"/>
		<path class="st235" d="M124.51,97.16c-0.86-0.86-2.26-0.86-3.12,0c-0.86,0.86-0.86,2.26,0,3.12c0.86,0.86,2.26,0.86,3.12,0
			C125.37,99.42,125.37,98.02,124.51,97.16z M122.16,99.51c-0.43-0.43-0.44-1.14,0-1.57c0.43-0.43,1.14-0.44,1.57,0
			c0.44,0.43,0.44,1.14,0,1.57C123.3,99.95,122.6,99.95,122.16,99.51z"/>
	</g>
	<g>
		<path class="st223" d="M150.64,100.28c-1.21,0.76,0.28,5.2,1,6.51c-2.22,0.12-4.97-0.13-6.85,1.28c0.09-1.16,0.82-2.41,1-3.61
			c0.19-1.34,0.1-2.76,0.18-4.16c0.7-0.04,1.44-0.19,2.07-0.54L150.64,100.28z"/>
		<path class="st223" d="M149.09,102.65c1.32-0.87,2.37-2.57,3.12-3.77c1.69-2.73,1.28-5.15-1.47-6.98
			c-5.23-3.49-6.55,2.51-7.35,3.7c-0.8,1.19-1.52,1.6-1.52,1.6l1.16,1.27c0,0-1.03,2.35,0.96,3.06c1.53,0.55,2.73,2.02,4.24,1.54
			C148.53,102.98,148.81,102.83,149.09,102.65z"/>
		<path class="st236" d="M144.79,92.63c0.06,0.09,0.14,0.19,0.23,0.27c0.5,0.49,1.68,0.33,2.34,0.47c1.07,0.22,1.99,0.58,2.22,1.74
			c0.24,1.19-0.73,1.78-0.88,2.89c0.69-0.28,1.01-0.06,0.86,0.74c-0.07,0.38-0.22,0.62-0.39,0.78c-0.62,0.54,1.49,1.74,1.96,1.67
			c1.15-0.17,2.14-2.65,2.55-3.66c1.37-3.32,0.24-5.87-2.9-7.54c-1.13-0.6-7.37-0.83-5.14,1.33
			C144.68,91.25,144.37,91.97,144.79,92.63z"/>
		<path class="st237" d="M148.94,104.49c3.01,0.11,5.02,3.56,5.46,8.95c0.45,5.39,0.89,14.01-0.33,18.4c0,0-8.62,2.37-13.04-0.22
			c-0.78-0.46-0.33-7.86,0-12.61C141.36,114.27,141.36,104.22,148.94,104.49z"/>
		<path class="st224" d="M145.09,106.78c-3.09,3.7-2.85,18.71,2.02,19.52c4.87,0.81,7.95-16.75,3.68-20.1
			C150.79,106.2,148.18,103.08,145.09,106.78z"/>
		<path class="st238" d="M152.77,174.85l-0.07,1.84l-6.24-0.28c0,0-0.15-1.24,2.31-1.5c2.46-0.26,2.2-0.94,2.2-0.94l0.23-2.67
			l2.33-0.34L152.77,174.85z"/>
		<path class="st239" d="M143.43,137.04c0,0,1.56,13.36,3.15,17.92c1.86,5.33,4.04,16.65,3.45,19.3l2.96,0.05
			c0,0,2.35-8.54,1.06-12.88c-1.29-4.33-1.03-8.11-1.11-12.42c-0.09-4.31,1.24-14.37,1.24-14.37S143.24,127.23,143.43,137.04z"/>
		<path class="st238" d="M143.63,175.71l0.54,1.67l-6.01,1.21c0,0-0.55-1.09,1.7-1.89c2.25-0.81,1.78-1.37,1.78-1.37l-0.66-2.47
			l2.1-0.85L143.63,175.71z"/>
		<path class="st237" d="M154.3,130.65c0,0,0.87,6.61-2.96,10.27c-3.83,3.66-12.36,16.19-12.36,16.19l4.87,17.58h-2.96
			c0,0-7.83-15.32-7.31-19.14c0.52-3.83,5.97-19.07,5.97-19.07l1.02-6.13C140.58,130.34,149.77,133.09,154.3,130.65z"/>
		<path class="st223" d="M130.79,98.87c-1.13-1.34-1.95-6.61-3.86-6.65c-1.91-0.05-2.45,1.46-1.82,3.2
			c0.63,1.74,3.11,2.89,3.88,4.45L130.79,98.87z"/>
		<path class="st220" d="M149.63,105.75c1.88,1.34,2.74,3.45-0.37,5.15c-3.11,1.7-13.14,3.04-15.51,1.78
			c-2.37-1.26-6.32-14.44-6.32-14.44l2.68-0.57l7,10.76C137.11,108.42,147.47,104.21,149.63,105.75z"/>
		<path class="st239" d="M140.7,128.32c0,0,9.38,2.73,13.89-0.12l-0.29,2.45c0,0-9.44,1.94-13.6-0.55V128.32z"/>
	</g>
	<path class="st234" d="M74.36,176.64c0,1.03-7.06,1.86-15.78,1.86c-8.71,0-15.78-0.83-15.78-1.86c0-1.03,7.07-1.86,15.78-1.86
		C67.29,174.78,74.36,175.61,74.36,176.64z"/>
	<g>
		<path class="st237" d="M45.53,137.93c0.08-0.53-1.88-19.05-1.88-19.05s-4.99-12.47-0.53-13.71l1.6-1.07c0,0-1.78,3.38-0.71,7.66
			c1.07,4.27,1.25,10.68,3.56,12.29C47.57,124.05,45.45,138.45,45.53,137.93z"/>
		<path class="st223" d="M47.49,144.97l-1.58,30.89c0,0,6.11,1.51,7.22,1.72c1.11,0.21-3.12-2.48-3.62-3.79
			c-0.5-1.31-1.26-1.78-0.6-4.97c0.65-3.18,5.8-35.06,5.8-35.06h-6.47L47.49,144.97z"/>
		<path class="st3" d="M47.36,119.06c-0.01,0.06-0.03,0.11-0.05,0.17c0.69,0.17,2.67,0.57,4.95,0.26c1.54-0.21,3.22-0.76,4.75-1.92
			l-0.08-0.16C53.21,120.27,48.5,119.35,47.36,119.06z"/>
		<path class="st240" d="M50.31,174.84c-2.27,0.73-3.62,0.26-4.33-0.22l-0.06,1.25c0,0,6.11,1.51,7.22,1.72
			C54,177.75,51.64,176.17,50.31,174.84z"/>
		<path class="st223" d="M55.3,145.72l4.79,30.52c0,0,6.27,0.08,7.4,0.03c1.13-0.05-3.55-1.71-4.31-2.87
			c-0.76-1.17-1.6-1.46-1.61-4.71c-0.01-3.26,0.05-35.23,0.05-35.23l-8.16-1.04L55.3,145.72z"/>
		<path class="st223" d="M53.94,103.38c0.21,1.07-1.9,3.48-2.75,3.97c-1.54,0.88-3.75,0.5-5.33-0.06c-0.86-0.31-2.73-0.22-3.07-1.14
			c-0.56-1.49,1.86-1.96,2.6-2.43c1.1-0.7,1.48-2.81,1.31-3.99c1.14-0.22,2.27-0.48,3.42-0.58c0.13,1.41,1.01,2.57,2.21,3.24
			C52.71,102.6,53.85,102.93,53.94,103.38z"/>
		<path class="st240" d="M64.16,174.23c-2.07,1.23-3.48,1.09-4.27,0.78l0.19,1.23c0,0,6.27,0.08,7.4,0.03
			C68.37,176.24,65.74,175.23,64.16,174.23z"/>
		<path class="st237" d="M53.2,125.34c0.52,2.07-0.61,3.61-1.06,5.59c-0.41,1.85-0.42,3.96-0.29,5.83c0.28,4.18,1.3,8.13,2.57,12
			c1.28,3.88,3.95,22.94,3.95,22.94s3.41-0.66,4.58-0.33c-0.26-4.32,0.79-21.51,0.85-25.93c0.06-3.8-0.54-7.75-0.82-11.57
			c-0.27-3.68-0.85-7.11-3.54-9.61L53.2,125.34z"/>
		<path class="st239" d="M51.82,133.49c-0.06,1.11-0.04,2.23,0.03,3.28c0.28,4.18,1.3,8.13,2.57,12c0.75,2.29,1.99,9.84,2.88,15.67
			c2.24-8.22-1.9-27.92-1.9-27.92C53.38,137.04,53.04,132.16,51.82,133.49z"/>
		<path class="st237" d="M48.96,124.83c0.09,2.14-1.7,2.72-2.54,4.55c-0.78,1.71-0.85,4.44-1.11,6.29c-0.58,4.15-0.4,8.24,0.06,12.3
			c0.45,4.08,0.1,19.91-0.01,23.66c1.24,0.31,2.64-0.23,3.71,0.35c0.63-4.28,3.28-19.74,4.26-24.05c0.83-3.7,2.16-9.87,2.67-13.66
			c0.49-3.66,1.42-6.03-0.7-9.09L48.96,124.83z"/>
		<path class="st224" d="M46.18,104.38c-0.39-0.37-0.54-0.76-0.54-0.76c-0.1-0.26-3.53,1.4-3.81,1.65c-1.45,1.26-1.19,1.9-0.84,3.53
			c0.81,3.8,3.21,7.03,4.34,10.72c0.63,2.05,1.64,4.03,1.51,6.23c-0.12,2.01-1.08,3.39,1.27,4.36c2.56,1.06,10.2-0.62,12.5-2.03
			c1.6-0.99,1.26-1.87,1.37-3.74c0.29-4.86-0.66-9.02-2.58-13.51c-0.97-2.25-1.9-5.08-3.29-7.1c-0.67-0.97-0.52-1.12-1.72-1.44
			c-0.11-0.03-2.06,0.04-2.06,0.11c0,0.06,0.08,2.85-1.44,3.47c-1.54,0.63-2.54,0.12-3.42-0.39
			C47.37,105.41,46.69,104.87,46.18,104.38z"/>
		<path class="st241" d="M50.78,100.99c-0.37-0.54-0.61-1.16-0.67-1.84c-1.16,0.1-2.28,0.36-3.42,0.58
			c0.02,0.11,0.03,0.23,0.03,0.36C47.83,101.27,49.27,101.47,50.78,100.99z"/>
		<path class="st223" d="M50.77,99.3c3.29-1.91,1.61-6.06-0.56-8.13c-1.12-1.07-2.87-2.21-4.49-1.81c-1.58,0.39-4.13,1.83-3.9,3.71
			c0.12,0.96,1.05,1.69,1.5,2.53c0.66,1.23,1.19,2.46,2.24,3.42C47.14,100.44,49,100.33,50.77,99.3z"/>
		<path class="st236" d="M45.65,97.3c-0.78,0.35-1.35-0.27-1.35-1.03c-0.01-1.41,0.87-0.75,1.57-1c0.45-0.16,0,0,0,0l-0.27-1.72
			c0,0,2.99-0.54,2.01-1.71c1-0.11,3.63-0.29,3.57-1.8c-0.11-2.79-4.84-1.5-6.16-0.91c-1.29,0.58-2.8,1.79-3.28,3.16
			c-0.85,2.41,1.81,7.64,4.8,6.95L45.65,97.3z"/>
		<path class="st223" d="M61.78,98.79c2.21-0.58,1.51-3.01,2.19-4.56c0.64-1.46,2.46-4.78,2.22-5.61c-0.24-0.83-1.72-1.41-2.4-1.19
			c-0.67,0.22-2.12,3-1.95,4.86C62.07,94.75,58.78,96.88,61.78,98.79z"/>
		<path class="st237" d="M44.72,104.1c0,0,4.1,9.97,4.1,9.08c0-0.89,6.41-1.78,6.41-1.78l-2.31-9.08h2.14c0,0,2.14,6.94,3.92,11.57
			s3.74,11.04,2.85,14.42c0,0-8.9,4.81-15.49,1.6c0,0,0.13-1.54,0.36-3.23c0.25-1.77-2.32-0.87-0.18-1.58
			c2.14-0.71,1.37-3.41,1.24-4.24c-0.68-4.34-4.45-15.88-4.45-15.88L44.72,104.1z"/>
		<path class="st220" d="M41.54,105.72c-1.33,2.05-1.36,4.44,2.35,4.91c3.71,0.46,11.62,0.7,15.97-6
			c4.34-6.71,4.57-10.81,4.57-10.81l-2.77-1.29c0,0-2.29,7.42-7.91,10.77C48.12,106.64,43.07,103.37,41.54,105.72z"/>
	</g>
	<g>
		<g>
			<path class="st242" d="M76.53,153.58c-1.23,0-2.22-0.94-2.22-2.1v-5.25c0-1.16,1-2.1,2.22-2.1h19.45c1.23,0,2.22,0.94,2.22,2.1
				v5.25c0,1.16-0.99,2.1-2.22,2.1H76.53z"/>
			<path class="st243" d="M91.13,150.86l0.75-0.41v-0.74h-0.07v0.7l-0.68,0.37l-0.68-0.37v-0.7h-0.07v0.74L91.13,150.86z
				 M94.39,150.86l0.75-0.41v-0.74h-0.07v0.7l-0.68,0.37l-0.68-0.37v-0.7h-0.07v0.74L94.39,150.86z M87.86,150.86l0.75-0.41v-0.74
				h-0.07v0.7l-0.68,0.37l-0.68-0.37v-0.7h-0.07v0.74L87.86,150.86z M97.66,148.63l0.54,0.29v-0.07l-0.54-0.29l-0.75,0.4v0.74h0.07
				V149L97.66,148.63z M87.86,148.55l-0.75,0.4v0.74h0.07V149l0.68-0.37l0.68,0.37v0.7h0.07v-0.74L87.86,148.55z M84.6,150.86
				l0.75-0.41v-0.74h-0.07v0.7l-0.68,0.37l-0.68-0.37v-0.7h-0.07v0.74L84.6,150.86z M84.6,148.55l-0.75,0.4v0.74h0.07V149l0.69-0.37
				l0.68,0.37v0.7h0.07v-0.74L84.6,148.55z M91.13,148.55l-0.75,0.4v0.74h0.07V149l0.68-0.37l0.68,0.37v0.7h0.07v-0.74L91.13,148.55
				z M94.39,148.55l-0.75,0.4v0.74h0.07V149l0.68-0.37l0.68,0.37v0.7h0.07v-0.74L94.39,148.55z M81.34,148.55l-0.75,0.4v0.74h0.07
				V149l0.68-0.37l0.68,0.37v0.7h0.07v-0.74L81.34,148.55z M81.33,150.86l0.75-0.41v-0.74h-0.07v0.7l-0.68,0.37l-0.68-0.37v-0.7
				h-0.07v0.74L81.33,150.86z M89.53,150.36l-0.75,0.41v0.74h0.07v-0.7l0.68-0.37l0.68,0.37v0.7h0.07v-0.74L89.53,150.36z
				 M75.56,146.13h-0.07v0.7l-0.68,0.37l-0.5-0.27V147l0.5,0.27l0.75-0.4V146.13z M86.26,150.36l-0.75,0.41v0.74h0.07v-0.7
				l0.68-0.37l0.69,0.37v0.7h0.07v-0.74L86.26,150.36z M92.8,149.05l0.75-0.41v-0.74h0v-0.72l-0.75-0.4l-0.75,0.4v0.74h0v0.73
				L92.8,149.05z M92.11,147.91L92.11,147.91l0-0.69l0.68-0.37l0.69,0.37v0.7h0v0.69l-0.68,0.37l-0.68-0.37V147.91z M76.47,150.36
				l-0.75,0.41v0.74h0.07v-0.7l0.68-0.37l0.69,0.37v0.7h0.07v-0.74L76.47,150.36z M83,150.36l-0.75,0.41v0.74h0.07v-0.7l0.68-0.37
				l0.68,0.37v0.7h0.07v-0.74L83,150.36z M78.07,150.86l0.75-0.41v-0.74h-0.07v0.7l-0.68,0.37l-0.68-0.37v-0.7h-0.07v0.74
				L78.07,150.86z M79.74,150.36l-0.75,0.41v0.74h0.07v-0.7l0.68-0.37l0.68,0.37v0.7h0.07v-0.74L79.74,150.36z M92.79,150.36
				l-0.75,0.41v0.74h0.07v-0.7l0.68-0.37l0.69,0.37v0.7h0.07v-0.74L92.79,150.36z M80.49,147.91v-0.72l-0.75-0.4l-0.75,0.4v0.74h0
				v0.73l0.75,0.41l0.75-0.41L80.49,147.91L80.49,147.91z M80.42,147.92v0.69l-0.68,0.37l-0.68-0.37v-0.7h0v-0.69l0.68-0.37
				l0.68,0.37L80.42,147.92L80.42,147.92z M74.81,148.55l-0.5,0.27v0.07l0.5-0.27l0.68,0.37v0.7h0.07v-0.74L74.81,148.55z
				 M78.07,148.55l-0.75,0.4v0.74h0.07V149l0.68-0.37l0.68,0.37v0.7h0.07v-0.74L78.07,148.55z M83,149.05l0.75-0.41v-0.74h0v-0.72
				l-0.75-0.4l-0.75,0.4v0.74h0v0.73L83,149.05z M82.32,147.91L82.32,147.91l0-0.69l0.68-0.37l0.68,0.37v0.7h0v0.69L83,148.98
				l-0.68-0.37V147.91z M86.27,149.05l0.75-0.41v-0.74h0v-0.72l-0.75-0.4l-0.75,0.4v0.74h0v0.73L86.27,149.05z M85.58,147.91
				L85.58,147.91l0-0.69l0.68-0.37l0.69,0.37v0.7h0v0.69l-0.68,0.37l-0.68-0.37V147.91z M89.53,149.05l0.75-0.41v-0.74h0v-0.72
				l-0.75-0.4l-0.75,0.4v0.74h0v0.73L89.53,149.05z M88.85,147.91L88.85,147.91l0-0.69l0.68-0.37l0.68,0.37v0.7h0v0.69l-0.68,0.37
				l-0.68-0.37V147.91z M96.06,146.78l-0.75,0.4v0.74h0v0.73l0.75,0.41l0.75-0.41v-0.74h0v-0.72L96.06,146.78z M96.74,147.92
				L96.74,147.92l0,0.69l-0.68,0.37l-0.68-0.37v-0.7h0v-0.69l0.68-0.37l0.68,0.37V147.92z M96.74,151.5h0.07v-0.74l-0.75-0.41
				l-0.75,0.41v0.74h0.07v-0.7l0.68-0.37l0.68,0.37V151.5z M97.66,147.27l0.54-0.29v-0.07l-0.54,0.29l-0.69-0.37v-0.7H96.9v0.74
				L97.66,147.27z M75.56,149.71h-0.07v0.7l-0.68,0.37l-0.5-0.27v0.07l0.5,0.27l0.75-0.41V149.71z M78.07,147.27l0.75-0.4v-0.74
				h-0.07v0.7l-0.68,0.37l-0.68-0.37v-0.7h-0.07v0.74L78.07,147.27z M81.33,147.27l0.75-0.4v-0.74h-0.07v0.7l-0.68,0.37l-0.68-0.37
				v-0.7h-0.07v0.74L81.33,147.27z M76.48,149.05l0.75-0.41v-0.74h0v-0.72l-0.75-0.4l-0.75,0.4v0.74h0v0.73L76.48,149.05z
				 M75.79,147.91L75.79,147.91l0-0.69l0.68-0.37l0.69,0.37v0.7h0v0.69l-0.68,0.37l-0.68-0.37V147.91z M97.66,150.86l0.54-0.29
				v-0.07l-0.54,0.29l-0.69-0.37v-0.7H96.9v0.74L97.66,150.86z M84.6,147.27l0.75-0.4v-0.74h-0.07v0.7l-0.68,0.37l-0.68-0.37v-0.7
				h-0.07v0.74L84.6,147.27z M91.13,147.27l0.75-0.4v-0.74h-0.07v0.7l-0.68,0.37l-0.68-0.37v-0.7h-0.07v0.74L91.13,147.27z
				 M87.86,147.27l0.75-0.4v-0.74h-0.07v0.7l-0.68,0.37l-0.68-0.37v-0.7h-0.07v0.74L87.86,147.27z M94.39,147.27l0.75-0.4v-0.74
				h-0.07v0.7l-0.68,0.37l-0.68-0.37v-0.7h-0.07v0.74L94.39,147.27z"/>
			<g>
				<g>
					<rect x="74.3" y="145.95" class="st243" width="23.89" height="0.48"/>
					<rect x="74.3" y="145.98" class="st243" width="23.89" height="0.32"/>
				</g>
				<g>
					<rect x="74.3" y="147.73" class="st243" width="23.89" height="0.48"/>
					<rect x="74.3" y="147.76" class="st243" width="23.89" height="0.32"/>
				</g>
				<g>
					<rect x="74.3" y="149.5" class="st243" width="23.89" height="0.48"/>
					<rect x="74.3" y="149.54" class="st243" width="23.89" height="0.32"/>
				</g>
				<g>
					<rect x="74.3" y="151.28" class="st243" width="23.89" height="0.48"/>
					<rect x="74.3" y="151.32" class="st243" width="23.89" height="0.33"/>
				</g>
			</g>
			<path class="st243" d="M74.71,145.02h23.08c-0.4-0.54-1.07-0.89-1.82-0.89H76.53C75.77,144.13,75.11,144.48,74.71,145.02z"/>
			<path class="st243" d="M74.61,152.55c0.39,0.62,1.1,1.04,1.91,1.04h19.45c0.82,0,1.53-0.42,1.91-1.04H74.61z"/>
			<path class="st242" d="M79.72,163.06c-1.23,0-2.22-0.94-2.22-2.1v-5.25c0-1.16,1-2.1,2.22-2.1h19.45c1.23,0,2.22,0.94,2.22,2.1
				v5.25c0,1.16-1,2.1-2.22,2.1H79.72z"/>
			<path class="st243" d="M94.62,160.44l0.75-0.41v-0.74H95.3v0.7l-0.68,0.37l-0.68-0.37v-0.7h-0.07v0.74L94.62,160.44z
				 M97.88,160.44l0.75-0.41v-0.74h-0.07v0.7l-0.68,0.37l-0.68-0.37v-0.7h-0.07v0.74L97.88,160.44z M91.36,160.44l0.75-0.41v-0.74
				h-0.07v0.7l-0.68,0.37l-0.68-0.37v-0.7H90.6v0.74L91.36,160.44z M101.15,158.21l0.54,0.29v-0.07l-0.54-0.29l-0.75,0.4v0.74h0.07
				v-0.7L101.15,158.21z M91.36,158.14l-0.75,0.4v0.74h0.07v-0.7l0.68-0.37l0.68,0.37v0.7h0.07v-0.74L91.36,158.14z M88.09,160.44
				l0.75-0.41v-0.74h-0.07v0.7l-0.68,0.37l-0.68-0.37v-0.7h-0.07v0.74L88.09,160.44z M88.09,158.14l-0.75,0.4v0.74h0.07v-0.7
				l0.68-0.37l0.68,0.37v0.7h0.07v-0.74L88.09,158.14z M94.62,158.14l-0.75,0.4v0.74h0.07v-0.7l0.68-0.37l0.68,0.37v0.7h0.07v-0.74
				L94.62,158.14z M97.89,158.14l-0.75,0.4v0.74h0.07v-0.7l0.68-0.37l0.68,0.37v0.7h0.07v-0.74L97.89,158.14z M84.83,158.14
				l-0.75,0.4v0.74h0.07v-0.7l0.68-0.37l0.68,0.37v0.7h0.07v-0.74L84.83,158.14z M84.83,160.44l0.75-0.41v-0.74h-0.07v0.7
				l-0.68,0.37l-0.68-0.37v-0.7h-0.07v0.74L84.83,160.44z M93.02,159.94l-0.75,0.4v0.74h0.07v-0.7l0.68-0.37l0.68,0.37v0.7h0.07
				v-0.74L93.02,159.94z M79.05,155.71h-0.07v0.7l-0.68,0.37l-0.5-0.27v0.07l0.5,0.27l0.75-0.4V155.71z M89.76,159.94l-0.75,0.4
				v0.74h0.07v-0.7l0.68-0.37l0.68,0.37v0.7h0.07v-0.74L89.76,159.94z M96.29,158.63l0.75-0.41v-0.74h0v-0.73l-0.75-0.4l-0.75,0.4
				v0.74h0v0.72L96.29,158.63z M95.6,157.49L95.6,157.49l0-0.69l0.68-0.37l0.68,0.37v0.7h0v0.69l-0.69,0.37l-0.68-0.37V157.49z
				 M79.97,159.94l-0.75,0.4v0.74h0.07v-0.7l0.68-0.37l0.68,0.37v0.7h0.07v-0.74L79.97,159.94z M86.49,159.94l-0.75,0.4v0.74h0.07
				v-0.7l0.68-0.37l0.68,0.37v0.7h0.07v-0.74L86.49,159.94z M81.56,160.44l0.75-0.41v-0.74h-0.07v0.7l-0.68,0.37l-0.69-0.37v-0.7
				h-0.07v0.74L81.56,160.44z M83.23,159.94l-0.75,0.4v0.74h0.07v-0.7l0.68-0.37l0.68,0.37v0.7h0.07v-0.74L83.23,159.94z
				 M96.29,159.94l-0.75,0.4v0.74h0.07v-0.7l0.68-0.37l0.68,0.37v0.7h0.07v-0.74L96.29,159.94z M83.98,157.49v-0.73l-0.75-0.4
				l-0.75,0.4v0.74h0v0.72l0.75,0.41l0.75-0.41L83.98,157.49L83.98,157.49z M83.92,157.5v0.69l-0.68,0.37l-0.68-0.37v-0.7h0v-0.69
				l0.68-0.37l0.68,0.37L83.92,157.5L83.92,157.5z M78.3,158.14l-0.5,0.27v0.07l0.5-0.27l0.68,0.37v0.7h0.07v-0.74L78.3,158.14z
				 M81.57,158.14l-0.75,0.4v0.74h0.07v-0.7l0.68-0.37l0.68,0.37v0.7h0.07v-0.74L81.57,158.14z M86.5,158.63l0.75-0.41v-0.74h0
				v-0.73l-0.75-0.4l-0.75,0.4v0.74h0v0.72L86.5,158.63z M85.81,157.49L85.81,157.49l0-0.69l0.68-0.37l0.68,0.37v0.7h0v0.69
				l-0.68,0.37l-0.68-0.37V157.49z M89.76,158.63l0.75-0.41v-0.74h0v-0.73l-0.75-0.4l-0.75,0.4v0.74h0v0.72L89.76,158.63z
				 M89.08,157.49L89.08,157.49l0-0.69l0.68-0.37l0.68,0.37v0.7h0v0.69l-0.68,0.37l-0.68-0.37V157.49z M93.03,158.63l0.75-0.41
				v-0.74h0v-0.73l-0.75-0.4l-0.75,0.4v0.74h0v0.72L93.03,158.63z M92.34,157.49L92.34,157.49l0-0.69l0.68-0.37l0.68,0.37v0.7h0
				v0.69l-0.68,0.37l-0.68-0.37V157.49z M99.55,156.36l-0.75,0.4v0.74h0v0.72l0.75,0.41l0.75-0.41v-0.74h0v-0.73L99.55,156.36z
				 M100.23,157.5L100.23,157.5l0,0.69l-0.68,0.37l-0.68-0.37v-0.7h0v-0.69l0.68-0.37l0.68,0.37V157.5z M100.23,161.08h0.07v-0.74
				l-0.75-0.4l-0.75,0.4v0.74h0.07v-0.7l0.68-0.37l0.68,0.37V161.08z M101.15,156.85l0.54-0.29v-0.07l-0.54,0.29l-0.68-0.37v-0.7
				h-0.07v0.74L101.15,156.85z M79.05,159.3h-0.07v0.7l-0.68,0.37l-0.5-0.27v0.07l0.5,0.27l0.75-0.41V159.3z M81.56,156.85l0.75-0.4
				v-0.74h-0.07v0.7l-0.68,0.37l-0.69-0.37v-0.7h-0.07v0.74L81.56,156.85z M84.83,156.85l0.75-0.4v-0.74h-0.07v0.7l-0.68,0.37
				l-0.68-0.37v-0.7h-0.07v0.74L84.83,156.85z M79.97,158.63l0.75-0.41v-0.74h0v-0.73l-0.75-0.4l-0.75,0.4v0.74h0v0.72L79.97,158.63
				z M79.28,157.49L79.28,157.49l0-0.69l0.68-0.37l0.68,0.37v0.7h0v0.69l-0.68,0.37l-0.68-0.37V157.49z M101.15,160.44l0.54-0.29
				v-0.07l-0.54,0.29l-0.68-0.37v-0.7h-0.07v0.74L101.15,160.44z M88.09,156.85l0.75-0.4v-0.74h-0.07v0.7l-0.68,0.37l-0.68-0.37
				v-0.7h-0.07v0.74L88.09,156.85z M94.62,156.85l0.75-0.4v-0.74H95.3v0.7l-0.68,0.37l-0.68-0.37v-0.7h-0.07v0.74L94.62,156.85z
				 M91.36,156.85l0.75-0.4v-0.74h-0.07v0.7l-0.68,0.37l-0.68-0.37v-0.7H90.6v0.74L91.36,156.85z M97.88,156.85l0.75-0.4v-0.74
				h-0.07v0.7l-0.68,0.37l-0.68-0.37v-0.7h-0.07v0.74L97.88,156.85z"/>
			<g>
				<g>
					<rect x="77.5" y="155.43" class="st243" width="23.89" height="0.48"/>
					<rect x="77.5" y="155.47" class="st243" width="23.89" height="0.32"/>
				</g>
				<g>
					<rect x="77.5" y="157.21" class="st243" width="23.89" height="0.48"/>
					<rect x="77.5" y="157.24" class="st243" width="23.89" height="0.33"/>
				</g>
				<g>
					<rect x="77.5" y="158.99" class="st243" width="23.89" height="0.48"/>
					<rect x="77.5" y="159.02" class="st243" width="23.89" height="0.33"/>
				</g>
				<g>
					<rect x="77.5" y="160.76" class="st243" width="23.89" height="0.48"/>
					<rect x="77.5" y="160.8" class="st243" width="23.89" height="0.33"/>
				</g>
			</g>
			<path class="st243" d="M78.2,154.6h23.08c-0.4-0.54-1.07-0.89-1.82-0.89H80.02C79.27,153.71,78.61,154.06,78.2,154.6z"/>
			<path class="st243" d="M77.81,162.03c0.39,0.62,1.1,1.03,1.91,1.03h19.45c0.82,0,1.53-0.42,1.91-1.03H77.81z"/>
			<path class="st242" d="M74.53,172.54c-1.23,0-2.22-0.94-2.22-2.1v-5.25c0-1.16,1-2.1,2.22-2.1h19.45c1.23,0,2.22,0.94,2.22,2.1
				v5.25c0,1.16-1,2.1-2.22,2.1H74.53z"/>
			<path class="st243" d="M89.13,169.82l0.75-0.41v-0.74h-0.07v0.7l-0.68,0.37l-0.68-0.37v-0.7h-0.07v0.74L89.13,169.82z
				 M92.39,169.82l0.75-0.41v-0.74h-0.07v0.7l-0.68,0.37l-0.69-0.37v-0.7h-0.07v0.74L92.39,169.82z M85.87,169.82l0.75-0.41v-0.74
				h-0.07v0.7l-0.68,0.37l-0.68-0.37v-0.7h-0.07v0.74L85.87,169.82z M95.66,167.59l0.54,0.29v-0.07l-0.54-0.29l-0.75,0.4v0.74h0.07
				v-0.7L95.66,167.59z M85.87,167.52l-0.75,0.4v0.74h0.07v-0.7l0.68-0.37l0.68,0.37v0.7h0.07v-0.74L85.87,167.52z M82.6,169.82
				l0.75-0.41v-0.74h-0.07v0.7l-0.68,0.37l-0.68-0.37v-0.7h-0.07v0.74L82.6,169.82z M82.6,167.52l-0.75,0.4v0.74h0.07v-0.7
				l0.68-0.37l0.68,0.37v0.7h0.07v-0.74L82.6,167.52z M89.13,167.52l-0.75,0.4v0.74h0.07v-0.7l0.68-0.37l0.68,0.37v0.7h0.07v-0.74
				L89.13,167.52z M92.4,167.52l-0.75,0.4v0.74h0.07v-0.7l0.68-0.37l0.68,0.37v0.7h0.07v-0.74L92.4,167.52z M79.34,167.52l-0.75,0.4
				v0.74h0.07v-0.7l0.69-0.37l0.68,0.37v0.7h0.07v-0.74L79.34,167.52z M79.34,169.82l0.75-0.41v-0.74h-0.07v0.7l-0.68,0.37
				l-0.68-0.37v-0.7h-0.07v0.74L79.34,169.82z M87.53,169.32l-0.75,0.41v0.74h0.07v-0.7l0.68-0.37l0.68,0.37v0.7h0.07v-0.74
				L87.53,169.32z M73.56,165.09h-0.07v0.7l-0.68,0.37l-0.5-0.27v0.07l0.5,0.27l0.75-0.41V165.09z M84.27,169.32l-0.75,0.41v0.74
				h0.07v-0.7l0.68-0.37l0.68,0.37v0.7h0.07v-0.74L84.27,169.32z M90.8,168.01l0.75-0.41v-0.74h0v-0.72l-0.75-0.41l-0.75,0.41v0.74
				h0v0.73L90.8,168.01z M90.12,166.87L90.12,166.87l0-0.69l0.68-0.37l0.68,0.37v0.7h0v0.69l-0.68,0.37l-0.68-0.37V166.87z
				 M74.48,169.32l-0.75,0.41v0.74h0.07v-0.7l0.68-0.37l0.68,0.37v0.7h0.07v-0.74L74.48,169.32z M81,169.32l-0.75,0.41v0.74h0.07
				v-0.7L81,169.4l0.68,0.37v0.7h0.07v-0.74L81,169.32z M76.07,169.82l0.75-0.41v-0.74h-0.07v0.7l-0.68,0.37l-0.68-0.37v-0.7h-0.07
				v0.74L76.07,169.82z M77.74,169.32l-0.75,0.41v0.74h0.07v-0.7l0.68-0.37l0.68,0.37v0.7h0.07v-0.74L77.74,169.32z M90.8,169.32
				l-0.75,0.41v0.74h0.07v-0.7l0.68-0.37l0.68,0.37v0.7h0.07v-0.74L90.8,169.32z M78.49,166.87v-0.72l-0.75-0.41l-0.75,0.41v0.74h0
				v0.73l0.75,0.41l0.75-0.41L78.49,166.87L78.49,166.87z M78.43,166.88v0.69l-0.68,0.37l-0.68-0.37v-0.7h0v-0.69l0.68-0.37
				l0.68,0.37L78.43,166.88L78.43,166.88z M72.81,167.52l-0.5,0.27v0.07l0.5-0.27l0.68,0.37v0.7h0.07v-0.74L72.81,167.52z
				 M76.08,167.52l-0.75,0.4v0.74h0.07v-0.7l0.68-0.37l0.68,0.37v0.7h0.07v-0.74L76.08,167.52z M81.01,168.01l0.75-0.41v-0.74h0
				v-0.72L81,165.74l-0.75,0.41v0.74h0v0.73L81.01,168.01z M80.32,166.87L80.32,166.87l0-0.69l0.68-0.37l0.68,0.37v0.7h0v0.69
				l-0.68,0.37l-0.68-0.37V166.87z M84.27,168.01l0.75-0.41v-0.74h0v-0.72l-0.75-0.41l-0.75,0.41v0.74h0v0.73L84.27,168.01z
				 M83.59,166.87L83.59,166.87l0-0.69l0.68-0.37l0.68,0.37v0.7h0v0.69l-0.68,0.37l-0.68-0.37V166.87z M87.54,168.01l0.75-0.41
				v-0.74h0v-0.72l-0.75-0.41l-0.75,0.41v0.74h0v0.73L87.54,168.01z M86.85,166.87L86.85,166.87l0-0.69l0.68-0.37l0.68,0.37v0.7h0
				v0.69l-0.68,0.37l-0.68-0.37V166.87z M94.06,165.74l-0.75,0.41v0.74h0v0.73l0.75,0.41l0.75-0.41v-0.74h0v-0.72L94.06,165.74z
				 M94.75,166.88L94.75,166.88l0,0.69l-0.68,0.37l-0.68-0.37v-0.7h0v-0.69l0.68-0.37l0.68,0.37V166.88z M94.75,170.47h0.07v-0.74
				l-0.75-0.41l-0.75,0.41v0.74h0.07v-0.7l0.68-0.37l0.68,0.37V170.47z M95.66,166.24l0.54-0.29v-0.07l-0.54,0.29l-0.68-0.37v-0.7
				h-0.07v0.74L95.66,166.24z M73.56,168.68h-0.07v0.7l-0.68,0.37l-0.5-0.27v0.07l0.5,0.27l0.75-0.41V168.68z M76.07,166.24
				l0.75-0.41v-0.74h-0.07v0.7l-0.68,0.37l-0.68-0.37v-0.7h-0.07v0.74L76.07,166.24z M79.34,166.24l0.75-0.41v-0.74h-0.07v0.7
				l-0.68,0.37l-0.68-0.37v-0.7h-0.07v0.74L79.34,166.24z M74.48,168.01l0.75-0.41v-0.74h0v-0.72l-0.75-0.41l-0.75,0.41v0.74h0v0.73
				L74.48,168.01z M73.79,166.87L73.79,166.87l0-0.69l0.68-0.37l0.68,0.37v0.7h0v0.69l-0.68,0.37l-0.68-0.37V166.87z M95.66,169.82
				l0.54-0.29v-0.07l-0.54,0.29l-0.68-0.37v-0.7h-0.07v0.74L95.66,169.82z M82.6,166.24l0.75-0.41v-0.74h-0.07v0.7l-0.68,0.37
				l-0.68-0.37v-0.7h-0.07v0.74L82.6,166.24z M89.13,166.24l0.75-0.41v-0.74h-0.07v0.7l-0.68,0.37l-0.68-0.37v-0.7h-0.07v0.74
				L89.13,166.24z M85.87,166.24l0.75-0.41v-0.74h-0.07v0.7l-0.68,0.37l-0.68-0.37v-0.7h-0.07v0.74L85.87,166.24z M92.39,166.24
				l0.75-0.41v-0.74h-0.07v0.7l-0.68,0.37l-0.69-0.37v-0.7h-0.07v0.74L92.39,166.24z"/>
			<g>
				<g>
					<rect x="72.31" y="164.91" class="st243" width="23.89" height="0.48"/>
					<rect x="72.31" y="164.95" class="st243" width="23.89" height="0.33"/>
				</g>
				<g>
					<rect x="72.31" y="166.69" class="st243" width="23.89" height="0.48"/>
					<rect x="72.31" y="166.72" class="st243" width="23.89" height="0.33"/>
				</g>
				<g>
					<rect x="72.31" y="168.47" class="st243" width="23.89" height="0.48"/>
					<rect x="72.31" y="168.5" class="st243" width="23.89" height="0.32"/>
				</g>
				<g>
					<rect x="72.31" y="170.25" class="st243" width="23.89" height="0.48"/>
					<rect x="72.31" y="170.28" class="st243" width="23.89" height="0.32"/>
				</g>
			</g>
			<path class="st243" d="M72.71,163.98h23.08c-0.4-0.54-1.07-0.89-1.82-0.89H74.53C73.78,163.09,73.12,163.45,72.71,163.98z"/>
			<path class="st243" d="M72.62,171.51c0.39,0.62,1.1,1.03,1.91,1.03h19.45c0.82,0,1.53-0.42,1.91-1.03H72.62z"/>
		</g>
		<path class="st225" d="M114.11,161.58c0,6.62-5.37,11.99-11.99,11.99c-6.62,0-11.99-5.37-11.99-11.99
			c0-6.62,5.37-11.99,11.99-11.99C108.74,149.59,114.11,154.96,114.11,161.58z"/>
		<path class="st236" d="M113.22,161.58c0,6.13-4.97,11.1-11.1,11.1c-6.13,0-11.1-4.97-11.1-11.1c0-6.13,4.97-11.1,11.1-11.1
			C108.25,150.48,113.22,155.45,113.22,161.58z"/>
		<path class="st235" d="M110.14,161.64c0,4.41-3.58,7.99-7.99,7.99c-4.41,0-7.99-3.58-7.99-7.99c0-4.41,3.58-7.99,7.99-7.99
			C106.56,153.65,110.14,157.23,110.14,161.64z"/>
		<g>
			<path class="st236" d="M95.75,160.27l4.21,0.49c0.15,0.02,0.27-0.04,0.33-0.14c0.06-0.1,0.04-0.24-0.05-0.36l-2.53-3.4
				c-0.03-0.04-0.06-0.07-0.1-0.1c-0.99,0.91-1.7,2.11-2,3.46C95.66,160.25,95.71,160.26,95.75,160.27z"/>
			<path class="st236" d="M108.56,163.13l-4.21-0.49c-0.15-0.02-0.27,0.03-0.33,0.14c-0.06,0.1-0.04,0.24,0.05,0.36l2.53,3.4
				c0.03,0.04,0.06,0.07,0.1,0.1c0.98-0.91,1.7-2.11,2-3.46C108.65,163.15,108.61,163.13,108.56,163.13z"/>
			<path class="st236" d="M97.72,166.53l2.53-3.4c0.09-0.12,0.11-0.25,0.05-0.36c-0.06-0.1-0.19-0.15-0.33-0.14l-4.21,0.49
				c-0.05,0.01-0.09,0.02-0.14,0.04c0.3,1.35,1.01,2.55,2,3.46C97.65,166.6,97.69,166.56,97.72,166.53z"/>
			<path class="st236" d="M106.6,156.87l-2.53,3.4c-0.09,0.12-0.11,0.25-0.05,0.36c0.06,0.1,0.19,0.15,0.33,0.14l4.21-0.49
				c0.05-0.01,0.09-0.02,0.14-0.04c-0.3-1.35-1.01-2.55-2-3.46C106.66,156.8,106.63,156.83,106.6,156.87z"/>
			<path class="st236" d="M104.16,168.1c-0.01-0.05-0.02-0.1-0.04-0.14l-1.68-3.89c-0.06-0.14-0.17-0.22-0.28-0.22
				c-0.12,0-0.23,0.08-0.28,0.22l-1.68,3.89c-0.02,0.04-0.03,0.09-0.04,0.14c0.63,0.2,1.3,0.3,2,0.3
				C102.85,168.4,103.53,168.3,104.16,168.1z"/>
			<path class="st236" d="M100.16,155.29c0.01,0.05,0.02,0.1,0.04,0.14l1.68,3.89c0.06,0.14,0.17,0.22,0.28,0.22
				c0.12,0,0.22-0.08,0.28-0.22l1.68-3.89c0.02-0.04,0.03-0.09,0.04-0.14c-0.63-0.2-1.3-0.3-2-0.3
				C101.46,154.99,100.79,155.1,100.16,155.29z"/>
		</g>
		<circle class="st222" cx="102.11" cy="161.82" r="1.48"/>
	</g>
	<path class="st244" d="M102.12,149.59c-1.38,0-2.69,0.24-3.93,0.67v-4.31h-0.03c-0.05-0.34-0.18-0.66-0.38-0.93h0
		c-0.01-0.01-0.02-0.02-0.03-0.04c-0.08-0.11-0.18-0.2-0.28-0.29c-0.04-0.03-0.07-0.06-0.11-0.09c-0.09-0.07-0.18-0.13-0.28-0.18
		c-0.05-0.03-0.09-0.05-0.14-0.07c-0.1-0.05-0.21-0.09-0.32-0.12c-0.05-0.01-0.09-0.03-0.14-0.04c-0.16-0.04-0.33-0.06-0.5-0.06
		H76.53c-0.17,0-0.34,0.02-0.5,0.06c-0.05,0.01-0.1,0.03-0.15,0.04c-0.11,0.03-0.22,0.07-0.32,0.12c-0.05,0.02-0.1,0.05-0.14,0.07
		c-0.1,0.05-0.19,0.12-0.28,0.18c-0.04,0.03-0.07,0.05-0.11,0.09c-0.1,0.09-0.2,0.19-0.28,0.3c-0.01,0.01-0.02,0.02-0.03,0.03h0
		c-0.2,0.27-0.33,0.59-0.38,0.93H74.3v5.81h0.03c0.04,0.28,0.14,0.55,0.29,0.79h-0.01c0.01,0.01,0.02,0.02,0.02,0.03
		c0.18,0.28,0.43,0.52,0.73,0.69c0.04,0.02,0.08,0.04,0.12,0.06c0.11,0.06,0.23,0.1,0.36,0.14c0.05,0.01,0.09,0.03,0.14,0.04
		c0.17,0.04,0.35,0.07,0.53,0.07l3.19,0.03c-1.13,0-2.05,0.79-2.19,1.82H77.5v5.81h0.03c0.04,0.28,0.14,0.55,0.29,0.79h-0.01
		c0.01,0.01,0.02,0.02,0.03,0.03c0.18,0.28,0.43,0.52,0.73,0.69c0.04,0.02,0.08,0.04,0.12,0.06c0.12,0.06,0.24,0.11,0.36,0.14
		c0.05,0.01,0.09,0.03,0.14,0.04c0.17,0.04,0.35,0.07,0.53,0.07l-5.19,0.03c-0.17,0-0.34,0.02-0.5,0.06
		c-0.05,0.01-0.09,0.03-0.14,0.04c-0.11,0.03-0.22,0.07-0.33,0.12c-0.05,0.02-0.09,0.05-0.14,0.07c-0.1,0.06-0.2,0.12-0.29,0.19
		c-0.04,0.03-0.07,0.05-0.11,0.08c-0.1,0.09-0.2,0.19-0.28,0.3c-0.01,0.01-0.02,0.02-0.03,0.03h0c-0.2,0.27-0.33,0.59-0.38,0.93
		h-0.03v5.81h0.03c0.04,0.28,0.14,0.55,0.29,0.79h-0.01c0.01,0.01,0.02,0.02,0.02,0.03c0.18,0.28,0.43,0.52,0.73,0.69
		c0.04,0.02,0.08,0.04,0.12,0.06c0.12,0.06,0.24,0.11,0.36,0.15c0.05,0.01,0.09,0.03,0.14,0.04c0.17,0.04,0.35,0.07,0.53,0.07h19.45
		c0.18,0,0.36-0.03,0.53-0.07c0.05-0.01,0.1-0.03,0.14-0.04c0.13-0.04,0.25-0.09,0.36-0.14c0.04-0.02,0.08-0.04,0.12-0.06
		c0.23-0.13,0.42-0.32,0.59-0.52c1.85,1.17,4.04,1.86,6.4,1.86c6.62,0,11.99-5.37,11.99-11.99
		C114.11,154.96,108.74,149.59,102.12,149.59z"/>
	<path class="st224" d="M153.86,95.71c0,0,5.49,1.26,4.48,3.74c-1,2.48-9.03-5.48-9.03-5.48L153.86,95.71z"/>
	<path class="st220" d="M154.11,95.9c0,0-6.45-1.56-9.35-4.99c0,0,3.37-4.56,8.15-1.44C156.75,91.98,154.11,95.9,154.11,95.9z"/>
	<path class="st224" d="M48.07,89.87c0,0,3.51-4.02,5.22-2.14c1.72,1.88-6.75,4.17-6.75,4.17L48.07,89.87z"/>
	<path class="st220" d="M50.17,88.58c0,0-3.99,4.9-8.13,5.98c0,0-3.37-3.05,1.28-5.87C47.06,86.41,50.17,88.58,50.17,88.58z"/>
</g>
</svg>
