<?xml version="1.0" encoding="utf-8"?>
<!-- Generator: Adobe Illustrator 23.0.1, SVG Export Plug-In . SVG Version: 6.00 Build 0)  -->
<svg version="1.1" id="Layer_1" xmlns="http://www.w3.org/2000/svg" xmlns:xlink="http://www.w3.org/1999/xlink" x="0px" y="0px"
	 viewBox="0 0 200 200" style="enable-background:new 0 0 200 200;" xml:space="preserve">
<style type="text/css">
	.st0{fill:#E6E6E6;}
	.st1{clip-path:url(#SVGID_2_);}
	.st2{fill:#D58A73;}
	.st3{fill:#FFFFFF;}
	.st4{fill:#D78C74;}
	.st5{opacity:0.05;}
	.st6{fill:#381911;}
	.st7{fill:#E5A185;}
	.st8{opacity:0.38;}
	.st9{fill:#E5A084;}
	.st10{fill:#E59F83;}
	.st11{fill:#E49E83;}
	.st12{fill:#E49D82;}
	.st13{fill:#E49C81;}
	.st14{fill:#E49B80;}
	.st15{fill:#E49A80;}
	.st16{fill:#E3997F;}
	.st17{fill:#E3987E;}
	.st18{fill:#E3977D;}
	.st19{fill:#E3967C;}
	.st20{fill:#E2957C;}
	.st21{fill:#E2947B;}
	.st22{fill:#E2937A;}
	.st23{fill:#E29279;}
	.st24{fill:#E29179;}
	.st25{fill:#E19078;}
	.st26{fill:#E18F77;}
	.st27{fill:#E18E76;}
	.st28{fill:#E18D75;}
	.st29{fill:#E18C75;}
	.st30{fill:#E08B74;}
	.st31{fill:#E08A73;}
	.st32{fill:#E08972;}
	.st33{fill:#E08872;}
	.st34{fill:#DF8771;}
	.st35{fill:#DF8670;}
	.st36{fill:#DF856F;}
	.st37{fill:#DF846F;}
	.st38{fill:#DF836E;}
	.st39{fill:#DE826D;}
	.st40{fill:#DE816C;}
	.st41{fill:#DE806B;}
	.st42{fill:#DE7F6B;}
	.st43{fill:#DE7E6A;}
	.st44{fill:#DD7D69;}
	.st45{fill:#DD7C68;}
	.st46{fill:#DD7B68;}
	.st47{fill:#DD7A67;}
	.st48{fill:#DD7A66;}
	.st49{fill:#DC7965;}
	.st50{fill:#DC7864;}
	.st51{fill:#DC7764;}
	.st52{fill:#DC7663;}
	.st53{fill:#DB7562;}
	.st54{fill:#DB7461;}
	.st55{fill:#DB7361;}
	.st56{fill:#DB7260;}
	.st57{fill:#DB715F;}
	.st58{fill:#DA705E;}
	.st59{fill:#DA6F5D;}
	.st60{fill:#DA6E5D;}
	.st61{fill:#DA6D5C;}
	.st62{fill:#DA6C5B;}
	.st63{fill:#D96B5A;}
	.st64{fill:#D96A5A;}
	.st65{fill:#D96959;}
	.st66{fill:#D96858;}
	.st67{fill:#D86757;}
	.st68{fill:#D86657;}
	.st69{fill:#D86556;}
	.st70{fill:#D86455;}
	.st71{fill:#D86354;}
	.st72{fill:#D76253;}
	.st73{fill:#D76153;}
	.st74{fill:#D76052;}
	.st75{fill:#D75F51;}
	.st76{fill:#D75E50;}
	.st77{fill:#D65D50;}
	.st78{fill:#D65C4F;}
	.st79{fill:#D65B4E;}
	.st80{fill:#D65A4D;}
	.st81{fill:#D5594C;}
	.st82{fill:#D5584C;}
	.st83{fill:#D5574B;}
	.st84{fill:#D5564A;}
	.st85{fill:#D55549;}
	.st86{fill:#D45449;}
	.st87{fill:#D45348;}
	.st88{fill:#D45247;}
	.st89{fill:url(#XMLID_8_);}
	.st90{fill:url(#XMLID_9_);}
	.st91{fill:#422E26;}
	.st92{fill:#6C332E;}
	.st93{opacity:0.35;fill:#C3BBA5;}
	.st94{opacity:0.2;fill:#FFFFFF;}
	.st95{fill:#4F372D;}
	.st96{opacity:0.14;fill:#422E26;}
	.st97{opacity:0.12;fill:#FFFFFF;}
	.st98{opacity:0.16;}
	.st99{fill:#465884;}
	.st100{opacity:0.04;}
	.st101{fill:#334363;}
	.st102{fill:#4C618C;}
	.st103{fill:#4F648E;}
	.st104{opacity:0.08;}
	.st105{fill:#E2E2E2;}
	.st106{fill:#EAEAEA;}
	.st107{fill:#BCB4B3;}
	.st108{fill:#755046;}
	.st109{opacity:0.5;fill:#D78C74;}
	.st110{fill:#3A3838;}
	.st111{fill:#F4F4F4;}
	.st112{fill:#494646;}
	.st113{fill:#514F4F;}
	.st114{fill:#333B49;}
	.st115{fill:#FFCA35;}
	.st116{opacity:0.5;fill:#FFCA35;}
	.st117{fill:#5F6368;}
	.st118{fill:#EF3030;}
	.st119{clip-path:url(#SVGID_4_);}
	.st120{fill:#F2866D;}
	.st121{fill:#FF9D2E;}
	.st122{fill:#574E49;}
	.st123{fill:#323436;}
	.st124{fill:#DB5C04;}
	.st125{fill:#FB822D;}
	.st126{fill:#55ABBD;}
	.st127{fill:#4F565C;}
	.st128{fill:#292F33;}
	.st129{fill:#FB6902;}
	.st130{fill:#E83427;}
	.st131{fill:#444A4F;}
	.st132{fill:#47403C;}
	.st133{fill:#3B3532;}
	.st134{fill:#78695E;}
	.st135{fill:#4C98A8;}
	.st136{fill:#C9EEF5;}
	.st137{opacity:0.7;fill:#FFFFFF;}
	.st138{opacity:0.2;}
	.st139{fill:#B6D8DE;}
	.st140{fill:#FDA73E;}
	.st141{fill:#95A4AD;}
	.st142{fill:#353D42;}
	.st143{fill:#E05E02;}
	.st144{fill:#4D4D4D;}
	.st145{fill:#616161;}
	.st146{fill:#8F8F8F;}
	.st147{fill:#FFA480;}
	.st148{fill:#2FB4BA;}
	.st149{fill:#9B72C4;}
	.st150{fill:#BDAEA3;}
	.st151{fill:#DB92DA;}
	.st152{fill:#E67B5A;}
	.st153{fill:#F94850;}
	.st154{fill:#FFB187;}
	.st155{fill:#FFB086;}
	.st156{fill:#FFAF85;}
	.st157{fill:#FFAE85;}
	.st158{fill:#FFAD84;}
	.st159{fill:#FFAC83;}
	.st160{fill:#FFAB82;}
	.st161{fill:#FFAA81;}
	.st162{fill:#FFA980;}
	.st163{fill:#FFA880;}
	.st164{fill:#FFA77F;}
	.st165{fill:#FFA67E;}
	.st166{fill:#FFA57D;}
	.st167{fill:#FFA47C;}
	.st168{fill:#FFA37C;}
	.st169{fill:#FFA27B;}
	.st170{fill:#FFA17A;}
	.st171{fill:#FFA079;}
	.st172{fill:#FF9F78;}
	.st173{fill:#FF9E77;}
	.st174{fill:#FF9D77;}
	.st175{fill:#FF9C76;}
	.st176{fill:#FF9B75;}
	.st177{fill:#FF9A74;}
	.st178{fill:#FF9973;}
	.st179{fill:#FF9872;}
	.st180{fill:#FF9771;}
	.st181{fill:#FF9670;}
	.st182{fill:#FF956F;}
	.st183{fill:#FF946F;}
	.st184{fill:#FF936E;}
	.st185{fill:#FF926D;}
	.st186{fill:#FF916C;}
	.st187{fill:#FF906B;}
	.st188{fill:#FF8F6A;}
	.st189{fill:#FF8E6A;}
	.st190{fill:#FF8D69;}
	.st191{fill:#FF8C68;}
	.st192{fill:#FF8B67;}
	.st193{fill:#FF8A66;}
	.st194{fill:#FF8966;}
	.st195{fill:#FF8865;}
	.st196{fill:#FF8764;}
	.st197{fill:#FF8663;}
	.st198{fill:#FF8562;}
	.st199{fill:#FF8461;}
	.st200{fill:#FF8361;}
	.st201{fill:#FF8260;}
	.st202{fill:#FF815F;}
	.st203{fill:#421C16;}
	.st204{fill:#703024;}
	.st205{fill:#00BAEB;}
	.st206{fill:#118793;}
	.st207{fill:#572619;}
	.st208{fill:#00AAD6;}
	.st209{fill:#00A2CC;}
	.st210{fill:#BF1B2D;}
	.st211{fill:#A12F2F;}
	.st212{fill:#8A8A8A;}
	.st213{fill:#404040;}
	.st214{fill:#F44E4E;}
	.st215{fill:#303030;}
	.st216{fill:#CAE1FC;}
	.st217{opacity:0.3;fill:#DA97B8;}
	.st218{opacity:0.6;fill:#CBCFFF;}
	.st219{fill:#EEF0FF;}
	.st220{fill:#7AB6F6;}
	.st221{fill:#6977A4;}
	.st222{opacity:0.3;fill:#FFFFFF;}
	.st223{fill:#F5B29C;}
	.st224{fill:#2E90EC;}
	.st225{fill:#3D4166;}
	.st226{fill:#FA7071;}
	.st227{fill:#3C5670;}
	.st228{fill:#FA989C;}
	.st229{fill:#D05C53;}
	.st230{fill:#5C595E;}
	.st231{fill:#E6DFEA;}
	.st232{fill:#C9C9DD;}
	.st233{opacity:0.3;}
	.st234{opacity:0.6;fill:#A8BCFF;}
	.st235{fill:#999DB8;}
	.st236{fill:#0B1238;}
	.st237{fill:#2D3170;}
	.st238{fill:#5C75C3;}
	.st239{fill:#0B124A;}
	.st240{fill:#2E3054;}
	.st241{fill:#B9B3C0;}
	.st242{fill:#595D8B;}
	.st243{fill:#0B2B4A;}
	.st244{opacity:0.25;fill:#EEF0FF;}
	.st245{fill:#C68824;}
	.st246{fill:#A36D1F;}
	.st247{fill:#CECECE;}
	.st248{fill:#C9C9C9;}
	.st249{fill:#BCBCBC;}
	.st250{fill:#E5E5E5;}
	.st251{fill:#424242;}
	.st252{fill:#CCCCCC;}
	.st253{fill:#FFBF3C;}
	.st254{fill:#D3D5D3;}
	.st255{fill:#46676C;}
	.st256{fill:url(#SVGID_5_);}
	.st257{fill:#98B1C7;}
	.st258{fill:url(#SVGID_6_);}
	.st259{fill:url(#SVGID_7_);}
	.st260{fill:#0E1714;}
	.st261{fill:#BFD2E1;}
	.st262{fill:url(#SVGID_8_);}
	.st263{fill:url(#SVGID_9_);}
	.st264{fill:url(#SVGID_10_);}
	.st265{fill:url(#SVGID_11_);}
	.st266{fill:url(#SVGID_12_);}
	.st267{fill:url(#SVGID_13_);}
	.st268{fill:url(#SVGID_14_);}
	.st269{fill:url(#SVGID_15_);}
	.st270{fill:url(#SVGID_16_);}
	.st271{fill:url(#SVGID_17_);}
	.st272{fill:url(#SVGID_18_);}
	.st273{fill:#1D2C2C;}
	.st274{fill:#ECEBF3;}
	.st275{fill:url(#SVGID_19_);}
	.st276{fill:#0074A6;}
	.st277{fill:url(#SVGID_20_);}
	.st278{fill:url(#SVGID_21_);}
	.st279{fill:url(#SVGID_22_);}
	.st280{fill:url(#SVGID_23_);}
	.st281{fill:#80979A;}
	.st282{fill:url(#SVGID_24_);}
	.st283{fill:url(#SVGID_25_);}
	.st284{fill:#3A4848;}
	.st285{fill:#FFBD95;}
	.st286{fill:#B8B3B3;}
	.st287{fill:#A39D9D;}
	.st288{fill:#8D3B26;}
	.st289{fill:#191919;}
	.st290{fill:#00233F;}
	.st291{fill:#002D56;}
	.st292{fill:#D7D4D4;}
	.st293{fill:#CFCCCC;}
	.st294{fill:#004877;}
</style>
<circle class="st0" cx="100" cy="100" r="100"/>
<g>
	<defs>
		<circle id="SVGID_3_" cx="100" cy="100" r="100"/>
	</defs>
	<clipPath id="SVGID_2_">
		<use xlink:href="#SVGID_3_"  style="overflow:visible;"/>
	</clipPath>
	<g class="st1">
		<polygon class="st120" points="122.18,73.98 119.66,89.36 124.2,94.2 131.1,94.2 129.95,76.11 		"/>
		<path class="st121" d="M29.22,110.12h-7.95c-2.9-3.59-5.66-7.49-5.01-8.59C16.26,101.53,24.11,102.92,29.22,110.12z"/>
		<g>
			<g>
				<path class="st122" d="M81.45,168.9v-0.64h-8.33h-3.68H59.28h-0.99H47.51c0.09,0.21,0.17,0.43,0.27,0.64
					c2.3,5.17,6.55,8.77,11.5,9.22l10.16,0.05c0,0,1.1,0,1.65,0c4.07,0,7.74-2.13,10.36-5.56c0.85-1.11,1.59-2.35,2.18-3.7H81.45z"
					/>
				<path class="st121" d="M91.65,166.76c0.33-0.25,0.66-0.51,0.97-0.79c0.4-0.35,0.77-0.73,1.14-1.13
					c0.26-0.29,0.51-0.59,0.75-0.91c0.09-0.11,0.18-0.24,0.27-0.35c1.7-2.36,2.75-5.19,3.05-8.14c0.15-1.59,0.09-3.22-0.18-4.82
					c-0.37-2.07-0.89-3.99-1.57-5.58c-0.11-0.28-0.23-0.55-0.36-0.81c-0.51-1.02-1.09-1.86-1.75-2.47
					c-0.56-2.92-1.28-5.55-2.15-7.92v-0.01c-0.07-0.21-0.15-0.4-0.23-0.59c-0.09-0.26-0.19-0.52-0.29-0.77
					c-0.28-0.69-0.57-1.35-0.89-2.01c-0.94-1.98-2-3.74-3.15-5.32c-1.47-2.04-3.1-3.75-4.83-5.21c-6.03-5.08-13.21-7.03-19.32-8.47
					c-2.27-0.53-4.38-0.99-6.24-1.52c-0.92-0.79-1.85-1.57-2.81-2.31c-0.07-0.05-0.14-0.11-0.21-0.17
					C28.41,87.19-3.11,80.37-29.18,78.77v90.53H84.13C86.83,169.3,89.44,168.4,91.65,166.76z"/>
				<path class="st123" d="M91.6,133.25H54.85c-0.09-0.27-0.19-0.53-0.29-0.79c-0.55-1.49-1.16-2.87-1.83-4.15
					c-1.95-3.77-4.32-6.7-6.94-9c-0.88-0.78-1.79-1.5-2.72-2.14v-0.01c-4.13-2.87-8.66-4.53-12.94-5.7v-3.81h23.95
					c0.96,0.74,1.88,1.52,2.81,2.31c1.85,0.53,3.96,1,6.24,1.52c6.1,1.44,13.29,3.39,19.32,8.47c1.73,1.46,3.37,3.17,4.83,5.21
					c1.16,1.58,2.22,3.33,3.15,5.32c0.32,0.66,0.61,1.32,0.89,2.01C91.41,132.73,91.52,132.99,91.6,133.25z"/>
				<path class="st125" d="M53.88,141.77c-5.24-27.79-25.95-28.65-37.1-31.8C1.31,96.33-14.47,88.51-29.18,84.28v85.02h85.29
					C59.54,163.2,58.64,146.14,53.88,141.77z"/>
				<path class="st126" d="M22.31,109.91c-0.5,0-0.98-0.18-1.35-0.52l-1.27-1.13c-0.89-0.8-1.18-1.06-1.31-1.16l0,0
					c-6.94-6.06-15.91-11.79-26.66-17.04c-2.27-1.11-4.6-2.19-6.96-3.22L9.5,86.67c18.36,3.48,41.92,20.4,45.55,23.07L22.31,109.91z
					"/>
				<path class="st127" d="M19.45,108.54c0,0,10.28-5.48,30.47-2.41c0.22,0.14,5.41,3.97,5.41,3.97l-33.71-0.35L19.45,108.54z"/>
				<path class="st127" d="M35.48,108.58c-0.43-2.37-3.32-4.21-6.83-4.21c-3.51,0-6.41,1.84-6.83,4.21H35.48z"/>
				<path class="st128" d="M9.43,87.04c17.19,3.28,38.87,18.28,44.49,22.34l-6.13,0.03l-25.48,0.13c-0.41,0-0.8-0.15-1.11-0.43
					l-0.47-0.42l-0.8-0.71c-0.79-0.71-1.13-1.02-1.31-1.16l0,0C11.67,100.75,2.67,95-8.11,89.74c-1.77-0.87-3.58-1.71-5.41-2.54
					L9.43,87.04L9.43,87.04z M9.49,86.31l-26.47,0.18c2.78,1.19,5.64,2.49,8.55,3.91c9.25,4.51,18.79,10.18,26.59,16.99
					c0.02,0.01,0.62,0.54,1.3,1.16c0.43,0.38,0.89,0.79,1.26,1.13c0.44,0.39,1.01,0.61,1.6,0.61c0.01,0,0.02,0,0.03,0l25.46-0.13
					l7.53-0.04c0.12-0.01,0.22-0.08,0.26-0.19c0.04-0.11,0-0.23-0.09-0.3C51.29,106.5,27.81,89.76,9.49,86.31L9.49,86.31z"/>
				<path class="st129" d="M46.44,159.44v9.85H2.35c-0.45,0-1.11-0.5-1.84-1.46v-8.4c0-13.7,10.3-24.85,22.96-24.85
					c5.45,0,10.73,2.1,14.87,5.93C43.48,145.24,46.44,152.14,46.44,159.44z"/>
				<path class="st130" d="M43.6,159.44v9.85H3.34v-9.85c0-12.13,9.03-22,20.12-22c4.93,0,9.45,1.94,12.95,5.17
					C40.81,146.65,43.6,152.7,43.6,159.44z"/>
				<path class="st128" d="M4.96,108.68c0.29-1.04-0.21-2.05-1.06-2.71c-11.33-8.79-22.18-14.33-33.08-17.56v22.02H2.66
					C3.73,110.44,4.67,109.72,4.96,108.68z"/>
				<path class="st131" d="M3.15,108.17c0.06-0.23-0.17-0.51-0.39-0.68c-10.45-8.1-20.83-13.69-31.93-17.05v18.1H2.66
					C2.89,108.54,3.08,108.39,3.15,108.17z"/>
				<path class="st123" d="M43.6,159.44V173c-2.62,3.43-6.29,5.56-10.36,5.56c-0.56,0-1.11-0.04-1.65-0.12v0.12H21.43v-0.05
					c-4.94-0.45-9.2-4.04-11.5-9.22H3.34v-9.85c0-12.13,9.03-22,20.12-22c4.93,0,9.45,1.94,12.95,5.17
					C40.81,146.65,43.6,152.7,43.6,159.44z"/>
				<path class="st132" d="M45.79,169.3c-0.4,0.9-0.86,1.75-1.37,2.54c-0.2,0.31-0.4,0.6-0.62,0.89c-0.06,0.09-0.13,0.18-0.19,0.27
					c-0.49,0.64-1,1.23-1.57,1.77c-0.02,0.02-0.04,0.04-0.06,0.05c-2.42,2.35-5.44,3.74-8.73,3.74c-0.56,0-1.11-0.04-1.65-0.12
					c-1.3-0.19-2.56-0.59-3.74-1.2c-2.61-1.33-4.84-3.61-6.43-6.49c-0.26-0.47-0.5-0.96-0.72-1.46c-0.59-1.31-1.05-2.72-1.37-4.21
					c-0.32-1.51-0.49-3.09-0.49-4.73c0-1.25,0.1-2.48,0.3-3.66c0.39-2.46,1.18-4.74,2.28-6.73c1.3-2.37,3.04-4.32,5.06-5.68
					c0.44-0.3,0.9-0.57,1.37-0.81c0.38-0.2,0.77-0.37,1.17-0.52c0.1-0.04,0.21-0.08,0.31-0.11c0.73-0.26,1.48-0.45,2.25-0.56
					c0.54-0.09,1.1-0.13,1.65-0.13c1.09,0,2.15,0.15,3.17,0.45c4.39,4.04,7.18,10.08,7.18,16.83v8.46c0,0.36,0.14,0.71,0.41,0.98
					c0.27,0.27,0.62,0.41,0.97,0.41H45.79z"/>
				<polygon class="st132" points="33.25,142.17 33.25,178.56 19.65,178.56 19.34,165.09 19.15,156.71 18.83,142.98 18.81,142.22 
									"/>
				<path class="st133" d="M20.5,144.03c0.72-0.08,1.44-0.12,2.16-0.11c0.98-0.07,14.77-0.29,20.83,13.18
					c-0.57-5.79-3.2-10.91-7.07-14.48c-1.02-0.29-2.09-0.45-3.17-0.45l-14.44,0.05l0.02,0.76L20.5,144.03z"/>
				<path class="st134" d="M31.22,160.36c0,3.25-0.54,6.3-1.49,8.93c-0.7,1.97-1.64,3.72-2.75,5.15c-0.89,1.16-1.91,2.11-3,2.8
					c-1.34,0.85-2.8,1.31-4.33,1.31c-0.28,0-0.56-0.01-0.83-0.05c-3.98-0.45-7.4-4.04-9.24-9.22c-0.96-2.64-1.5-5.69-1.5-8.93
					c0-9.61,4.73-17.47,10.74-18.15c0.27-0.03,0.55-0.05,0.83-0.05c1.53,0,2.99,0.47,4.33,1.32c1.09,0.7,2.11,1.64,3,2.8
					C29.57,149.62,31.22,154.69,31.22,160.36z"/>
				<path class="st125" d="M93.98,141.77C93.98,141.78,93.98,141.78,93.98,141.77l-41.16,0.4c0,0-5.99-3.34-1.6-9.68h40.09
					c0.18,0.43,0.35,0.88,0.52,1.34v0.01C92.7,136.21,93.42,138.84,93.98,141.77z"/>
				<path class="st130" d="M71.76,142.16l-0.98-0.12C71.3,142.08,71.65,142.14,71.76,142.16z"/>
				<path class="st125" d="M94.51,163.93c-0.85,1.1-1.81,2.05-2.87,2.82v0.01c-2.21,1.64-4.82,2.54-7.52,2.54H51.25
					c-0.01-0.01-0.01-0.01-0.01-0.01l-1.63-29.82l21.13,2.56c-3.2-0.22-12.96-0.69-12.56,14.25C58.6,171.7,91.89,166.3,94.51,163.93
					z"/>
				<path class="st129" d="M-1.45,159.5c0.18-7.86,2.14-25.03,15.52-30.63c1.33-0.55,2.19-1.86,2.19-3.31v-2.04
					c0-1.53-1.23-2.77-2.76-2.77h-42.69v42.83c9.73-0.02,18.67-0.05,23.66-0.06C-3.3,163.51-1.49,161.73-1.45,159.5z"/>
				<polygon class="st128" points="-5.79,101.41 -5.79,109.65 3.15,109.65 4.84,107.74 				"/>
				<path class="st125" d="M64.17,155.26c0,2.76-1.65,5-3.69,5c-2.04,0-3.69-2.24-3.69-5c0-2.76,1.65-4.99,3.69-4.99
					C62.52,150.26,64.17,152.5,64.17,155.26z"/>
				<polygon class="st125" points="56.33,160.19 60.48,160.25 60.48,150.26 56.33,150.26 				"/>
				<g>
					<g>
						<path class="st136" d="M60.02,155.26c0,2.42-1.45,4.38-3.24,4.38c-1.79,0-3.24-1.96-3.24-4.38c0-2.42,1.45-4.38,3.24-4.38
							C58.57,150.88,60.02,152.84,60.02,155.26z"/>
					</g>
				</g>
				<path class="st134" d="M31.67,147.58c0,0.61-0.49,1.11-1.1,1.11h-3.11c-0.61,0-1.1-0.5-1.1-1.11l0,0c0-0.61,0.49-1.11,1.1-1.11
					h3.11C31.18,146.47,31.67,146.97,31.67,147.58L31.67,147.58z"/>
				<path class="st134" d="M33.96,151.74c0,0.62-0.49,1.11-1.1,1.11h-3.11c-0.61,0-1.1-0.49-1.1-1.11l0,0c0-0.61,0.5-1.11,1.1-1.11
					h3.11C33.47,150.63,33.96,151.13,33.96,151.74L33.96,151.74z"/>
				<path class="st134" d="M35.21,156.31c0,0.61-0.49,1.11-1.1,1.11H31c-0.61,0-1.1-0.5-1.1-1.11l0,0c0-0.61,0.49-1.11,1.1-1.11
					h3.11C34.72,155.2,35.21,155.69,35.21,156.31L35.21,156.31z"/>
				<path class="st137" d="M-10.83,91.35c0,0,12.6,4.44,21.62,14.18C5.18,101.9-10.83,91.35-10.83,91.35z"/>
				<g>
					<path class="st128" d="M27.2,109.76c0,0,13.65-4.24,18.98-2.73c5.33,1.51,3.88,2.63,2.22,2.64
						C46.74,109.67,27.2,109.76,27.2,109.76z"/>
				</g>
				<g class="st138">
					<path class="st3" d="M55.59,109.92c-0.03,0.11-0.14,0.18-0.26,0.19l-7.53,0.04C32.08,100.71,2.95,93.12-8.43,90.4
						c-2.9-1.42-5.77-2.72-8.55-3.91l26.47-0.18c18.32,3.46,41.8,20.19,46,23.31C55.58,109.69,55.63,109.81,55.59,109.92z"/>
				</g>
				<path class="st139" d="M58.87,154.39c0,1.12-0.57,2.02-1.27,2.02c-0.7,0-1.27-0.9-1.27-2.02c0-1.12,0.57-2.02,1.27-2.02
					C58.3,152.37,58.87,153.27,58.87,154.39z"/>
				<path class="st140" d="M6.59,126.24c0,0.86-0.69,1.55-1.54,1.55c-0.85,0-1.54-0.69-1.54-1.55c0-0.86,0.69-1.55,1.54-1.55
					C5.9,124.69,6.59,125.38,6.59,126.24z"/>
				<path class="st3" d="M19.64,173.8c-0.17,0-0.33-0.01-0.47-0.03c-2.52-0.28-4.81-2.68-6.14-6.43c-0.76-2.11-1.16-4.52-1.16-6.99
					c0-6.94,3.27-12.95,7.28-13.4c0.16-0.02,0.32-0.03,0.49-0.03c0.9,0,1.77,0.27,2.61,0.8c0.72,0.45,1.39,1.08,2,1.87
					c2.01,2.6,3.17,6.52,3.17,10.76c0,2.47-0.4,4.88-1.16,6.97c-0.53,1.48-1.2,2.75-2.01,3.8c-0.61,0.79-1.28,1.41-1.99,1.87
					C21.42,173.53,20.54,173.8,19.64,173.8z"/>
				<path class="st123" d="M19.64,172.33c-0.11,0-0.21,0-0.29-0.02c-1.93-0.22-3.82-2.31-4.95-5.46c-0.7-1.95-1.07-4.19-1.07-6.49
					c0-6.64,3.15-11.62,5.98-11.94c0.12-0.01,0.22-0.02,0.33-0.02c0.62,0,1.23,0.19,1.83,0.57c0.57,0.37,1.12,0.88,1.63,1.53
					c1.82,2.34,2.86,5.93,2.86,9.85c0,2.3-0.37,4.54-1.07,6.47c-0.48,1.33-1.08,2.48-1.79,3.4c-0.51,0.65-1.05,1.17-1.62,1.53
					C20.88,172.14,20.26,172.33,19.64,172.33z"/>
				<path class="st3" d="M23.75,163.63l1.77,2.52c-0.03,0.09-0.06,0.18-0.09,0.26c-0.41,1.06-0.92,1.99-1.52,2.78l-2.22-3.16
					c-0.46-0.64-1.14-1.01-1.87-0.91c-0.73,0.11-1.34,0.65-1.67,1.41l-1.77,3.97c-0.77-0.65-1.46-1.54-2.04-2.62l1.4-3.13
					c0.34-0.77,0.4-1.72,0.1-2.58c-0.3-0.86-0.89-1.43-1.56-1.62l-1.73-0.47c0.01-1.22,0.16-2.42,0.41-3.55l1.89,0.51
					c0.67,0.19,1.39-0.03,1.93-0.67c0.54-0.63,0.78-1.54,0.71-2.41l-0.37-4.45c0.63-0.41,1.04-1.4,1.74-1.47c0.14-0.01,0.66,0,0.8,0
					c0.1,0-0.1,0,0,0l0.6,5.52c0.07,0.87,0.46,1.69,1.1,2.16c0.64,0.47,1.38,0.49,2,0.13l2.25-1.3c0.39,1.07,0.66,2.24,0.81,3.46
					l-1.92,1.11c-0.63,0.35-1.11,1.08-1.26,2.01C23.08,162.07,23.29,162.98,23.75,163.63z"/>
				<path class="st141" d="M21.53,160.36c0,1.48-0.92,2.68-2.06,2.68c-1.14,0-2.06-1.2-2.06-2.68c0-1.47,0.92-2.67,2.06-2.67
					C20.6,157.69,21.53,158.89,21.53,160.36z"/>
				<path class="st125" d="M81.51,79.52c-0.03,0.04,0.93-1.49,0.88-1.46c-11.28,7.35-17.65,30.78-18.22,33.22
					c-0.04,0.11-0.07,0.21-0.1,0.33v0.01H29.8c1.45-5.78,10.02-34.27,25.25-34.75c12.97-0.1,22.16-0.07,27.03-0.05
					c0.27,0,0.51,0.2,0.58,0.49C82.72,77.54,81.65,79.35,81.51,79.52z"/>
				<path class="st143" d="M82.77,78.33c-0.03,0.04-1.34,1.26-1.38,1.29c-11.28,7.35-16.65,29.21-17.21,31.65
					c-0.04,0.11-0.07,0.21-0.1,0.33l-16.09,0.01l-17.09,0v0c2.06-7.55,10.95-32.8,24.44-33.22c6.23-0.05,12.26-0.07,17.88-0.07
					C76.16,78.33,80.64,78.33,82.77,78.33z"/>
			</g>
			<path class="st144" d="M86.28,132.49H75.82l-1.08-11.36c0,0,6.09,1.67,7.11,6.47C83,127.85,86.79,129.42,86.28,132.49z"/>
			<g>
				<path class="st145" d="M78.96,129.65l-1.28,0.04l-18.19,0.48l-1.9,0.05c-1.64,0.05-3.72-0.78-4.86-1.89
					c-1.95-3.77-4.32-6.7-6.94-9c0.02-0.92,0.93-1.55,2.55-1.6l18.56-0.49c2.46-0.07,5.63,1.28,7.08,3l6.17,7.33
					C81.08,128.67,80.55,129.61,78.96,129.65z"/>
				<path class="st146" d="M77.71,129.71l-0.1,1.39l-0.1,1.39H63.08l-1.53-0.97l-1.57-1c-0.18-0.12-0.34-0.24-0.49-0.36
					c-0.14-0.11-0.25-0.23-0.35-0.34l-4.69-5.57c-0.44-0.53-0.51-1.04-0.16-1.37l2.39-2.32c0.19-0.18,0.6-0.22,1.08-0.1
					c0.47,0.12,0.93,0.37,1.18,0.66l3.36,3.87l5.31-0.14L64.28,121c-0.25-0.29-0.25-0.56,0-0.71c0.25-0.15,0.71-0.14,1.19,0.02
					l4.6,1.52c0.86,0.29,1.64,0.77,2.09,1.29l5.52,6.56h0L77.71,129.71z"/>
				<path class="st146" d="M66.62,132.49h-8.41c0.04-0.53,0.58-0.9,1.53-0.92l1.81-0.05l1.74-0.05
					C64.37,131.44,65.67,131.86,66.62,132.49z"/>
				<path class="st146" d="M83.72,132.49h-8.91c-0.05-0.13-0.08-0.26-0.08-0.37c0-0.57,0.55-0.96,1.53-0.98l1.33-0.04l2.21-0.06
					C81.12,131.01,82.76,131.63,83.72,132.49z"/>
			</g>
			<path class="st136" d="M46.99,122.85c-1.02-0.11-1.94,0.59-2.13,1.59c-0.83,4.51-2.08,16.47,7.91,16.28
				c6.74-0.13,10.59-0.16,12.7-0.16c0.5,0,0.95-0.26,1.21-0.69c0.25-0.43,0.26-0.95,0.02-1.39
				C64.23,134.03,57.53,123.95,46.99,122.85z"/>
			<path class="st139" d="M56.7,129.35c2.3,3.55,2.55,7.48,0.56,8.77c-1.99,1.29-5.48-0.54-7.78-4.09c-2.3-3.55-2.56-7.48-0.56-8.77
				C50.91,123.97,54.4,125.8,56.7,129.35z"/>
		</g>
		<g>
			<g>
				<g>
					
						<rect x="157.49" y="137.29" transform="matrix(0.9972 -0.0753 0.0753 0.9972 -11.2304 12.5934)" class="st147" width="7.92" height="35.97"/>
				</g>
				<g>
					<rect x="127.04" y="134.77" class="st147" width="7.92" height="32.23"/>
				</g>
				<rect x="126.34" y="163.78" class="st122" width="9.11" height="7.86"/>
				<path class="st148" d="M130.26,104.76l3.35-0.37c2.09,1.7,4.44,3.04,6.97,4.11c2.32,0.98,4.79,1.73,7.33,2.31
					c4.09,0.93,8.37,1.4,12.5,1.69c0.03,0,0.05,0,0.08,0l-0.45-3.95l-1.01-8.89h-27.32L130.26,104.76z"/>
				<path class="st149" d="M151.46,54.99h0.01C151.46,54.98,151.46,54.98,151.46,54.99L151.46,54.99z"/>
				<path class="st3" d="M158.06,55.38c-0.02-0.03-0.04-0.06-0.07-0.08C158.03,55.36,158.06,55.39,158.06,55.38L158.06,55.38z"/>
				<path class="st3" d="M151.46,54.98L151.46,54.98L151.46,54.98C151.46,54.98,151.46,54.98,151.46,54.98z"/>
				<path class="st150" d="M126.35,87.61c-0.12,0.03-0.24,0.06-0.36,0.08c0.01,0.05,0.02,0.1,0.04,0.14
					C126.14,87.77,126.24,87.69,126.35,87.61z"/>
				<path class="st151" d="M136.35,58.86l0.07,0.24c-0.01-0.03-0.01-0.07-0.01-0.09c0,0,0-0.01,0-0.01
					C136.39,58.95,136.37,58.9,136.35,58.86z"/>
				<path class="st152" d="M140.75,54.99c0.15,2.25,2.02,4.03,4.3,4.03c2.29,0,4.16-1.78,4.3-4.03H140.75z"/>
				<path class="st153" d="M161.04,78.08l1.1,22.67c-1.18,0.19-2.37,0.36-3.57,0.49c-11.25,1.33-21.3,0.09-26.85-1.58
					c-1-6.86-2.41-15.62-2.89-23.55l-6.65-2.13c-0.28-0.09-0.44-0.38-0.36-0.66l0.78-2.8l0.16-0.56l1.67-5.98
					c1.08-3.86,4.06-6.9,7.89-8.05l0.32-0.1h0.01l0.02-0.01l4.4-1.33l0.03-0.01l1.17-0.36l2.34-0.7h8.78l2.29,0.64l1.07,0.3
					l0.3,0.08l3.52,0.99l0.3,0.08l0.48,0.14c0,0,0,0,0.01,0c0.02,0.01,0.06,0.01,0.12,0.03c0.19,0.05,0.38,0.11,0.56,0.17
					c0.17,0.05,0.37,0.12,0.58,0.21c1.51,0.62,4.11,2.13,6.47,5.58c1.25,1.83,2.19,4.19,3.09,7.28c0.26,0.87,0.51,1.8,0.76,2.8
					l-7.95,4.73L161.04,78.08z"/>
				<path class="st3" d="M151.67,54.21c0,3.7-3,6.71-6.7,6.71c-3.7,0-6.71-3-6.71-6.71v-0.08l2.33-0.71h8.78l2.29,0.64
					C151.67,54.11,151.67,54.16,151.67,54.21z"/>
				<path class="st120" d="M149.37,50.36v4.59c0,0.26-0.02,0.52-0.08,0.76v0.01c-0.36,1.74-1.9,3.05-3.74,3.05h-1.01
					c-1.48,0-2.75-0.83-3.39-2.06c-0.17-0.31-0.28-0.64-0.36-0.99v-0.01c-0.05-0.24-0.07-0.5-0.07-0.76v-4.59
					c0-2.11,1.71-3.82,3.82-3.82h1.01C147.66,46.54,149.37,48.26,149.37,50.36z"/>
				<path class="st147" d="M140.72,52.73v2.22c0,0.26,0.02,0.52,0.07,0.76v0.01c0.07,0.35,0.19,0.69,0.36,0.99
					c0.63,1.23,1.91,2.06,3.39,2.06h1.01c1.85,0,3.38-1.31,3.74-3.05v-0.01c0.01-0.04,0.01-0.08,0.02-0.13
					C146.67,53.91,143.89,52.91,140.72,52.73z"/>
				<path class="st3" d="M146.41,44.27c-0.05,0.32-0.13,0.63-0.24,0.92c-0.56,1.38-1.93,2.34-3.51,2.31
					c-1.22-0.03-2.3-0.64-2.95-1.56c-0.11-0.15-0.21-0.31-0.29-0.49c-0.06-0.13-0.12-0.26-0.17-0.4c-0.11-0.31-0.15-0.63-0.21-0.96
					c-0.05-0.24,0.24-0.2,0.24-0.2c2.27,0.18,4.65,0.23,6.92,0.14C146.18,44.04,146.44,44.04,146.41,44.27z"/>
				<path class="st154" d="M137.42,39.49c0,1.82-1.01,3.3-2.25,3.3c-1.24,0-2.25-1.48-2.25-3.3c0-1.82,1.01-3.3,2.25-3.3
					C136.41,36.19,137.42,37.66,137.42,39.49z"/>
				<path class="st154" d="M155.21,40.62c0,0.09-0.74,0.37-0.74,0.37c0,5.83-5.17,10.59-11,10.59c-4.66,0-9.55-5.16-8.64-10.92
					c0.42-2.7,0.49-4.99,1.05-11.05l6.31-1.81l11.18,2.23c1.05,2.79,1.5,5.87,1.69,8c-0.54,0.08-0.96,0.63-0.96,1.29
					C154.11,40.05,154.6,40.62,155.21,40.62z"/>
				<g>
					<path class="st154" d="M135.17,38.92c0.03,1.49,3.81,2.63,8.45,2.56c4.65-0.07,8.39-1.34,8.37-2.83
						c-0.02-1.49-3.81-2.63-8.46-2.56C138.89,36.17,135.15,37.44,135.17,38.92z"/>
					<path class="st155" d="M135.28,38.91c0.03,1.46,3.76,2.59,8.34,2.52c4.59-0.07,8.28-1.32,8.26-2.78
						c-0.02-1.46-3.76-2.59-8.35-2.52C138.95,36.2,135.25,37.45,135.28,38.91z"/>
					<path class="st156" d="M135.38,38.9c0.02,1.44,3.71,2.55,8.23,2.48c4.52-0.07,8.17-1.3,8.15-2.74
						c-0.02-1.44-3.71-2.55-8.23-2.48C139.01,36.23,135.36,37.46,135.38,38.9z"/>
					<path class="st157" d="M135.49,38.9c0.02,1.42,3.66,2.51,8.12,2.44c4.46-0.07,8.06-1.28,8.04-2.7
						c-0.02-1.42-3.66-2.52-8.12-2.44C139.07,36.27,135.47,37.47,135.49,38.9z"/>
					<path class="st158" d="M135.6,38.89c0.02,1.4,3.61,2.47,8.01,2.4c4.4-0.07,7.96-1.26,7.93-2.66c-0.02-1.4-3.61-2.48-8.01-2.41
						C139.12,36.3,135.57,37.49,135.6,38.89z"/>
					<path class="st159" d="M135.7,38.88c0.02,1.38,3.56,2.43,7.9,2.37c4.34-0.07,7.85-1.24,7.82-2.62
						c-0.02-1.38-3.56-2.44-7.9-2.37C139.18,36.33,135.68,37.5,135.7,38.88z"/>
					<path class="st160" d="M135.81,38.87c0.02,1.35,3.51,2.4,7.79,2.33c4.28-0.07,7.74-1.22,7.71-2.57
						c-0.02-1.35-3.51-2.4-7.79-2.33C139.24,36.36,135.79,37.51,135.81,38.87z"/>
					<path class="st161" d="M135.91,38.86c0.02,1.33,3.46,2.36,7.68,2.29c4.22-0.07,7.63-1.2,7.61-2.53
						c-0.02-1.33-3.46-2.36-7.68-2.29C139.3,36.39,135.89,37.53,135.91,38.86z"/>
					<path class="st162" d="M136.02,38.85c0.02,1.31,3.41,2.32,7.57,2.25c4.16-0.07,7.52-1.18,7.5-2.49
						c-0.02-1.31-3.41-2.32-7.57-2.25C139.35,36.42,136,37.54,136.02,38.85z"/>
					<path class="st163" d="M136.13,38.84c0.02,1.29,3.36,2.28,7.46,2.21c4.1-0.06,7.41-1.16,7.39-2.45
						c-0.02-1.29-3.36-2.28-7.46-2.21C139.41,36.45,136.1,37.55,136.13,38.84z"/>
					<path class="st164" d="M136.23,38.83c0.02,1.27,3.31,2.24,7.35,2.17c4.04-0.06,7.3-1.14,7.28-2.41
						c-0.02-1.27-3.31-2.24-7.35-2.18C139.47,36.49,136.21,37.56,136.23,38.83z"/>
					<path class="st165" d="M136.34,38.82c0.02,1.24,3.26,2.2,7.24,2.14c3.98-0.06,7.19-1.12,7.17-2.37
						c-0.02-1.24-3.26-2.2-7.24-2.14C139.53,36.52,136.32,37.58,136.34,38.82z"/>
					<path class="st166" d="M136.44,38.81c0.02,1.22,3.21,2.16,7.13,2.1c3.92-0.06,7.08-1.1,7.06-2.32
						c-0.02-1.22-3.21-2.16-7.13-2.1C139.58,36.55,136.42,37.59,136.44,38.81z"/>
					<path class="st167" d="M136.55,38.8c0.02,1.2,3.16,2.12,7.02,2.06c3.86-0.06,6.97-1.08,6.95-2.28
						c-0.02-1.2-3.16-2.12-7.02-2.06C139.64,36.58,136.53,37.6,136.55,38.8z"/>
					<path class="st168" d="M136.66,38.79c0.02,1.18,3.11,2.08,6.91,2.02c3.8-0.06,6.86-1.06,6.84-2.24
						c-0.02-1.18-3.11-2.08-6.91-2.02C139.7,36.61,136.64,37.61,136.66,38.79z"/>
					<path class="st169" d="M136.76,38.78c0.02,1.15,3.06,2.04,6.8,1.98c3.74-0.06,6.75-1.04,6.73-2.2
						c-0.02-1.15-3.06-2.04-6.8-1.98C139.76,36.64,136.74,37.63,136.76,38.78z"/>
					<path class="st170" d="M136.87,38.77c0.02,1.13,3.01,2,6.69,1.94c3.68-0.06,6.64-1.02,6.62-2.16c-0.02-1.13-3.01-2-6.69-1.95
						C139.81,36.67,136.85,37.64,136.87,38.77z"/>
					<path class="st171" d="M136.97,38.76c0.02,1.11,2.96,1.96,6.58,1.91c3.61-0.06,6.53-1,6.51-2.12
						c-0.02-1.11-2.96-1.97-6.58-1.91C139.87,36.71,136.96,37.65,136.97,38.76z"/>
					<path class="st172" d="M137.08,38.75c0.02,1.09,2.91,1.92,6.47,1.87c3.55-0.06,6.42-0.98,6.4-2.07
						c-0.02-1.09-2.91-1.93-6.47-1.87C139.93,36.74,137.06,37.67,137.08,38.75z"/>
					<path class="st173" d="M137.18,38.75c0.02,1.07,2.86,1.89,6.36,1.83c3.49-0.05,6.31-0.96,6.3-2.03
						c-0.02-1.07-2.86-1.89-6.36-1.83C139.99,36.77,137.17,37.68,137.18,38.75z"/>
					<path class="st174" d="M137.29,38.74c0.02,1.04,2.81,1.85,6.25,1.79c3.43-0.05,6.2-0.95,6.19-1.99
						c-0.02-1.04-2.81-1.85-6.25-1.79C140.04,36.8,137.27,37.69,137.29,38.74z"/>
					<path class="st175" d="M137.4,38.73c0.02,1.02,2.76,1.81,6.14,1.75c3.37-0.05,6.09-0.93,6.08-1.95
						c-0.02-1.02-2.76-1.81-6.14-1.75C140.1,36.83,137.38,37.7,137.4,38.73z"/>
					<path class="st176" d="M137.5,38.72c0.02,1,2.71,1.77,6.03,1.72c3.31-0.05,5.98-0.91,5.97-1.91c-0.02-1-2.71-1.77-6.03-1.72
						C140.16,36.86,137.49,37.72,137.5,38.72z"/>
					<path class="st177" d="M137.61,38.71c0.02,0.98,2.66,1.73,5.92,1.68c3.25-0.05,5.87-0.89,5.86-1.86
						c-0.01-0.98-2.66-1.73-5.92-1.68C140.22,36.89,137.59,37.73,137.61,38.71z"/>
					<path class="st178" d="M137.71,38.7c0.02,0.96,2.61,1.69,5.81,1.64c3.19-0.05,5.77-0.87,5.75-1.82
						c-0.01-0.96-2.61-1.69-5.81-1.64C140.27,36.93,137.7,37.74,137.71,38.7z"/>
					<path class="st178" d="M137.82,38.69c0.02,0.93,2.57,1.65,5.7,1.6c3.13-0.05,5.66-0.85,5.64-1.78
						c-0.01-0.93-2.56-1.65-5.69-1.6C140.33,36.96,137.81,37.75,137.82,38.69z"/>
					<path class="st179" d="M137.93,38.68c0.02,0.91,2.52,1.61,5.59,1.56c3.07-0.05,5.55-0.83,5.53-1.74
						c-0.01-0.91-2.51-1.61-5.58-1.56C140.39,36.99,137.91,37.77,137.93,38.68z"/>
					<path class="st180" d="M138.03,38.67c0.02,0.89,2.47,1.57,5.47,1.52c3.01-0.05,5.44-0.81,5.42-1.7
						c-0.01-0.89-2.46-1.57-5.47-1.52C140.45,37.02,138.02,37.78,138.03,38.67z"/>
					<path class="st181" d="M138.14,38.66c0.01,0.87,2.42,1.53,5.36,1.49c2.95-0.05,5.33-0.79,5.31-1.66
						c-0.01-0.87-2.41-1.53-5.36-1.49C140.5,37.05,138.13,37.79,138.14,38.66z"/>
					<path class="st182" d="M138.24,38.65c0.01,0.84,2.37,1.49,5.25,1.45c2.89-0.04,5.22-0.77,5.2-1.61
						c-0.01-0.84-2.36-1.49-5.25-1.45C140.56,37.08,138.23,37.8,138.24,38.65z"/>
					<path class="st183" d="M138.35,38.64c0.01,0.82,2.32,1.45,5.14,1.41c2.83-0.04,5.11-0.75,5.09-1.57
						c-0.01-0.82-2.31-1.45-5.14-1.41C140.62,37.11,138.34,37.82,138.35,38.64z"/>
					<path class="st184" d="M138.46,38.63c0.01,0.8,2.27,1.41,5.03,1.37c2.77-0.04,5-0.73,4.99-1.53c-0.01-0.8-2.27-1.42-5.03-1.37
						C140.68,37.15,138.44,37.83,138.46,38.63z"/>
					<path class="st185" d="M138.56,38.62c0.01,0.78,2.22,1.38,4.92,1.33c2.71-0.04,4.89-0.71,4.88-1.49
						c-0.01-0.78-2.22-1.38-4.92-1.33C140.73,37.18,138.55,37.84,138.56,38.62z"/>
					<path class="st186" d="M138.67,38.61c0.01,0.76,2.17,1.34,4.81,1.29c2.64-0.04,4.78-0.69,4.77-1.45
						c-0.01-0.76-2.17-1.34-4.81-1.29C140.79,37.21,138.66,37.86,138.67,38.61z"/>
					<path class="st187" d="M138.77,38.6c0.01,0.73,2.12,1.3,4.7,1.26c2.58-0.04,4.67-0.67,4.66-1.41c-0.01-0.73-2.12-1.3-4.7-1.26
						C140.85,37.24,138.76,37.87,138.77,38.6z"/>
					<path class="st188" d="M138.88,38.6c0.01,0.71,2.07,1.26,4.59,1.22c2.52-0.04,4.56-0.65,4.55-1.36
						c-0.01-0.71-2.07-1.26-4.59-1.22C140.91,37.27,138.87,37.88,138.88,38.6z"/>
					<path class="st189" d="M138.99,38.59c0.01,0.69,2.02,1.22,4.48,1.18c2.46-0.04,4.45-0.63,4.44-1.32
						c-0.01-0.69-2.02-1.22-4.48-1.18C140.96,37.3,138.98,37.89,138.99,38.59z"/>
					<path class="st190" d="M139.09,38.58c0.01,0.67,1.97,1.18,4.37,1.14c2.4-0.04,4.34-0.61,4.33-1.28
						c-0.01-0.67-1.97-1.18-4.37-1.14C141.02,37.33,139.08,37.91,139.09,38.58z"/>
					<path class="st191" d="M139.2,38.57c0.01,0.65,1.92,1.14,4.26,1.1c2.34-0.04,4.23-0.59,4.22-1.24
						c-0.01-0.65-1.92-1.14-4.26-1.1C141.08,37.37,139.19,37.92,139.2,38.57z"/>
					<path class="st192" d="M139.3,38.56c0.01,0.62,1.87,1.1,4.15,1.06c2.28-0.03,4.12-0.57,4.11-1.2c-0.01-0.62-1.87-1.1-4.15-1.07
						C141.14,37.4,139.3,37.93,139.3,38.56z"/>
					<path class="st193" d="M139.41,38.55c0.01,0.6,1.82,1.06,4.04,1.03c2.22-0.03,4.01-0.55,4-1.15c-0.01-0.6-1.82-1.06-4.04-1.03
						C141.19,37.43,139.4,37.94,139.41,38.55z"/>
					<path class="st194" d="M139.52,38.54c0.01,0.58,1.77,1.02,3.93,0.99c2.16-0.03,3.9-0.53,3.89-1.11
						c-0.01-0.58-1.77-1.02-3.93-0.99C141.25,37.46,139.51,37.96,139.52,38.54z"/>
					<path class="st195" d="M139.62,38.53c0.01,0.56,1.72,0.98,3.82,0.95c2.1-0.03,3.79-0.51,3.78-1.07
						c-0.01-0.56-1.72-0.98-3.82-0.95C141.31,37.49,139.61,37.97,139.62,38.53z"/>
					<path class="st196" d="M139.73,38.52c0.01,0.54,1.67,0.94,3.71,0.91c2.04-0.03,3.68-0.49,3.68-1.03
						c-0.01-0.54-1.67-0.94-3.71-0.91C141.36,37.52,139.72,37.98,139.73,38.52z"/>
					<path class="st197" d="M139.83,38.51c0.01,0.51,1.62,0.9,3.6,0.87c1.98-0.03,3.58-0.47,3.57-0.99c-0.01-0.51-1.62-0.9-3.6-0.87
						C141.42,37.55,139.83,38,139.83,38.51z"/>
					<path class="st198" d="M139.94,38.5c0.01,0.49,1.57,0.87,3.49,0.83c1.92-0.03,3.47-0.45,3.46-0.95
						c-0.01-0.49-1.57-0.87-3.49-0.84C141.48,37.59,139.93,38.01,139.94,38.5z"/>
					<path class="st199" d="M140.05,38.49c0.01,0.47,1.52,0.83,3.38,0.8c1.86-0.03,3.36-0.43,3.35-0.9
						c-0.01-0.47-1.52-0.83-3.38-0.8C141.54,37.62,140.04,38.02,140.05,38.49z"/>
					<path class="st200" d="M140.15,38.48c0.01,0.45,1.47,0.79,3.27,0.76c1.8-0.03,3.25-0.41,3.24-0.86
						c-0.01-0.45-1.47-0.79-3.27-0.76C141.59,37.65,140.15,38.03,140.15,38.48z"/>
					<path class="st201" d="M140.26,38.47c0.01,0.42,1.42,0.75,3.16,0.72c1.73-0.03,3.14-0.39,3.13-0.82
						c-0.01-0.42-1.42-0.75-3.15-0.72C141.65,37.68,140.25,38.05,140.26,38.47z"/>
					<path class="st202" d="M140.36,38.46c0.01,0.4,1.37,0.71,3.05,0.68c1.67-0.02,3.03-0.38,3.02-0.78
						c-0.01-0.4-1.37-0.71-3.04-0.68C141.71,37.71,140.36,38.06,140.36,38.46z"/>
				</g>
				<g>
					<path class="st3" d="M146.83,37.57c0,0.07,0.01,0.13,0.03,0.19c0.07,0.2,0.22,0.36,0.44,0.49c0.15,0.09,0.33,0.16,0.53,0.2
						c0.06,0.01,0.13,0.03,0.2,0.03c0.1,0.01,0.21,0.02,0.31,0.02h0.03c0.12,0,0.25-0.01,0.36-0.04c0.07-0.01,0.15-0.03,0.22-0.05
						c0.13-0.04,0.25-0.09,0.36-0.15v-0.01c0.32-0.17,0.53-0.44,0.52-0.73c-0.01-0.45-0.5-0.82-1.17-0.91
						c-0.11-0.02-0.23-0.02-0.34-0.02c-0.1,0-0.21,0.01-0.31,0.03c-0.17,0.02-0.33,0.07-0.47,0.13c-0.26,0.1-0.46,0.26-0.59,0.44
						C146.87,37.3,146.82,37.43,146.83,37.57z"/>
					<path class="st203" d="M147.43,37.78c0.08,0.28,0.22,0.5,0.4,0.66c0.06,0.01,0.13,0.03,0.2,0.03c0.1,0.01,0.21,0.02,0.31,0.02
						h0.03c0.12,0,0.25-0.01,0.36-0.04c0.07-0.01,0.15-0.03,0.22-0.05c0.2-0.26,0.27-0.68,0.15-1.11c-0.08-0.29-0.25-0.53-0.44-0.69
						c-0.11-0.02-0.23-0.02-0.34-0.02c-0.1,0-0.21,0.01-0.31,0.03c-0.17,0.02-0.33,0.07-0.47,0.13
						C147.36,37,147.31,37.39,147.43,37.78z"/>
					<path class="st3" d="M147.29,37.44c0,0.17,0.14,0.3,0.3,0.3c0.16,0,0.3-0.14,0.29-0.31c0-0.16-0.14-0.3-0.3-0.3
						C147.42,37.14,147.29,37.28,147.29,37.44z"/>
					<path class="st3" d="M148.94,37.99c0,0.12,0.1,0.22,0.22,0.22c0.12,0,0.22-0.1,0.22-0.22c0-0.12-0.1-0.22-0.22-0.22
						C149.04,37.77,148.94,37.87,148.94,37.99z"/>
				</g>
				<g>
					<path class="st3" d="M137.98,37.61c0,0.06,0.01,0.13,0.04,0.19c0.07,0.2,0.22,0.36,0.44,0.49c0.15,0.09,0.33,0.16,0.53,0.2
						c0.06,0.01,0.13,0.03,0.19,0.03c0.1,0.01,0.21,0.02,0.31,0.01h0.02c0.12,0,0.25-0.01,0.36-0.04c0.08-0.01,0.15-0.03,0.22-0.05
						c0.13-0.04,0.25-0.09,0.36-0.15v-0.01c0.32-0.17,0.52-0.44,0.52-0.73c-0.01-0.45-0.51-0.82-1.17-0.91
						c-0.11-0.02-0.23-0.02-0.35-0.02c-0.1,0-0.21,0.01-0.31,0.03c-0.17,0.02-0.33,0.07-0.47,0.12c-0.26,0.1-0.46,0.26-0.59,0.44
						C138.02,37.34,137.97,37.47,137.98,37.61z"/>
					<path class="st203" d="M138.58,37.82c0.08,0.28,0.22,0.5,0.4,0.66c0.06,0.01,0.13,0.03,0.19,0.03c0.1,0.01,0.21,0.02,0.31,0.01
						h0.02c0.12,0,0.25-0.01,0.36-0.04c0.08-0.01,0.15-0.03,0.22-0.05c0.2-0.26,0.27-0.68,0.15-1.11c-0.08-0.29-0.25-0.53-0.44-0.69
						c-0.11-0.02-0.23-0.02-0.35-0.02c-0.1,0-0.21,0.01-0.31,0.03c-0.17,0.02-0.33,0.07-0.47,0.12
						C138.51,37.05,138.46,37.44,138.58,37.82z"/>
					<path class="st3" d="M138.44,37.41c0,0.17,0.14,0.3,0.3,0.3c0.16,0,0.29-0.14,0.29-0.3c0-0.16-0.14-0.3-0.3-0.3
						C138.56,37.11,138.43,37.24,138.44,37.41z"/>
					<path class="st3" d="M140.12,38.05c0,0.12,0.1,0.22,0.22,0.22c0.12,0,0.22-0.1,0.21-0.22c0-0.12-0.1-0.22-0.22-0.22
						C140.21,37.83,140.12,37.93,140.12,38.05z"/>
				</g>
				<path class="st154" d="M152.18,39.71c0,1.82,1.01,3.3,2.25,3.3c1.24,0,2.25-1.48,2.25-3.3c0-1.82-1.01-3.3-2.25-3.3
					C153.18,36.41,152.18,37.89,152.18,39.71z"/>
				<path class="st3" d="M147.58,44.02c-0.04,0.33-0.13,0.64-0.25,0.94c-0.58,1.42-1.98,2.4-3.59,2.37
					c-1.26-0.03-2.36-0.65-3.03-1.6c-0.11-0.15-0.22-0.32-0.3-0.5c-0.06-0.14-0.13-0.27-0.18-0.41c-0.11-0.31-0.15-0.64-0.22-0.98
					c-0.05-0.25,0.24-0.2,0.24-0.2c2.33,0.19,4.76,0.24,7.1,0.14C147.35,43.78,147.61,43.78,147.58,44.02z"/>
				<path class="st204" d="M150.77,36.46c-0.09,0-0.18-0.03-0.25-0.1c-0.43-0.42-1.61-1.39-3.28-1.3c-0.2,0.01-0.37-0.14-0.38-0.34
					c-0.01-0.2,0.14-0.37,0.34-0.38c1.96-0.1,3.32,1.02,3.82,1.5c0.14,0.14,0.15,0.37,0.01,0.51
					C150.95,36.42,150.86,36.46,150.77,36.46z"/>
				<path class="st120" d="M135.99,34.04c0,0,2.44-4.13,13.83-3.18C146.03,29.36,133.5,26.27,135.99,34.04z"/>
				<path class="st204" d="M137.22,35.79c-0.11,0-0.22-0.05-0.29-0.15c-0.12-0.16-0.08-0.38,0.08-0.5c0.68-0.51,1.81-1.1,3.26-1.03
					c0.2,0.01,0.35,0.18,0.34,0.38c-0.01,0.2-0.18,0.35-0.38,0.34c-1.24-0.06-2.2,0.45-2.79,0.89
					C137.37,35.77,137.3,35.79,137.22,35.79z"/>
				<g>
					<path class="st152" d="M144.03,36.81c-0.04,0.64-0.16,1.27-0.4,1.88c-0.07,0.15-0.13,0.3-0.21,0.45
						c-0.07,0.15-0.17,0.29-0.27,0.43c-0.11,0.13-0.21,0.28-0.34,0.4c-0.12,0.13-0.27,0.23-0.42,0.34l0.19-0.28l0,0
						c-0.03,0.32,0.1,0.72,0.31,1c0.1,0.14,0.23,0.25,0.35,0.3c0.06,0.02,0.12,0.04,0.19,0.04c0.06,0,0.13-0.02,0.19-0.04l0.03-0.01
						c0.19-0.06,0.39,0.04,0.45,0.23c0.06,0.18-0.04,0.38-0.22,0.45c-0.14,0.05-0.29,0.09-0.45,0.09c-0.16,0-0.32-0.03-0.46-0.09
						c-0.29-0.12-0.5-0.32-0.66-0.53c-0.16-0.22-0.28-0.45-0.35-0.7c-0.08-0.25-0.12-0.51-0.09-0.79l0,0l0.02-0.2l0.17-0.09
						c0.12-0.06,0.25-0.11,0.36-0.19c0.12-0.07,0.22-0.17,0.34-0.26c0.1-0.1,0.21-0.21,0.3-0.33c0.1-0.11,0.18-0.24,0.26-0.37
						C143.63,38.01,143.87,37.42,144.03,36.81z"/>
				</g>
				<path class="st152" d="M155.44,39.49c0,0.56-0.38,1.01-0.85,1.01c0-0.27-0.02-1-0.11-2.01c0.04-0.01,0.07-0.01,0.11-0.01
					C155.05,38.47,155.44,38.93,155.44,39.49z"/>
				<path class="st152" d="M133.68,39.49c0,0.56,0.38,1.01,0.85,1.01c0-0.27,0.02-1,0.11-2.02c-0.03-0.01-0.07-0.01-0.11-0.01
					C134.06,38.47,133.68,38.93,133.68,39.49z"/>
				<path class="st205" d="M167.35,161.55h-11l-3.44-20.46l-3.17-18.93l-1.92-11.38c-0.9-0.09-1.77-0.25-2.61-0.45
					c-0.8,2.63-2.54,8.26-4.42,13.95c-0.5,1.51-1.01,3.02-1.52,4.49c-0.41,1.18-0.81,2.33-1.21,3.42c0.04,2.26,0.13,4.39,0.21,6.46
					c0.06,1.54,0.11,3.05,0.15,4.55c0.11,5.26-0.07,10.45-1.4,16.74h-12.24c-0.02-0.37-0.02-0.93,0-1.67
					c0.05-3.48,0.37-10.62,0.67-16.91c0.29-5.99,0.58-11.21,0.63-11.81c0.13-1.39,0.76-5.33,1.54-9.9c1-5.84,2.24-12.75,2.98-16.84
					c0.34-3.77,0.27-8.86-0.46-14c1.47-2.89,1.23-8.29,1.04-10.74l-0.13-1.29L131,68.62h23.96l0.22,4.41l0.04-0.72
					c0,0,0.55,14.62,6.39,17.46c0.01,0.3,0.03,0.65,0.05,1.05c0.02,0.25,0.04,0.52,0.06,0.8c0.11,1.62,0.25,3.79,0.44,6.21
					c0.04,0.6,0.09,1.21,0.13,1.84c0.14,1.83,0.28,3.76,0.42,5.67c0.21,2.66,0.41,5.3,0.59,7.58c0.2,2.56,0.37,4.69,0.47,5.98
					c0.07,0.84,0.11,1.31,0.11,1.31L167.35,161.55z"/>
				<path class="st206" d="M137.78,163.27c0,0.28-0.23,0.51-0.51,0.51h-13.23c-0.33,0-0.6-0.27-0.6-0.6v-4.66
					c0-0.28,0.23-0.51,0.51-0.51h13.33c0.28,0,0.51,0.23,0.51,0.51V163.27z"/>
				<path class="st207" d="M150.81,29.16c0.14-0.38,0.47-0.65,1.05-0.88c0.6-0.25,1.28-0.25,1.88,0.01c2.46,1.08,2,5.06,1.67,7.13
					c0.02,0.47-0.04,0.96-0.29,1.13l0.09,0.04c-0.64-0.22-0.55,0.94-0.65,1.38c-0.19,0.81-1.02,1.01-1.35,0.23
					c-0.36-0.84,0.02-1.8-0.11-2.67c-0.15-0.93-0.56-1.81-1.14-2.55c-0.56-0.71-0.92-1.74-1.13-2.61
					C150.72,29.86,150.7,29.47,150.81,29.16z"/>
				<path class="st208" d="M164.36,125.8h-2.64c-2.93,0-5.39-2.19-5.73-5.1l-1.66-14.13h8.55c0.14,1.83,0.28,3.76,0.42,5.67
					c0.21,2.66,0.41,5.3,0.59,7.58C164.08,122.37,164.26,124.51,164.36,125.8z"/>
				<path class="st207" d="M137.17,27.52c-0.18,0.02-0.35,0.06-0.52,0.1c-0.31,0.09-0.7,0.22-1,0.36c-2.84,1.35-2.52,4.81-2.11,7.45
					c-0.01,0.47,0.04,0.96,0.29,1.13l-0.09,0.04c0.64-0.22,0.55,0.94,0.65,1.38c0.15,0.64,0.87,0.95,1.28,0.36
					c0.43-0.61,0.17-1.39,0.19-2.07c0.03-0.73,0.08-1.48,0.13-2.21c0.11-1.6,0.52-3.16,1.65-4.35c0.81-0.86,2.39-1.36,3.55-1.52
					c0.38-0.05,2.02,0.03,2.11-0.55c0.13-0.75-1.18-0.37-1.53-0.31c-1.22,0.19-2.6,0.09-3.86,0.15
					C137.68,27.47,137.43,27.48,137.17,27.52z"/>
				<g>
					<path class="st125" d="M93.75,164.84c-0.36,0.4-0.74,0.78-1.14,1.13c-6.35-3.08-10.75-9.59-10.77-17.11h1.52
						C83.38,155.97,87.65,162.09,93.75,164.84z"/>
				</g>
				<g>
					<path class="st209" d="M138.27,136.13c0.06,1.54,0.11,3.05,0.15,4.55c-2.65,6.86-7.37,12.7-13.39,16.74h-0.25
						c-0.02-0.37-0.02-0.93,0-1.67C131.39,151.11,136.27,144.18,138.27,136.13z"/>
					<path class="st208" d="M140.79,97.46v26.83c-0.5,1.51-1.01,3.02-1.52,4.49V97.46c0-0.42,0.34-0.76,0.76-0.76
						C140.45,96.71,140.79,97.04,140.79,97.46z"/>
				</g>
				<g>
					<path class="st3" d="M105.28,159.9h-5.66c-10.52,0-19.07-8.56-19.07-19.07c0-4.46-3.63-8.08-8.08-8.08h-0.41
						c-0.42,0-0.76-0.34-0.76-0.76s0.34-0.76,0.76-0.76h0.41c5.29,0,9.6,4.3,9.6,9.6c0,9.68,7.88,17.56,17.56,17.56h5.66
						c18.74,0,33.99-15.25,33.99-33.99V91.4c0-0.42,0.34-0.76,0.76-0.76c0.42,0,0.76,0.34,0.76,0.76v32.99
						C140.79,143.97,124.86,159.9,105.28,159.9z"/>
				</g>
				<g>
					<path class="st209" d="M133.91,125.01c-2.46,0-4.46-2-4.46-4.45V102c0-0.42,0.34-0.76,0.76-0.76c0.42,0,0.76,0.34,0.76,0.76
						v18.56c0,1.62,1.32,2.94,2.94,2.94c1.36,0,2.48-1.11,2.48-2.48V97.43c0-0.42,0.34-0.76,0.76-0.76c0.42,0,0.76,0.34,0.76,0.76
						v23.59C137.9,123.22,136.11,125.01,133.91,125.01z"/>
				</g>
				<g>
					<path class="st3" d="M133.74,116.94c-2.46,0-4.46-2-4.46-4.46V93.93c0-0.42,0.34-0.76,0.76-0.76c0.42,0,0.76,0.34,0.76,0.76
						v18.56c0,1.62,1.32,2.94,2.94,2.94c1.36,0,2.48-1.11,2.48-2.48V89.36c0-0.42,0.34-0.76,0.76-0.76s0.76,0.34,0.76,0.76v23.59
						C137.73,115.15,135.94,116.94,133.74,116.94z"/>
				</g>
				<path class="st210" d="M150.04,31.78c-0.62-0.18-2.33-0.24-2.97-0.33c-1.73-0.41-4.38-2.11-6.13-2.35
					c-2.92-0.62-5.55,0.33-8.28,1.48c0.82-5.16,5.75-9.13,11.74-9.13c6.56,0,11.05,3.54,11.58,9.71c0.06,0.66-0.17,2.41-0.3,3.04
					C153.67,34.57,152.65,32.56,150.04,31.78z"/>
				<path class="st211" d="M143.2,28.96c0,0-9.31,0-9.7,4.01c-2.13-0.05-3.71-5.33-0.85-6.4c2.87-1.07,10.34,0.89,10.34,0.89
					L143.2,28.96z"/>
				<path class="st209" d="M162.15,97.82c0,0-9.26,1.36-12.32,0.87c-3.07-0.48-5.7-4.57-5.7-4.57l17.58-2.51
					C161.82,93.23,161.96,95.4,162.15,97.82z"/>
				<g>
					<rect x="132.88" y="81.21" class="st212" width="7.49" height="2.78"/>
					<polygon class="st213" points="143.65,91.4 136.15,91.4 132.88,83.99 140.37,83.99 					"/>
					<polygon class="st145" points="143.65,88.62 143.65,91.4 140.37,83.99 140.37,81.21 					"/>
				</g>
				<path class="st214" d="M153.79,33.63c0,0-2.87-5.38-15.05-7.19c-5.45-0.81-6.69,0.47-6.69,0.47s4.99-0.81,8.57,1.77
					C143.13,30.49,148.74,33.92,153.79,33.63z"/>
				<path class="st147" d="M168.56,74.47l-0.26-3l-7.18,2.79l-0.81,1.11l1.34,10.04c0,0,0.02,0.02,0.02,0.02l-11.29,1.74
					c-0.45-0.02-0.84-0.08-1.12-0.19c-1.42-0.74-2.74-1.7-4.15-2.47c-0.47-0.26-0.95-0.6-1.5-0.67c-0.58-0.07-1.14,0.04-1.72,0.11
					c-0.39,0.04-0.3,0.08-0.24,0.44c0.04,0.23,0.05,0.44-0.01,0.68c-0.35,1.57-2.18,1.75-3.51,1.82c-0.74,0.04-1.45,0.07-2.17-0.05
					c-0.51-0.08-1.63-0.13-1.92,0.42c-0.16,0.3-0.04,0.85,0.08,1.14c0.25,0.6,0.94,0.67,1.46,0.9c-1.06,0-0.91,1.03-0.33,1.59
					c0.56,0.55,1.48,0.67,2.2,1.01c0.84,0.4,1.47,0.96,2.33,1.32c1.01,0.43,2.01,1.35,3.14,1.43c1.12,0.08,2.32-0.11,3.46-0.09
					c0.39,0,2.53-0.1,3.24-0.12c0.54-0.01,10.32-1.43,16.15-2.28c2.4-0.35,4.12-2.51,3.91-4.93L168.56,74.47z"/>
				<polygon class="st122" points="167.36,173.08 158.24,173.08 156.89,161.56 166,161.56 				"/>
				<path class="st206" d="M168.78,163.25c0.01,0.13-0.02,0.27-0.11,0.37c-0.08,0.11-0.21,0.17-0.34,0.19l-12.16,1.35
					c-0.28,0.03-0.53-0.17-0.56-0.45l-0.53-4.73c-0.01-0.13,0.02-0.27,0.11-0.37c0.08-0.11,0.21-0.17,0.34-0.19l12.16-1.35
					c0.28-0.03,0.53,0.17,0.56,0.45L168.78,163.25z"/>
			</g>
			<path class="st3" d="M169.69,74.82c-2.13,1.83-6.49,3.35-9.39,3.53l-0.31-2.49c2.97-0.4,7.01-1.86,9.09-3.46L169.69,74.82z"/>
			<path class="st153" d="M169.08,72.4c-2.08,1.6-6.85,3.18-9.81,3.58l-1.67-3.82l-0.28-0.65l0.14-0.03l10.69-2.56
				c0.26,0.87,0.51,1.8,0.76,2.8L169.08,72.4z"/>
			<g>
				<path class="st205" d="M137.07,54.49c-0.77,3.08-1.8,9.25-1.8,15.31h-3.96c0-4.96,0.72-10.7,1.36-13.98L137.07,54.49z"/>
			</g>
			<g>
				<path class="st205" d="M156.55,55.43c-0.74,2.62-1.7,7.24-1.7,13.69h-3.96c0-6.87,1.01-11.83,1.84-14.76l0.3,0.08L156.55,55.43z
					"/>
			</g>
			<path class="st3" d="M169.69,74.82c-0.27-1.1-0.52-2.14-0.77-3.11L169.69,74.82z"/>
			<path class="st3" d="M128.82,76.11l-6.65-2.13c-0.28-0.09-0.44-0.38-0.36-0.66l0.78-2.8l0.16-0.56l5.76,1.83L128.82,76.11z"/>
		</g>
		<path class="st212" d="M133.39,95.88c0.17,0.46,0.1,0.97-0.19,1.37c-0.28,0.4-0.82,1.57-1.31,1.57l-25.16-0.86
			c-1.19-0.04-2.25-0.75-2.74-1.83l-6.9-15.12c-0.15-0.42,1.27-1.73,1.53-2.1c0.26-0.37,0.68-0.58,1.12-0.58h25.61
			c1.05,0,1.98,0.66,2.33,1.64L133.39,95.88z"/>
		<path class="st213" d="M131.89,98.82c-0.28,0.4-0.74,0.64-1.23,0.64h-24.97c-0.77,0-1.5-0.28-2.05-0.77
			c-0.4-0.34-0.71-0.79-0.9-1.31l-1.9-5.32l-3.7-10.34c-0.15-0.42-0.09-0.89,0.17-1.25c0.26-0.36,0.68-0.58,1.12-0.58h25.61
			c1.05,0,1.99,0.66,2.34,1.64l5.69,15.91C132.24,97.91,132.18,98.42,131.89,98.82z"/>
		<g>
			<path class="st3" d="M136.97,171.61c0-0.01,0-0.01,0-0.02l0,0c-0.02-0.05-0.04-0.11-0.07-0.16c-3.09,2.43-18.48,4.69-21.11-0.06
				c0.57-1.75,0.18-2.2-0.2-2.29c-0.23-0.06-0.44,0.02-0.44,0.02c-0.98,0.15-1.74,0.81-2.16,2.08c-0.01,0.02-0.01,0.03-0.02,0.05
				c0,0,0,0.01,0,0.01c0,0,0,0,0,0c-0.26,0.72-0.25,1.67,0.31,2.88c1.3,2.85,6.52,3.78,11.54,3.89c2.6,0.06,8.03-0.15,10.66-0.26
				c0.95-0.04,1.75-0.74,1.92-1.68C137.61,174.86,137.69,173.13,136.97,171.61z"/>
			<path class="st206" d="M136.97,171.61c-0.28,0.23-1.67,1.41-1.79,2.97c-0.12,1.47-1.41,1.41-2.21,1.25
				c-0.01,0-0.02-0.01-0.03-0.01c-0.12-0.03-0.23-0.05-0.35-0.08c-0.22-0.06-0.44-0.12-0.66-0.18c-1.96-0.5-3.95,0.69-5.81,1.14
				c-1.98,0.47-5.24-0.08-7.89-1.21c-0.6-0.25-1.15-0.54-1.67-0.84c-0.8-0.61-1.34-1.58-0.78-3.27c0.58-1.76,0.18-2.21-0.19-2.31
				c0.38-0.06,0.81-0.03,1.29,0.11c1.38,0.39,4.23,0.82,5.48-0.09c1.34-0.98,1.31-2.79,2.46-3.86c0.86-0.81,2.85-0.55,3.69,0.19
				c0.86,0.76,1.02,2.18,2.03,2.77c0.95,0.55,3.34,0.19,4.69-0.28c0.4-0.14,0.85,0.04,1.03,0.44
				C136.65,169.26,136.97,171.54,136.97,171.61z"/>
			<g>
				<path class="st3" d="M123.56,171.89c-0.2,0-0.38-0.12-0.47-0.31c-0.42-1-1.62-1.76-2.05-1.97c-0.25-0.12-0.35-0.43-0.23-0.68
					c0.12-0.25,0.42-0.36,0.68-0.23c0.08,0.04,1.88,0.94,2.53,2.48c0.11,0.26-0.01,0.55-0.27,0.66
					C123.69,171.87,123.62,171.89,123.56,171.89z"/>
			</g>
			<g>
				<path class="st3" d="M125.35,170.82c-0.2,0-0.38-0.12-0.47-0.31c-0.42-1-1.62-1.76-2.05-1.97c-0.25-0.12-0.35-0.43-0.23-0.68
					c0.12-0.25,0.43-0.35,0.68-0.23c0.08,0.04,1.88,0.94,2.53,2.48c0.11,0.26-0.01,0.55-0.27,0.66
					C125.48,170.81,125.41,170.82,125.35,170.82z"/>
			</g>
		</g>
		<g>
			<path class="st206" d="M170.4,173.92h-0.1c-1.88,2.11-3.75-1.93-6.96-2.16c-3.03-0.22-4,3.2-6.25,3.64
				c-1.42,0.28-1.99-1.33-2.09-1.46c0-0.01,0-0.01,0-0.01c1.67-1.59,1.3-3.64,2.65-5.34c0.2-0.25,0.52-0.36,0.83-0.3
				c1.02,0.23,1.03-1.84,4.11-2.08c2.02-0.15,1.95,1.51,3.55,1.38c0.28-0.02,0.54,0.13,0.66,0.39
				C167.61,169.82,169.57,171.36,170.4,173.92z"/>
			<path class="st3" d="M168.85,177.77c0.49-0.01,2.43-0.46,1.88-2.37v-0.01c-0.06-0.53-0.18-1.02-0.33-1.47h-0.1
				c-1.88,2.11-3.75-1.93-6.96-2.17c-3.03-0.22-4,3.2-6.25,3.64c-1.42,0.28-1.99-1.33-2.09-1.46c-0.36,0.63-0.79,1.53-0.67,2.79
				c0.06,0.58,0.52,1.03,1.1,1.06C160.71,178.13,164.63,177.87,168.85,177.77z"/>
			<g>
				<path class="st3" d="M165.84,171.62c-0.08,0-0.17-0.02-0.25-0.07c-2.66-1.52-6,0-6.03,0.02c-0.25,0.12-0.55,0.01-0.67-0.24
					c-0.12-0.25-0.01-0.55,0.24-0.67c0.15-0.07,3.84-1.76,6.96,0.02c0.24,0.14,0.33,0.45,0.19,0.69
					C166.18,171.53,166.01,171.62,165.84,171.62z"/>
			</g>
			<g>
				<path class="st3" d="M159.34,170.11c-0.19,0-0.37-0.11-0.46-0.29c-0.12-0.25-0.01-0.55,0.24-0.67c0.16-0.07,3.84-1.76,6.96,0.02
					c0.24,0.14,0.33,0.45,0.19,0.69c-0.14,0.24-0.45,0.33-0.69,0.19c-2.67-1.52-6,0-6.03,0.02
					C159.48,170.1,159.41,170.11,159.34,170.11z"/>
			</g>
		</g>
		<path class="st215" d="M107.56,92.1c-1.26,1.2-0.51,1.38-0.6,2.1c-0.1,0.71-0.16,1.03-0.63,1.47c-0.48,0.44-0.57,0.92-0.98,1.61
			c-0.31,0.52-1.05,1.15-1.71,1.41c-0.4-0.34-0.71-0.79-0.9-1.31l-1.9-5.32l7.81-2.52C108.65,89.55,108.83,90.9,107.56,92.1z"/>
		<path class="st147" d="M98.26,91.47c-0.12-1.14-0.18-2.29-0.42-3.41c-0.1-0.47-0.17-0.97-0.08-1.45c0.09-0.54,0.39-0.75,0.71-1.15
			c0.1,0.28,0.24,0.46,0.41,0.71c1.52,2.14,4.59,1.89,5.63,1.89c1.06,0,2.66-0.3,3.53,0.41c0.99,0.81,0.7,1.7-0.22,2.24
			c-0.54,0.32-1.19,0.31-1.76,0.53c-0.56,0.21-0.54,0.56-0.44,1.1c0.05,0.27,0.09,0.56,0.03,0.82c-0.05,0.23-0.2,0.44-0.25,0.66
			c-0.14,0.62,0.08,1.16-0.23,1.77c-0.34,0.67-1.29,1.42-2.41,1.77c-0.82,0.26-3.33-0.64-4.1-3.6
			C98.45,93.02,98.34,92.25,98.26,91.47z"/>
	</g>
</g>
</svg>
