<?xml version="1.0" encoding="utf-8"?>
<!-- Generator: Adobe Illustrator 23.0.2, SVG Export Plug-In . SVG Version: 6.00 Build 0)  -->
<svg version="1.1" id="Layer_1" xmlns="http://www.w3.org/2000/svg" xmlns:xlink="http://www.w3.org/1999/xlink" x="0px" y="0px"
	 viewBox="0 0 200 200" style="enable-background:new 0 0 200 200;" xml:space="preserve">
<style type="text/css">
	.st0{fill:#E1713C;}
	.st1{fill:#C7542B;}
	.st2{fill:#F68C5B;}
	.st3{fill:#B44C28;}
	.st4{fill:#1A1A1A;}
	.st5{fill:#45210F;}
	.st6{fill:#FAAF43;}
	.st7{fill:#455767;}
	.st8{opacity:0.15;fill:#010101;}
	.st9{fill:#FCDD56;}
	.st10{fill:#FAA719;}
	.st11{fill:#010101;}
	.st12{fill:#74B4C9;}
	.st13{fill:#98D8E7;}
	.st14{fill:#939598;}
	.st15{fill:#D34C55;}
	.st16{fill:#E6E7E7;}
	.st17{opacity:0.05;}
	.st18{fill:#BDBEC0;}
	.st19{fill:#71523B;}
	.st20{fill:#FFDE11;}
	.st21{fill:#FEE56C;}
	.st22{fill:#FEBE44;}
	.st23{fill:#CDEBEF;}
	.st24{fill:#75CDF3;}
	.st25{fill:#54544C;}
	.st26{fill:#4D4C4C;}
	.st27{fill:#AC9F80;}
	.st28{fill:#151515;}
	.st29{fill:#1E1F27;}
	.st30{fill:#80141D;}
	.st31{fill:#F79224;}
	.st32{fill:#00ADE5;}
	.st33{fill:#FFFFFF;}
	.st34{fill:#FBAD3A;}
	.st35{fill:#C63C2B;}
	.st36{fill:#A41E22;}
	.st37{fill:#E1252A;}
	.st38{fill:#B5B5B6;}
	.st39{fill:#303030;}
	.st40{fill:#4D87B7;}
	.st41{fill:#19323F;}
</style>
<g>
	<path class="st25" d="M119.58,134.56L119.58,134.56c-16.19,0-29.32-13.13-29.32-29.32V59.41c0-16.19,13.13-29.32,29.32-29.32h0
		c16.19,0,29.32,13.13,29.32,29.32v45.83C148.89,121.44,135.77,134.56,119.58,134.56z"/>
	<path class="st1" d="M119.58,144.69L119.58,144.69c-19.33,0-35-15.67-35-35V54.97c0-19.33,15.67-35,35-35h0c19.33,0,35,15.67,35,35
		v54.72C154.58,129.02,138.91,144.69,119.58,144.69z"/>
	<path class="st26" d="M136.19,140.43h-33.22c-4.8,0-8.74-3.82-8.88-8.62l-3.01-98.42c-0.15-5.01,3.87-9.16,8.88-9.16h39.24
		c5.02,0,9.04,4.15,8.88,9.16l-3.01,98.42C144.92,136.61,140.99,140.43,136.19,140.43z"/>
	<path class="st27" d="M92.93,33.63l1.44,19.31c0.04,0.55,0.49,0.97,1.04,0.97h48.57c0.54,0,0.99-0.42,1.03-0.96l1.47-19.31
		c0.32-4.21-3.01-7.81-7.24-7.81h-39.08C95.95,25.83,92.62,29.42,92.93,33.63z"/>
	<path class="st27" d="M92.93,33.63l1.44,19.31c0.04,0.55,0.49,0.97,1.04,0.97h48.57c0.54,0,0.99-0.42,1.03-0.96l1.47-19.31
		c0.32-4.21-3.01-7.81-7.24-7.81h-39.08C95.95,25.83,92.62,29.42,92.93,33.63z"/>
	<g>
		<path class="st11" d="M143.98,53.55H95.41c-0.36,0-0.66-0.28-0.69-0.64L93.28,33.6c-0.14-1.94,0.5-3.79,1.82-5.21
			c1.32-1.42,3.12-2.21,5.06-2.21h39.08c1.94,0,3.74,0.78,5.06,2.21c1.32,1.43,1.97,3.28,1.82,5.21l-1.47,19.31
			C144.63,53.27,144.33,53.55,143.98,53.55z M100.17,26.37c-1.89,0-3.64,0.76-4.93,2.15c-1.29,1.39-1.92,3.19-1.78,5.07L94.9,52.9
			c0.02,0.27,0.24,0.47,0.51,0.47h48.57c0.26,0,0.48-0.2,0.5-0.47l1.47-19.31c0.14-1.89-0.49-3.69-1.77-5.08
			c-1.29-1.39-3.04-2.15-4.93-2.15H100.17z"/>
	</g>
	<g>
		<path class="st11" d="M101.05,40.92l-0.87,1.04l-0.52-0.62v-6.51l1.38,1.66V40.92z M101.05,48.04l-1.38,1.66v-6.48l0.52-0.64
			l0.87,1.04V48.04z M107.13,34.54l-1.36,1.66h-4.47l-1.36-1.66H107.13z M107.13,50.01h-7.2l1.36-1.66h4.47L107.13,50.01z
			 M107.39,41.34l-0.5,0.62l-0.88-1.04v-4.43l1.38-1.66V41.34z M107.39,49.7l-1.38-1.66v-4.43l0.88-1.04l0.5,0.64V49.7z"/>
		<path class="st11" d="M109.6,50.01v-1.66h1.38v1.66H109.6z"/>
		<path class="st11" d="M114.55,40.92l-0.87,1.04l-0.52-0.62v-6.51l1.38,1.66V40.92z M114.55,48.04l-1.38,1.66v-6.48l0.52-0.64
			l0.87,1.04V48.04z M120.63,34.54l-1.36,1.66h-4.47l-1.36-1.66H120.63z M120.63,50.01h-7.2l1.36-1.66h4.47L120.63,50.01z
			 M120.89,41.34l-0.5,0.62l-0.88-1.04v-4.43l1.38-1.66V41.34z M120.89,49.7l-1.38-1.66v-4.43l0.88-1.04l0.5,0.64V49.7z"/>
		<path class="st11" d="M124.48,40.92l-0.87,1.04l-0.52-0.62v-6.51l1.38,1.66V40.92z M124.48,48.04l-1.38,1.66v-6.48l0.52-0.64
			l0.87,1.04V48.04z M130.55,34.54l-1.36,1.66h-4.47l-1.36-1.66H130.55z M130.55,50.01h-7.2l1.36-1.66h4.47L130.55,50.01z
			 M130.81,41.34l-0.5,0.62l-0.88-1.04v-4.43l1.38-1.66V41.34z M130.81,49.7l-1.38-1.66v-4.43l0.88-1.04l0.5,0.64V49.7z"/>
		<path class="st11" d="M134.4,40.92l-0.87,1.04l-0.52-0.62v-6.51l1.38,1.66V40.92z M134.4,48.04l-1.38,1.66v-6.48l0.52-0.64
			l0.87,1.04V48.04z M140.48,34.54l-1.36,1.66h-4.47l-1.36-1.66H140.48z M140.48,50.01h-7.2l1.36-1.66h4.47L140.48,50.01z
			 M140.73,41.34l-0.5,0.62l-0.88-1.04v-4.43l1.38-1.66V41.34z M140.73,49.7l-1.38-1.66v-4.43l0.88-1.04l0.5,0.64V49.7z"/>
	</g>
	<circle class="st28" cx="120.19" cy="85" r="21.63"/>
	<circle class="st29" cx="120.19" cy="85" r="20.52"/>
	<polygon class="st1" points="123.35,76.14 123.35,105.28 117.94,105.28 117.94,76.14 120.38,64.48 120.91,64.48 	"/>
	<rect x="120.38" y="64.48" class="st30" width="0.48" height="18.27"/>
	<polygon class="st31" points="98.98,65.48 94.44,65.48 94.44,56.39 103.53,56.39 103.53,60.94 	"/>
	<polygon class="st32" points="140.57,65.48 145.12,65.48 145.12,56.39 136.03,56.39 136.03,60.94 	"/>
	<rect x="94.47" y="85.15" class="st33" width="4.09" height="0.56"/>
	
		<rect x="95.76" y="77" transform="matrix(0.9392 0.3435 -0.3435 0.9392 32.4953 -28.8937)" class="st33" width="4.09" height="0.56"/>
	
		<rect x="99.77" y="69.78" transform="matrix(0.764 0.6452 -0.6452 0.764 69.2271 -49.1573)" class="st33" width="4.09" height="0.56"/>
	
		<rect x="106.01" y="64.37" transform="matrix(0.4959 0.8684 -0.8684 0.4959 110.6169 -61.2428)" class="st33" width="4.09" height="0.56"/>
	
		<rect x="113.73" y="61.45" transform="matrix(0.1674 0.9859 -0.9859 0.1674 157.2479 -62.7527)" class="st33" width="4.09" height="0.56"/>
	
		<rect x="121.99" y="61.35" transform="matrix(-0.1814 0.9834 -0.9834 -0.1814 207.141 -49.1692)" class="st33" width="4.09" height="0.56"/>
	
		<rect x="129.78" y="64.09" transform="matrix(-0.5082 0.8613 -0.8613 -0.5082 254.252 -16.4492)" class="st33" width="4.09" height="0.56"/>
	
		<rect x="136.15" y="69.34" transform="matrix(-0.7731 0.6343 -0.6343 -0.7731 289.1932 35.7944)" class="st33" width="4.09" height="0.56"/>
	
		<rect x="140.33" y="76.47" transform="matrix(-0.9439 0.3301 -0.3301 -0.9439 302.1017 102.1846)" class="st33" width="4.09" height="0.56"/>
	
		<rect x="141.81" y="84.59" transform="matrix(-0.9999 -0.0142 0.0142 -0.9999 286.4869 171.7711)" class="st33" width="4.09" height="0.56"/>
	<rect x="120.18" y="84.98" class="st29" width="0.03" height="0.03"/>
	<g>
		<circle class="st28" cx="101.05" cy="126.04" r="4.54"/>
		<circle class="st26" cx="101.05" cy="126.04" r="3.54"/>
		<circle class="st28" cx="101.05" cy="126.04" r="2.84"/>
	</g>
	<g>
		<circle class="st28" cx="138.19" cy="132.26" r="4.54"/>
		<circle class="st26" cx="138.19" cy="132.26" r="3.54"/>
		<circle class="st28" cx="138.19" cy="132.26" r="2.84"/>
	</g>
	<polygon class="st34" points="100.6,113.71 97.3,119.42 103.9,119.42 	"/>
	<polygon class="st34" points="136,102.66 132.7,108.38 139.3,108.38 	"/>
	<g>
		<path class="st35" d="M132.06,120.72c-1.22-0.31-2.13-1.42-2.68-2.78l-2.66,12.49l0.96,0.25l3.19,0.82l0.96,0.25l3.56-11.89
			C134.34,120.6,133.16,121,132.06,120.72z"/>
		<path class="st36" d="M132.06,120.72c1.1,0.28,2.27-0.12,3.33-0.88c1.5-1.07,2.74-2.86,3.14-4.41c0.68-2.65-0.92-5.35-3.58-6.03
			c-2.65-0.68-5.35,0.92-6.03,3.58c-0.37,1.43-0.2,3.37,0.45,4.96C129.93,119.3,130.84,120.41,132.06,120.72z"/>
		
			<rect x="127.22" y="131.03" transform="matrix(0.2477 -0.9688 0.9688 0.2477 -31.5939 224.6654)" class="st37" width="3.29" height="3.29"/>
	</g>
	<g>
		<path class="st1" d="M58.21,70.06l-1.68,71.84c0,2.57-1.59,4.66-3.56,4.66c-1.97,0-3.56-2.09-3.56-4.66l-1.99-71.84l1.99-27
			c0-1.23,0.37-2.35,0.96-3.19h5.2c0.6,0.83,0.96,1.95,0.96,3.19L58.21,70.06z"/>
		<path class="st1" d="M58,71.01H46.75c-0.74,0-1.33-0.6-1.33-1.33l0,0c0-0.74,0.6-1.33,1.33-1.33H58c0.74,0,1.33,0.6,1.33,1.33l0,0
			C59.33,70.41,58.73,71.01,58,71.01z"/>
		<rect x="52.02" y="24.23" class="st1" width="1.71" height="15.64"/>
	</g>
	<g>
		<path class="st29" d="M77.02,70.06l-1.68,71.84c0,2.57-1.59,4.66-3.56,4.66c-1.97,0-3.56-2.09-3.56-4.66l-1.99-71.84l1.99-27
			c0-1.23,0.37-2.35,0.96-3.19h5.2c0.6,0.83,0.96,1.95,0.96,3.19L77.02,70.06z"/>
		<path class="st28" d="M76.81,71.01H65.56c-0.74,0-1.33-0.6-1.33-1.33v0c0-0.74,0.6-1.33,1.33-1.33h11.24
			c0.74,0,1.33,0.6,1.33,1.33l0,0C78.14,70.41,77.54,71.01,76.81,71.01z"/>
		<rect x="70.83" y="24.23" class="st38" width="1.71" height="15.64"/>
	</g>
	<g>
		<path class="st1" d="M85.77,180.03c-7.61,0-14.12-1.76-19.35-5.24c-4.19-2.79-7.57-6.67-10.02-11.54
			c-2.17-4.31-3.21-8.61-3.7-11.45c-0.53-3.09-0.54-5.15-0.55-5.24l1.64-0.01c0,0.02,0.02,2.05,0.53,5.02
			c0.47,2.74,1.47,6.86,3.56,10.98c5.32,10.5,14.7,15.82,27.88,15.82c13.23,0,24.25-7.49,32.76-22.27c3.34-5.8,5.58-11.6,6.88-15.44
			c1.4-4.16,2.01-6.97,2.02-7l1.61,0.35c-0.03,0.12-0.64,2.93-2.07,7.18c-1.32,3.92-3.6,9.82-7.01,15.74
			c-3.85,6.68-8.31,12-13.28,15.83C100.44,177.59,93.4,180.03,85.77,180.03z"/>
	</g>
	<g>
		<path class="st29" d="M88.13,178.52c-0.53,0-1.06-0.03-1.59-0.1c-4.55-0.59-8.21-2.9-10.85-6.86c-2.07-3.1-3.52-7.21-4.31-12.22
			c-0.69-4.41-0.74-8.73-0.66-11.57c0.09-3.08,0.34-5.1,0.35-5.19l1.85,0.23L72,142.69l0.93,0.12c-0.01,0.08-0.99,8.09,0.3,16.27
			c1.69,10.67,6.25,16.55,13.55,17.49c3.97,0.51,7.95-1.25,11.83-5.25c3.21-3.3,6.34-8.1,9.32-14.26
			c5.1-10.56,7.96-21.55,7.99-21.66l1.81,0.47c-0.03,0.11-2.94,11.28-8.12,22c-3.06,6.34-6.31,11.3-9.66,14.75
			C96.13,176.54,92.17,178.52,88.13,178.52z"/>
	</g>
	<g>
		<path class="st28" d="M119.52,130.91c-1.18-0.46-1.94-1.67-2.32-3.09l-4.18,12.07l0.84,0.33l3.07,1.2l1.01,0.4l5-11.36
			C121.79,131.07,120.57,131.33,119.52,130.91z"/>
		<path class="st39" d="M119.52,130.91c1.05,0.41,2.27,0.16,3.41-0.46c1.62-0.88,3.07-2.5,3.66-3.99c1-2.55-0.26-5.43-2.8-6.43
			c-2.55-1-5.43,0.26-6.43,2.8c-0.54,1.37-0.61,3.32-0.16,4.98C117.58,129.24,118.35,130.45,119.52,130.91z"/>
		
			<rect x="113.14" y="140.7" transform="matrix(0.3653 -0.9309 0.9309 0.3653 -59.6547 197.2113)" class="st28" width="3.29" height="3.29"/>
	</g>
</g>
</svg>
