<?xml version="1.0" encoding="utf-8"?>
<!-- Generator: Adobe Illustrator 23.0.2, SVG Export Plug-In . SVG Version: 6.00 Build 0)  -->
<svg version="1.1" id="Layer_1" xmlns="http://www.w3.org/2000/svg" xmlns:xlink="http://www.w3.org/1999/xlink" x="0px" y="0px"
	 viewBox="0 0 200 200" style="enable-background:new 0 0 200 200;" xml:space="preserve">
<style type="text/css">
	.st0{fill:#E1713C;}
	.st1{fill:#C7542B;}
	.st2{fill:#F68C5B;}
	.st3{fill:#B44C28;}
	.st4{fill:#1A1A1A;}
	.st5{fill:#45210F;}
	.st6{fill:#FAAF43;}
	.st7{fill:#455767;}
	.st8{opacity:0.15;fill:#010101;}
	.st9{fill:#FCDD56;}
	.st10{fill:#FAA719;}
	.st11{fill:#010101;}
	.st12{fill:#74B4C9;}
	.st13{fill:#98D8E7;}
	.st14{fill:#939598;}
	.st15{fill:#D34C55;}
	.st16{fill:#E6E7E7;}
	.st17{opacity:0.05;}
	.st18{fill:#BDBEC0;}
	.st19{fill:#71523B;}
	.st20{fill:#FFDE11;}
	.st21{fill:#FEE56C;}
	.st22{fill:#FEBE44;}
	.st23{fill:#CDEBEF;}
	.st24{fill:#75CDF3;}
	.st25{fill:#54544C;}
	.st26{fill:#4D4C4C;}
	.st27{fill:#AC9F80;}
	.st28{fill:#151515;}
	.st29{fill:#1E1F27;}
	.st30{fill:#80141D;}
	.st31{fill:#F79224;}
	.st32{fill:#00ADE5;}
	.st33{fill:#FFFFFF;}
	.st34{fill:#FBAD3A;}
	.st35{fill:#C63C2B;}
	.st36{fill:#A41E22;}
	.st37{fill:#E1252A;}
	.st38{fill:#B5B5B6;}
	.st39{fill:#303030;}
	.st40{fill:#4D87B7;}
	.st41{fill:#19323F;}
</style>
<g>
	<g>
		<path class="st0" d="M41.49,34.9c0-1.49,1.2-2.69,2.69-2.69h40.89l-43.58,46V34.9z"/>
		<path class="st1" d="M46.33,32.21h-2.15c-1.49,0-2.69,1.2-2.69,2.69v43.31l4.84-5.11V32.21z"/>
		<path class="st0" d="M138.33,22.53H99.6c-27.43,0-53.01,38.61-59.14,48.54c-0.78,1.26-1.38,3.51-1.38,5v89.31
			c0,4.84,4.84,9.68,7.26,12.11s7.26,2.42,7.26,2.42s72.63,0,87.16,0s21.79-12.11,21.79-26.63c0-14.53,0-104.11,0-104.11
			C162.54,34.48,155.28,22.53,138.33,22.53z M152.86,147.9c0,2.42,0,4.84-7.26,4.84c-7.26,0-7.26-2.42-7.26-4.84V97.06
			c0-7.26,1.57-8.31,7.26-12.11c7.26-4.84,7.26,0,7.26,9.68C152.86,94.64,152.86,145.48,152.86,147.9z M152.86,64.03
			c0,2.42-2.42,4.49-7.26,2.42L89.91,44.66c-7.26-4.84,2.42-12.11,7.26-12.11s41.16,0,41.16,0c7.26,0,14.53,2.42,14.53,14.53V64.03z
			"/>
		<path class="st1" d="M149.97,33.16c-2.85-2.21-6.65-3.29-11.64-3.29H97.18c-4.36,0-10.79,3.89-12.26,8.71
			c-0.96,3.17,0.32,6.2,3.5,8.32l0.24,0.16l0.27,0.11l55.66,21.78c1.64,0.69,3.18,1.05,4.59,1.05c4.18,0,6.37-3,6.37-5.96V47.09
			C155.55,40.72,153.67,36.04,149.97,33.16z M152.86,64.03c0,2.42-2.42,4.49-7.26,2.42L89.91,44.66
			c-7.26-4.84,2.42-12.11,7.26-12.11s41.16,0,41.16,0c7.26,0,14.53,2.42,14.53,14.53V64.03z"/>
		<path class="st2" d="M42.74,72.48c2.9-4.69,10.76-16.77,21.22-27.53C76.7,31.85,88.68,25.22,99.6,25.22h38.74
			c19.42,0,21.52,16.74,21.52,23.94v29.05h2.69c0-15.28,0-29.05,0-29.05c0-14.68-7.26-26.63-24.21-26.63H99.6
			c-27.43,0-53.01,38.61-59.14,48.54c-0.73,1.19-1.31,3.25-1.38,4.73h2.69C41.84,74.75,42.28,73.23,42.74,72.48z"/>
		<path class="st1" d="M157.7,78.21c-3.51,0.17-7.69,1.61-7.69,1.61s-3.47,1.26-5.91,2.89c-3.08,2.05-5.11,3.41-6.51,5.49
			c-1.62,2.41-1.95,5.28-1.95,8.85v50.84c0,1.41,0,3.54,1.7,5.23c1.59,1.59,4.14,2.3,8.26,2.3c0,0,9.71,0.11,16.88,0.19
			c0.04-0.78,0.07-1.56,0.07-2.36V78.14C160.63,78.14,158.79,78.16,157.7,78.21z M152.86,147.9c0,2.42,0,4.84-7.26,4.84
			c-7.26,0-7.26-2.42-7.26-4.84V97.06c0-7.26,1.57-8.31,7.26-12.11c7.26-4.84,7.26,0,7.26,9.68
			C152.86,94.64,152.86,145.48,152.86,147.9z"/>
		<path class="st1" d="M56.82,80.36c0,1.48-1.21,2.69-2.69,2.69H40.15c-1.48,0-2.69-1.21-2.69-2.69v-1.88
			c0-1.48,1.21-2.69,2.69-2.69h13.99c1.48,0,2.69,1.21,2.69,2.69V80.36z"/>
		<path class="st1" d="M56.82,92.47c0,1.48-1.21,2.69-2.69,2.69H40.15c-1.48,0-2.69-1.21-2.69-2.69v-1.88
			c0-1.48,1.21-2.69,2.69-2.69h13.99c1.48,0,2.69,1.21,2.69,2.69V92.47z"/>
		<path class="st1" d="M56.82,104.57c0,1.48-1.21,2.69-2.69,2.69H40.15c-1.48,0-2.69-1.21-2.69-2.69v-1.88
			c0-1.48,1.21-2.69,2.69-2.69h13.99c1.48,0,2.69,1.21,2.69,2.69V104.57z"/>
		<path class="st1" d="M56.82,116.68c0,1.48-1.21,2.69-2.69,2.69H40.15c-1.48,0-2.69-1.21-2.69-2.69v-1.88
			c0-1.48,1.21-2.69,2.69-2.69h13.99c1.48,0,2.69,1.21,2.69,2.69V116.68z"/>
		<path class="st1" d="M56.82,128.78c0,1.48-1.21,2.69-2.69,2.69H40.15c-1.48,0-2.69-1.21-2.69-2.69v-1.88
			c0-1.48,1.21-2.69,2.69-2.69h13.99c1.48,0,2.69,1.21,2.69,2.69V128.78z"/>
		<path class="st1" d="M56.82,140.89c0,1.48-1.21,2.69-2.69,2.69H40.15c-1.48,0-2.69-1.21-2.69-2.69v-1.88
			c0-1.48,1.21-2.69,2.69-2.69h13.99c1.48,0,2.69,1.21,2.69,2.69V140.89z"/>
		<path class="st1" d="M56.82,152.99c0,1.48-1.21,2.69-2.69,2.69H40.15c-1.48,0-2.69-1.21-2.69-2.69v-1.88
			c0-1.48,1.21-2.69,2.69-2.69h13.99c1.48,0,2.69,1.21,2.69,2.69V152.99z"/>
		<path class="st1" d="M56.82,165.1c0,1.48-1.21,2.69-2.69,2.69H40.15c-1.48,0-2.69-1.21-2.69-2.69v-1.88
			c0-1.48,1.21-2.69,2.69-2.69h13.99c1.48,0,2.69,1.21,2.69,2.69V165.1z"/>
		<path class="st3" d="M39.45,167.79c1.18,3.97,4.87,7.67,6.89,9.68c2.42,2.42,7.26,2.42,7.26,2.42s72.63,0,87.16,0
			c9.2,0,15.48-4.86,18.86-12.11H39.45z"/>
		<path class="st1" d="M59.33,76.01c2.49,2.57,7.48,2.57,7.48,2.57h69.82c0,0,4.99,0,4.99-2.57c0-2.57-4.99-5.14-4.99-5.14
			L81.77,50.3c0,0-4.99-2.57-7.48,0C71.8,52.87,54.34,70.87,59.33,76.01z"/>
		<rect x="58.44" y="83.05" class="st1" width="75.05" height="72.63"/>
	</g>
	<g>
		<path class="st4" d="M46.33,29.79V22.8c0-1.49,1.2-2.69,2.69-2.69h18.83c1.49,0,2.69,1.2,2.69,2.69v6.99H46.33z"/>
		<path d="M70.81,29.79h-2.29V22.8c0-0.22-0.18-0.4-0.4-0.4c-0.22,0-0.4,0.18-0.4,0.4v6.99h-1.61V22.8c0-0.22-0.18-0.4-0.4-0.4
			c-0.22,0-0.4,0.18-0.4,0.4v6.99h-2.42V22.8c0-0.22-0.18-0.4-0.4-0.4c-0.22,0-0.4,0.18-0.4,0.4v6.99h-3.23V22.8
			c0-0.22-0.18-0.4-0.4-0.4c-0.22,0-0.4,0.18-0.4,0.4v6.99h-3.23V22.8c0-0.22-0.18-0.4-0.4-0.4c-0.22,0-0.4,0.18-0.4,0.4v6.99h-2.42
			v-6.99c0-0.22-0.18-0.4-0.4-0.4c-0.22,0-0.4,0.18-0.4,0.4v6.99h-1.61V22.8c0-0.22-0.18-0.4-0.4-0.4c-0.22,0-0.4,0.18-0.4,0.4v6.99
			h-2.29c-0.45,0-0.81,0.36-0.81,0.81v1.61h26.36V30.6C71.62,30.15,71.26,29.79,70.81,29.79z"/>
	</g>
	<g>
		<rect x="59.78" y="84.4" class="st5" width="72.36" height="34.97"/>
		<g>
			<path class="st6" d="M66.72,108.64V95.16h4.64l2.78,9.19l2.75-9.19h4.65v13.48h-2.88V98.03l-3.05,10.61h-2.98L69.6,98.03v10.61
				H66.72z"/>
			<path class="st6" d="M83.91,103.62c0-0.86,0.24-1.69,0.72-2.49c0.48-0.8,1.16-1.42,2.05-1.84c0.88-0.42,1.87-0.63,2.96-0.63
				c1.68,0,3.06,0.48,4.13,1.44c1.07,0.96,1.61,2.17,1.61,3.64c0,1.48-0.54,2.7-1.63,3.67c-1.08,0.97-2.45,1.46-4.1,1.46
				c-1.02,0-1.99-0.2-2.91-0.61c-0.92-0.4-1.63-1-2.11-1.78C84.16,105.69,83.91,104.74,83.91,103.62z M86.93,103.75
				c0,0.97,0.26,1.71,0.78,2.23c0.52,0.51,1.17,0.77,1.94,0.77s1.41-0.26,1.93-0.77c0.52-0.51,0.78-1.26,0.78-2.24
				c0-0.96-0.26-1.69-0.78-2.21c-0.52-0.51-1.16-0.77-1.93-0.77s-1.41,0.26-1.94,0.77C87.19,102.04,86.93,102.79,86.93,103.75z"/>
			<path class="st6" d="M102.78,98.87v2.06h-2.01v3.94c0,0.8,0.02,1.26,0.06,1.39c0.04,0.13,0.13,0.24,0.26,0.33
				c0.14,0.09,0.3,0.13,0.5,0.13c0.27,0,0.67-0.08,1.18-0.25l0.25,2c-0.68,0.26-1.46,0.39-2.32,0.39c-0.53,0-1.01-0.08-1.43-0.23
				c-0.43-0.16-0.74-0.36-0.94-0.61c-0.2-0.25-0.34-0.58-0.41-1.01c-0.06-0.3-0.09-0.91-0.09-1.82v-4.26h-1.35v-2.06h1.35v-1.94
				l2.95-1.51v3.45H102.78z"/>
			<path class="st6" d="M104.15,103.62c0-0.86,0.24-1.69,0.72-2.49c0.48-0.8,1.16-1.42,2.05-1.84c0.88-0.42,1.87-0.63,2.96-0.63
				c1.68,0,3.06,0.48,4.13,1.44c1.07,0.96,1.61,2.17,1.61,3.64c0,1.48-0.54,2.7-1.63,3.67c-1.09,0.97-2.45,1.46-4.1,1.46
				c-1.02,0-1.99-0.2-2.91-0.61c-0.92-0.4-1.63-1-2.11-1.78C104.39,105.69,104.15,104.74,104.15,103.62z M107.16,103.75
				c0,0.97,0.26,1.71,0.78,2.23c0.52,0.51,1.17,0.77,1.94,0.77c0.77,0,1.41-0.26,1.93-0.77c0.52-0.51,0.78-1.26,0.78-2.24
				c0-0.96-0.26-1.69-0.78-2.21c-0.52-0.51-1.16-0.77-1.93-0.77c-0.77,0-1.41,0.26-1.94,0.77
				C107.42,102.04,107.16,102.79,107.16,103.75z"/>
			<path class="st6" d="M120.73,108.64h-2.94v-9.76h2.73v1.39c0.47-0.66,0.89-1.09,1.26-1.3c0.37-0.21,0.8-0.31,1.27-0.31
				c0.67,0,1.32,0.16,1.94,0.49l-0.91,2.25c-0.5-0.28-0.96-0.42-1.38-0.42c-0.41,0-0.76,0.1-1.05,0.3c-0.29,0.2-0.51,0.56-0.68,1.08
				c-0.16,0.52-0.25,1.61-0.25,3.27V108.64z"/>
		</g>
		<rect x="59.78" y="119.37" class="st6" width="72.36" height="34.97"/>
		<g>
			<path class="st5" d="M82.77,136.69c0-1.37,0.23-2.53,0.7-3.46c0.35-0.69,0.83-1.3,1.43-1.85c0.6-0.55,1.26-0.95,1.98-1.21
				c0.96-0.36,2.06-0.53,3.31-0.53c2.26,0,4.07,0.62,5.43,1.85c1.36,1.23,2.04,2.95,2.04,5.14c0,2.18-0.67,3.88-2.02,5.11
				c-1.35,1.23-3.15,1.84-5.4,1.84c-2.28,0-4.1-0.61-5.44-1.83C83.44,140.52,82.77,138.84,82.77,136.69z M85.96,136.6
				c0,1.53,0.4,2.68,1.2,3.47c0.8,0.79,1.82,1.18,3.06,1.18c1.24,0,2.25-0.39,3.04-1.17c0.79-0.78,1.19-1.95,1.19-3.52
				c0-1.54-0.39-2.7-1.16-3.46c-0.77-0.76-1.79-1.14-3.07-1.14c-1.28,0-2.31,0.38-3.09,1.15C86.35,133.89,85.96,135.05,85.96,136.6z
				"/>
			<path class="st5" d="M100.05,132.26v-2.39h2.94v2.39H100.05z M100.05,143.35v-9.76h2.94v9.76H100.05z"/>
			<path class="st5" d="M106,143.35v-13.48h2.94v13.48H106z"/>
		</g>
	</g>
</g>
</svg>
