<?xml version="1.0" encoding="utf-8"?>
<!-- Generator: Adobe Illustrator 19.0.0, SVG Export Plug-In . SVG Version: 6.00 Build 0)  -->
<svg version="1.1" id="Layer_1" xmlns="http://www.w3.org/2000/svg" xmlns:xlink="http://www.w3.org/1999/xlink" x="0px" y="0px"
	 viewBox="-51.9 734.4 226.2 315.4" style="enable-background:new -51.9 734.4 226.2 315.4;" xml:space="preserve">
<style type="text/css">
	.st0{fill:#FFFFFF;}
	.st1{fill:#231F20;}
</style>
<g id="XMLID_46_">
	<path id="XMLID_45_" class="st0" d="M69.9,736.1c7.2-0.3,8.6,2.7,9.9,5.9c9.7,1.3,13.4,8.2,14.4,17.8c8.9,10.9,8.6,19.2,4,26.4
		c9.9,1.7,19.2,4.9,27.7,10.6c8.9,4.5,12.4,11.3,10.6,20.3c8.3,10.2,7.8,18.5,5.9,26.7c-0.1,0-0.3,0-0.4,0c0.1,0.1,0.3,0.3,0.4,0.4
		c3.5,4,5.5,8.7,6.1,14.7c9.5,4.1,13.1,12,8.3,25.4c2,0.8,4.1,1.8,6.1,2.7c18.5,17.6,12.6,30.3-4.7,27.4c-6.5,3.9-12.4,6.6-14.8-0.6
		c-1.1-2-2.3-3.9-3.4-5.9c-4.4-1.4-5.1-4.9-2.4-10.3c-5.4-0.7-10.4-2.8-14.8-6.5c0.3,7.6-2.1,13.4-4.8,18.9c3,12-0.3,19-6.5,24
		c-0.1,4.4-0.1,8.7-0.3,13.1c4.9,8.6,3.7,16.5-3.8,24c0.4,11.9-2.4,21-12.3,24.6c1.1,3,2.1,6.1,3.1,9c5.1,3.7,10.2,7.5,15.2,11.2
		c0.8,3.2,1.8,6.6,2.8,10c-0.1,6.1-5.2,10.6-15.7,13.7c-5.8-0.3-10.6-0.7-16.5-1c-2-2.4-5.2-4.8-7.2-7.2c-2.7-3.5-5.4-7.1-8.2-10.6
		c-6.6-7.3-8.9-16.1-1.4-27.5c-9-3.2-11.1-14.8-10-30.2c-1.1-2-1.6-5.2-2.7-7.1c-0.4,0.7-1.6,2.8-2,3.7
		c-0.4,14.3-5.2,22.3-11.9,27.4c-3.8,13.5-10.3,18.1-18.1,18.5c-3.4,3.7-4.5,8.5-3.5,14.4c0.8,6.1,4,12.1,2.8,18.2
		c-3.4,20.9-47.1,11-44.6-9.6c2.1-11,15.7-18.2,18.5-29.8c-9-9.2-12.3-19.6-3-32.9c-2.5-15.1,3.2-24.7,13-31.6
		c-3.2-11.9-2.3-22.4,4.8-31.2c-2.4-12.3-0.7-19.9,5.1-22.9c-2.4-4.9-2.8-11.1-1.4-18.5c-0.7-2.5-1.3-5.2-1.8-7.8
		c-0.7,0-1.4,0-2.1,0.1c-6.8-0.7-12-5.2-16.2-12.3c-10.7-0.8-18.2-7.8-22.6-20.9c-5.2-3.8-9-9.5-9.9-18.5
		c-3.4-6.8-3.4-13.3,1.4-19.3c-3.8-2.3-7.9-4.1-9.2-12.1c-2.8-1.1-3.8-10.9-3.7-22.4c-2.3-0.8-3-3.2-2-7.2c1-1,2-2,2.8-2.8
		c1.1-1.1,2.3-2.3,3.4-3.4c3.2-1.1,6.4-1.1,8.9,1.7c7.3-0.8,10.7,3.4,13.4,8.3c5.8-3.7,11-3.7,15,4.8c-0.1,2.4-1,4.7-2.4,6.9
		c3.1,4.8,4.4,9.5,3.8,14.3c3.2,2.5,8.5,7.1,8.8,11.1c-0.6-0.7,4.2,2.3,10,7.5c5.6-0.4,11,0,15.5,2.3c5.2-2.7,10.7-3.2,15.2-3.2
		c-3.2-7.5-4.5-14.5,1.1-22C43,755.4,47.1,747,57.7,742C60.2,738.5,62.7,736.2,69.9,736.1L69.9,736.1L69.9,736.1L69.9,736.1z"/>
	<path class="st1" d="M162.8,887c-2-0.8-4.1-1.8-6.1-2.7c3.4-9.5,2.5-16.2-1.7-20.9c-0.8-1-2.1-2-3.4-2.8c-1-0.6-2.1-1.1-3.2-1.7
		c-0.1-1.4-0.3-2.7-0.6-3.9c-0.8-3.8-2.4-7.2-4.8-9.9c-0.3-0.3-0.4-0.6-0.7-0.8c-0.1-0.1-0.3-0.3-0.4-0.3c0-0.1,0-0.1,0-0.1
		c0.1,0,0.3,0,0.4,0c0.3-1.1,0.6-2.3,0.7-3.4c0.6-3.2,0.7-6.8,0-10.3c-0.3-1.3-0.6-2.5-1.1-3.8c-1-2.5-2.4-5.2-4.5-7.9
		c-0.3-0.4-0.7-0.8-1-1.3c1.8-9-1.7-15.8-10.6-20.3c0-0.1,0-0.1-0.1-0.1c-0.7-0.4-1.4-0.8-2.1-1.4c-7.9-4.7-16.4-7.5-25.4-9
		c4.2-6.6,4.8-14.1-2-23.8c-0.7-0.8-1.3-1.7-2-2.5c-1-9.6-4.7-16.5-14.4-17.8c-0.1-0.1-0.1-0.1-0.1-0.3c-1-2.4-2-4.5-5.4-5.4
		c-1.1-0.3-2.5-0.4-4.4-0.3c-1.7,0-3.1,0.1-4.4,0.4c-4.1,0.8-5.9,2.8-7.9,5.5c-10.6,4.9-14.7,13.4-13.8,24.7
		c-5.6,7.5-4.4,14.5-1.1,22c-1.4,0-3,0-4.5,0.3c-3.5,0.3-7.1,1.1-10.7,3c-4.5-2.3-9.9-2.7-15.5-2.3c-3.4-3-6.5-5.4-8.3-6.6
		c-0.9-0.6-1.6-0.9-1.7-0.9c-0.4-4.1-5.5-8.5-8.7-11c0.6-4.8-0.7-9.5-3.8-14.3c1.4-2.3,2.3-4.5,2.4-6.9c-1.4-3-2.8-4.8-4.5-5.9
		c-3.1-2.1-6.6-1.3-10.4,1.1c-1.6-2.8-3.2-5.4-5.9-6.9c-1.8-1.3-4.4-1.8-7.5-1.4c-2.5-2.8-5.6-2.8-8.9-1.7c-1.1,1.1-2.3,2.3-3.4,3.4
		c-0.8,0.8-1.8,1.8-2.8,2.8c-1,4-0.3,6.3,2,7.2c-0.1,11.6,0.3,20.2,3.5,22.6c1.4,8,5.5,9.7,9.3,12c-4.8,6.1-4.8,12.6-1.4,19.3
		c0.7,8.7,4.4,14.1,9.2,18.1c0.3,0.1,0.4,0.3,0.7,0.4c3.4,10,8.6,16.5,15.7,19.3c2.1,0.8,4.4,1.4,6.9,1.6c2.7,4.5,5.8,8,9.5,10.2
		c2.1,1.1,4.4,1.8,6.8,2.1c0.7-0.1,1.4-0.1,2.1-0.1c0.6,2.5,1.1,5.2,1.8,7.8c-1.4,7.3-1,13.5,1.4,18.5c-5.8,3-7.5,10.6-5.1,22.9
		c-7.1,8.7-8,19.3-4.8,31.2c-0.7,0.6-1.6,1.1-2.3,1.7c-8.3,6.8-13.1,15.9-10.7,29.9c-9.3,13.3-6.1,23.7,3,32.9
		c-1.3,5.4-4.9,9.7-8.6,14c-4.4,5.1-8.7,9.9-9.9,15.8c-0.8,7.1,3.5,12.7,9.9,16.5c4.8,2.8,10.9,4.5,16.4,4.7
		c8.9,0.3,16.9-3.1,18.3-11.6c1.1-6.1-2-12.1-2.8-18.2c-1-5.8,0.1-10.6,3.5-14.4l0,0H23v-0.1l0,0c6.2-0.3,11.6-3.2,15.4-11.3
		c0.8-2.1,1.7-4.4,2.5-7.1c6.6-5.1,11.4-13.1,11.9-27.4c0.4-0.8,1.6-3.1,2-3.8c1.1,1.8,1.1,5.6,2.3,7.6c-3,14.4,0.8,25.1,8.7,29.1
		c0.6,0.3,1.1,0.4,1.7,0.7l0,0l-0.1,0.1l0,0c-0.6,1-1.1,1.8-1.6,2.7c-4.4,8.2-3.7,14.8,0,20.6c0.8,1.4,2,2.8,3.1,4.1
		c2,2.4,3.8,4.8,5.6,7.2c0.8,1.1,1.7,2.3,2.5,3.4s1.8,2.4,2.8,3.7c1.3,1.6,2.7,3,4.4,3.5c4.1,1.4,8,1.1,12.1,1c1.4-0.1,3-0.1,4.4,0
		c10.4-3.1,15.5-7.6,15.7-13.7c0-3.5-0.4-6.9-2.8-10c-5.1-3.7-10.2-7.5-15.2-11.2c-0.6-2-1.3-3.9-2-6.1c-0.4-1-0.7-2-1.1-3
		c0.4-0.1,0.7-0.3,1.1-0.4c8.9-3.8,11.6-12.7,11.1-24.1c7.5-7.5,8.7-15.4,3.8-24c0.1-4.4,0.1-8.8,0.3-13.1c6.2-4.9,9.5-12,6.5-24
		c2.7-5.5,5.1-11.3,4.8-18.9c0.3,0.1,0.6,0.4,0.8,0.6c0.7,0.6,1.4,1.1,2.1,1.6c3.7,2.4,7.5,3.8,11.7,4.2l0,0l0.1,0.1l0,0
		c0,0-0.1,0.1-0.1,0.3c-2,3.9-2,6.8,0,8.6c0.6,0.6,1.6,1,2.5,1.4c0.7,1.1,1.4,2.3,2,3.4c0.4,0.7,0.7,1.4,1.1,2
		c0.1,0.3,0.1,0.4,0.3,0.6c1,3,2.5,4.2,4.5,4.5c1.1,0.1,2.4-0.1,3.8-0.6c1.1-0.4,2.3-1,3.4-1.5c1.1-0.6,2.1-1.3,3.1-1.8
		c9,1.5,15-1.3,15.9-6.6l0,0v-3.5l0,0C173.2,899.5,169.8,893.6,162.8,887L162.8,887L162.8,887L162.8,887z M141.9,856.6
		c0.1,0.6,0.3,1.1,0.3,1.8l0,0v0.7l0,0c0,0.3-0.1,0.4-0.3,0.7c-0.4,1-1,1.8-1.6,2.8c-0.6,0.8-1.1,1.7-1.8,2.5
		c-0.3,0.6-0.7,1-1.1,1.4c-0.6,0.7-1.3,1.4-2,2.1c-0.6,0.6-1.3,1-2,1.6c-1,0.7-2.1,1.3-3.2,1.8c-0.7,0.3-1.4,0.4-2,0.7
		c-0.8,0.1-1.7,0.3-2.5,0.3c-0.3,0-0.6,0-1,0s-0.8,0-1.1-0.1c-0.1,0-0.1,0-0.1,0l0,0v-1.8l-0.4-4.2v-0.1l0.6-0.6l0.3-0.4l1.8-2.7
		l0.4-0.6l1.7-3.5l1.1-3.8l0.1-1.1l0,0c0.6-0.1,1-0.3,1.6-0.4l0,0l1.4-0.8l0,0c0.7-0.4,1.4-1,2.1-1.6c0.7-0.6,1.3-1.1,1.8-1.8
		c0.4-0.6,0.8-1.1,1.3-1.6l0,0h0.1l0.7,0.7l0,0C140.2,851,141.3,853.7,141.9,856.6L141.9,856.6L141.9,856.6L141.9,856.6z M132.2,825
		c0.4-0.6,0.7-1.3,1.1-2c0.8,1.1,1.7,2.5,2.4,3.9c0.3,0.8,0.7,1.7,1,2.7c0.3,0.6,0.6,1.3,0.7,2c0.1,1.1,0.1,2.4,0,3.7
		c-0.6,4.2-2.5,8.6-3.4,9.7l0,0l-0.7,1l0,0c-0.4,0.6-1,1.1-1.4,1.6c-0.8,0.7-1.6,1.3-2.4,1.8l0,0v-2.5l-0.7-4.4l-1.4-4.8l-1.7-3.7
		l-0.1-0.6l0.1-0.4l0.7-1.4l0.7-2.3l0.6-0.3l1.4-0.8l0,0c0.7-0.6,1.4-1.1,2-1.8l0,0L132.2,825L132.2,825L132.2,825z M121.7,801.3
		c0.6,0.4,1.1,0.7,1.8,1c0.3,0.3,0.6,0.4,0.8,0.6c0.4,0.3,0.8,0.6,1.3,0.8c2.7,1.8,4.7,4.1,5.1,7.6c0.1,2.1-0.1,4.1-0.4,6.1l0,0
		l-0.1,0.1l0,0c-0.3,1.1-0.1,2.3-0.6,3.2c-0.4,0.7-0.7,1.3-1,2c-0.3,0.3-0.6,0.7-0.8,1l0,0l-0.3-2.8l-0.8-3.8l-1-2.7l-0.6-1.4
		l-1.6-3.1l-0.6-1l-2.3-3.2l0.3-0.8l0.1-0.7v-0.8l-0.1-0.8l0,0c0-0.6-0.1-1.1-0.4-1.8C121,800.9,121.4,801.2,121.7,801.3
		L121.7,801.3L121.7,801.3L121.7,801.3z M118.2,809.4l1.1,1.8l2,3.7l1.3,3.4l0.8,3.2l0.1,2.1v1v0.4l-0.3,2.4l-0.8,2.7l-1.3,2.5
		l-1.5,2.4l-2.1,2.3l-2.5,2l-2.8,2l-3.1,1.8l-3.4,1.6L102,846l-3.9,1.3l-1.8,0.4l-2.3,0.6l-4.2,0.8l-4.4,0.7l-4.5,0.3l-1.1,0.1
		l-3.2,0.1h-2.1h-2.4l-4.4-0.3l-2-0.1l-2.4-0.3l-4.2-0.6l-4.1-0.8l-3.9-1.1l-3.7-1.3l-3.4-1.4l-3.1-1.8l-2.5-1.7l-0.3-0.1l-1.1-1
		l1.3-1.8l0.1-0.1l1.1-1.8l1-2l0.8-2.1l0.7-2.1l0.4-2.3l0.4-2.1l0.1-2.3v-2.4l-0.3-2.3v-0.3l1.4,0.6l2.5,0.7l2.8,0.7l2.8,0.6
		l2.8,0.6l2.8,0.4l5.9,0.7h1.8l4.2,0.3h4.5h1.6l3.8-0.1l2.1-0.1l5.9-0.6l2.8-0.4l2.8-0.4l2.7-0.7h0.1l2.5-0.6l2.5-0.8l2.5-0.7l2.4-1
		l2.3-1l2.1-1.1l2-1.1l2-1.3l1.7-1.4l1.6-1.6L118.2,809.4L118.2,809.4L118.2,809.4z M33.8,797.5c1-1.1,2.5-1.8,4.4-2.3
		c4.4-1.1,10.2-0.6,13.3,1.4c1.1,0.8,2.4-0.1,3.5,0.1l0,0l-2-4l2.3-3.2l-6.2-4.5l0,0c-1.6-3.8-4.2-7.9-2.5-12c0.4-2,2.5-4.1,3.7-5.8
		l0,0l4.8-0.7l-0.6-1.4l-3.7-2.3l0,0c0-4.8-0.1-7.3,3.2-11.1c1.6-1.6,3.4-2.8,5.4-3.8l0,0l2.3-1.1l0,0c1.1-1.3,2.1-3,3.7-3.9
		c0.1,0,0.1,0,0.3-0.1c3.4-2.8,8.2-1.6,8.6,3.2l0,0h0.1l2.3,0.7l0,0c1.1,0.3,2.1,0.4,3.1,0.8c1.3,0.6,2.5,1.3,4.1,2.1
		c4.2,3.1,4.7,10.7,4.7,15.2c7.9,5.4,7.2,11.6,3.4,19.1l0,0l-3.2,2.8l-0.1,3.5l-2.5,4.5l0,0c3.2-2.3,6.9-2.8,10.3-2.5
		c2.1,0.1,4.2,0.6,6.1,1c4.5,1,8.7,2.5,12.8,4.4c0.3,1.4,1,2.8,1.4,4.1c0.3,0.7,0.6,1.6,0.3,2.4c-0.4,1-1.4,2-2.1,2.8l0,0l-1.3,1.1
		l-1.4,1.3l-1.7,1l-1.7,1.1l-2,1l-2.1,0.8l-2.1,0.8l-2.7,1l-2.4,0.7l-1.4,0.3l-1.1,0.3l-2.5,0.6l-5.4,0.8l-5.6,0.6l-1.8,0.1
		l-3.9,0.1h-1.4h-4.4l-4.4-0.3h-1.4l-5.8-0.7l-5.5-0.8l-2.5-0.6l-2.7-0.7l-2.4-0.7l-2.4-0.8l-1.3-0.4l-0.6-1.7l-0.8-2.3l-1-2.3l-1-2
		l-0.3-0.3l-1.3-2.1l-1.6-2.1l-1.7-2l-0.8-1l0,0C33,797.8,33.4,797.6,33.8,797.5L33.8,797.5L33.8,797.5L33.8,797.5z M-29,782.3
		l-0.1-0.1l-4.2-4.9l0,0c-2.4-1.3-5.5-2.4-6.3-5.1c-1.7-2.4-2.8-5.1-3.7-8c-1-3.2-1.6-8.6-0.1-11c0.8-2.5,2.3,0.3,3.1,3.9
		c2,8.5,4.7,11.9,4.9,9.6c0.4-2.5,0.3-0.6,0.1-2.7c-0.1-2.3-5.9-16.1-7.8-15.2c-1.1-0.1-2.1-1.4-2.4-4.9c2.4-0.8,6.4,4.7,13.5,16.1
		c0.3,0.6,1.3,0,1.8-0.1c1-0.1-11.1-18.9-11.3-18.5l0,0l1.3-0.1l0,0c4.7,1.7,8.2,8,11,14c0.4,0.7,0.8,1.6,1.1,2.3
		c0.3,0.6,2,0.7,1.8,0c-0.7-2.5-1.7-4.9-3-7.3c-1.1-2.4-2.7-4.7-4.2-7.1c1.7-0.3,3.1,0.6,4.2,2c0.6,0.6,1,1.3,1.4,1.8
		c1.6,1.8,2.3,4.1,2.4,6.8c1.3,4.2,1.4,8.7,1,13.5c2.1,0,3.4-1.7,4.7-7.5c-1.4-4.1-0.8-7.3,1.3-10.2c1.7-0.7,2-1.3,3.2,0.1l0,0
		l0.7,1.1l0,0c-0.7,2.1-1.1,6.6-0.7,8.7c0.7,3.8,1.6,3.5,2.3,7.3c0.3,1.6-1.7,17.8-0.4,20.5c0.1,0.3,0.3,0.1,0.6-0.1
		c1.4-1.7,4.5-10,4.5-9.3c3,2.3,1,0.4,3.2,3.4c0.3,0.6,0.7,1.1,0.8,1.7l0,0l0.4,4.9l-0.1,0.3l0,0c-0.3,1.3-0.7,2.5-1.3,3.8l0,0
		l-1,2.3l-1.3,2l-1.3,1.7l-1.4,1.4l-1.4,1.1l-1.3,0.7l-0.4,0.1l-1.8,0.7l-1.8,0.4l-2.1,0.3h-2.3l-2.4-0.4l0,0
		c-1.3-0.1-2.5-0.6-3.8-0.8l0,0l-1.7-0.6l-1.1-0.4l-0.1-0.1l0,0c0-0.1,0-0.4,0-0.6c-3.2-3.8-5.2-8.3-0.7-13.1c0.7,0.7,1.4,1.3,2,1.7
		c4.2,3.1,6.5,2.8,8.9,1.1C-23.6,788.7-27,786.8-29,782.3L-29,782.3L-29,782.3L-29,782.3z M-23.9,816.8l-2.4-2l0,0
		c-1.3-1.1-2.1-2.4-2.8-3.8c-0.6-1.1-1-2.4-1.4-3.9c-0.6-0.8-0.6-1.7-0.6-2.5c0.7,0.1,1.4,0.4,2,0.7c0.1,0,0.3,0,0.4,0l0,0l3,0.8
		l2.8,0.6l2.8,0.1l2.7-0.1l2.5-0.4l2.1-0.7h0.3l2.3-1l1-0.7l1-0.7l2-1.7l1.7-2l1.4-2.1l1.4-2.5l1.1-2.7l0,0c0.3-1.1,0.7-2.1,1-3.2
		l0,0l0.6-0.1l0,0c1,0.6,1.8,1.3,2.7,2c0.4,0.4,0.8,0.7,1.3,1l0,0l0.1,1l0.4,3.8v1.8l-0.1,1.7l-0.1,1.7l-0.1,1.6l-0.3,1.4l-0.4,1.4
		l-0.4,1.4l-0.3,0.4l-0.3,0.8L2.9,810l-0.7,1.1l-0.7,1l-0.8,1l-0.8,0.8l-1,0.7l-1,0.8l-1.1,0.6l-1.1,0.6l-1.3,0.6l-1.3,0.3l-1.4,0.4
		l-1.6,0.1l-1.6,0.3h-1.1h-0.6H-15l-1.7-0.1l-2-0.3l-1.8-0.3l-2.1-0.4L-23.9,816.8L-23.9,816.8L-23.9,816.8z M-2.6,835h-0.1l0,0
		c-0.8-0.3-1.6-0.6-2.5-0.8c-2.7-0.3-5.2-1.1-7.5-2.4c-4.1-2.3-7.2-5.8-9-10.2l0,0l0.4,0.1l2.1,0.3l2.1,0.3l2,0.1h2h0.4h1.4l1.8-0.3
		l1.8-0.3l1.6-0.4l1.7-0.4l1.6-0.6l1.4-0.7l1.4-0.8l1.3-1l1.3-1l1.1-1.1l1-1.1l1-1.3l0.8-1.4l0.7-1.6l0.7-1.4l0.6-1.7l0.4-1.7
		l0.4-1.7l0.1-1.8l0.1-1.8l0.1-2v-2l-0.1-0.4l0,0c0.1,0,0.1,0,0.1,0c1.6,0,3.1-0.1,4.5-0.1l0,0h0.1l2,4.5l1.6,4.2l1.1,3.9l0.4,1.8
		l0.3,1.8l0.1,1.7l0.1,1.7l-0.1,1.6v1.6l-0.3,1.4l-0.4,1.4l-0.4,1.3L18,824l-0.6,1.1l-0.8,1.1l-0.8,1.1l-1,1l-1.1,0.8l-1.3,1
		l-1.3,0.7l-1.6,0.8l-1.7,0.7L6,833l-2,0.6l-0.6,0.1L1.8,834l-2.3,0.6L-2.6,835L-2.6,835L-2.6,835z M3.6,842.2
		c-0.7-1-1.6-2.1-2.4-3.5l0,0l1.8-0.3l0.6-0.1l1.7-0.4l2.1-0.7l2.1-0.7l1.8-0.8l1.8-0.8l1.7-1l1.5-1.1l1.3-1.1l1.3-1.3L20,829l1-1.4
		l0.8-1.6l0.7-1.6l0.6-1.6l0.4-1.8l0.3-1.7l0.1-1.8l0.1-1.8l-0.1-2l-0.3-2l-0.3-2l-0.4-2.1l-0.6-2.1l-0.7-2.3l-0.7-2.1l-1.8-4.7
		l-0.3-0.4l0,0c1.7,0.1,3.5,0.6,5.2,1.1l0,0l3,1.4l1.4,1.3l1.7,1.8l1.4,1.8l1.4,1.8l1.3,1.8l1,2l0.8,2l0.8,2l0.6,2l0.4,2.1l0.1,0.3
		l0.3,1.7l0.1,2v2l-0.1,1.8l-0.3,2l-0.4,1.8l-0.6,1.8l-0.7,1.7l-0.8,1.7l-1.1,1.7l-1.1,1.6l-1.3,1.6l-1.6,1.4l-1.6,1.3l-1.8,1.3
		l-1.8,1.1l-2.1,1l-2.3,0.8l-2.4,0.8H18l0,0c0-0.3,0-0.6,0-0.8C9.7,846.3,6.7,845.9,3.6,842.2L3.6,842.2L3.6,842.2L3.6,842.2z
		 M68.8,917.6l-1.7,1.4l-1.6,1.1l-0.1,0.1l-1.8,1l-2,1l-2,0.8l-2.1,0.7l-2.3,0.4l-2.3,0.3l-2.3,0.3h-2.4l-2.3-0.3l-2.4-0.3l-2.4-0.6
		l-2.4-0.7l-0.7-0.1l-1.7-0.7l-2.3-1l-2.4-1.3l-2.1-1.4l-2.3-1.6l-2-1.8l-2.1-2l-1.8-2.1l-1.8-2.4l-1.6-2.5l-1.1-1.8l0,0
		c-0.7-3.4-2.5-10.7,1.1-17.6l0,0l1.7-1.1l1.8,2.3l2.8,2.5l3,2.4l3.4,2.3l3.7,2l3.7,1.6l0.3,0.1l4.1,1.6l4.2,1.4l4.5,1.1l4.5,1
		l4.7,0.7l4.7,0.4l0.4,0.1l4.4,0.3h4.4h0.3h0.7l-0.1,0.7l-0.6,2.4l-0.3,0.6l-0.6,1.6l-1,2l-1.3,1.8L70,916L68.8,917.6L68.8,917.6
		L68.8,917.6z M69.2,936.9c1.1,0.7,2.4,1.3,3.7,2c0.4,0.1,1,0.4,1.4,0.6c0.7,0.4,1.6,0.7,2.4,1l0,0l2.5,0.7h0.4l2.3,0.6l2.7,0.3h2.8
		l2.7-0.1l2.8-0.6l2.8-0.6l0,0c0.1-0.1,0.3-0.1,0.4-0.1c1.3-0.4,2.5-0.8,3.9-1.4c1.4-0.6,2.8-1.4,4.2-2.3c0.4-0.1,0.8-0.4,1.3-0.6
		c0.1,3,0,5.9-0.1,8.9l0,0l-0.7,1l-1.3,1.4l-1.3,1.3l-1.4,1.1l-1.3,1l-1.6,1l-1.4,0.8l-0.4,0.3l-1,0.6l-1.6,0.6l-1.6,0.6l-1.4,0.4
		l-1.6,0.4l-1.6,0.3l-1.4,0.1h-1.6h-1.4l-1.4-0.3l-1.6-0.1l-0.6-0.1l-0.7-0.3l-1.4-0.4l-1.3-0.6l-1.3-0.6l-0.7-0.4l-0.6-0.3
		l-1.1-0.8l-1.1-1l-1.1-1l-1-1.1l-1-1.3l-0.8-1.3l-0.8-1.4l-0.7-1.5l-0.4-1.3l-0.1-0.4l-0.4-1.1l0,0c0.1-0.1,0.1-0.1,0.3-0.3
		c0-0.1,0.1-0.3,0.3-0.4c0.4-0.7,0.8-1.4,1.3-2.1c0.3-0.6,0.7-1.3,1-2C68.2,936.2,68.7,936.5,69.2,936.9L69.2,936.9L69.2,936.9
		L69.2,936.9z M15.6,1035.4c-4,3.7-7.9,4.8-12,4.5c-4.9-0.3-9.9-2.7-14.8-5.4c4.2,4,9,7.1,14.8,8.2c2.3,0.3,4.5,0.4,7.1,0.3
		c-1.7,1.1-3.8,1.3-5.8,1.6c-0.4,0-0.8,0.1-1.3,0.1c-1.1,0-2.3,0-3.4-0.1c-4.7-0.8-9.5-3.2-13-6.8c-1.3-1.4-2.4-2.8-3.2-4.5
		c-0.6-1.4-0.8-2.8-0.6-4.2c0.7-2.5,2.3-4.8,3.8-6.9c0.7-1,1.4-1.8,2.3-2.7c3.5-4.1,6.3-8.2,9-12.8c0.8-1.7,2.1-3.2,2.8-5.1l0,0
		l0.1-0.6l0.1,0.1l0,0c0.7,0.4,1.3,0.7,2,1.1c1.4,0.7,2.7,1.3,4.2,1.7c1.7,0.6,3.4,1,5.1,1.3c1.1,0.1,2.1,0.1,3.1,0.3
		c-1.6,3.8-2.5,7.1-2.8,14.5c0.6,2.5,1,4.7,1.7,7.2C15.6,1029.6,17.6,1033.7,15.6,1035.4L15.6,1035.4L15.6,1035.4L15.6,1035.4z
		 M19.1,1001.3c-0.6,0-1,0-1.4,0c-2.5,0-4.9-0.3-7.3-1c-0.7-0.1-1.3-0.3-1.8-0.6c-1.4-0.4-2.8-1.1-4.1-1.8c-0.3-0.1-0.6-0.3-0.8-0.6
		c-0.8-0.4-1.6-1.1-2.4-1.7l0,0l-0.8-1l-1.7-1.7l0,0c-3.1-3.5-5.4-7.2-5.4-12.1c0.3-3.9,1.7-7.1,3.8-10.4l0,0l0.3-0.4l0.1,0.1
		l1.6,3.1L1,976l1,1.3l1,1.1l0.7,0.8l0.4,0.3l1.1,1.1l1.1,1l1.3,1l1.3,0.7l1.3,0.8l1.4,0.7l1.4,0.6l1.6,0.6l1.6,0.4l3.1,0.7l3.2,0.3
		l3.5,0.1l3.7-0.1l3.8-0.6l0,0c0.1,0,0.4,0,0.7-0.1C32,996.6,23.8,1000.6,19.1,1001.3L19.1,1001.3L19.1,1001.3L19.1,1001.3z
		 M39.7,979.7c-0.4,0.4-1,0.7-1.6,1c-1.3,0.6-2.5,0.8-3.5,1.7c-0.7,0.1-1.3,0.3-2,0.4l0,0l-3.5,0.4l-3.2,0.1l-3.2-0.1l-2.8-0.3
		l-2.8-0.6l-2.5-0.8l-2.3-1.1l-2.3-1.3l-2-1.6l-2-2l-1.7-2.1l-0.7-1L2.8,971l-1.4-2.8l-1.3-3l-0.7-1.4l-0.8-1.7l0,0
		c-0.4-4.8,0-9,2.1-13.4l0,0l3-3.4l1.4-1.5l0.1,2.1l0.4,2.1l0.4,2l0.7,2l0.8,1.8l0.8,1.8l1.1,1.7l1.1,1.5l1.3,1.4l1.4,1.4l1.4,1.1
		l1.5,1.1l1.7,1l1.7,0.8l1.8,0.7l1.8,0.7l2,0.4l2,0.3l2.1,0.1h2h2.1l2.1-0.3l2.1-0.6h0.4l1.8-0.6l2.1-0.7l2.1-0.8l2.3-1.1l0,0
		C46.5,969.9,44.7,975.3,39.7,979.7L39.7,979.7L39.7,979.7L39.7,979.7z M46.7,958.5c-0.7,0.6-1.4,1.3-2.1,1.7l0,0l-2,1l-2,0.8
		l-1.8,0.7l-0.6,0.1l-1.3,0.3l-2,0.4l-1.8,0.3h-1.7h-1.8l-1.7-0.1l-1.7-0.3l-1.7-0.3l-1.6-0.6l-1.4-0.6l-1.6-0.7l-1.3-0.8l-1.4-0.8
		l-1.1-1.1l-1.1-1l-1.1-1.3l-1-1.3l-0.8-1.4l-0.7-1.4l-0.7-1.7l-0.6-1.6l-0.4-1.7l-0.3-1.8l-0.1-2l-0.1-2l0.1-2V939l3-2.1l0.4,0.4
		l2.4,2.7l2.5,2.4l2.5,2.1l2.8,1.7l2.8,1.6l3.1,1.3l3.1,0.8l3.4,0.7l2.8,0.3h0.6h3.5l3.7-0.3l3.7-0.6l1.8-0.4l0,0
		C50,952.7,49.1,956.7,46.7,958.5L46.7,958.5L46.7,958.5L46.7,958.5z M57.2,942.4c-1,0.7-1.8,1.3-2.8,1.8l0,0l-0.7,0.3l-1.7,0.7
		l-1.4,0.3l-3.5,0.7l-3.4,0.4l-3.2,0.1l-2.3-0.1h-0.8l-3-0.4l-2.8-0.7l-2.7-0.8l-2.5-1.3l-2.5-1.4l-2.4-1.7l-2.3-2l-2.1-2.3
		l-2.1-2.5l-2-2.8l-1-1.4l-1.3-2.5l-0.1,0.1l0,0c-0.6-4.4-0.4-8.8,1-13.1c0.7-2.1,1.7-3.9,2.8-5.6l0,0l0.1,0.1l1.8,2.8l2,2.5
		l2.1,2.4l2.1,2.1l2.4,2l2.4,1.8l2.4,1.6l2.5,1.4l2.7,1.1l2.5,1l0.7,0.1l2,0.6l2.7,0.7l2.7,0.3l2.7,0.3h2.7l2.7-0.3l2.5-0.3l2.5-0.6
		L61,927l2.4-0.8l2.1-1.1h0.1l0.4-0.3l0,0c-0.1,0.3-0.1,0.6-0.1,0.8c-0.1,1-0.1,2-0.4,2.8c0,0.1,0,0.3,0,0.4
		c-0.3,1.4-0.7,2.7-1.1,3.9c-0.3,0.8-0.6,1.6-1,2.4c-0.6,1-1,1.8-1.7,2.7c-0.6,1-1.3,1.7-2,2.5C58.9,941.1,58.1,941.9,57.2,942.4
		L57.2,942.4L57.2,942.4L57.2,942.4z M96.2,1010.6c4.2,2.7,8.9,4.9,13,7.9c0.8,1,1,2.4,1.1,4c-0.7,3.8-8.5,6.1-14.1,6.6
		c-2.5,0.3-4.7,0.4-5.5,0.1c-0.8,1.5,1.8,2,5.5,2c4.5-0.1,10.2-1,12-2c-2.3,2-5.3,3.3-8.4,4.2c-1.3,0-2.5,0.1-3.7,0.3
		c-3.1,0.1-5.8,0.3-9.5-1.1c-1.7-1.7-3.5-3.2-5.2-5.1c-0.6-0.8-1.3-1.7-1.8-2.5c-1.8-2.3-3.5-4.5-5.4-6.9c-0.3-0.4-0.6-0.7-1-1.1
		c-2.5-2.4-4.7-4.9-4.7-9.6c-0.1-3.7,1.1-8,3-11.2l0,0l0.8-1.1l0,0c0.7,0.1,1.3,0.4,1.8,0.6c0.7,0.1,1.6,0.3,2.4,0.4
		c1,0.1,2,0.3,3,0.3c0.4,0,0.7,0.1,1.1,0.1c2.7,0,5.2-0.3,7.9-0.6c0.1,0.6,0.4,1.3,0.6,1.7c-8.3,1.3-8.6,4.9-5.4,5.5
		c1.6,0.3,3.4-1,6.9-1.6c0.1,1.1,0.6,2.1,1,3.1c-1.3,0-9.3,3.5-6.9,5.9c0.1,0,7.8-3.2,8.2-2.1C94.1,1009.2,95.1,1009.9,96.2,1010.6
		L96.2,1010.6L96.2,1010.6L96.2,1010.6z M96.2,986.9c-2,1.6-4.5,3.1-7.9,4.8c-2.4,0.3-4.9,0.6-7.3,0.6c-0.4,0-0.8-0.1-1.3-0.1
		c-1.4,0-2.8-0.3-4.2-0.6l0,0l0.1-0.3l0,0c-0.4,0-0.8-0.1-1.3-0.3c-2-0.4-4-1.5-5.9-3.8c-1.3-0.7-2.1-1.8-2.8-3
		c-0.6-1-1-2.1-1.3-3.2c-1.1-3.7-1.3-7.5-1.3-11.3l0,0l0.3,0.4l2.3,2l0.4,0.4l2.5,2l2.8,1.7l2.7,1.4h0.3l2.5,1l1.4,0.4l1.4,0.3h0.1
		l1.4,0.3h1.4l1.6,0.1l1.4-0.1l3-0.3L90,979l3-0.8l3-1.3h0.1l3-1.6l2.3-1.4l0,0C101.4,980,100,983.6,96.2,986.9L96.2,986.9
		L96.2,986.9L96.2,986.9z M103.7,966.3l-2.4,2.5l0,0c0,0,0,0,0,0.1c-1,0.7-1.8,1.3-2.8,1.8l0,0l-2.3,1.3l-0.6,0.3l-2.5,1.3l-2.7,0.8
		l-2.5,0.6l-2.5,0.3H83l-2.4-0.3l-0.8-0.1l-1.6-0.4l-2.4-0.8l-1.4-0.7l-1-0.4l-2.3-1.5l-2.4-1.7l-2.4-2.1l-0.7-0.8l-1.6-1.7l-0.8-1
		l0,0c-3-3-3.9-10.7-2.7-18.2c0.4-0.4,0.8-0.7,1.3-1.1l0,0l0.4,0.8l0.8,1.8l0.8,1.7l1.1,1.7l0.6,0.7l0.6,0.7l1.1,1.4l1.4,1.3
		l1.3,1.1l1.6,1l1.4,0.8l1.4,0.7l0.1,0.1l1.7,0.6l1.6,0.6l1.7,0.4h0.3l1.4,0.3l1.8,0.3h1.7h1.8l1.7-0.3l1.8-0.3l1.7-0.4l1.8-0.4
		l1.7-0.7l1-0.4l0.8-0.3l1.7-0.8l1.6-1l1.7-1.1l1.6-1.3l1.6-1.3l1.3-1.1l0,0c0.8,1.8,1.6,3.5,1.7,5.8
		C108,960.5,106.1,963.4,103.7,966.3L103.7,966.3L103.7,966.3L103.7,966.3z M105.4,931c-1.3,0.8-2.8,2.3-4.2,3
		c-1.3,0.7-2.5,1.3-3.9,1.8c-0.3,0.1-0.7,0.3-1,0.3c-1,0.3-1.8,0.6-2.8,0.8c-1.3,0.3-2.4,0.4-3.7,0.7c-1.3,0-2.4,0.1-3.7,0.1
		c-1.1,0-2.3-0.1-3.4-0.3c-1-0.1-2-0.4-3-0.6c-0.1-0.1-0.3-0.1-0.6-0.1c-1.1-0.4-2.3-0.8-3.2-1.3c-0.6-0.1-1.1-0.4-1.6-0.7
		c-0.6-0.3-1.3-0.6-1.8-0.8c-1.1-0.7-2.1-1.4-3.2-2.1c0-0.1,0-0.3,0.1-0.4c0.3-1.4,0.6-2.8,0.7-4.2c0.3-1.8,0.3-3.7,0.3-5.5l0,0
		l1.4-1.1l1.3-1.4l0,0c0.4,0.1,0.8,0.4,1.3,0.6c0.4,0.3,0.8,0.4,1.3,0.7l0,0l2.4,1l1.7,0.4l0.8,0.3l2.7,0.4l2.7,0.3l2.7,0.1l2.7-0.3
		l2.8-0.4l2.1-0.6l0.7-0.3l2.8-1l3-1.3l2.8-1.6l3-1.8l2.8-2.1l0,0c0.3-0.1,0.4-0.3,0.7-0.6C112.7,920.1,111.7,924.6,105.4,931
		L105.4,931L105.4,931L105.4,931z M116.6,893.5c-0.1,3.2-0.8,6.1-2,9c-0.7,1.6-1.4,3.1-2.1,4.5l0,0l-1.1,1l0,0
		c-1.3,1.1-2.7,2.3-4.1,3.4c-1.3,0.8-2.5,1.7-4,2.5c-1.3,0.7-2.5,1.4-3.9,2c-1.1,0.6-2.1,1-3.2,1.3c-0.1,0.1-0.4,0.1-0.6,0.3
		c-1.1,0.3-2.4,0.6-3.7,0.8c-1.1,0.1-2.4,0.3-3.5,0.4c-1.3,0-2.4-0.1-3.5-0.1c-1.1-0.1-2.3-0.4-3.4-0.6c-0.6-0.3-1.3-0.4-1.8-0.6
		c-0.4-0.1-0.8-0.4-1.4-0.6c-0.8-0.3-1.7-0.7-2.7-1.1l0,0l0.8-1.3l1.1-2.4l1-2.5l0.7-2.7l0.4-1.8l4.2-0.4l4.5-0.6l4.5-0.8l3.2-0.8
		l1-0.3l3.9-1.4l4-1.7l3.5-1.8l3.2-2.3l3-2.4l1.8-2v3L116.6,893.5L116.6,893.5z M119,875l-0.6,3.4l-1,3.1l-1.5,2.8l-1.8,2.7
		l-2.3,2.4l-2.5,2.1l-3,2l-3.2,1.7l-3.4,1.6l-3.5,1.1l-0.3,0.1l-3.9,1l-4.2,0.8l-4.2,0.6l-3.8,0.4h-0.6l-4.5,0.1h-0.3h-4.2l-4.5-0.3
		l-4.5-0.6l-4.4-0.7l-4.4-0.8l-4.2-1.1l-4.1-1.3l-3.8-1.6l-2-0.8l-1.7-0.7l-3.4-1.8l-3.1-2l-2.8-2.1l-2.4-2.4l-1.6-1.7l0.3-0.3
		l-3-6.5l0,0c-1.3-3.8-1.1-7.8-0.6-11.7l0,0l0.7,0.8l3.8,3l4,2.7l4.4,2.4l4.5,2.3l0.8,0.3l3.8,1.6l4.9,1.6l4.9,1.4l5.2,1l5.2,0.8
		l3.2,0.3l2,0.3l5.2,0.1h1.6l3.7,0.1l1.7-0.1L83,883l5.1-0.6l4.9-0.7l3.1-0.7l1.7-0.4l4.5-1.3l4.4-1.6l4.1-1.8l3.8-2l3.4-2.4l1-0.8
		l0.1,0.7L119,875L119,875L119,875z M118.2,865.7l-2.7,2.4l-3.1,2.1l-3.5,1.8l-3.7,1.7l-4.1,1.6l-4.2,1.1l-0.7,0.1l-3.8,0.8
		l-4.8,0.7l-4.8,0.6l-3.1,0.1h-1.8h-3.5H73l-5.1-0.1l-2.3-0.3l-2.8-0.3l-4.9-0.7l-4.9-1.1l-4.8-1.3l-4.7-1.4l-4.4-1.8l-0.8-0.4
		l-3.5-1.6l-4-2.3l-3.7-2.5l-3.5-2.8l-2.1-2.1l0,0c-1.1-2.7-2.1-5.9-2.8-9.3l0,0l1.1-0.3l2.7-0.8l2.5-1l2.4-1.1l2.3-1.3l2-1.4
		l1.8-1.6l0.4-0.4l1.6,1.4l2.8,1.8l0.3,0.3l3.5,1.8l3.7,1.7l4,1.4l4.2,1.1l4.4,1l4.4,0.6l3,0.3l1.7,0.1l4.5,0.3h2.5h2.1l3.2-0.1
		l1.4-0.1l4.7-0.4l4.7-0.6l4.4-0.8l1.4-0.4l3-0.7l4.1-1.3l4-1.6l3.8-1.7l3.4-2l3.2-2.3l2.8-2.4l2.3-2.4l0.6,1.4l0.3,0.4l1,3.7l0.7,4
		v3.7l-0.4,3.4l-1,3.1l-0.3,0.7l-1.1,2.3l-1.8,2.7L118.2,865.7L118.2,865.7L118.2,865.7z M138.7,889.9l-1.3,0.3h-0.7H136l-2.4-0.6
		l-0.4-0.1l0,0c-2.1-0.8-3.8-1.8-5.6-3.2l0,0l-1.8-1.3l-2.1-1.6l-1.8-1.3l0.8-2.7l0.4-2.3l0,0c0.1,0,0.3,0,0.6,0.1c0.3,0,0.7,0,1,0
		l0,0h1.1h0.7l0,0c1-0.1,1.8-0.3,2.7-0.4c1-0.3,1.8-0.6,2.7-0.8c0.8-0.4,1.7-0.8,2.5-1.3c0.8-0.6,1.7-1.1,2.5-1.7
		c0.1-0.1,0.3-0.3,0.6-0.4c0.6-0.6,1.1-1.1,1.7-1.6c0.7-0.8,1.4-1.6,2.1-2.4c0.3-0.4,0.6-0.7,0.7-1c0.4-0.4,0.7-1,1.1-1.6
		c0.3-0.4,0.6-0.8,0.8-1.3c0.3-0.4,0.6-0.8,0.7-1.3c1.1,0.4,2.3,0.8,3.2,1.4c1.6,1,3,2.1,3.8,3.8c0.1,0.1,0.1,0.3,0.3,0.4
		c1.8,3.8,1.3,8.2-0.3,11.4c0,0.1-0.1,0.3-0.3,0.4l0,0l-0.3,0.8l-0.3,0.4l-1.8,2.1l-1.1,0.8l-1,0.8l-2,1.4l-1.8,0.8l-0.3,0.1
		l-0.8,0.4l-1.1,0.4L138.7,889.9L138.7,889.9L138.7,889.9z M143,901.8c-0.1,0.1-0.3,0.4-0.4,0.6c-0.3,0.1-0.4,0.4-0.7,0.6
		c-0.6,0.3-1.1,0.4-1.4,0.1c-0.4-0.4,0-1.4,0.7-2.1c0.3-0.3,0.4-0.4,0.7-0.6c0.4-0.3,0.8-0.4,1.1-0.3c0.1,0,0.3,0,0.3,0.1
		C143.6,900.5,143.5,901.2,143,901.8L143,901.8L143,901.8L143,901.8z M148.4,905.9c-0.3,0.1-0.4,0.3-0.6,0.4c-1,0.4-2.1,0.1-2.4-0.3
		c-0.6-0.6-1.1-2.5-0.1-3.5c0.7-0.7,1.7-0.4,2.5,0c0.3,0.3,0.7,0.4,0.8,0.6C149.1,903.6,149.4,904.9,148.4,905.9L148.4,905.9
		L148.4,905.9L148.4,905.9z M152.9,910.8c-0.4,0.4-0.8,0.7-1.3,1c-1,0.6-2,0.7-2.4,0.3c-0.7-0.6-0.1-2.3,1.3-3.7
		c0.4-0.3,0.7-0.7,1.1-0.8c1-0.7,2-0.8,2.5-0.4C154.7,907.8,154.2,909.4,152.9,910.8L152.9,910.8L152.9,910.8L152.9,910.8z
		 M167.3,907.7c-2.4,4.1-6.6,0.8-9.9-1.8c-0.4-0.8-1.3-1.6-2.4-2.3c-1-0.7-2.3-1.6-3.4-2.4c-0.7-0.7-1.3-1.4-1.7-2.3
		c-0.8-0.3-1.5-0.4-2.1-0.7c-2.5-0.8-4.1-1.8-4.8-2.7c-0.7-0.7-0.6-1.4,0-2.1c0.4-0.4,1-0.7,1.8-1.1c0.4,0,1.7-0.8,2.1-1l0,0
		l0.8-0.6l0.4-0.3l1.3-0.8l1.1-1l1-1l0.3-0.1v-0.1l0,0c1,0.3,2.1,0.8,3.1,1.6c1.4,0.7,2.8,1.8,4.2,3.1c3.4,3.2,6.6,7.1,8.3,11.6
		C156.7,894,149.7,888.5,167.3,907.7L167.3,907.7L167.3,907.7L167.3,907.7z"/>
	<path class="st1" d="M82.6,777.3c-1,0-2,0-3,0c-1.8,0-3.5,0.1-5.4,0.1c-3,0-5.8,0.1-8.7,0.1c-0.1,0-0.1,0-0.3,0
		c-1,0.3-1.8-0.1-2.4-1.1c-0.7,2.3-1.8,3.7-3,4.9c1.7,0.1,3.2,0.1,4.4-1.3c0.4,0.3,0.8,0.4,1.3,0.7c0.1,0.1,0.4,0.3,0.6,0.3
		c2.3,0.4,4,1.7,5.4,3.5c1,0.7,2,0.8,2.8,0.7c1,0,1.8-0.6,2.8-1.1c0.3-0.8,1.1-1.8,2.5-2.7c1.3-0.8,3-1.7,5.4-2.5
		C85.3,778.3,84.5,777.7,82.6,777.3L82.6,777.3L82.6,777.3L82.6,777.3z M74.5,782.8h-0.1l0,0c-1.8-0.1-6.1-2.8-4.4-3l0,0h4.4
		l4.2-0.1l0,0C80.2,779.7,76.1,782.8,74.5,782.8L74.5,782.8L74.5,782.8L74.5,782.8z"/>
	<path class="st1" d="M79.7,773.2c3.5,0,6.5-4.5,6.5-9.9c0-5.5-3-9.9-6.5-9.9c-2.3,0-4.2,1.6-5.4,4.1c-0.8,1.6-1.3,3.7-1.3,5.8
		s0.4,4.1,1.3,5.8C75.4,771.5,77.4,773.2,79.7,773.2L79.7,773.2L79.7,773.2L79.7,773.2z M79.7,756.4c2.4,0,4.2,3.2,4.2,7.2
		c0,1.7-0.3,3.4-1,4.5c0.1-0.4,0.1-1,0.1-1.7c0-3.5-1.6-6.5-3.4-6.5s-3.4,3-3.4,6.5c0,0.7,0.1,1.4,0.3,2.1c-0.7-1.4-1.1-3.1-1.1-4.9
		C75.4,759.7,77.3,756.4,79.7,756.4L79.7,756.4L79.7,756.4L79.7,756.4z"/>
	<path class="st1" d="M65.3,773.2c0,0,0.1,0,0.3,0c3.5-0.3,6.2-4.7,6.2-9.9c0-5.4-2.7-9.6-6.2-9.9c-0.1,0-0.3,0-0.3,0
		c-3.7,0-6.6,4.4-6.6,9.9C58.6,768.7,61.6,773.2,65.3,773.2L65.3,773.2L65.3,773.2L65.3,773.2z M65.3,756.4c0.1,0,0.1,0,0.3,0
		c2.3,0.1,3.9,3.4,3.9,7.2c0,1.7-0.3,3.4-1,4.5c0.1-0.4,0.1-1,0.1-1.7c0-3.4-1.4-6.2-3.1-6.5c-0.1,0-0.1,0-0.3,0
		c-1.8,0-3.2,3-3.2,6.5c0,0.7,0,1.4,0.1,2.1c-0.7-1.4-1.1-3.1-1.1-4.9C61,759.7,62.9,756.4,65.3,756.4L65.3,756.4L65.3,756.4
		L65.3,756.4z"/>
	<path id="XMLID_7_" class="st1" d="M6.9,1015.4c-1-0.4-2.1-0.7-3.2-1c-1-0.1-2-0.3-3-0.3s-2.5,0.3-2.7,1.3c-0.1,1.1,0.8,2.4,2,3
		c1.1,0.6,2.4,1,3.7,1.1c0.8,0.1,1.7,0.1,2.5,0.1c1.3,0,3-0.4,3.2-1.6C9.5,1016.9,8,1015.9,6.9,1015.4L6.9,1015.4L6.9,1015.4
		L6.9,1015.4z"/>
	<path id="XMLID_5_" class="st1" d="M9.1,1007.9c-1.7-0.6-3.5-1-5.5-1c-0.3,0-0.7,0.1-1.1,0.1c-1.1,0.1-2.4,0.8-2.7,2
		c0,1,1.1,1.8,2.1,2.3c0.6,0.1,1.1,0.3,1.7,0.4c1.7,0.4,3.4,0.6,4.9,0.4c1.1,0,2.8-0.7,3-1.8C11.7,1009.3,10.1,1008.3,9.1,1007.9
		L9.1,1007.9L9.1,1007.9L9.1,1007.9z"/>
	<path id="XMLID_2_" class="st1" d="M-28.3,766.6c-0.3-0.1-0.6-0.3-0.8-0.3c-0.1-0.1-0.4-0.1-0.7,0c-0.8,0-2.3-0.3-2.7,0.6
		c-0.4,1,0.4,1.4,1.1,2.1c0.3,0.3,1.1,0.3,1.6,0.4c0.4,0.1,0.6,0.6,0.7,0.8c0.1,0.1,0.3,0.3,0.4,0.3c1,0.1,3.1,0.4,3.1-0.6
		C-25.3,768.6-27.2,767.6-28.3,766.6L-28.3,766.6L-28.3,766.6L-28.3,766.6z"/>
</g>
</svg>
