<?xml version="1.0" encoding="utf-8"?>
<!-- Generator: Adobe Illustrator 23.0.2, SVG Export Plug-In . SVG Version: 6.00 Build 0)  -->
<svg version="1.1" id="Layer_1" xmlns="http://www.w3.org/2000/svg" xmlns:xlink="http://www.w3.org/1999/xlink" x="0px" y="0px"
	 viewBox="0 0 2012 2125" style="enable-background:new 0 0 2012 2125;" xml:space="preserve">
<style type="text/css">
	.st0{fill:#125785;}
	.st1{fill:#4D87B8;}
	.st2{fill:#FFFFFF;}
	.st3{fill:none;stroke:#FFFFFF;stroke-linecap:round;stroke-miterlimit:10;}
	.st4{fill:#F68741;}
	.st5{fill:#F36B21;}
	.st6{fill:#6C401A;}
	.st7{fill:#F2B383;}
	.st8{fill:#F9BB88;}
	.st9{fill:#FCC8A0;}
	.st10{fill:#E35E2F;}
	.st11{fill:#D64E28;}
	.st12{fill:#F9D4B9;}
	.st13{fill:#2E5052;}
	.st14{fill:#223F3F;}
	.st15{fill:#2E6569;}
	.st16{fill:#354DA1;}
	.st17{fill:#DAF0F7;}
	.st18{fill:#BEDDE5;}
	.st19{fill:#93532E;}
	.st20{fill:#683E17;}
	.st21{fill:#AE643C;}
	.st22{fill:#BC6C48;}
	.st23{fill:#70BEEA;}
	.st24{fill:none;}
	.st25{fill:#CDECFC;}
</style>
<g>
	<g>
		<g>
			<g>
				<rect x="1197.01" y="515.73" class="st0" width="76.4" height="195.79"/>
			</g>
			<circle class="st1" cx="1235.21" cy="1150.84" r="477.53"/>
			<g>
				<path class="st1" d="M1352.21,611.24h-233.99c-21.1,0-38.2-17.1-38.2-38.2v-38.2c0-21.1,17.1-38.2,38.2-38.2h233.99
					c21.1,0,38.2,17.1,38.2,38.2v38.2C1390.41,594.14,1373.3,611.24,1352.21,611.24z"/>
			</g>
			<path class="st0" d="M1235.21,1628.37c263.73,0,477.53-213.79,477.53-477.53s-213.79-477.53-477.53-477.53V1628.37z"/>
			<circle class="st2" cx="1235.21" cy="1150.84" r="57.3"/>
			<line class="st3" x1="1235.21" y1="1150.84" x2="981.97" y2="1404.09"/>
			<path class="st3" d="M1235.21,792.7c197.8,0,358.14,160.35,358.14,358.14c0,197.8-160.35,358.14-358.14,358.14
				c-64.19,0-124.3-17.11-176.41-46.68"/>
			<g>
				<path class="st0" d="M1352.21,611.24h-116.99V496.63h116.99c21.1,0,38.2,17.1,38.2,38.2v38.2
					C1390.41,594.14,1373.3,611.24,1352.21,611.24z"/>
			</g>
		</g>
		<g>
			<g>
				<path class="st1" d="M910.49,1437.35H432.97c-31.64,0-57.3-25.67-57.3-57.3c0-31.64,25.67-57.3,57.3-57.3h477.53
					c31.63,0,57.3,25.67,57.3,57.3C967.8,1411.69,942.13,1437.35,910.49,1437.35z"/>
			</g>
			<g>
				<path class="st1" d="M910.49,1208.14H194.21c-31.64,0-57.3-25.67-57.3-57.3c0-31.64,25.67-57.3,57.3-57.3h716.29
					c31.63,0,57.3,25.67,57.3,57.3C967.8,1182.47,942.13,1208.14,910.49,1208.14z"/>
			</g>
			<g>
				<path class="st2" d="M834.09,1322.75H432.97c-31.64,0-57.3-25.67-57.3-57.3s25.67-57.3,57.3-57.3h401.12
					c31.64,0,57.3,25.67,57.3,57.3S865.73,1322.75,834.09,1322.75z"/>
			</g>
			<g>
				<path class="st2" d="M967.8,1093.54H432.97c-31.64,0-57.3-25.67-57.3-57.3c0-31.64,25.67-57.3,57.3-57.3H967.8
					c31.64,0,57.3,25.67,57.3,57.3C1025.1,1067.87,999.43,1093.54,967.8,1093.54z"/>
			</g>
			<g>
				<path class="st1" d="M910.49,978.93H772.01c-31.64,0-57.3-25.67-57.3-57.3c0-31.64,25.67-57.3,57.3-57.3h138.48
					c31.63,0,57.3,25.67,57.3,57.3C967.8,953.26,942.13,978.93,910.49,978.93z"/>
			</g>
			<g>
				<path class="st1" d="M595.33,978.93H432.97c-31.64,0-57.3-25.67-57.3-57.3c0-31.64,25.67-57.3,57.3-57.3h162.36
					c31.64,0,57.3,25.67,57.3,57.3C652.63,953.26,626.96,978.93,595.33,978.93z"/>
			</g>
		</g>
		<g>
			<g>
				<circle class="st4" cx="1636.33" cy="852.98" r="238.76"/>
				<polygon class="st2" points="1724.49,810.66 1651.61,824.77 1665.72,676.66 1548.17,895.3 1621.05,881.19 1606.95,1029.3 				
					"/>
			</g>
			<path class="st5" d="M1606.95,1029.3l14.1-148.11l-72.88,14.1l36.92-68.67c-41.33-44.58-90.95-81.13-146.57-107.39
				c-18.66,27.54-31.47,59.26-37.29,93.36c107.35,52.92,185.83,155.18,205.82,277.16c9.62,1.18,19.35,1.97,29.28,1.97
				c24.63,0,48.39-3.74,70.74-10.67c-7.79-53.05-24.05-103.27-47.78-149.15L1606.95,1029.3z"/>
			<path class="st5" d="M1397.59,853.33c0.15,107.61,71.51,198.46,169.47,228.12C1546.52,983.09,1483.24,900.27,1397.59,853.33z"/>
			<path class="st4" d="M1397.59,853.33c85.66,46.94,148.93,129.76,169.47,228.12c12.9,3.91,26.28,6.64,40,8.32
				c-19.99-121.99-98.47-224.25-205.82-277.16c-2.25,13.15-3.67,26.58-3.67,40.38C1397.57,853.1,1397.59,853.21,1397.59,853.33z"/>
		</g>
	</g>
</g>
</svg>
