<svg id="Layer_1" data-name="Layer 1" xmlns="http://www.w3.org/2000/svg" xmlns:xlink="http://www.w3.org/1999/xlink" viewBox="0 0 420.88 390.39">
  <defs>
    <style>
      .cls-1 {
        fill: none;
      }

      .cls-2 {
        clip-path: url(#clip-path);
      }

      .cls-3 {
        fill: #ed1c24;
      }

      .cls-4 {
        fill: #fff;
      }
    </style>
    <clipPath id="clip-path" transform="translate(-389.66 -117.83)">
      <rect class="cls-1" x="389.65" y="117.83" width="420.7" height="392.33"/>
    </clipPath>
  </defs>
  <title>exception</title>
  <g class="cls-2">
    <path class="cls-3" d="M806.55,463.88,626.37,133.55a30,30,0,0,0-11-11.5,29.67,29.67,0,0,0-30.5,0,30,30,0,0,0-11,11.5L393.64,463.88q-8.2,14.79.46,29.55a30.12,30.12,0,0,0,25.81,14.79H780.27a30.11,30.11,0,0,0,25.81-14.79q8.67-14.78.46-29.55ZM630.13,440.41a7.52,7.52,0,0,1-2.24,5.51,7.17,7.17,0,0,1-5.27,2.22h-45a7.16,7.16,0,0,1-5.27-2.22,7.47,7.47,0,0,1-2.24-5.51V395.84a7.47,7.47,0,0,1,2.24-5.51,7.17,7.17,0,0,1,5.27-2.24h45a7.22,7.22,0,0,1,5.28,2.24,7.51,7.51,0,0,1,2.22,5.51v44.57Zm-.48-87.74a5.23,5.23,0,0,1-2.46,3.87,9.57,9.57,0,0,1-5.51,1.52H578.28a10.1,10.1,0,0,1-5.62-1.52,4.5,4.5,0,0,1-2.35-3.88l-4-107.21a5.61,5.61,0,0,1,2.35-4.92c2-1.72,3.91-2.59,5.63-2.59H625.9c1.73,0,3.6.86,5.64,2.59a5.15,5.15,0,0,1,2.34,4.46Zm0,0" transform="translate(-389.66 -117.83)"/>
  </g>
  <rect class="cls-3" x="164.34" y="106.17" width="98" height="246.67"/>
  <path class="cls-4" d="M587.16,438V311H572l9.36-37.2h40.8V438Z" transform="translate(-389.66 -117.83)"/>
</svg>
