<?xml version="1.0" encoding="utf-8"?>
<!-- Generator: Adobe Illustrator 19.0.0, SVG Export Plug-In . SVG Version: 6.00 Build 0)  -->
<svg version="1.1" id="Layer_1" xmlns="http://www.w3.org/2000/svg" xmlns:xlink="http://www.w3.org/1999/xlink" x="0px" y="0px"
	 viewBox="-163.4 813.7 449 159.7" style="enable-background:new -163.4 813.7 449 159.7;" xml:space="preserve">
<style type="text/css">
	.st0{fill:#52237F;}
</style>
<g id="XMLID_1_">
	<path id="XMLID_3_" class="st0" d="M-25.1,852.4c-0.5,0-1,0-1.5,0h-42c1.7,1.2,2.5,5.6,2.5,11.9v109.1h19.5
		c7.6,0,11.7-3.6,11.7-13.2v-25.5c3.7,0.8,6.2,1.2,9.8,1.2c0.1,0,0.2,0,0.2,0v0.2c23.7,0,42.9-19,42.9-42.4
		C17.8,869.2-1,852.4-25.1,852.4z M-25.1,904.8L-25.1,904.8c-6.9,0-12.2-5-12.2-11.8c0-6.9,5.3-11.9,12.2-11.9c0.1,0,0.2,0,0.2,0
		l0,0c7.5,0.1,12.2,5,12.2,11.9C-12.9,899.8-18.1,904.8-25.1,904.8z"/>
	<path id="XMLID_5_" class="st0" d="M-79.9,852.4H-119c-0.5,0-1.1,0-1.5,0c-24.1,0-42.9,16.5-42.9,41.1c0,23.9,19.1,41.2,42.9,41.2
		c0.4,0,0.8,0,1.2,0h42c-1.6-2.5-2.6-6.5-2.6-11.9L-79.9,852.4L-79.9,852.4z M-120.6,904.8C-120.7,904.8-120.7,904.8-120.6,904.8
		c-7,0-12.2-5-12.2-11.8c0-6.9,5.2-11.9,12.2-11.9c0,0,0,0,0.1,0c7,0,12.2,5,12.2,11.9C-108.3,899.8-113.5,904.8-120.6,904.8z"/>
	<path id="XMLID_8_" class="st0" d="M242.6,851.1L242.6,851.1c-23.9,0-42.8,18.3-42.8,42.3c0,23.8,18.9,42.5,42.8,42.5
		c0.1,0,0.1,0,0.1,0c24,0,42.9-18.8,42.9-42.5C285.5,869.4,266.6,851.1,242.6,851.1z M242.6,904.8L242.6,904.8
		c-6.9,0-12.2-5-12.2-11.8c0-6.9,5.3-11.9,12.2-11.9c0.1,0,0.1,0,0.1,0c7,0,12.2,5,12.2,11.9C254.8,899.8,249.6,904.8,242.6,904.8z"
		/>
	<path id="XMLID_23_" class="st0" d="M65.5,851.1L65.5,851.1c-23.9,0-42.8,18.3-42.8,42.3c0,23.8,19,42.5,42.8,42.5h0.1
		c24,0,42.8-18.8,42.8-42.5C108.3,869.4,89.5,851.1,65.5,851.1z M65.5,904.8L65.5,904.8c-6.9,0-12.2-5-12.2-11.8
		c0-6.9,5.2-11.9,12.1-11.9H66l0,0c6.2,0.1,12,5,12,11.9C78,899.8,72.5,904.8,65.5,904.8z"/>
	<path id="XMLID_24_" class="st0" d="M193.2,813.7h-33.7V922c0,9.5,4.6,12.7,12.2,12.7h22.6c-1.7-2.5-1.1-6.5-1.1-11.9V813.7z"/>
	<path id="XMLID_25_" class="st0" d="M149.6,813.7h-33.7V922c0,9.5,4.4,12.7,11.9,12.7h22.6c-1.7-2.5-0.8-6.5-0.8-11.9V813.7z"/>
</g>
</svg>
