<?xml version="1.0" encoding="utf-8"?>
<!-- Generator: Adobe Illustrator 19.0.0, SVG Export Plug-In . SVG Version: 6.00 Build 0)  -->
<svg version="1.1" id="Layer_1" xmlns="http://www.w3.org/2000/svg" xmlns:xlink="http://www.w3.org/1999/xlink" x="0px" y="0px"
	 viewBox="-190 834.7 502 148.7" style="enable-background:new -190 834.7 502 148.7;" xml:space="preserve">
<style type="text/css">
	.st0{fill:#000000;}
	.st1{fill:#EC1C24;}
</style>
<g>
	<path class="st0" d="M199.4,837v34.3h39.3v109.1H273v-109h39V837H199.4L199.4,837z M148.8,837.2h-17.2c0,0-1,2.9-1,3
		c-0.1,0.2-56.2,140.9-56.2,140.9h37.1c0,0,31.1-77.4,37.3-92.8c6.2,15.3,37.3,92.8,37.3,92.8h37.1c0,0-56.1-140.6-56.2-140.9
		c0-0.1-1-3.1-1-3.1L148.8,837.2L148.8,837.2z M-152.9,844.7c-11.9,6.6-21.1,15.5-27.5,26.5c-6.4,10.9-9.6,23.6-9.6,37.6
		c0,21.6,7.1,39.7,21.1,53.6c14,13.9,32.2,21,54,21c11.8,0,22.5-2,31.7-5.9s19.1-10.9,29.3-20.9l2.9-2.8l-22.9-23.9l-2.9,2.9
		c-7,6.9-13.4,11.7-19,14.3c-5.6,2.5-11.8,3.8-18.6,3.8c-7.9,0-15.2-1.8-21.7-5.4c-6.4-3.6-11.4-8.5-14.9-14.7
		c-3.5-6.3-5.3-13.6-5.3-21.8c0-11.8,3.9-21.4,12-29.4c8.1-8,17.7-11.9,29.5-11.9c14.1,0,26.6,5.9,38,17.9l2.8,2.9l23.6-22.4
		L-53,863c-7.8-9-17.1-16.1-27.9-20.9c-10.7-4.9-22-7.4-33.6-7.4C-128.2,834.7-141.1,838.1-152.9,844.7L-152.9,844.7z"/>
	<path class="st1" d="M-37.7,981H65.5v-32.3H-37.7V981L-37.7,981z M-37.7,924.5H65.5v-32.3H-37.7V924.5L-37.7,924.5z M-37.7,869.4
		H65.5v-32.3H-37.7V869.4L-37.7,869.4z"/>
</g>
</svg>
