<?xml version="1.0" encoding="utf-8"?>
<!-- Generator: Adobe Illustrator 19.0.0, SVG Export Plug-In . SVG Version: 6.00 Build 0)  -->
<svg version="1.1" id="Layer_1" xmlns="http://www.w3.org/2000/svg" xmlns:xlink="http://www.w3.org/1999/xlink" x="0px" y="0px"
	 viewBox="-128.4 786.7 378.9 223.2" style="enable-background:new -128.4 786.7 378.9 223.2;" xml:space="preserve">
<style type="text/css">
	.st0{fill:#FF0000;}
</style>
<g>
	<path class="st0" d="M-127.5,1009.3c-0.2-0.3,21.3-22.2,54.5-55.4c30.2-30.1,54.8-55,54.8-55.3c0-0.3-24.9-25.4-55.2-55.8
		c-30.4-30.4-55.1-55.4-55-55.6c0.5-0.8,17.3-0.5,18.9,0.3c2.1,1.1,111.3,110.6,111.1,111.4c-0.1,0.4-25.1,25.5-55.5,55.8
		c-18.4,18.4-36.9,36.8-55.3,55.1c-3,0-5.9,0-8.9,0C-124.4,1009.9-127.3,1009.7-127.5,1009.3L-127.5,1009.3L-127.5,1009.3z"/>
	<path class="st0" d="M-93.1,1009.3c-0.2-0.3,21.9-22.8,54.5-55.4c30.2-30.2,54.8-55.1,54.8-55.4s-24.8-25.1-55-55.2
		c-30.3-30.1-55-55-55-55.4c0-0.6,1.5-0.7,9.3-0.6c3.1,0,6.2,0.1,9.3,0.1c18.5,18.4,37,36.8,55.5,55.2
		c30.5,30.3,55.5,55.4,55.5,55.8c0,0.3-24.9,25.5-55.4,56c-18.5,18.5-36.9,36.9-55.4,55.4c-3,0-6,0-9,0
		C-89.8,1009.9-92.8,1009.7-93.1,1009.3L-93.1,1009.3L-93.1,1009.3z"/>
	<path class="st0" d="M-58.6,1009.3c-0.2-0.3,21.9-22.8,54.5-55.5c37.9-37.9,54.8-55.1,54.5-55.5c-0.2-0.4-25.1-25.3-55.3-55.4
		c-30.2-30.1-54.9-55-54.8-55.3c0.1-0.4,3.3-0.6,9.2-0.7c3,0,6-0.1,9.1-0.1c6.2,6.1,12.4,12.3,18.5,18.4c50,49.6,93.3,93,93.3,93.4
		c0,0.3-24.9,25.4-55.4,55.9c-18.5,18.5-36.9,36.9-55.4,55.4c-3,0-6,0-9,0C-55.3,1009.9-58.3,1009.7-58.6,1009.3L-58.6,1009.3
		L-58.6,1009.3L-58.6,1009.3z"/>
	<path class="st0" d="M-24.1,1009.3c-0.2-0.3,21.9-22.9,54.6-55.5c18.3-18.3,36.6-36.6,54.9-54.9c-18.5-18.5-37-37-55.4-55.5
		c-32.7-32.7-55.3-55.7-55.1-56c0.2-0.4,3.3-0.6,9.3-0.6c3,0,6,0,8.9,0c18.6,18.5,37.2,37.1,55.8,55.6
		c30.7,30.6,55.9,55.9,55.9,56.1c0.1,0.3-24.8,25.4-55.3,55.9c-18.5,18.5-36.9,36.9-55.4,55.4c-3,0-6,0-9,0
		C-20.9,1009.9-23.9,1009.7-24.1,1009.3L-24.1,1009.3L-24.1,1009.3L-24.1,1009.3z"/>
	<path class="st0" d="M9.9,1009.4c-0.2-0.3,24.4-25,54.5-55.1c30.1-30,54.8-55,54.8-55.4c0-0.4-24.8-25.6-55.1-55.9
		c-39.8-39.8-55-55.3-54.6-55.7c0.4-0.4,3.5-0.5,9.5-0.4c3,0.1,6,0.1,8.9,0.2c5.5,5.5,11,11,16.5,16.4c5.5,5.5,11,11,16.5,16.4
		c3.7-3.6,7.4-7.1,11.1-10.7c6.1-5.9,13.6-13.2,16.6-16.3c1.9-1.9,3.7-3.7,5.6-5.6c3.2,0,6.3,0,9.5,0c5.2,0,9.5,0.2,9.5,0.4
		s-9.4,9.7-20.8,21.2c-11.4,11.4-20.8,21-20.8,21.3c0,1.4,6.5,6.9,7.5,6.4c0.5-0.3,11.9-11.6,25.3-25.1c8.1-8.2,16.2-16.4,24.3-24.6
		c3.1,0,6.1,0,9.2,0c6.2,0,9.3,0.2,9.6,0.6c0.2,0.3-11.7,12.6-29.1,30c-16.2,16.2-29.5,29.7-29.5,30c0,0.8,5.7,6.4,6.6,6.4
		c0.4,0,15.7-14.9,34-33.2c11.1-11.1,22.1-22.1,33.2-33.2c3.2,0,6.3,0,9.5,0c7.6,0,9.5,0.1,9.5,0.7c0,0.4-17,17.6-37.8,38.3
		c-20.9,20.4-37.9,37.6-37.9,38c0,0.9,5.7,6.5,6.6,6.5c0.4,0,19.7-18.9,42.9-42.1c14-14,28.1-28.1,42.1-42.1c3,0,6,0,9,0
		c6.1,0,9.1,0.2,9.3,0.6c0.2,0.3-18.5,19.4-46.1,47c-25.5,25.6-46.5,46.8-46.5,47.3c0,1,5.7,6.5,6.7,6.5c0.4,0,23.5-22.8,51.4-50.7
		c16.9-16.9,33.8-33.8,50.7-50.7c3.1,0,6.2,0,9.2,0c7.1,0,9.2,0.1,9.2,0.6c0,0.3-49.9,50.5-110.9,111.5
		c-37,37-73.9,73.9-110.9,110.9c-3.1,0-6.1,0-9.2,0C14.3,1009.9,10.1,1009.7,9.9,1009.4L9.9,1009.4L9.9,1009.4z"/>
</g>
</svg>
