<?xml version="1.0" encoding="utf-8"?>
<!-- Generator: Adobe Illustrator 19.0.0, SVG Export Plug-In . SVG Version: 6.00 Build 0)  -->
<svg version="1.1" id="Layer_1" xmlns="http://www.w3.org/2000/svg" xmlns:xlink="http://www.w3.org/1999/xlink" x="0px" y="0px"
	 viewBox="-155.4 737.3 432.8 313.7" style="enable-background:new -155.4 737.3 432.8 313.7;" xml:space="preserve">
<style type="text/css">
	.st0{fill:#00000D;}
	.st1{fill:#EC1C24;}
</style>
<g id="XMLID_7_">
	<polygon id="XMLID_5_" class="st0" points="73.2,737.3 190.8,737.3 50.9,894.2 190.8,1051 73.2,1051 -24.4,941.6 -155.4,941.6 
		-83.7,855 -31.8,855 	"/>
	<polygon id="XMLID_4_" class="st0" points="212.1,739.7 234.1,737.3 94.2,894.2 234.1,1051 212.1,1053.4 72.1,896.6 	"/>
	<polygon id="XMLID_3_" class="st0" points="255.4,739.7 277.4,737.3 137.5,894.2 277.4,1051 255.4,1053.4 115.4,896.6 	"/>
	<polygon id="XMLID_2_" class="st1" points="91.2,764.9 132.1,764.9 26,883.3 26,883.3 2.4,909.7 -38.5,909.7 -96.9,909.7 
		-73.3,883.3 -14.9,883.3 	"/>
</g>
</svg>
