<?xml version="1.0" encoding="utf-8"?>
<!-- Generator: Adobe Illustrator 23.0.1, SVG Export Plug-In . SVG Version: 6.00 Build 0)  -->
<svg version="1.1" id="Layer_1" xmlns="http://www.w3.org/2000/svg" xmlns:xlink="http://www.w3.org/1999/xlink" x="0px" y="0px"
	 viewBox="0 0 200 200" style="enable-background:new 0 0 200 200;" xml:space="preserve">
<style type="text/css">
	.st0{fill:#E6E6E6;}
	.st1{clip-path:url(#SVGID_2_);}
	.st2{fill:#D58A73;}
	.st3{fill:#FFFFFF;}
	.st4{fill:#D78C74;}
	.st5{opacity:0.05;}
	.st6{fill:#381911;}
	.st7{fill:#E5A185;}
	.st8{opacity:0.38;}
	.st9{fill:#E5A084;}
	.st10{fill:#E59F83;}
	.st11{fill:#E49E83;}
	.st12{fill:#E49D82;}
	.st13{fill:#E49C81;}
	.st14{fill:#E49B80;}
	.st15{fill:#E49A80;}
	.st16{fill:#E3997F;}
	.st17{fill:#E3987E;}
	.st18{fill:#E3977D;}
	.st19{fill:#E3967C;}
	.st20{fill:#E2957C;}
	.st21{fill:#E2947B;}
	.st22{fill:#E2937A;}
	.st23{fill:#E29279;}
	.st24{fill:#E29179;}
	.st25{fill:#E19078;}
	.st26{fill:#E18F77;}
	.st27{fill:#E18E76;}
	.st28{fill:#E18D75;}
	.st29{fill:#E18C75;}
	.st30{fill:#E08B74;}
	.st31{fill:#E08A73;}
	.st32{fill:#E08972;}
	.st33{fill:#E08872;}
	.st34{fill:#DF8771;}
	.st35{fill:#DF8670;}
	.st36{fill:#DF856F;}
	.st37{fill:#DF846F;}
	.st38{fill:#DF836E;}
	.st39{fill:#DE826D;}
	.st40{fill:#DE816C;}
	.st41{fill:#DE806B;}
	.st42{fill:#DE7F6B;}
	.st43{fill:#DE7E6A;}
	.st44{fill:#DD7D69;}
	.st45{fill:#DD7C68;}
	.st46{fill:#DD7B68;}
	.st47{fill:#DD7A67;}
	.st48{fill:#DD7A66;}
	.st49{fill:#DC7965;}
	.st50{fill:#DC7864;}
	.st51{fill:#DC7764;}
	.st52{fill:#DC7663;}
	.st53{fill:#DB7562;}
	.st54{fill:#DB7461;}
	.st55{fill:#DB7361;}
	.st56{fill:#DB7260;}
	.st57{fill:#DB715F;}
	.st58{fill:#DA705E;}
	.st59{fill:#DA6F5D;}
	.st60{fill:#DA6E5D;}
	.st61{fill:#DA6D5C;}
	.st62{fill:#DA6C5B;}
	.st63{fill:#D96B5A;}
	.st64{fill:#D96A5A;}
	.st65{fill:#D96959;}
	.st66{fill:#D96858;}
	.st67{fill:#D86757;}
	.st68{fill:#D86657;}
	.st69{fill:#D86556;}
	.st70{fill:#D86455;}
	.st71{fill:#D86354;}
	.st72{fill:#D76253;}
	.st73{fill:#D76153;}
	.st74{fill:#D76052;}
	.st75{fill:#D75F51;}
	.st76{fill:#D75E50;}
	.st77{fill:#D65D50;}
	.st78{fill:#D65C4F;}
	.st79{fill:#D65B4E;}
	.st80{fill:#D65A4D;}
	.st81{fill:#D5594C;}
	.st82{fill:#D5584C;}
	.st83{fill:#D5574B;}
	.st84{fill:#D5564A;}
	.st85{fill:#D55549;}
	.st86{fill:#D45449;}
	.st87{fill:#D45348;}
	.st88{fill:#D45247;}
	.st89{fill:url(#XMLID_8_);}
	.st90{fill:url(#XMLID_9_);}
	.st91{fill:#422E26;}
	.st92{fill:#6C332E;}
	.st93{opacity:0.35;fill:#C3BBA5;}
	.st94{opacity:0.2;fill:#FFFFFF;}
	.st95{fill:#4F372D;}
	.st96{opacity:0.14;fill:#422E26;}
	.st97{opacity:0.12;fill:#FFFFFF;}
	.st98{opacity:0.16;}
	.st99{fill:#465884;}
	.st100{opacity:0.04;}
	.st101{fill:#334363;}
	.st102{fill:#4C618C;}
	.st103{fill:#4F648E;}
	.st104{opacity:0.08;}
	.st105{fill:#E2E2E2;}
	.st106{fill:#EAEAEA;}
	.st107{fill:#BCB4B3;}
	.st108{fill:#755046;}
	.st109{opacity:0.5;fill:#D78C74;}
	.st110{fill:#3A3838;}
	.st111{fill:#F4F4F4;}
	.st112{fill:#494646;}
	.st113{fill:#514F4F;}
	.st114{fill:#333B49;}
	.st115{fill:#FFCA35;}
	.st116{opacity:0.5;fill:#FFCA35;}
	.st117{fill:#5F6368;}
	.st118{fill:#EF3030;}
	.st119{clip-path:url(#SVGID_4_);}
	.st120{fill:#F2866D;}
	.st121{fill:#FF9D2E;}
	.st122{fill:#574E49;}
	.st123{fill:#323436;}
	.st124{fill:#DB5C04;}
	.st125{fill:#FB822D;}
	.st126{fill:#55ABBD;}
	.st127{fill:#4F565C;}
	.st128{fill:#292F33;}
	.st129{fill:#FB6902;}
	.st130{fill:#E83427;}
	.st131{fill:#444A4F;}
	.st132{fill:#47403C;}
	.st133{fill:#3B3532;}
	.st134{fill:#78695E;}
	.st135{fill:#4C98A8;}
	.st136{fill:#C9EEF5;}
	.st137{opacity:0.7;fill:#FFFFFF;}
	.st138{opacity:0.2;}
	.st139{fill:#B6D8DE;}
	.st140{fill:#FDA73E;}
	.st141{fill:#95A4AD;}
	.st142{fill:#353D42;}
	.st143{fill:#E05E02;}
	.st144{fill:#4D4D4D;}
	.st145{fill:#616161;}
	.st146{fill:#8F8F8F;}
	.st147{fill:#FFA480;}
	.st148{fill:#2FB4BA;}
	.st149{fill:#9B72C4;}
	.st150{fill:#BDAEA3;}
	.st151{fill:#DB92DA;}
	.st152{fill:#E67B5A;}
	.st153{fill:#F94850;}
	.st154{fill:#FFB187;}
	.st155{fill:#FFB086;}
	.st156{fill:#FFAF85;}
	.st157{fill:#FFAE85;}
	.st158{fill:#FFAD84;}
	.st159{fill:#FFAC83;}
	.st160{fill:#FFAB82;}
	.st161{fill:#FFAA81;}
	.st162{fill:#FFA980;}
	.st163{fill:#FFA880;}
	.st164{fill:#FFA77F;}
	.st165{fill:#FFA67E;}
	.st166{fill:#FFA57D;}
	.st167{fill:#FFA47C;}
	.st168{fill:#FFA37C;}
	.st169{fill:#FFA27B;}
	.st170{fill:#FFA17A;}
	.st171{fill:#FFA079;}
	.st172{fill:#FF9F78;}
	.st173{fill:#FF9E77;}
	.st174{fill:#FF9D77;}
	.st175{fill:#FF9C76;}
	.st176{fill:#FF9B75;}
	.st177{fill:#FF9A74;}
	.st178{fill:#FF9973;}
	.st179{fill:#FF9872;}
	.st180{fill:#FF9771;}
	.st181{fill:#FF9670;}
	.st182{fill:#FF956F;}
	.st183{fill:#FF946F;}
	.st184{fill:#FF936E;}
	.st185{fill:#FF926D;}
	.st186{fill:#FF916C;}
	.st187{fill:#FF906B;}
	.st188{fill:#FF8F6A;}
	.st189{fill:#FF8E6A;}
	.st190{fill:#FF8D69;}
	.st191{fill:#FF8C68;}
	.st192{fill:#FF8B67;}
	.st193{fill:#FF8A66;}
	.st194{fill:#FF8966;}
	.st195{fill:#FF8865;}
	.st196{fill:#FF8764;}
	.st197{fill:#FF8663;}
	.st198{fill:#FF8562;}
	.st199{fill:#FF8461;}
	.st200{fill:#FF8361;}
	.st201{fill:#FF8260;}
	.st202{fill:#FF815F;}
	.st203{fill:#421C16;}
	.st204{fill:#703024;}
	.st205{fill:#00BAEB;}
	.st206{fill:#118793;}
	.st207{fill:#572619;}
	.st208{fill:#00AAD6;}
	.st209{fill:#00A2CC;}
	.st210{fill:#BF1B2D;}
	.st211{fill:#A12F2F;}
	.st212{fill:#8A8A8A;}
	.st213{fill:#404040;}
	.st214{fill:#F44E4E;}
	.st215{fill:#303030;}
	.st216{fill:#CAE1FC;}
	.st217{opacity:0.3;fill:#DA97B8;}
	.st218{opacity:0.6;fill:#CBCFFF;}
	.st219{fill:#EEF0FF;}
	.st220{fill:#7AB6F6;}
	.st221{fill:#6977A4;}
	.st222{opacity:0.3;fill:#FFFFFF;}
	.st223{fill:#F5B29C;}
	.st224{fill:#2E90EC;}
	.st225{fill:#3D4166;}
	.st226{fill:#FA7071;}
	.st227{fill:#3C5670;}
	.st228{fill:#FA989C;}
	.st229{fill:#D05C53;}
	.st230{fill:#5C595E;}
	.st231{fill:#E6DFEA;}
	.st232{fill:#C9C9DD;}
	.st233{opacity:0.3;}
	.st234{opacity:0.6;fill:#A8BCFF;}
	.st235{fill:#999DB8;}
	.st236{fill:#0B1238;}
	.st237{fill:#2D3170;}
	.st238{fill:#5C75C3;}
	.st239{fill:#0B124A;}
	.st240{fill:#2E3054;}
	.st241{fill:#B9B3C0;}
	.st242{fill:#595D8B;}
	.st243{fill:#0B2B4A;}
	.st244{opacity:0.25;fill:#EEF0FF;}
	.st245{fill:#C68824;}
	.st246{fill:#A36D1F;}
	.st247{fill:#CECECE;}
	.st248{fill:#C9C9C9;}
	.st249{fill:#BCBCBC;}
	.st250{fill:#E5E5E5;}
	.st251{fill:#424242;}
	.st252{fill:#CCCCCC;}
	.st253{fill:#FFBF3C;}
	.st254{fill:#D3D5D3;}
	.st255{fill:#46676C;}
	.st256{fill:url(#SVGID_5_);}
	.st257{fill:#98B1C7;}
	.st258{fill:url(#SVGID_6_);}
	.st259{fill:url(#SVGID_7_);}
	.st260{fill:#0E1714;}
	.st261{fill:#BFD2E1;}
	.st262{fill:url(#SVGID_8_);}
	.st263{fill:url(#SVGID_9_);}
	.st264{fill:url(#SVGID_10_);}
	.st265{fill:url(#SVGID_11_);}
	.st266{fill:url(#SVGID_12_);}
	.st267{fill:url(#SVGID_13_);}
	.st268{fill:url(#SVGID_14_);}
	.st269{fill:url(#SVGID_15_);}
	.st270{fill:url(#SVGID_16_);}
	.st271{fill:url(#SVGID_17_);}
	.st272{fill:url(#SVGID_18_);}
	.st273{fill:#1D2C2C;}
	.st274{fill:#ECEBF3;}
	.st275{fill:url(#SVGID_19_);}
	.st276{fill:#0074A6;}
	.st277{fill:url(#SVGID_20_);}
	.st278{fill:url(#SVGID_21_);}
	.st279{fill:url(#SVGID_22_);}
	.st280{fill:url(#SVGID_23_);}
	.st281{fill:#80979A;}
	.st282{fill:url(#SVGID_24_);}
	.st283{fill:url(#SVGID_25_);}
	.st284{fill:#3A4848;}
	.st285{fill:#FFBD95;}
	.st286{fill:#B8B3B3;}
	.st287{fill:#A39D9D;}
	.st288{fill:#8D3B26;}
	.st289{fill:#191919;}
	.st290{fill:#00233F;}
	.st291{fill:#002D56;}
	.st292{fill:#D7D4D4;}
	.st293{fill:#CFCCCC;}
	.st294{fill:#004877;}
</style>
<circle class="st0" cx="100" cy="100" r="100"/>
<g>
	<ellipse class="st254" cx="100" cy="141.14" rx="84.63" ry="11.54"/>
	<g>
		<g>
			<path class="st255" d="M57.18,82.24c0,0-1.07-0.15-1.5-0.99c-0.43-0.84-0.14-2.07-0.57-2.67c-0.43-0.61-3.53-2.38-7.14-0.54
				c-2.98,1.53-2.92,3.21-2.92,3.52c0,0.3-0.15,3.21,6.03,3.74c3.03,0.27,5.02-0.38,5.02-0.38L57.18,82.24z"/>
			<linearGradient id="SVGID_2_" gradientUnits="userSpaceOnUse" x1="45.3223" y1="81.1029" x2="57.183" y2="81.1029">
				<stop  offset="0" style="stop-color:#B5BFBF"/>
				<stop  offset="1" style="stop-color:#FFFFFF"/>
			</linearGradient>
			<path style="fill:url(#SVGID_2_);" d="M55.69,81.24c-0.43-0.84-0.14-2.07-0.57-2.67c-0.43-0.61-3.53-2.38-7.14-0.54
				c-1.63,0.83-2.33,1.71-2.66,2.39c0.43-0.48,1.07-1,2.05-1.51c3.6-1.84,6.7-0.08,7.13,0.54c0.42,0.61,0.14,1.84,0.57,2.68
				c0.43,0.84,1.5,0.99,1.5,0.99l-0.75,1.87c0.17-0.05,0.28-0.08,0.28-0.08l1.07-2.67C57.18,82.24,56.11,82.08,55.69,81.24z"/>
			<path class="st257" d="M138.8,82.24c0,0,1.07-0.15,1.5-0.99c0.43-0.84,0.14-2.07,0.57-2.67c0.43-0.61,3.53-2.38,7.13-0.54
				c2.98,1.53,2.92,3.21,2.92,3.52c0,0.3,0.15,3.21-6.03,3.74c-3.02,0.27-5.02-0.38-5.02-0.38L138.8,82.24z"/>
			
				<linearGradient id="SVGID_4_" gradientUnits="userSpaceOnUse" x1="-918.9714" y1="81.1029" x2="-907.116" y2="81.1029" gradientTransform="matrix(-1 0 0 1 -768.3121 0)">
				<stop  offset="0" style="stop-color:#B5BFBF"/>
				<stop  offset="1" style="stop-color:#FFFFFF"/>
			</linearGradient>
			<path style="fill:url(#SVGID_4_);" d="M140.3,81.24c0.43-0.84,0.14-2.07,0.57-2.67c0.43-0.61,3.53-2.38,7.13-0.54
				c1.63,0.83,2.33,1.71,2.65,2.39c-0.43-0.48-1.06-1-2.05-1.51c-3.6-1.84-6.7-0.08-7.13,0.54c-0.43,0.61-0.14,1.84-0.57,2.68
				c-0.43,0.84-1.5,0.99-1.5,0.99l0.75,1.87c-0.18-0.05-0.29-0.08-0.29-0.08l-1.07-2.67C138.8,82.24,139.87,82.08,140.3,81.24z"/>
			
				<linearGradient id="SVGID_5_" gradientUnits="userSpaceOnUse" x1="-879.6813" y1="108.3585" x2="-861.15" y2="100.2722" gradientTransform="matrix(-1 0 0 1 -744.1509 0)">
				<stop  offset="0" style="stop-color:#B5BFBF"/>
				<stop  offset="1" style="stop-color:#FFFFFF"/>
			</linearGradient>
			<path class="st256" d="M137.3,82.41H98.21v36.39h18.77c0,0,3.08-12.62,6.17-18.38C126.98,93.3,137.3,82.41,137.3,82.41z"/>
			<g>
				<path class="st260" d="M134.12,138.44c0,1.28,1.05,2.33,2.33,2.33h9.34c1.28,0,2.33-1.05,2.33-2.33v-22.88
					c0-1.28-1.05-2.33-2.33-2.33h-9.34c-1.28,0-2.33,1.05-2.33,2.33V138.44z"/>
			</g>
			<path class="st261" d="M98.21,56.88c5.55,0.08,10.43,0.23,13.83,0.5c4.28,0.34,13.36,0.93,16.83,3.61
				c4.89,3.79,8.02,16.54,10.99,22.17c1.84,3.5,7.66,9.57,7.99,13.58c0.75,9.21-0.16,31.4-2.42,33.83
				c-1.58,1.7-24.2,1.75-47.21,1.36V56.88z"/>
			
				<linearGradient id="SVGID_6_" gradientUnits="userSpaceOnUse" x1="-885.384" y1="114.438" x2="-876.3229" y2="114.6346" gradientTransform="matrix(-1 0 0 1 -748.8834 0)">
				<stop  offset="0" style="stop-color:#D9E8E6"/>
				<stop  offset="1" style="stop-color:#FFFFFF"/>
			</linearGradient>
			<path class="st258" d="M147.96,98.28l-26.49,11.87L117,129.37c0,0,24.12,6.18,29.15-9.82C147,116.83,147.96,98.28,147.96,98.28z"
				/>
			<path class="st255" d="M121.46,106.1c0,0,18.69,0.68,22.11-1.98c1.59-1.23,2.3-5.21,1.28-6.42c-1.27-1.52-5.67-1.06-7.56-0.95
				c-3.17,0.17-12.7,2.03-12.7,2.03L121.46,106.1z"/>
			
				<linearGradient id="SVGID_7_" gradientUnits="userSpaceOnUse" x1="-877.9564" y1="112.2647" x2="-860.5904" y2="112.6415" gradientTransform="matrix(-1 0 0 1 -748.8834 0)">
				<stop  offset="0" style="stop-color:#B5BFBF"/>
				<stop  offset="1" style="stop-color:#FFFFFF"/>
			</linearGradient>
			<path class="st259" d="M136.21,105.82c0,0-7.93,1.27-13.81,5.87c-3.43,2.68-4.64,7.11-4.64,7.11H117l3.73-12.62L136.21,105.82z"
				/>
			
				<linearGradient id="SVGID_8_" gradientUnits="userSpaceOnUse" x1="-872.1656" y1="107.2506" x2="-871.9382" y2="96.8344" gradientTransform="matrix(-1 0 0 1 -748.8834 0)">
				<stop  offset="0" style="stop-color:#B5BFBF"/>
				<stop  offset="1" style="stop-color:#FFFFFF"/>
			</linearGradient>
			<path class="st262" d="M148.1,97.51c0.15,1.74-6.55,1.07-14.69,2.95c-9.66,2.23-35.16,6.89-35.16,6.89V95.17
				c11.31,0,26.09,0.77,31.64,0c6-0.83,14.91-1.48,17.12,0C147.01,95.17,147.95,95.76,148.1,97.51z"/>
			
				<linearGradient id="SVGID_9_" gradientUnits="userSpaceOnUse" x1="-884.4249" y1="108.36" x2="-865.891" y2="100.2726" gradientTransform="matrix(-1 0 0 1 -748.8834 0)">
				<stop  offset="0" style="stop-color:#B5BFBF"/>
				<stop  offset="0.1346" style="stop-color:#C1C9C9"/>
				<stop  offset="0.7099" style="stop-color:#EEF0F0"/>
				<stop  offset="1" style="stop-color:#FFFFFF"/>
			</linearGradient>
			<path class="st263" d="M137.31,82.41H98.22v36.39H117c0,0,3.07-12.62,6.17-18.38C126.99,93.3,137.31,82.41,137.31,82.41z"/>
			
				<linearGradient id="SVGID_10_" gradientUnits="userSpaceOnUse" x1="-885.4126" y1="104.5239" x2="-885.2859" y2="98.7173" gradientTransform="matrix(-1 0 0 1 -748.8834 0)">
				<stop  offset="0" style="stop-color:#B5BFBF"/>
				<stop  offset="1" style="stop-color:#FFFFFF"/>
			</linearGradient>
			<path class="st264" d="M133.29,100.88c0,1.87,1.41,3.39,3.16,3.39c1.74,0,3.16-1.52,3.16-3.39c0-1.87-1.41-3.39-3.16-3.39
				C134.7,97.49,133.29,99,133.29,100.88z"/>
			
				<linearGradient id="SVGID_11_" gradientUnits="userSpaceOnUse" x1="-877.9894" y1="105.3127" x2="-877.8626" y2="99.5035" gradientTransform="matrix(-1 0 0 1 -748.8834 0)">
				<stop  offset="0" style="stop-color:#B5BFBF"/>
				<stop  offset="1" style="stop-color:#FFFFFF"/>
			</linearGradient>
			<path class="st265" d="M125.86,101.67c0,1.86,1.42,3.39,3.17,3.39c1.75,0,3.16-1.52,3.16-3.39c0-1.88-1.41-3.4-3.16-3.4
				C127.28,98.28,125.86,99.8,125.86,101.67z"/>
			
				<linearGradient id="SVGID_12_" gradientUnits="userSpaceOnUse" x1="-882.144" y1="106.1906" x2="-881.9708" y2="98.2558" gradientTransform="matrix(-1 0 0 1 -748.8834 0)">
				<stop  offset="0" style="stop-color:#B5BFBF"/>
				<stop  offset="1" style="stop-color:#FFFFFF"/>
			</linearGradient>
			<path class="st266" d="M144.86,97.7c0,0-2.35-2.3-10.34-0.69c-7.99,1.6-9.92,1.76-9.92,1.76l-3.14,7.33c0,0,0.96-3.28,4.64-4.83
				C138.73,95.94,144.86,97.7,144.86,97.7z"/>
			
				<linearGradient id="SVGID_13_" gradientUnits="userSpaceOnUse" x1="-894.2143" y1="102.312" x2="-870.3535" y2="102.312" gradientTransform="matrix(-1 0 0 1 -748.8834 0)">
				<stop  offset="0" style="stop-color:#B5BFBF"/>
				<stop  offset="1" style="stop-color:#FFFFFF"/>
			</linearGradient>
			<path class="st267" d="M143.46,103.33c1.15-0.89,1.83-3.2,1.74-4.88c0.44,1.63-0.27,4.63-1.62,5.67
				c-3.42,2.65-22.11,1.98-22.11,1.98l0.33-0.77C124.55,105.41,140.34,105.76,143.46,103.33z"/>
			<g>
				<path class="st260" d="M62.34,138.44c0,1.28-1.05,2.33-2.33,2.33h-9.34c-1.28,0-2.33-1.05-2.33-2.33v-22.88
					c0-1.28,1.05-2.33,2.33-2.33h9.34c1.28,0,2.33,1.05,2.33,2.33V138.44z"/>
			</g>
			<path class="st261" d="M98.24,56.88c-5.55,0.08-10.43,0.23-13.83,0.5c-4.28,0.34-13.35,0.93-16.83,3.61
				c-4.89,3.79-8.02,16.54-10.99,22.17c-1.84,3.5-7.66,9.57-7.99,13.58c-0.75,9.21,0.16,31.4,2.43,33.83
				c1.58,1.7,24.21,1.75,47.22,1.36V56.88z"/>
			<linearGradient id="SVGID_14_" gradientUnits="userSpaceOnUse" x1="60.9194" y1="108.36" x2="79.4533" y2="100.2726">
				<stop  offset="0" style="stop-color:#B5BFBF"/>
				<stop  offset="0.1346" style="stop-color:#C1C9C9"/>
				<stop  offset="0.7099" style="stop-color:#EEF0F0"/>
				<stop  offset="1" style="stop-color:#FFFFFF"/>
			</linearGradient>
			<path class="st268" d="M59.15,82.41h39.09v36.39H79.46c0,0-3.07-12.62-6.17-18.38C69.47,93.3,59.15,82.41,59.15,82.41z"/>
			<linearGradient id="SVGID_15_" gradientUnits="userSpaceOnUse" x1="59.9613" y1="114.438" x2="69.0233" y2="114.6346">
				<stop  offset="0" style="stop-color:#D9E8E6"/>
				<stop  offset="1" style="stop-color:#FFFFFF"/>
			</linearGradient>
			<path class="st269" d="M48.5,98.28l26.5,11.87l4.47,19.23c0,0-24.12,6.18-29.15-9.82C49.46,116.83,48.5,98.28,48.5,98.28z"/>
			<linearGradient id="SVGID_16_" gradientUnits="userSpaceOnUse" x1="67.389" y1="112.2646" x2="84.7574" y2="112.6415">
				<stop  offset="0" style="stop-color:#B5BFBF"/>
				<stop  offset="1" style="stop-color:#FFFFFF"/>
			</linearGradient>
			<path class="st270" d="M60.25,105.82c0,0,7.93,1.27,13.82,5.87c3.43,2.68,4.64,7.11,4.64,7.11h0.76l-3.74-12.62L60.25,105.82z"/>
			<g>
				<path class="st273" d="M98.17,124.61h24.25c0.76,0,1.44-0.49,1.68-1.21l0.75-2.26c0.38-1.15-0.47-2.34-1.68-2.34H98.17V124.61z"
					/>
				<path class="st273" d="M98.24,124.61H73.65c-0.81,0-1.52-0.55-1.72-1.33l-0.58-2.26c-0.29-1.12,0.56-2.22,1.72-2.22h25.18
					V124.61z"/>
			</g>
			<rect x="83.27" y="110.39" class="st274" width="30.1" height="6.57"/>
			<linearGradient id="SVGID_17_" gradientUnits="userSpaceOnUse" x1="73.1814" y1="107.2506" x2="73.4087" y2="96.8344">
				<stop  offset="0" style="stop-color:#B5BFBF"/>
				<stop  offset="1" style="stop-color:#FFFFFF"/>
			</linearGradient>
			<path class="st271" d="M48.36,97.51c-0.15,1.74,6.55,1.07,14.7,2.95c9.65,2.23,35.16,6.89,35.16,6.89l0-12.17
				c-11.3,0-26.09,0.77-31.64,0c-5.99-0.83-14.91-1.48-17.12,0C49.45,95.17,48.51,95.76,48.36,97.51z"/>
			<rect x="83.27" y="110.39" class="st276" width="2.85" height="6.57"/>
			<path class="st273" d="M128.17,63.45c0,0-22.17-1.65-29.93-1.68v0c0,0-0.01,0-0.01,0c0,0-0.01,0-0.01,0v0
				c-7.75,0.03-29.93,1.68-29.93,1.68l-9.13,18.96h39.06h0.03h39.05L128.17,63.45z"/>
			<path class="st255" d="M74.99,106.1c0,0-18.69,0.68-22.12-1.98c-1.58-1.23-2.31-5.2-1.28-6.42c1.27-1.52,5.67-1.06,7.56-0.95
				c3.18,0.17,12.7,2.03,12.7,2.03L74.99,106.1z"/>
			<linearGradient id="SVGID_18_" gradientUnits="userSpaceOnUse" x1="59.9331" y1="104.5238" x2="60.0598" y2="98.7172">
				<stop  offset="0" style="stop-color:#B5BFBF"/>
				<stop  offset="1" style="stop-color:#FFFFFF"/>
			</linearGradient>
			<path class="st272" d="M63.17,100.88c0,1.87-1.42,3.39-3.16,3.39c-1.75,0-3.16-1.52-3.16-3.39c0-1.87,1.41-3.39,3.16-3.39
				C61.76,97.49,63.17,99,63.17,100.88z"/>
			<linearGradient id="SVGID_19_" gradientUnits="userSpaceOnUse" x1="67.3524" y1="105.3125" x2="67.4791" y2="99.5034">
				<stop  offset="0" style="stop-color:#B5BFBF"/>
				<stop  offset="1" style="stop-color:#FFFFFF"/>
			</linearGradient>
			<path class="st275" d="M70.59,101.67c0,1.86-1.41,3.39-3.16,3.39c-1.75,0-3.16-1.52-3.16-3.39c0-1.88,1.42-3.4,3.16-3.4
				C69.18,98.28,70.59,99.8,70.59,101.67z"/>
			<linearGradient id="SVGID_20_" gradientUnits="userSpaceOnUse" x1="63.2003" y1="106.1906" x2="63.3735" y2="98.2558">
				<stop  offset="0" style="stop-color:#B5BFBF"/>
				<stop  offset="1" style="stop-color:#FFFFFF"/>
			</linearGradient>
			<path class="st277" d="M51.59,97.7c0,0,2.35-2.3,10.34-0.69c7.99,1.6,9.92,1.76,9.92,1.76l3.14,7.33c0,0-0.96-3.28-4.64-4.83
				C57.73,95.94,51.59,97.7,51.59,97.7z"/>
			<linearGradient id="SVGID_21_" gradientUnits="userSpaceOnUse" x1="51.1291" y1="102.312" x2="74.9936" y2="102.312">
				<stop  offset="0" style="stop-color:#B5BFBF"/>
				<stop  offset="1" style="stop-color:#FFFFFF"/>
			</linearGradient>
			<path class="st278" d="M53,103.33c-1.15-0.89-1.83-3.2-1.74-4.88c-0.43,1.63,0.28,4.63,1.62,5.67
				c3.43,2.65,22.12,1.98,22.12,1.98l-0.33-0.77C71.92,105.41,56.13,105.76,53,103.33z"/>
			<path class="st255" d="M97.74,62.17c0.01,0,0.01,0,0.02,0c0,0,0.01,0,0.01,0c7.75,0.04,29.92,1.68,29.92,1.68l8.94,18.55h0.67
				l-9.13-18.96c0,0-22.17-1.65-29.93-1.68c-0.01,0-0.01,0-0.01,0c-0.01,0-0.01,0-0.01,0c-7.75,0.03-29.93,1.68-29.93,1.68
				l-0.19,0.38C70.7,63.64,90.5,62.21,97.74,62.17z"/>
			<path class="st255" d="M98.24,98.01h-0.03h-15.8c-1.34,0-2.43,1.09-2.43,2.43v4.48c0,1.34,1.08,2.43,2.42,2.43
				c4.57,0.01,14.19,0.04,15.83-0.01c1.64,0.04,11.25,0.02,15.82,0.01c1.34,0,2.42-1.09,2.42-2.43v-4.48c0-1.34-1.09-2.43-2.43-2.43
				H98.24z"/>
			<path class="st281" d="M126.62,123.38l4.98-4.34c1.56-1.36,3.56-2.11,5.63-2.11h4.64c0.51,0,0.85,0.53,0.63,0.99l-0.75,1.6
				c-1.46,3.1-4.58,5.08-8,5.08h-6.67C126.44,124.61,126.14,123.81,126.62,123.38z"/>
			<path class="st281" d="M69.64,123.38l-4.98-4.34c-1.56-1.36-3.56-2.11-5.63-2.11h-4.64c-0.51,0-0.85,0.53-0.63,0.99l0.75,1.6
				c1.46,3.1,4.58,5.08,8,5.08h6.67C69.83,124.61,70.13,123.81,69.64,123.38z"/>
		</g>
		<g>
			<path class="st167" d="M39.29,77.97c-0.74,2.25,4.03,3.38,6.38,3.81c2.36,0.44,9.35,1.01,9.35,1.01l0.62-2.52
				c0,0-5.73-2.86-12.16-4.4C42.82,75.72,40.04,75.69,39.29,77.97z"/>
			<g>
				<path class="st167" d="M53.74,82.46c0,0,1.61,0.86,2.58-0.12c0.97-0.98,1.14-2.65,1.27-3.03c0.53-1.57,2.39-2.46,2.85-3.36
					c0.46-0.9,0.01-1.17-0.24-0.9c-1.4,1.51-2.68,1.9-3.23,2.64c-0.55,0.74-3.17,2.92-3.17,2.92L53.74,82.46z"/>
				<path class="st167" d="M54.96,82.67c0,0,0.83,0.44,2.05-0.63c0.67-0.59,0.83-1.74,1.36-2.29c0.53-0.55,0.12-0.61,0-0.62
					c-0.12-0.01-0.76,0.67-1.09,0.94C56.95,80.33,55.13,80.83,54.96,82.67z"/>
			</g>
		</g>
		<g>
			<g>
				<linearGradient id="SVGID_22_" gradientUnits="userSpaceOnUse" x1="56.8305" y1="68.1026" x2="133.5224" y2="68.1026">
					<stop  offset="0" style="stop-color:#EAEFF4"/>
					<stop  offset="0.5057" style="stop-color:#F7F9FB"/>
					<stop  offset="1" style="stop-color:#FFFFFF"/>
				</linearGradient>
				<path class="st279" d="M125.43,60.1c-0.19-0.4-0.57-0.66-1.01-0.69c-3.83-0.28-22.29-1.6-29.22-1.63v0c0,0-0.01,0-0.01,0
					c0,0-0.01,0-0.01,0v0c-6.93,0.03-25.39,1.35-29.23,1.63c-0.44,0.03-0.82,0.29-1.01,0.69l-7.98,16.56
					c-0.39,0.81,0.2,1.76,1.11,1.76h37.11h0.03h37.1c0.9,0,1.5-0.94,1.11-1.76L125.43,60.1z"/>
				<linearGradient id="SVGID_23_" gradientUnits="userSpaceOnUse" x1="91.0066" y1="67.2245" x2="150.737" y2="68.5205">
					<stop  offset="0" style="stop-color:#B5BFBF"/>
					<stop  offset="1" style="stop-color:#FFFFFF"/>
				</linearGradient>
				<path class="st280" d="M66.14,59.72c0,0,19.65-1.79,29.04-1.43c9.38,0.35,29.32,1.43,29.32,1.43l8.31,17.44L66.14,59.72z"/>
				<path class="st255" d="M125.41,60.07c-0.18-0.37-0.54-0.62-0.96-0.65c-3.75-0.27-22.3-1.6-29.26-1.63v0c0,0-0.01,0-0.01,0
					c0,0-0.01,0-0.01,0v0c-6.96,0.03-25.51,1.36-29.26,1.63c-0.41,0.03-0.78,0.28-0.96,0.65l-8.04,16.69
					c-0.37,0.77,0.19,1.66,1.04,1.66h37.21h0.03h37.21c0.85,0,1.42-0.89,1.05-1.66L125.41,60.07z M95.19,77.16h-0.02H60.15
					c-0.85,0-1.41-0.88-1.05-1.65l6.74-14.5c0.18-0.38,0.55-0.64,0.97-0.67c3.73-0.26,21.77-1.47,28.35-1.5v0c0,0,0.01,0,0.01,0
					c0,0,0.01,0,0.01,0v0c6.58,0.03,24.62,1.2,28.36,1.45c0.43,0.03,0.79,0.29,0.97,0.67l6.66,14.54c0.35,0.77-0.21,1.64-1.05,1.64
					H95.19z"/>
			</g>
			<g>
				<path class="st273" d="M69.5,73.06c0,1.16-0.94,2.09-2.09,2.09c-1.16,0-2.09-0.94-2.09-2.09c0-1.16,0.94-2.09,2.09-2.09
					C68.56,70.96,69.5,71.9,69.5,73.06z"/>
				<path class="st273" d="M72.23,64.2c0,1.08-0.88,1.95-1.95,1.95c-1.08,0-1.95-0.88-1.95-1.95c0-1.08,0.88-1.95,1.95-1.95
					C71.35,62.24,72.23,63.12,72.23,64.2z"/>
				<path class="st284" d="M67.12,73.85L67.12,73.85c-0.36-0.12-0.56-0.51-0.45-0.87l2.94-9.14c0.12-0.36,0.51-0.56,0.87-0.45l0,0
					c0.36,0.12,0.56,0.51,0.45,0.87l-2.94,9.14C67.87,73.77,67.48,73.97,67.12,73.85z"/>
			</g>
			<g>
				<circle class="st273" cx="125.27" cy="73.06" r="2.09"/>
				<circle class="st273" cx="122.4" cy="64.2" r="1.95"/>
				<path class="st284" d="M125.56,73.85L125.56,73.85c0.36-0.12,0.56-0.51,0.45-0.87l-2.94-9.14c-0.12-0.36-0.51-0.56-0.87-0.45
					l0,0c-0.36,0.12-0.56,0.51-0.45,0.87l2.94,9.14C124.8,73.77,125.2,73.97,125.56,73.85z"/>
			</g>
		</g>
		<g>
			<g>
				<path class="st285" d="M70.46,69.77L70.46,69.77c0.04-0.25-0.14-0.48-0.38-0.51l-1.92-0.28c-0.25-0.04-0.48,0.14-0.51,0.38l0,0
					c-0.04,0.25,0.14,0.48,0.38,0.51l1.92,0.29C70.19,70.19,70.42,70.02,70.46,69.77z"/>
				<path class="st285" d="M70.66,68.95L70.66,68.95c0.04-0.25-0.14-0.48-0.38-0.51l-1.92-0.29c-0.25-0.04-0.48,0.14-0.51,0.38l0,0
					c-0.04,0.25,0.14,0.48,0.38,0.51l1.92,0.29C70.39,69.37,70.62,69.19,70.66,68.95z"/>
				<path class="st285" d="M70.81,68.13L70.81,68.13c0.04-0.25-0.14-0.48-0.38-0.51l-1.92-0.28c-0.25-0.04-0.48,0.14-0.51,0.38l0,0
					c-0.04,0.25,0.14,0.48,0.38,0.51l1.92,0.29C70.54,68.55,70.77,68.38,70.81,68.13z"/>
				<path class="st285" d="M70.88,67.33L70.88,67.33c0.04-0.25-0.14-0.48-0.38-0.51l-1.92-0.28c-0.25-0.04-0.48,0.14-0.51,0.38l0,0
					c-0.04,0.25,0.14,0.48,0.38,0.51l1.92,0.28C70.61,67.75,70.84,67.58,70.88,67.33z"/>
				<path class="st285" d="M64.04,66.91c0,0,3.09-0.85,3.71-0.84c0.62,0.01,2.93,0.83,2.93,0.83s-0.85,0.7-0.86,1.26
					c0,0.56,0.12,2.01,0.12,2.01s-2.11,0.24-3.08,0.03C65.9,69.99,65,69.56,65,69.56L64.04,66.91z"/>
			</g>
			<path class="st285" d="M45.05,54.33c0,0-2.31,5.75-2.69,6.03c-1.35,0.99-3.02,1.29-4.27,2.6c-1.52,1.59-2.02,10.4-2.33,13.42
				c-0.31,3.02-3.95,10.93-3.35,13.81c0.81,3.84,7.73,3.94,8.04,4.05c0.32,0.11,2.48-2.1,3.31-2.82c0.83-0.72-0.5-7.18,0.11-8.98
				c0.6-1.8,5.19-7.57,5.41-7.96c1.46-2.57,1.48-4.98,1.57-5.6c0.09-0.62,0.45-1.58,0.28-2.05c-0.33-0.94-3.24-3-3.17-3.39
				c0.07-0.39,1.36-5.69,1.36-5.69L45.05,54.33z"/>
			<path class="st286" d="M42.36,60.35l4.17,4.86l1.43-1.78c0,0,2.97,2.5,3.17,3.39c0.2,0.89-0.13,2.57-0.18,3.21
				c-0.05,0.65-0.89,3.43-1.92,5.74c-0.6,1.35-2.57,2.83-3.57,5.14c-0.86,1.98-0.34,5.61-0.34,5.61s-2.24,0.49-5.56,0.16
				c-3.82-0.38-7.28,0.54-7.39,0.36c-0.49-0.78,2.76-9.47,2.83-10.1c0.08-0.64,1.77-11.49,2.16-12.87c0.39-1.38,1.17-1.97,2.28-2.43
				C40.88,61.03,42.36,60.35,42.36,60.35z"/>
			<path class="st287" d="M41.76,60.74c0,0-5.35,1.59-2.85,5.32c1.08,1.61,4.83,4.95,6.01,5.78c4.21,3-2.84,12.69-3.65,13.29
				c-0.82,0.6-3.45,1.18-3.45,1.18l-5.62-0.51c-0.31-1.04,2.8-8.93,2.75-10.56c-0.05-1.63,1.68-10.34,2.05-11.43
				C37.81,61.4,41.76,60.74,41.76,60.74z"/>
			<polygon class="st167" points="48.77,60.04 44.12,56.38 42.95,59.46 44.25,60.99 			"/>
			<path class="st285" d="M50.51,49.56c-1.35-1.33-5.43-2.65-7.54-0.02c-2.11,2.63-1.33,5.34-0.29,7.03
				c0.81,1.32,1.61,2.06,3.22,2.86c0.33,0.16,3.34,0.79,3.95,0.61c0.42-0.13,0.84-3.13,0.96-3.11c0.12,0.02,0.46-0.15,0.49-0.4
				c0.04-0.36-0.27-2.54-0.17-2.76C51.22,53.55,52.06,51.09,50.51,49.56z"/>
			<path class="st288" d="M51.3,50.93c0,0-2.26-1.38-5.22,1.13c-0.64,0.54,0.44,2.98,0.28,3.18c-0.17,0.22-2.21-1.83-2.14-1.56
				c0.73,2.8-0.23,4.3-0.48,4.3c-0.77,0.02-2.99-3.97-1.71-7.09c1.29-3.12,4.69-3.32,5.49-3.12C48.32,47.98,50.76,48.25,51.3,50.93z
				"/>
			<path class="st285" d="M45.54,54.36c0.24,0.89,0.32,2.09-0.16,2.21c-0.48,0.12-1.07-0.5-1.31-1.39
				c-0.24-0.89-0.04-1.72,0.44-1.84C45,53.21,45.3,53.46,45.54,54.36z"/>
			<g>
				<rect x="37.18" y="139.74" class="st289" width="3.56" height="0.66"/>
				<path class="st289" d="M37.32,135.07c-0.47,0.65-0.78,1.92-0.83,2.5c-0.06,0.7,0.36,2.18,0.82,2.18c1.35,0,2.95,0.05,4.34,0.24
					s1.91,0.98,5.46,0.98c1.04,0,2.86-0.06,2.86-0.49c0-1.84-3.4-1.18-4.48-2.18c-2.73-2.52-4.55-3.13-4.55-3.13
					S37.42,134.93,37.32,135.07z"/>
			</g>
			<g>
				<polygon class="st289" points="32.9,141.38 29.37,140.96 29.45,140.28 32.98,140.7 				"/>
				<path class="st289" d="M30.18,135.5c-0.54,0.61-1.02,1.87-1.13,2.46c-0.14,0.71,0.09,2.28,0.55,2.33
					c1.34,0.16,2.93,0.41,4.28,0.77c1.35,0.36,1.77,1.24,5.29,1.65c1.03,0.12,2.88,0.28,2.9-0.16c0.13-2.2-3.23-1.62-4.18-2.77
					c-2.4-2.91-4.13-3.75-4.13-3.75S30.29,135.38,30.18,135.5z"/>
			</g>
			<path class="st290" d="M38.95,86.96c0,0-4.68,4.37-4.9,6.43c-0.22,2.07,1.78,8.68,2.49,13.88c0.71,5.2,1.14,6.25,0.97,7.48
				c-0.18,1.23-1.72,6.2-1.52,9.51c0.2,3.31,0.86,11.96,0.86,11.96s0.98,0.44,2.68,0.61c1.7,0.16,2.89-1.3,2.89-1.3
				s1.37-19.33,1.59-21.37c0.14-1.32,1.22-10.43,1.55-17.85c0.11-2.39-0.17-7.91-0.16-8.9L38.95,86.96z"/>
			<path class="st291" d="M32.38,86.14c0,0-1.35,3.02-1.46,5.58c-0.09,2.07,0.29,5.91,0.7,11.14c0.41,5.23,0.2,10.06-0.05,11.28
				c-0.25,1.22-2,6.32-2.17,9.63c-0.2,3.89-1.04,12.82-1.04,12.82s1.51,0.59,3.2,0.85c1.69,0.26,3.99-0.11,3.99-0.11
				s2.79-20.45,3.67-22.31c1.4-2.97,2.13-12.52,3.35-18.99c0.49-2.61,1.46-8.45,1.46-8.45L32.38,86.14z"/>
			<path class="st291" d="M34.34,86.66l0.58-11.1c0,0-1.34,3.69-2.57,8.28c-0.1,0.37-0.83,1.78-0.15,1.97
				C33.03,86.04,34.34,86.66,34.34,86.66z"/>
			<polygon class="st287" points="46.72,63.9 46.53,65.21 44.33,62.67 			"/>
			<polygon class="st292" points="41.54,60.43 42.95,59.46 46.72,63.9 45.4,65.34 			"/>
			<polygon class="st287" points="46.53,65.21 47.48,63.83 47.97,64.56 			"/>
			<polygon class="st293" points="47.48,63.83 48.17,65.49 48.81,64.17 48.17,62.96 			"/>
			<path class="st291" d="M45.63,86.06c0.65-0.39,0.33-2.23,0.98-4.01c1.52-4.19,3.82-10.01,3.82-10.01l-7.38-1.86l-6.52,16.06
				C36.53,86.24,44.37,86.83,45.63,86.06z"/>
			<path class="st294" d="M45.63,86.06l-0.23,1.99c0,0-4.68,0.33-9.09,0c-4.41-0.33-4.32-0.63-4.32-0.63l0.2-1.6
				c0,0,1.35,0.13,4.44,0.25C39.63,86.18,45.63,86.06,45.63,86.06z"/>
			<polygon class="st290" points="36.63,86.06 35.57,92.62 34.4,85.96 			"/>
			<path class="st291" d="M43.06,70.18c0.28-1.42-0.5-6.48-2.28-7.78c-0.91-0.66-2.08-0.51-2.08-0.51s1.51-0.82,2.07-0.9
				c0.61-0.09,1.13,0.13,2,1.42c1.3,1.93,2.43,5.68,1.89,8.17C44.11,73.07,42.72,71.88,43.06,70.18z"/>
			<path class="st291" d="M50.43,72.04c0,0,1.32-5.08-0.14-6.42c-0.62-0.57-0.88-0.89-0.88-0.89s0.47,2.82,0.09,4.9
				s-0.77,3.52-0.11,3.72C50.06,73.55,50.43,72.04,50.43,72.04z"/>
			<path class="st285" d="M49.55,72.29c-0.8-2.2,3.85-3.34,6.16-3.85c2.32-0.51,9.3-1.71,9.3-1.71l0.69,2.48
				c0,0-5.62,3.31-11.94,5.02C51.71,74.78,50.36,74.53,49.55,72.29z"/>
			<path class="st285" d="M38.19,63.33c-1.49,1.58-0.62,3.29,1.03,4.65c1.65,1.36,11.53,6.35,12.21,6.45c2.53,0.34,3-2.19,2.04-3.56
				c-0.57-0.82-8.19-6.6-9.75-7.48C42.17,62.5,39.93,61.47,38.19,63.33z"/>
			<path class="st293" d="M38.14,62.58c1.53-1.77,4.34-0.2,5.64,0.7c1.84,1.26,6.87,4.56,6.87,4.56s-0.07,1.36-1.16,3
				c-1.26,1.91-2.75,2.54-2.75,2.54s-7.68-4.53-8.6-6.1C37.86,66.81,35.96,65.11,38.14,62.58z"/>
			<path class="st291" d="M41.57,52.17c0,0,0.09-4.41,4.68-4.82s5.54,4.19,5.54,4.19s-2.42,0.73-5.83,1.04
				C42.55,52.89,41.57,52.17,41.57,52.17z"/>
			<path class="st294" d="M44.46,52.65c0,0,9.13,0.51,9.25,0.41c0.11-0.09,0.61-0.59,0.86-0.74c0.25-0.15,0.65,0.08,0.71-0.09
				c0.06-0.17-3.59-1.09-3.59-1.09s-1.82,0.6-2.72,0.87C48.06,52.29,44.44,52.35,44.46,52.65z"/>
		</g>
		<g>
			<path class="st167" d="M148.13,79.48c-1.33,1.96-5.13-1.13-6.92-2.73c-1.78-1.6-6.51-6.79-6.51-6.79l1.61-2.03
				c0,0,5.77,2.79,10.92,6.94C147.76,75.3,149.48,77.49,148.13,79.48z"/>
			<g>
				<path class="st167" d="M136.34,69.9c0,0-1.68,0.71-2.56-0.35c-0.88-1.06-0.9-2.74-1-3.13c-0.39-1.61-2.17-2.66-2.54-3.6
					c-0.38-0.94,0.1-1.17,0.32-0.88c1.26,1.63,2.5,2.13,2.99,2.92c0.48,0.79,2.9,3.19,2.9,3.19L136.34,69.9z"/>
				<path class="st167" d="M135.1,70c0,0-0.86,0.36-1.99-0.81c-0.61-0.64-0.67-1.81-1.15-2.4c-0.48-0.59-0.06-0.62,0.05-0.62
					c0.12,0,0.7,0.74,1,1.03C133.33,67.49,135.1,68.15,135.1,70z"/>
			</g>
		</g>
		<g>
			<g>
				<path class="st285" d="M122.17,69.48L122.17,69.48c-0.04-0.25,0.14-0.48,0.38-0.51l1.92-0.28c0.25-0.04,0.48,0.14,0.51,0.38l0,0
					c0.04,0.25-0.14,0.48-0.38,0.51l-1.92,0.29C122.44,69.9,122.2,69.73,122.17,69.48z"/>
				<path class="st285" d="M121.97,68.66L121.97,68.66c-0.04-0.25,0.14-0.48,0.38-0.51l1.92-0.29c0.25-0.04,0.48,0.14,0.51,0.38l0,0
					c0.04,0.25-0.14,0.48-0.38,0.51l-1.92,0.29C122.23,69.08,122,68.91,121.97,68.66z"/>
				<path class="st285" d="M121.82,67.84L121.82,67.84c-0.04-0.25,0.14-0.48,0.38-0.51l1.92-0.28c0.25-0.04,0.48,0.14,0.51,0.38l0,0
					c0.04,0.25-0.14,0.48-0.38,0.51l-1.92,0.29C122.08,68.26,121.85,68.09,121.82,67.84z"/>
				<path class="st285" d="M121.75,67.04L121.75,67.04c-0.04-0.25,0.14-0.48,0.38-0.51l1.92-0.28c0.25-0.04,0.48,0.14,0.51,0.38l0,0
					c0.04,0.25-0.14,0.48-0.38,0.51l-1.92,0.28C122.01,67.46,121.78,67.29,121.75,67.04z"/>
				<path class="st285" d="M128.59,66.62c0,0-3.09-0.85-3.71-0.84c-0.62,0.01-2.93,0.83-2.93,0.83s0.85,0.7,0.86,1.26
					s-0.12,2.01-0.12,2.01s2.11,0.24,3.08,0.03c0.97-0.21,1.87-0.63,1.87-0.63L128.59,66.62z"/>
			</g>
			<path class="st285" d="M149.48,54.1c0,0,2.31,5.75,2.69,6.03c1.35,0.99,3.02,1.29,4.27,2.6c1.52,1.59,2.02,10.4,2.33,13.42
				s3.95,10.93,3.35,13.81c-0.81,3.84-7.73,3.94-8.04,4.05c-0.32,0.11-2.48-2.1-3.31-2.82c-0.83-0.72,0.5-7.18-0.11-8.98
				c-0.6-1.8-5.19-7.57-5.41-7.96c-1.46-2.57-1.48-4.98-1.57-5.6c-0.09-0.62-0.45-1.58-0.28-2.05c0.33-0.94,3.24-3,3.17-3.39
				c-0.07-0.39-1.36-5.69-1.36-5.69L149.48,54.1z"/>
			<path class="st286" d="M152.17,60.13L148,64.99l-1.43-1.78c0,0-2.97,2.5-3.17,3.39c-0.2,0.89,0.13,2.57,0.18,3.21
				c0.05,0.65,0.89,3.43,1.92,5.74c0.6,1.35,2.57,2.83,3.57,5.14c0.86,1.98,0.34,5.61,0.34,5.61s2.24,0.49,5.56,0.16
				c3.82-0.38,7.28,0.54,7.39,0.36c0.49-0.78-2.76-9.47-2.83-10.1c-0.08-0.64-1.77-11.49-2.16-12.87c-0.39-1.38-1.17-1.97-2.28-2.43
				C153.65,60.81,152.17,60.13,152.17,60.13z"/>
			<path class="st287" d="M152.77,60.52c0,0,5.35,1.59,2.85,5.32c-1.08,1.61-4.83,4.95-6.01,5.78c-4.21,3,2.84,12.69,3.65,13.29
				c0.82,0.6,3.45,1.18,3.45,1.18l5.62-0.51c0.31-1.04-2.8-8.93-2.75-10.56c0.05-1.63-1.68-10.34-2.05-11.43
				C156.73,61.18,152.77,60.52,152.77,60.52z"/>
			<polygon class="st167" points="145.77,59.82 150.41,56.15 151.58,59.23 150.28,60.77 			"/>
			<path class="st285" d="M142.38,50.38c1.05-1.58,4.76-3.71,7.37-1.57c2.61,2.14,2.4,4.95,1.73,6.82
				c-0.52,1.46-1.15,2.35-2.56,3.46c-0.29,0.23-3.1,1.46-3.74,1.41c-0.44-0.04-1.47-2.89-1.58-2.85c-0.11,0.04-0.48-0.05-0.56-0.29
				c-0.11-0.34-0.26-2.54-0.4-2.74C142.51,54.43,141.18,52.19,142.38,50.38z"/>
			<path class="st288" d="M141.89,51.89c0,0,1.93-1.82,5.34,0.03c0.74,0.4,0.18,3,0.38,3.17c0.22,0.18,1.79-2.25,1.78-1.97
				c-0.14,2.89,1.11,4.16,1.36,4.11c0.76-0.13,2.11-4.5,0.21-7.29c-1.9-2.79-5.27-2.28-6.02-1.92
				C144.2,48.39,141.87,49.15,141.89,51.89z"/>
			<path class="st285" d="M148.23,54.05c-0.05,0.92,0.11,2.11,0.61,2.13c0.5,0.02,0.94-0.71,0.99-1.63
				c0.05-0.92-0.31-1.69-0.81-1.71C148.53,52.82,148.28,53.13,148.23,54.05z"/>
			<g>
				
					<rect x="167.69" y="136.29" transform="matrix(-0.9626 0.2709 -0.2709 -0.9626 369.6082 222.2237)" class="st289" width="3.56" height="0.66"/>
				<path class="st289" d="M169.69,131.36c0.63,0.5,1.27,1.63,1.47,2.18c0.24,0.66,0.24,2.2-0.2,2.32c-1.3,0.36-2.83,0.85-4.11,1.41
					c-1.29,0.56-1.57,1.46-4.99,2.42c-1,0.28-2.77,0.71-2.89,0.31c-0.5-1.77,2.96-2.06,3.73-3.31c1.95-3.17,3.54-4.24,3.54-4.24
					S169.56,131.25,169.69,131.36z"/>
			</g>
			<g>
				<polygon class="st289" points="155.44,141.52 158.99,141.51 158.99,140.82 155.43,140.83 				"/>
				<path class="st289" d="M158.83,135.99c0.47,0.67,0.79,1.98,0.84,2.58c0.06,0.72-0.35,2.25-0.81,2.25
					c-1.35,0-2.95,0.06-4.34,0.26c-1.39,0.2-1.9,1.02-5.45,1.02c-1.04,0-2.89-0.06-2.86-0.5c0.13-2.2,3.4-1.23,4.48-2.26
					c2.72-2.61,4.54-3.24,4.54-3.24S158.74,135.86,158.83,135.99z"/>
			</g>
			<path class="st290" d="M155.27,85.59c0,0,5.69,2.93,6.45,4.86c0.77,1.93,0.64,8.83,1.37,14.03c0.73,5.2,0.59,6.33,1.1,7.46
				c0.5,1.13,3.25,5.52,4.04,8.74c0.83,3.38,3.04,11.45,3.04,11.45s-1.45,0.99-3.05,1.61c-1.6,0.62-3.93-0.28-3.93-0.28
				s-5.76-18.43-6.52-20.34c-0.49-1.23-4-9.71-6.33-16.77c-0.75-2.27-1.98-7.66-2.25-8.61L155.27,85.59z"/>
			<path class="st291" d="M162.43,86.72c0,0,0.99,3.15,0.8,5.71c-0.15,2.07-0.98,5.84-2,10.99c-1.02,5.15-1.38,9.97-1.28,11.2
				c0.1,1.24,1.25,6.51,1.03,9.82c-0.26,3.89-0.47,12.86-0.47,12.86s-1.57,0.41-3.28,0.47c-1.71,0.06-3.95-0.57-3.95-0.57
				s-0.37-20.64-1.02-22.59c-1.04-3.11-0.65-12.68-1.1-19.26c-0.18-2.65-0.46-8.56-0.46-8.56L162.43,86.72z"/>
			<path class="st291" d="M160.19,86.44l-0.58-11.1c0,0,1.34,3.69,2.57,8.28c0.1,0.37,0.83,1.78,0.15,1.97
				C161.5,85.82,160.19,86.44,160.19,86.44z"/>
			<polygon class="st287" points="147.81,63.68 148,64.99 150.2,62.45 			"/>
			<polygon class="st292" points="153,60.21 151.58,59.23 147.81,63.68 149.13,65.11 			"/>
			<polygon class="st287" points="148,64.99 147.05,63.6 146.56,64.34 			"/>
			<polygon class="st293" points="147.05,63.6 146.36,65.26 145.72,63.95 146.36,62.74 			"/>
			<path class="st291" d="M148.9,85.84c-0.65-0.39-0.33-2.23-0.98-4.01c-1.52-4.19-3.82-10.01-3.82-10.01l7.38-1.86L158,86.01
				C158,86.01,150.16,86.61,148.9,85.84z"/>
			<path class="st294" d="M148.9,85.84l0.23,1.99c0,0,4.68,0.33,9.09,0c4.41-0.33,4.32-0.63,4.32-0.63l-0.2-1.6
				c0,0-1.35,0.13-4.44,0.25C154.9,85.96,148.9,85.84,148.9,85.84z"/>
			<polygon class="st290" points="157.9,85.84 158.96,92.4 160.13,85.74 			"/>
			<path class="st291" d="M151.47,69.96c-0.28-1.42,0.5-6.48,2.28-7.78c0.91-0.66,2.08-0.51,2.08-0.51s-1.51-0.82-2.07-0.9
				c-0.61-0.09-1.13,0.13-2,1.42c-1.3,1.93-2.43,5.68-1.89,8.17C150.42,72.85,151.81,71.66,151.47,69.96z"/>
			<path class="st291" d="M144.1,71.82c0,0-1.32-5.08,0.14-6.42c0.62-0.57,0.88-0.89,0.88-0.89s-0.47,2.82-0.09,4.9
				c0.38,2.08,0.77,3.52,0.11,3.72C144.48,73.33,144.1,71.82,144.1,71.82z"/>
			<path class="st285" d="M143.31,69.13c0.4-2.31-4.37-2.61-6.74-2.71c-2.37-0.1-9.45-0.04-9.45-0.04l-0.24,2.56
				c0,0,6.13,2.14,12.64,2.84C141.05,71.94,142.91,71.48,143.31,69.13z"/>
			<path class="st285" d="M156.77,64.27c1.05,1.91-0.22,3.34-2.16,4.24c-1.94,0.91-12.82,3.47-13.44,3.17
				c-0.62-0.3-1.76-3.23-1.08-3.96c0.68-0.73,9.59-4.32,11.31-4.79C153.12,62.47,155.54,62.04,156.77,64.27z"/>
			<path class="st293" d="M157,63.56c-1.03-2.1-4.15-1.28-5.63-0.74c-2.1,0.76-7.79,2.68-7.79,2.68s-0.27,1.33,0.37,3.2
				c0.74,2.17,2.02,3.16,2.02,3.16s8.57-2.46,9.86-3.74C156.21,67.73,158.48,66.56,157,63.56z"/>
			<path class="st291" d="M151.58,51.15c0,0-1.05-4.16-5.56-3.63c-4.51,0.53-4.41,5.1-4.41,5.1s2.48,0.2,5.83-0.19
				C150.79,52.03,151.58,51.15,151.58,51.15z"/>
			<path class="st294" d="M148.91,52.19c0,0-8.67,2.33-8.81,2.27c-0.13-0.06-0.72-0.44-0.99-0.53c-0.27-0.09-0.61,0.21-0.7,0.06
				c-0.1-0.15,3.22-1.76,3.22-1.76s1.88,0.2,2.81,0.28C145.37,52.58,148.86,51.9,148.91,52.19z"/>
		</g>
	</g>
</g>
</svg>
