<?xml version="1.0" encoding="utf-8"?>
<!-- Generator: Adobe Illustrator 23.0.1, SVG Export Plug-In . SVG Version: 6.00 Build 0)  -->
<svg version="1.1" id="Layer_1" xmlns="http://www.w3.org/2000/svg" xmlns:xlink="http://www.w3.org/1999/xlink" x="0px" y="0px"
	 viewBox="0 0 200 200" style="enable-background:new 0 0 200 200;" xml:space="preserve">
<style type="text/css">
	.st0{fill:#E6E6E6;}
	.st1{clip-path:url(#SVGID_2_);}
	.st2{fill:#D58A73;}
	.st3{fill:#FFFFFF;}
	.st4{fill:#D78C74;}
	.st5{opacity:0.05;}
	.st6{fill:#381911;}
	.st7{fill:#E5A185;}
	.st8{opacity:0.38;}
	.st9{fill:#E5A084;}
	.st10{fill:#E59F83;}
	.st11{fill:#E49E83;}
	.st12{fill:#E49D82;}
	.st13{fill:#E49C81;}
	.st14{fill:#E49B80;}
	.st15{fill:#E49A80;}
	.st16{fill:#E3997F;}
	.st17{fill:#E3987E;}
	.st18{fill:#E3977D;}
	.st19{fill:#E3967C;}
	.st20{fill:#E2957C;}
	.st21{fill:#E2947B;}
	.st22{fill:#E2937A;}
	.st23{fill:#E29279;}
	.st24{fill:#E29179;}
	.st25{fill:#E19078;}
	.st26{fill:#E18F77;}
	.st27{fill:#E18E76;}
	.st28{fill:#E18D75;}
	.st29{fill:#E18C75;}
	.st30{fill:#E08B74;}
	.st31{fill:#E08A73;}
	.st32{fill:#E08972;}
	.st33{fill:#E08872;}
	.st34{fill:#DF8771;}
	.st35{fill:#DF8670;}
	.st36{fill:#DF856F;}
	.st37{fill:#DF846F;}
	.st38{fill:#DF836E;}
	.st39{fill:#DE826D;}
	.st40{fill:#DE816C;}
	.st41{fill:#DE806B;}
	.st42{fill:#DE7F6B;}
	.st43{fill:#DE7E6A;}
	.st44{fill:#DD7D69;}
	.st45{fill:#DD7C68;}
	.st46{fill:#DD7B68;}
	.st47{fill:#DD7A67;}
	.st48{fill:#DD7A66;}
	.st49{fill:#DC7965;}
	.st50{fill:#DC7864;}
	.st51{fill:#DC7764;}
	.st52{fill:#DC7663;}
	.st53{fill:#DB7562;}
	.st54{fill:#DB7461;}
	.st55{fill:#DB7361;}
	.st56{fill:#DB7260;}
	.st57{fill:#DB715F;}
	.st58{fill:#DA705E;}
	.st59{fill:#DA6F5D;}
	.st60{fill:#DA6E5D;}
	.st61{fill:#DA6D5C;}
	.st62{fill:#DA6C5B;}
	.st63{fill:#D96B5A;}
	.st64{fill:#D96A5A;}
	.st65{fill:#D96959;}
	.st66{fill:#D96858;}
	.st67{fill:#D86757;}
	.st68{fill:#D86657;}
	.st69{fill:#D86556;}
	.st70{fill:#D86455;}
	.st71{fill:#D86354;}
	.st72{fill:#D76253;}
	.st73{fill:#D76153;}
	.st74{fill:#D76052;}
	.st75{fill:#D75F51;}
	.st76{fill:#D75E50;}
	.st77{fill:#D65D50;}
	.st78{fill:#D65C4F;}
	.st79{fill:#D65B4E;}
	.st80{fill:#D65A4D;}
	.st81{fill:#D5594C;}
	.st82{fill:#D5584C;}
	.st83{fill:#D5574B;}
	.st84{fill:#D5564A;}
	.st85{fill:#D55549;}
	.st86{fill:#D45449;}
	.st87{fill:#D45348;}
	.st88{fill:#D45247;}
	.st89{fill:url(#XMLID_8_);}
	.st90{fill:url(#XMLID_9_);}
	.st91{fill:#422E26;}
	.st92{fill:#6C332E;}
	.st93{opacity:0.35;fill:#C3BBA5;}
	.st94{opacity:0.2;fill:#FFFFFF;}
	.st95{fill:#4F372D;}
	.st96{opacity:0.14;fill:#422E26;}
	.st97{opacity:0.12;fill:#FFFFFF;}
	.st98{opacity:0.16;}
	.st99{fill:#465884;}
	.st100{opacity:0.04;}
	.st101{fill:#334363;}
	.st102{fill:#4C618C;}
	.st103{fill:#4F648E;}
	.st104{opacity:0.08;}
	.st105{fill:#E2E2E2;}
	.st106{fill:#EAEAEA;}
	.st107{fill:#BCB4B3;}
	.st108{fill:#755046;}
	.st109{opacity:0.5;fill:#D78C74;}
	.st110{fill:#3A3838;}
	.st111{fill:#F4F4F4;}
	.st112{fill:#494646;}
	.st113{fill:#514F4F;}
	.st114{fill:#333B49;}
	.st115{fill:#FFCA35;}
	.st116{opacity:0.5;fill:#FFCA35;}
	.st117{fill:#5F6368;}
	.st118{fill:#EF3030;}
	.st119{clip-path:url(#SVGID_4_);}
	.st120{fill:#F2866D;}
	.st121{fill:#FF9D2E;}
	.st122{fill:#574E49;}
	.st123{fill:#323436;}
	.st124{fill:#DB5C04;}
	.st125{fill:#FB822D;}
	.st126{fill:#55ABBD;}
	.st127{fill:#4F565C;}
	.st128{fill:#292F33;}
	.st129{fill:#FB6902;}
	.st130{fill:#E83427;}
	.st131{fill:#444A4F;}
	.st132{fill:#47403C;}
	.st133{fill:#3B3532;}
	.st134{fill:#78695E;}
	.st135{fill:#4C98A8;}
	.st136{fill:#C9EEF5;}
	.st137{opacity:0.7;fill:#FFFFFF;}
	.st138{opacity:0.2;}
	.st139{fill:#B6D8DE;}
	.st140{fill:#FDA73E;}
	.st141{fill:#95A4AD;}
	.st142{fill:#353D42;}
	.st143{fill:#E05E02;}
	.st144{fill:#4D4D4D;}
	.st145{fill:#616161;}
	.st146{fill:#8F8F8F;}
	.st147{fill:#FFA480;}
	.st148{fill:#2FB4BA;}
	.st149{fill:#9B72C4;}
	.st150{fill:#BDAEA3;}
	.st151{fill:#DB92DA;}
	.st152{fill:#E67B5A;}
	.st153{fill:#F94850;}
	.st154{fill:#FFB187;}
	.st155{fill:#FFB086;}
	.st156{fill:#FFAF85;}
	.st157{fill:#FFAE85;}
	.st158{fill:#FFAD84;}
	.st159{fill:#FFAC83;}
	.st160{fill:#FFAB82;}
	.st161{fill:#FFAA81;}
	.st162{fill:#FFA980;}
	.st163{fill:#FFA880;}
	.st164{fill:#FFA77F;}
	.st165{fill:#FFA67E;}
	.st166{fill:#FFA57D;}
	.st167{fill:#FFA47C;}
	.st168{fill:#FFA37C;}
	.st169{fill:#FFA27B;}
	.st170{fill:#FFA17A;}
	.st171{fill:#FFA079;}
	.st172{fill:#FF9F78;}
	.st173{fill:#FF9E77;}
	.st174{fill:#FF9D77;}
	.st175{fill:#FF9C76;}
	.st176{fill:#FF9B75;}
	.st177{fill:#FF9A74;}
	.st178{fill:#FF9973;}
	.st179{fill:#FF9872;}
	.st180{fill:#FF9771;}
	.st181{fill:#FF9670;}
	.st182{fill:#FF956F;}
	.st183{fill:#FF946F;}
	.st184{fill:#FF936E;}
	.st185{fill:#FF926D;}
	.st186{fill:#FF916C;}
	.st187{fill:#FF906B;}
	.st188{fill:#FF8F6A;}
	.st189{fill:#FF8E6A;}
	.st190{fill:#FF8D69;}
	.st191{fill:#FF8C68;}
	.st192{fill:#FF8B67;}
	.st193{fill:#FF8A66;}
	.st194{fill:#FF8966;}
	.st195{fill:#FF8865;}
	.st196{fill:#FF8764;}
	.st197{fill:#FF8663;}
	.st198{fill:#FF8562;}
	.st199{fill:#FF8461;}
	.st200{fill:#FF8361;}
	.st201{fill:#FF8260;}
	.st202{fill:#FF815F;}
	.st203{fill:#421C16;}
	.st204{fill:#703024;}
	.st205{fill:#00BAEB;}
	.st206{fill:#118793;}
	.st207{fill:#572619;}
	.st208{fill:#00AAD6;}
	.st209{fill:#00A2CC;}
	.st210{fill:#BF1B2D;}
	.st211{fill:#A12F2F;}
	.st212{fill:#8A8A8A;}
	.st213{fill:#404040;}
	.st214{fill:#F44E4E;}
	.st215{fill:#303030;}
	.st216{fill:#CAE1FC;}
	.st217{opacity:0.3;fill:#DA97B8;}
	.st218{opacity:0.6;fill:#CBCFFF;}
	.st219{fill:#EEF0FF;}
	.st220{fill:#7AB6F6;}
	.st221{fill:#6977A4;}
	.st222{opacity:0.3;fill:#FFFFFF;}
	.st223{fill:#F5B29C;}
	.st224{fill:#2E90EC;}
	.st225{fill:#3D4166;}
	.st226{fill:#FA7071;}
	.st227{fill:#3C5670;}
	.st228{fill:#FA989C;}
	.st229{fill:#D05C53;}
	.st230{fill:#5C595E;}
	.st231{fill:#E6DFEA;}
	.st232{fill:#C9C9DD;}
	.st233{opacity:0.3;}
	.st234{opacity:0.6;fill:#A8BCFF;}
	.st235{fill:#999DB8;}
	.st236{fill:#0B1238;}
	.st237{fill:#2D3170;}
	.st238{fill:#5C75C3;}
	.st239{fill:#0B124A;}
	.st240{fill:#2E3054;}
	.st241{fill:#B9B3C0;}
	.st242{fill:#595D8B;}
	.st243{fill:#0B2B4A;}
	.st244{opacity:0.25;fill:#EEF0FF;}
	.st245{fill:#C68824;}
	.st246{fill:#A36D1F;}
	.st247{fill:#CECECE;}
	.st248{fill:#C9C9C9;}
	.st249{fill:#BCBCBC;}
	.st250{fill:#E5E5E5;}
	.st251{fill:#424242;}
	.st252{fill:#CCCCCC;}
	.st253{fill:#FFBF3C;}
	.st254{fill:#D3D5D3;}
	.st255{fill:#46676C;}
	.st256{fill:url(#SVGID_5_);}
	.st257{fill:#98B1C7;}
	.st258{fill:url(#SVGID_6_);}
	.st259{fill:url(#SVGID_7_);}
	.st260{fill:#0E1714;}
	.st261{fill:#BFD2E1;}
	.st262{fill:url(#SVGID_8_);}
	.st263{fill:url(#SVGID_9_);}
	.st264{fill:url(#SVGID_10_);}
	.st265{fill:url(#SVGID_11_);}
	.st266{fill:url(#SVGID_12_);}
	.st267{fill:url(#SVGID_13_);}
	.st268{fill:url(#SVGID_14_);}
	.st269{fill:url(#SVGID_15_);}
	.st270{fill:url(#SVGID_16_);}
	.st271{fill:url(#SVGID_17_);}
	.st272{fill:url(#SVGID_18_);}
	.st273{fill:#1D2C2C;}
	.st274{fill:#ECEBF3;}
	.st275{fill:url(#SVGID_19_);}
	.st276{fill:#0074A6;}
	.st277{fill:url(#SVGID_20_);}
	.st278{fill:url(#SVGID_21_);}
	.st279{fill:url(#SVGID_22_);}
	.st280{fill:url(#SVGID_23_);}
	.st281{fill:#80979A;}
	.st282{fill:url(#SVGID_24_);}
	.st283{fill:url(#SVGID_25_);}
	.st284{fill:#3A4848;}
	.st285{fill:#FFBD95;}
	.st286{fill:#B8B3B3;}
	.st287{fill:#A39D9D;}
	.st288{fill:#8D3B26;}
	.st289{fill:#191919;}
	.st290{fill:#00233F;}
	.st291{fill:#002D56;}
	.st292{fill:#D7D4D4;}
	.st293{fill:#CFCCCC;}
	.st294{fill:#004877;}
</style>
<circle class="st0" cx="100" cy="100" r="100"/>
<g>
	<defs>
		<circle id="SVGID_1_" cx="100" cy="100" r="100"/>
	</defs>
	<clipPath id="SVGID_2_">
		<use xlink:href="#SVGID_1_"  style="overflow:visible;"/>
	</clipPath>
	<g class="st1">
		<path id="XMLID_198_" class="st2" d="M133.84,141.61c0,0,10.04,11.82,21.11,10.23l2.86-10.59l-6.28-8.94L133.84,141.61z"/>
		<path id="XMLID_197_" class="st3" d="M138.46,99.64c-5.21-4.61-17.63-8.08-24.67-10.29l1.41,19.74c0,0,5.78,22.68,18.38,36.63
			c2.41,2.66,16.39-5.14,21.37-12.31C145.61,110.94,140.3,101.28,138.46,99.64z"/>
		<path id="XMLID_196_" class="st4" d="M88.53,89.75v11.12h30.04V90.75C109.85,87.11,97.54,87.08,88.53,89.75z"/>
		<path id="XMLID_195_" class="st5" d="M142.28,138.25c-5.32,3.28-9.63,3.69-11.85,3.62c0.27,0.36,0.54,0.71,0.82,1.07
			c2.52-0.05,6.62-0.74,11.59-3.8c7.23-4.46,9.7-7.7,10.53-9.54c-0.22-0.52-0.43-1.02-0.65-1.52
			C152.66,128.63,152,132.26,142.28,138.25z"/>
		<path id="XMLID_194_" class="st3" d="M102.37,97c-4.93,0-9.64-0.61-11.72-8.42c-7.19,1.89-18.36,4.95-19.41,9.58
			c-2.61,11.58-1.21,68.56,0.55,87.39c0,0,14.1,9.51,32.28,10.24c18.18,0.74,30.29-9.48,30.29-9.48
			c-1.22-18.31-2.49-51.26,0.9-74.24c1.38-9.36,3.2-12.44,3.2-12.44c-7.81-6.73-23.24-10.63-25.74-11.06
			C110.76,93.94,108.46,97,102.37,97z"/>
		<g id="XMLID_192_">
			<path id="XMLID_193_" class="st3" d="M88.84,89.35c-8.12,0.13-16.72,3.89-23.65,7.78c-9.16,5.16-20.42,30.85-21.27,31.65
				c0.17,4.38,14.38,10.89,24.23,14.18c3.87-2.06,6.08-17.93,10.38-21.82c1.31-1.18-4.09-0.9-3.66-2.6
				C78.32,104.89,93.85,89.35,88.84,89.35z"/>
		</g>
		<path id="XMLID_191_" class="st4" d="M121.87,59.58c-2.01-0.58-4.27,1.34-5.05,4.29c-0.78,2.95,0.21,5.82,2.22,6.41
			c2.01,0.58,4.27-1.34,5.05-4.29C124.88,63.03,123.88,60.16,121.87,59.58z"/>
		<path id="XMLID_190_" class="st4" d="M101.84,72.58c-4.3,0.07-9.43,1.99-9.38,5.06v12.23c0.05,3.07,5.51,5.5,9.81,5.43
			c4.3-0.07,8.48-1.4,9.1-4.34l-1.09-13.3C109.55,74.45,106.14,72.51,101.84,72.58z"/>
		<path id="XMLID_189_" class="st6" d="M109.19,34.1c-0.01,0.06-0.01,0.09-0.01,0.09S109.18,34.16,109.19,34.1z"/>
		<path id="XMLID_188_" class="st7" d="M120.37,62.82c-1.28-8.1-4.53-16.18-6.51-20.5c-6.06-9.25-25.38-5.31-26.25,1.62
			c-1.26,5.35-1.98,14.38-1.71,21.49l0,0c-0.37,12.67,2.13,22.75,21.33,20.72c19.2-2.03,13.14-23.47,13.14-23.47
			S120.37,62.73,120.37,62.82z"/>
		<g id="XMLID_181_" class="st8">
			
				<ellipse id="XMLID_187_" transform="matrix(0.9988 -0.0492 0.0492 0.9988 -3.1637 5.6778)" class="st7" cx="113.79" cy="67.12" rx="6.92" ry="7.54"/>
			
				<ellipse transform="matrix(0.9988 -0.0492 0.0492 0.9988 -3.1637 5.6778)" class="st9" cx="113.79" cy="67.12" rx="6.88" ry="7.49"/>
			
				<ellipse transform="matrix(0.9988 -0.0492 0.0492 0.9988 -3.1637 5.6778)" class="st10" cx="113.79" cy="67.12" rx="6.84" ry="7.45"/>
			
				<ellipse transform="matrix(0.9988 -0.0492 0.0492 0.9988 -3.1637 5.6778)" class="st11" cx="113.79" cy="67.12" rx="6.79" ry="7.4"/>
			
				<ellipse transform="matrix(0.9988 -0.0492 0.0492 0.9988 -3.1637 5.6778)" class="st12" cx="113.79" cy="67.12" rx="6.75" ry="7.35"/>
			
				<ellipse transform="matrix(0.9988 -0.0492 0.0492 0.9988 -3.1637 5.6778)" class="st13" cx="113.79" cy="67.12" rx="6.71" ry="7.3"/>
			
				<ellipse transform="matrix(0.9988 -0.0492 0.0492 0.9988 -3.1637 5.6778)" class="st14" cx="113.79" cy="67.12" rx="6.66" ry="7.26"/>
			
				<ellipse transform="matrix(0.9988 -0.0492 0.0492 0.9988 -3.1637 5.6778)" class="st15" cx="113.79" cy="67.12" rx="6.62" ry="7.21"/>
			
				<ellipse transform="matrix(0.9988 -0.0492 0.0492 0.9988 -3.1637 5.6778)" class="st16" cx="113.79" cy="67.12" rx="6.58" ry="7.16"/>
			
				<ellipse transform="matrix(0.9988 -0.0492 0.0492 0.9988 -3.1637 5.6778)" class="st17" cx="113.79" cy="67.12" rx="6.53" ry="7.12"/>
			
				<ellipse transform="matrix(0.9988 -0.0492 0.0492 0.9988 -3.1637 5.6778)" class="st18" cx="113.79" cy="67.12" rx="6.49" ry="7.07"/>
			
				<ellipse transform="matrix(0.9988 -0.0492 0.0492 0.9988 -3.1637 5.6778)" class="st19" cx="113.79" cy="67.12" rx="6.45" ry="7.02"/>
			
				<ellipse transform="matrix(0.9988 -0.0492 0.0492 0.9988 -3.1637 5.6778)" class="st20" cx="113.79" cy="67.12" rx="6.4" ry="6.97"/>
			
				<ellipse transform="matrix(0.9988 -0.0492 0.0492 0.9988 -3.1637 5.6778)" class="st21" cx="113.79" cy="67.12" rx="6.36" ry="6.93"/>
			
				<ellipse transform="matrix(0.9988 -0.0492 0.0492 0.9988 -3.1637 5.6778)" class="st22" cx="113.79" cy="67.12" rx="6.32" ry="6.88"/>
			
				<ellipse transform="matrix(0.9988 -0.0492 0.0492 0.9988 -3.1637 5.6778)" class="st23" cx="113.79" cy="67.12" rx="6.27" ry="6.83"/>
			
				<ellipse transform="matrix(0.9988 -0.0492 0.0492 0.9988 -3.1637 5.6778)" class="st24" cx="113.79" cy="67.12" rx="6.23" ry="6.79"/>
			
				<ellipse transform="matrix(0.9988 -0.0492 0.0492 0.9988 -3.1637 5.6778)" class="st25" cx="113.79" cy="67.12" rx="6.19" ry="6.74"/>
			
				<ellipse transform="matrix(0.9988 -0.0492 0.0492 0.9988 -3.1637 5.6778)" class="st26" cx="113.79" cy="67.12" rx="6.14" ry="6.69"/>
			
				<ellipse transform="matrix(0.9988 -0.0492 0.0492 0.9988 -3.1637 5.6777)" class="st27" cx="113.79" cy="67.12" rx="6.1" ry="6.64"/>
			
				<ellipse transform="matrix(0.9988 -0.0492 0.0492 0.9988 -3.1637 5.6777)" class="st28" cx="113.79" cy="67.12" rx="6.06" ry="6.6"/>
			
				<ellipse transform="matrix(0.9988 -0.0492 0.0492 0.9988 -3.1637 5.6777)" class="st29" cx="113.79" cy="67.12" rx="6.01" ry="6.55"/>
			
				<ellipse transform="matrix(0.9988 -0.0492 0.0492 0.9988 -3.1636 5.6777)" class="st30" cx="113.79" cy="67.12" rx="5.97" ry="6.5"/>
			
				<ellipse transform="matrix(0.9988 -0.0492 0.0492 0.9988 -3.1636 5.6777)" class="st31" cx="113.79" cy="67.12" rx="5.93" ry="6.46"/>
			
				<ellipse transform="matrix(0.9988 -0.0492 0.0492 0.9988 -3.1636 5.6777)" class="st32" cx="113.79" cy="67.12" rx="5.88" ry="6.41"/>
			
				<ellipse transform="matrix(0.9988 -0.0492 0.0492 0.9988 -3.1636 5.6777)" class="st33" cx="113.79" cy="67.12" rx="5.84" ry="6.36"/>
			
				<ellipse transform="matrix(0.9988 -0.0492 0.0492 0.9988 -3.1636 5.6777)" class="st34" cx="113.79" cy="67.12" rx="5.8" ry="6.31"/>
			
				<ellipse transform="matrix(0.9988 -0.0492 0.0492 0.9988 -3.1636 5.6777)" class="st35" cx="113.79" cy="67.12" rx="5.75" ry="6.27"/>
			
				<ellipse transform="matrix(0.9988 -0.0492 0.0492 0.9988 -3.1636 5.6777)" class="st36" cx="113.79" cy="67.12" rx="5.71" ry="6.22"/>
			
				<ellipse transform="matrix(0.9988 -0.0492 0.0492 0.9988 -3.1636 5.6777)" class="st37" cx="113.79" cy="67.12" rx="5.67" ry="6.17"/>
			
				<ellipse transform="matrix(0.9988 -0.0492 0.0492 0.9988 -3.1636 5.6777)" class="st38" cx="113.79" cy="67.12" rx="5.62" ry="6.13"/>
			
				<ellipse transform="matrix(0.9988 -0.0492 0.0492 0.9988 -3.1636 5.6777)" class="st39" cx="113.79" cy="67.12" rx="5.58" ry="6.08"/>
			
				<ellipse transform="matrix(0.9988 -0.0492 0.0492 0.9988 -3.1636 5.6777)" class="st40" cx="113.79" cy="67.12" rx="5.54" ry="6.03"/>
			
				<ellipse transform="matrix(0.9988 -0.0492 0.0492 0.9988 -3.1636 5.6777)" class="st41" cx="113.79" cy="67.12" rx="5.49" ry="5.98"/>
			
				<ellipse transform="matrix(0.9988 -0.0492 0.0492 0.9988 -3.1636 5.6777)" class="st42" cx="113.79" cy="67.12" rx="5.45" ry="5.94"/>
			
				<ellipse transform="matrix(0.9988 -0.0492 0.0492 0.9988 -3.1636 5.6776)" class="st43" cx="113.79" cy="67.12" rx="5.41" ry="5.89"/>
			
				<ellipse transform="matrix(0.9988 -0.0492 0.0492 0.9988 -3.1636 5.6776)" class="st44" cx="113.79" cy="67.12" rx="5.36" ry="5.84"/>
			
				<ellipse transform="matrix(0.9988 -0.0492 0.0492 0.9988 -3.1636 5.6776)" class="st45" cx="113.79" cy="67.12" rx="5.32" ry="5.8"/>
			
				<ellipse transform="matrix(0.9988 -0.0492 0.0492 0.9988 -3.1636 5.6776)" class="st46" cx="113.79" cy="67.12" rx="5.28" ry="5.75"/>
			
				<ellipse transform="matrix(0.9988 -0.0492 0.0492 0.9988 -3.1636 5.6776)" class="st47" cx="113.79" cy="67.12" rx="5.23" ry="5.7"/>
			
				<ellipse transform="matrix(0.9988 -0.0492 0.0492 0.9988 -3.1636 5.6776)" class="st48" cx="113.79" cy="67.12" rx="5.19" ry="5.65"/>
			
				<ellipse transform="matrix(0.9988 -0.0492 0.0492 0.9988 -3.1636 5.6776)" class="st49" cx="113.79" cy="67.12" rx="5.15" ry="5.61"/>
			
				<ellipse transform="matrix(0.9988 -0.0492 0.0492 0.9988 -3.1636 5.6776)" class="st50" cx="113.79" cy="67.12" rx="5.1" ry="5.56"/>
			
				<ellipse transform="matrix(0.9988 -0.0492 0.0492 0.9988 -3.1636 5.6776)" class="st51" cx="113.79" cy="67.12" rx="5.06" ry="5.51"/>
			
				<ellipse transform="matrix(0.9988 -0.0492 0.0492 0.9988 -3.1636 5.6776)" class="st52" cx="113.79" cy="67.12" rx="5.02" ry="5.47"/>
			
				<ellipse transform="matrix(0.9988 -0.0492 0.0492 0.9988 -3.1636 5.6776)" class="st53" cx="113.79" cy="67.12" rx="4.98" ry="5.42"/>
			
				<ellipse transform="matrix(0.9988 -0.0492 0.0492 0.9988 -3.1636 5.6776)" class="st54" cx="113.79" cy="67.12" rx="4.93" ry="5.37"/>
			
				<ellipse transform="matrix(0.9988 -0.0492 0.0492 0.9988 -3.1636 5.6775)" class="st55" cx="113.79" cy="67.12" rx="4.89" ry="5.32"/>
			
				<ellipse transform="matrix(0.9988 -0.0492 0.0492 0.9988 -3.1635 5.6775)" class="st56" cx="113.79" cy="67.12" rx="4.85" ry="5.28"/>
			
				<ellipse transform="matrix(0.9988 -0.0492 0.0492 0.9988 -3.1635 5.6775)" class="st57" cx="113.79" cy="67.12" rx="4.8" ry="5.23"/>
			
				<ellipse transform="matrix(0.9988 -0.0492 0.0492 0.9988 -3.1635 5.6775)" class="st58" cx="113.79" cy="67.12" rx="4.76" ry="5.18"/>
			
				<ellipse transform="matrix(0.9988 -0.0492 0.0492 0.9988 -3.1635 5.6775)" class="st59" cx="113.79" cy="67.12" rx="4.72" ry="5.14"/>
			
				<ellipse transform="matrix(0.9988 -0.0492 0.0492 0.9988 -3.1635 5.6775)" class="st60" cx="113.79" cy="67.12" rx="4.67" ry="5.09"/>
			
				<ellipse transform="matrix(0.9988 -0.0492 0.0492 0.9988 -3.1635 5.6775)" class="st61" cx="113.79" cy="67.12" rx="4.63" ry="5.04"/>
			
				<ellipse transform="matrix(0.9988 -0.0492 0.0492 0.9988 -3.1635 5.6775)" class="st62" cx="113.79" cy="67.12" rx="4.59" ry="5"/>
			
				<ellipse transform="matrix(0.9988 -0.0492 0.0492 0.9988 -3.1635 5.6775)" class="st63" cx="113.79" cy="67.12" rx="4.54" ry="4.95"/>
			
				<ellipse transform="matrix(0.9988 -0.0492 0.0492 0.9988 -3.1635 5.6775)" class="st64" cx="113.79" cy="67.12" rx="4.5" ry="4.9"/>
			
				<ellipse transform="matrix(0.9988 -0.0492 0.0492 0.9988 -3.1635 5.6775)" class="st65" cx="113.79" cy="67.12" rx="4.46" ry="4.85"/>
			
				<ellipse transform="matrix(0.9988 -0.0492 0.0492 0.9988 -3.1635 5.6774)" class="st66" cx="113.79" cy="67.12" rx="4.41" ry="4.81"/>
			
				<ellipse transform="matrix(0.9988 -0.0492 0.0492 0.9988 -3.1635 5.6774)" class="st67" cx="113.79" cy="67.12" rx="4.37" ry="4.76"/>
			
				<ellipse transform="matrix(0.9988 -0.0492 0.0492 0.9988 -3.1635 5.6774)" class="st68" cx="113.79" cy="67.12" rx="4.33" ry="4.71"/>
			
				<ellipse transform="matrix(0.9988 -0.0492 0.0492 0.9988 -3.1635 5.6774)" class="st69" cx="113.79" cy="67.12" rx="4.28" ry="4.67"/>
			
				<ellipse transform="matrix(0.9988 -0.0492 0.0492 0.9988 -3.1635 5.6774)" class="st70" cx="113.79" cy="67.12" rx="4.24" ry="4.62"/>
			
				<ellipse transform="matrix(0.9988 -0.0492 0.0492 0.9988 -3.1635 5.6774)" class="st71" cx="113.79" cy="67.12" rx="4.2" ry="4.57"/>
			
				<ellipse transform="matrix(0.9988 -0.0492 0.0492 0.9988 -3.1635 5.6774)" class="st72" cx="113.79" cy="67.12" rx="4.15" ry="4.52"/>
			
				<ellipse transform="matrix(0.9988 -0.0492 0.0492 0.9988 -3.1635 5.6774)" class="st73" cx="113.79" cy="67.12" rx="4.11" ry="4.48"/>
			
				<ellipse transform="matrix(0.9988 -0.0492 0.0492 0.9988 -3.1634 5.6773)" class="st74" cx="113.79" cy="67.12" rx="4.07" ry="4.43"/>
			
				<ellipse transform="matrix(0.9988 -0.0492 0.0492 0.9988 -3.1634 5.6773)" class="st75" cx="113.79" cy="67.12" rx="4.02" ry="4.38"/>
			
				<ellipse transform="matrix(0.9988 -0.0492 0.0492 0.9988 -3.1634 5.6773)" class="st76" cx="113.79" cy="67.12" rx="3.98" ry="4.34"/>
			
				<ellipse transform="matrix(0.9988 -0.0492 0.0492 0.9988 -3.1634 5.6773)" class="st77" cx="113.79" cy="67.12" rx="3.94" ry="4.29"/>
			
				<ellipse transform="matrix(0.9988 -0.0492 0.0492 0.9988 -3.1634 5.6773)" class="st78" cx="113.79" cy="67.12" rx="3.89" ry="4.24"/>
			<path class="st79" d="M113.58,62.94c-2.12,0.1-3.75,2.06-3.64,4.38c0.11,2.31,1.93,4.1,4.05,4c2.12-0.1,3.75-2.06,3.64-4.38
				C117.52,64.62,115.71,62.83,113.58,62.94z"/>
			<path class="st80" d="M113.59,62.98c-2.1,0.1-3.71,2.04-3.6,4.33c0.11,2.29,1.91,4.06,4.01,3.95c2.1-0.1,3.71-2.04,3.6-4.33
				C117.48,64.65,115.69,62.88,113.59,62.98z"/>
			<path class="st81" d="M113.59,63.03c-2.08,0.1-3.67,2.02-3.56,4.28c0.11,2.26,1.88,4.01,3.96,3.91c2.08-0.1,3.67-2.02,3.56-4.28
				C117.44,64.68,115.67,62.93,113.59,63.03z"/>
			<path class="st82" d="M113.59,63.08c-2.05,0.1-3.63,2-3.52,4.23c0.11,2.24,1.86,3.97,3.92,3.86c2.05-0.1,3.63-2,3.52-4.23
				C117.4,64.71,115.64,62.98,113.59,63.08z"/>
			<path class="st83" d="M113.59,63.12c-2.03,0.1-3.58,1.97-3.48,4.18c0.11,2.21,1.84,3.92,3.87,3.82c2.03-0.1,3.58-1.97,3.48-4.18
				C117.35,64.73,115.62,63.02,113.59,63.12z"/>
			<path class="st84" d="M113.6,63.17c-2,0.1-3.54,1.95-3.43,4.13c0.11,2.18,1.82,3.87,3.82,3.77c2-0.1,3.54-1.95,3.43-4.13
				C117.31,64.76,115.6,63.07,113.6,63.17z"/>
			<path class="st85" d="M113.6,63.22c-1.98,0.1-3.5,1.93-3.39,4.08s1.8,3.83,3.78,3.73c1.98-0.1,3.5-1.93,3.39-4.08
				C117.27,64.79,115.58,63.12,113.6,63.22z"/>
			<path class="st86" d="M113.6,63.27c-1.96,0.1-3.46,1.9-3.35,4.03s1.78,3.78,3.73,3.68c1.96-0.1,3.46-1.9,3.35-4.03
				C117.23,64.82,115.56,63.17,113.6,63.27z"/>
			<path class="st87" d="M113.6,63.31c-1.93,0.1-3.42,1.88-3.31,3.98c0.1,2.11,1.75,3.74,3.69,3.64c1.93-0.1,3.42-1.88,3.31-3.98
				C117.19,64.85,115.54,63.22,113.6,63.31z"/>
			<path id="XMLID_186_" class="st88" d="M113.61,63.36c-1.91,0.09-3.37,1.86-3.27,3.94c0.1,2.08,1.73,3.69,3.64,3.59
				c1.91-0.09,3.37-1.86,3.27-3.94C117.15,64.88,115.51,63.27,113.61,63.36z"/>
		</g>
		<g id="XMLID_174_" class="st8">
			
				<ellipse id="XMLID_180_" transform="matrix(0.6203 -0.7843 0.7843 0.6203 -17.2708 100.4137)" class="st7" cx="95.08" cy="68.05" rx="7.54" ry="7.54"/>
			
				<ellipse transform="matrix(0.6233 -0.782 0.782 0.6233 -17.3915 99.9919)" class="st9" cx="95.08" cy="68.05" rx="7.49" ry="7.49"/>
			
				<ellipse transform="matrix(0.6263 -0.7796 0.7796 0.6263 -17.5141 99.557)" class="st10" cx="95.08" cy="68.05" rx="7.45" ry="7.45"/>
			
				<ellipse transform="matrix(0.6294 -0.7771 0.7771 0.6294 -17.6387 99.1084)" class="st11" cx="95.08" cy="68.05" rx="7.4" ry="7.4"/>
			
				<ellipse transform="matrix(0.6326 -0.7745 0.7745 0.6326 -17.7652 98.6456)" class="st12" cx="95.08" cy="68.05" rx="7.35" ry="7.35"/>
			
				<ellipse transform="matrix(0.6358 -0.7718 0.7718 0.6358 -17.8936 98.168)" class="st13" cx="95.08" cy="68.05" rx="7.3" ry="7.3"/>
			
				<ellipse transform="matrix(0.6392 -0.769 0.769 0.6392 -18.0239 97.675)" class="st14" cx="95.08" cy="68.05" rx="7.26" ry="7.26"/>
			
				<ellipse transform="matrix(0.6426 -0.7662 0.7662 0.6426 -18.1561 97.1657)" class="st15" cx="95.08" cy="68.05" rx="7.21" ry="7.21"/>
			
				<ellipse transform="matrix(0.6462 -0.7632 0.7632 0.6462 -18.2901 96.6397)" class="st16" cx="95.08" cy="68.05" rx="7.16" ry="7.16"/>
			
				<ellipse transform="matrix(0.6498 -0.7601 0.7601 0.6498 -18.4258 96.096)" class="st17" cx="95.08" cy="68.05" rx="7.12" ry="7.12"/>
			
				<ellipse transform="matrix(0.6536 -0.7568 0.7568 0.6536 -18.5632 95.5339)" class="st18" cx="95.08" cy="68.05" rx="7.07" ry="7.07"/>
			
				<ellipse transform="matrix(0.6575 -0.7535 0.7535 0.6575 -18.7022 94.9527)" class="st19" cx="95.08" cy="68.05" rx="7.02" ry="7.02"/>
			
				<ellipse transform="matrix(0.6614 -0.75 0.75 0.6614 -18.8428 94.3513)" class="st20" cx="95.08" cy="68.05" rx="6.97" ry="6.97"/>
			
				<ellipse transform="matrix(0.6655 -0.7464 0.7464 0.6655 -18.9846 93.7291)" class="st21" cx="95.08" cy="68.05" rx="6.93" ry="6.93"/>
			
				<ellipse transform="matrix(0.6697 -0.7426 0.7426 0.6697 -19.1278 93.0849)" class="st22" cx="95.08" cy="68.05" rx="6.88" ry="6.88"/>
			
				<ellipse transform="matrix(0.674 -0.7387 0.7387 0.674 -19.272 92.4179)" class="st23" cx="95.08" cy="68.05" rx="6.83" ry="6.83"/>
			
				<ellipse transform="matrix(0.6785 -0.7346 0.7346 0.6785 -19.417 91.7271)" class="st24" cx="95.08" cy="68.05" rx="6.79" ry="6.79"/>
			
				<ellipse transform="matrix(0.6831 -0.7304 0.7304 0.6831 -19.5627 91.0112)" class="st25" cx="95.08" cy="68.05" rx="6.74" ry="6.74"/>
			
				<ellipse transform="matrix(0.6878 -0.7259 0.7259 0.6878 -19.7089 90.2693)" class="st26" cx="95.08" cy="68.05" rx="6.69" ry="6.69"/>
			
				<ellipse transform="matrix(0.6926 -0.7213 0.7213 0.6926 -19.8551 89.5002)" class="st27" cx="95.08" cy="68.05" rx="6.64" ry="6.64"/>
			
				<ellipse transform="matrix(0.6976 -0.7165 0.7165 0.6976 -20.0011 88.7027)" class="st28" cx="95.08" cy="68.05" rx="6.6" ry="6.6"/>
			
				<ellipse transform="matrix(0.7027 -0.7115 0.7115 0.7027 -20.1465 87.8756)" class="st29" cx="95.08" cy="68.05" rx="6.55" ry="6.55"/>
			
				<ellipse transform="matrix(0.7071 -0.7071 0.7071 0.7071 -20.2666 87.1644)" class="st30" cx="95.08" cy="68.05" rx="6.5" ry="6.5"/>
			
				<ellipse transform="matrix(0.7134 -0.7007 0.7007 0.7134 -20.4337 86.1272)" class="st31" cx="95.08" cy="68.05" rx="6.46" ry="6.46"/>
			
				<ellipse transform="matrix(0.719 -0.695 0.695 0.719 -20.5746 85.2033)" class="st32" cx="95.08" cy="68.05" rx="6.41" ry="6.41"/>
			
				<ellipse transform="matrix(0.7247 -0.689 0.689 0.7247 -20.7127 84.2445)" class="st33" cx="95.08" cy="68.05" rx="6.36" ry="6.36"/>
			
				<ellipse transform="matrix(0.7306 -0.6828 0.6828 0.7306 -20.8476 83.2494)" class="st34" cx="95.08" cy="68.05" rx="6.31" ry="6.31"/>
			
				<ellipse transform="matrix(0.7367 -0.6762 0.6762 0.7367 -20.9784 82.2165)" class="st35" cx="95.08" cy="68.05" rx="6.27" ry="6.27"/>
			
				<ellipse transform="matrix(0.7429 -0.6694 0.6694 0.7429 -21.1042 81.1445)" class="st36" cx="95.08" cy="68.05" rx="6.22" ry="6.22"/>
			
				<ellipse transform="matrix(0.7493 -0.6623 0.6623 0.7493 -21.2243 80.0319)" class="st37" cx="95.08" cy="68.05" rx="6.17" ry="6.17"/>
			
				<ellipse transform="matrix(0.7558 -0.6548 0.6548 0.7558 -21.3374 78.8775)" class="st38" cx="95.08" cy="68.05" rx="6.13" ry="6.13"/>
			
				<ellipse transform="matrix(0.7625 -0.647 0.647 0.7625 -21.4427 77.6797)" class="st39" cx="95.08" cy="68.05" rx="6.08" ry="6.08"/>
			
				<ellipse transform="matrix(0.7693 -0.6388 0.6388 0.7693 -21.5387 76.4375)" class="st40" cx="95.08" cy="68.05" rx="6.03" ry="6.03"/>
			
				<ellipse transform="matrix(0.7764 -0.6303 0.6303 0.7764 -21.6242 75.1496)" class="st41" cx="95.08" cy="68.05" rx="5.98" ry="5.98"/>
			
				<ellipse transform="matrix(0.7835 -0.6214 0.6214 0.7835 -21.6978 73.8149)" class="st42" cx="95.08" cy="68.05" rx="5.94" ry="5.94"/>
			
				<ellipse transform="matrix(0.7908 -0.6121 0.6121 0.7908 -21.7579 72.4325)" class="st43" cx="95.08" cy="68.05" rx="5.89" ry="5.89"/>
			
				<ellipse transform="matrix(0.7982 -0.6023 0.6023 0.7982 -21.8029 71.0016)" class="st44" cx="95.08" cy="68.05" rx="5.84" ry="5.84"/>
			
				<ellipse transform="matrix(0.8058 -0.5922 0.5922 0.8058 -21.8309 69.5217)" class="st45" cx="95.08" cy="68.05" rx="5.8" ry="5.8"/>
			
				<ellipse transform="matrix(0.8135 -0.5816 0.5816 0.8135 -21.8402 67.9925)" class="st46" cx="95.08" cy="68.05" rx="5.75" ry="5.75"/>
			
				<ellipse transform="matrix(0.8213 -0.5706 0.5706 0.8213 -21.8288 66.4138)" class="st47" cx="95.08" cy="68.05" rx="5.7" ry="5.7"/>
			
				<ellipse transform="matrix(0.8291 -0.5591 0.5591 0.8291 -21.7948 64.7861)" class="st48" cx="95.08" cy="68.05" rx="5.65" ry="5.65"/>
			
				<ellipse transform="matrix(0.8371 -0.5471 0.5471 0.8371 -21.736 63.1099)" class="st49" cx="95.08" cy="68.05" rx="5.61" ry="5.61"/>
			
				<ellipse transform="matrix(0.845 -0.5347 0.5347 0.845 -21.6504 61.3862)" class="st50" cx="95.08" cy="68.05" rx="5.56" ry="5.56"/>
			
				<ellipse transform="matrix(0.8531 -0.5218 0.5218 0.8531 -21.536 59.6167)" class="st51" cx="95.08" cy="68.05" rx="5.51" ry="5.51"/>
			
				<ellipse transform="matrix(0.8611 -0.5085 0.5085 0.8611 -21.3907 57.8031)" class="st52" cx="95.08" cy="68.05" rx="5.47" ry="5.47"/>
			
				<ellipse transform="matrix(0.8691 -0.4947 0.4947 0.8691 -21.2126 55.948)" class="st53" cx="95.08" cy="68.05" rx="5.42" ry="5.42"/>
			<ellipse transform="matrix(0.877 -0.4805 0.4805 0.877 -21 54.0543)" class="st54" cx="95.08" cy="68.05" rx="5.37" ry="5.37"/>
			
				<ellipse transform="matrix(0.8849 -0.4658 0.4658 0.8849 -20.7512 52.1255)" class="st55" cx="95.08" cy="68.05" rx="5.32" ry="5.32"/>
			
				<ellipse transform="matrix(0.8926 -0.4508 0.4508 0.8926 -20.4649 50.1654)" class="st56" cx="95.08" cy="68.05" rx="5.28" ry="5.28"/>
			
				<ellipse transform="matrix(0.9003 -0.4353 0.4353 0.9003 -20.1399 48.1786)" class="st57" cx="95.08" cy="68.05" rx="5.23" ry="5.23"/>
			
				<ellipse transform="matrix(0.9077 -0.4195 0.4195 0.9077 -19.7755 46.1699)" class="st58" cx="95.08" cy="68.05" rx="5.18" ry="5.18"/>
			
				<ellipse transform="matrix(0.915 -0.4034 0.4034 0.915 -19.3712 44.1446)" class="st59" cx="95.08" cy="68.05" rx="5.14" ry="5.14"/>
			
				<ellipse transform="matrix(0.9221 -0.3871 0.3871 0.9221 -18.9269 42.1082)" class="st60" cx="95.08" cy="68.05" rx="5.09" ry="5.09"/>
			
				<ellipse transform="matrix(0.9288 -0.3705 0.3705 0.9288 -18.4431 40.0665)" class="st61" cx="95.08" cy="68.05" rx="5.04" ry="5.04"/>
			
				<ellipse transform="matrix(0.9354 -0.3537 0.3537 0.9354 -17.9205 38.0255)" class="st62" cx="95.08" cy="68.05" rx="4.99" ry="5"/>
			
				<ellipse transform="matrix(0.9416 -0.3367 0.3367 0.9416 -17.3604 35.9913)" class="st63" cx="95.08" cy="68.05" rx="4.95" ry="4.95"/>
			
				<ellipse transform="matrix(0.9475 -0.3197 0.3197 0.9475 -16.7644 33.9697)" class="st64" cx="95.08" cy="68.05" rx="4.9" ry="4.9"/>
			
				<ellipse transform="matrix(0.9531 -0.3026 0.3026 0.9531 -16.1344 31.9666)" class="st65" cx="95.08" cy="68.05" rx="4.85" ry="4.85"/>
			
				<ellipse transform="matrix(0.9584 -0.2856 0.2856 0.9584 -15.4728 29.9875)" class="st66" cx="95.08" cy="68.05" rx="4.81" ry="4.81"/>
			
				<ellipse transform="matrix(0.9633 -0.2686 0.2686 0.9633 -14.7822 28.0377)" class="st67" cx="95.08" cy="68.05" rx="4.76" ry="4.76"/>
			
				<ellipse transform="matrix(0.9678 -0.2517 0.2517 0.9678 -14.0656 26.122)" class="st68" cx="95.08" cy="68.05" rx="4.71" ry="4.71"/>
			
				<ellipse transform="matrix(0.972 -0.235 0.235 0.972 -13.3258 24.2447)" class="st69" cx="95.08" cy="68.05" rx="4.67" ry="4.67"/>
			
				<ellipse transform="matrix(0.9759 -0.2184 0.2184 0.9759 -12.5663 22.4098)" class="st70" cx="95.08" cy="68.05" rx="4.62" ry="4.62"/>
			
				<ellipse transform="matrix(0.9794 -0.2021 0.2021 0.9794 -11.79 20.6204)" class="st71" cx="95.08" cy="68.05" rx="4.57" ry="4.57"/>
			
				<ellipse transform="matrix(0.9825 -0.1861 0.1861 0.9825 -11.0004 18.8794)" class="st72" cx="95.08" cy="68.05" rx="4.52" ry="4.52"/>
			
				<ellipse transform="matrix(0.9854 -0.1703 0.1703 0.9854 -10.2004 17.1891)" class="st73" cx="95.08" cy="68.05" rx="4.48" ry="4.48"/>
			
				<ellipse transform="matrix(0.9879 -0.1549 0.1549 0.9879 -9.3933 15.551)" class="st74" cx="95.08" cy="68.05" rx="4.43" ry="4.43"/>
			
				<ellipse transform="matrix(0.9902 -0.1399 0.1399 0.9902 -8.5819 13.9663)" class="st75" cx="95.08" cy="68.05" rx="4.38" ry="4.38"/>
			
				<ellipse transform="matrix(0.9921 -0.1252 0.1252 0.9921 -7.769 12.4358)" class="st76" cx="95.08" cy="68.05" rx="4.34" ry="4.34"/>
			
				<ellipse transform="matrix(0.9938 -0.1109 0.1109 0.9938 -6.9572 10.9598)" class="st77" cx="95.08" cy="68.05" rx="4.29" ry="4.29"/>
			
				<ellipse transform="matrix(0.9953 -0.0969 0.0969 0.9953 -6.1487 9.538)" class="st78" cx="95.08" cy="68.05" rx="4.24" ry="4.24"/>
			
				<ellipse transform="matrix(0.9965 -0.0834 0.0834 0.9965 -5.3457 8.1702)" class="st79" cx="95.08" cy="68.05" rx="4.19" ry="4.19"/>
			
				<ellipse transform="matrix(0.9975 -0.0703 0.0703 0.9975 -4.5501 6.8555)" class="st80" cx="95.08" cy="68.05" rx="4.15" ry="4.15"/>
			
				<ellipse transform="matrix(0.9983 -0.0576 0.0576 0.9983 -3.7636 5.5929)" class="st81" cx="95.08" cy="68.05" rx="4.1" ry="4.1"/>
			
				<ellipse transform="matrix(0.999 -0.0453 0.0453 0.999 -2.9875 4.3812)" class="st82" cx="95.08" cy="68.05" rx="4.05" ry="4.05"/>
			
				<ellipse transform="matrix(0.9994 -0.0335 0.0335 0.9994 -2.2233 3.2192)" class="st83" cx="95.08" cy="68.05" rx="4.01" ry="4.01"/>
			
				<ellipse transform="matrix(0.9998 -0.022 0.022 0.9998 -1.4719 2.1052)" class="st84" cx="95.08" cy="68.05" rx="3.96" ry="3.96"/>
			
				<ellipse transform="matrix(0.9999 -0.0109 0.0109 0.9999 -0.7341 1.0377)" class="st85" cx="95.08" cy="68.05" rx="3.91" ry="3.91"/>
			<circle class="st86" cx="95.08" cy="68.05" r="3.86"/>
			<path class="st87" d="M94.9,64.23c-2.11,0.1-3.73,1.89-3.62,4c0.1,2.11,1.89,3.73,4,3.62c2.11-0.1,3.73-1.89,3.62-4
				C98.79,65.75,97,64.13,94.9,64.23z"/>
			<path id="XMLID_179_" class="st88" d="M94.9,64.28c-2.08,0.1-3.68,1.87-3.58,3.95c0.1,2.08,1.87,3.68,3.95,3.58
				c2.08-0.1,3.68-1.87,3.58-3.95C98.75,65.78,96.98,64.18,94.9,64.28z"/>
		</g>
		<path id="XMLID_173_" class="st7" d="M81.64,62.1c-1.94,0.78-2.65,3.73-1.58,6.59c1.07,2.86,3.51,4.56,5.45,3.78
			c1.94-0.78,2.65-3.73,1.58-6.59C86.02,63.01,83.58,61.32,81.64,62.1z"/>
		<path id="XMLID_172_" class="st4" d="M105.06,84.4c-4.5,0.33-10.62-0.7-13.57-4.38c-3.67-4.59-4.36-9.2-4.42-11.64
			c-1.43,1.25-3.44,1.72-5.4,0.57c-1.03-0.61-1.71-1.47-2.09-2.45c0.05,0.71,0.2,1.45,0.48,2.19c1.07,2.86,3.51,4.56,5.45,3.78
			c0.21-0.08,0.39-0.19,0.57-0.32c0.95,9.27,5.51,15.65,21.15,14c8.44-0.89,12-5.54,13.33-10.46
			C118.51,80.21,115.81,83.6,105.06,84.4z"/>
		<path id="XMLID_171_" class="st4" d="M81.07,63.86c0,0,2.14,0.87,2.23,3.71l1.79-0.32C85.09,67.24,84.44,62.49,81.07,63.86z"/>
		<path id="XMLID_170_" class="st3" d="M93.97,59.73c-3.99,0.46-4.17,3.93-4.17,3.93s0.12,2.33,4.99,2.09
			c4.21-0.21,4.77-2.74,4.77-2.74S97.96,59.27,93.97,59.73z"/>
		<path id="XMLID_169_" class="st3" d="M108.95,63.03c0,0,0.43,1.32,4.69,0.95c4.26-0.37,3.54-2.7,3.54-2.7
			C112.74,55.08,108.95,63.03,108.95,63.03z"/>
		
			<linearGradient id="XMLID_8_" gradientUnits="userSpaceOnUse" x1="109.552" y1="68.7008" x2="111.2686" y2="64.123" gradientTransform="matrix(0.9999 -0.0148 0.0148 0.9999 1.1682 -2.6116)">
			<stop  offset="0" style="stop-color:#5C3333"/>
			<stop  offset="1" style="stop-color:#000000"/>
		</linearGradient>
		<path id="XMLID_168_" class="st89" d="M111.46,60.15c-0.88,0.33-1.17,1.72-0.65,3.12c0.1,0.26,0.22,0.5,0.36,0.72
			c0.63,0.07,1.44,0.08,2.47-0.01c0.2-0.02,0.38-0.04,0.56-0.07c0.08-0.54,0.02-1.17-0.21-1.82
			C113.47,60.69,112.33,59.83,111.46,60.15z"/>
		
			<linearGradient id="XMLID_9_" gradientUnits="userSpaceOnUse" x1="92.1025" y1="70.4143" x2="93.8712" y2="65.0528" gradientTransform="matrix(0.9999 -0.0148 0.0148 0.9999 1.1682 -2.6116)">
			<stop  offset="0" style="stop-color:#5C3333"/>
			<stop  offset="1" style="stop-color:#000000"/>
		</linearGradient>
		<path id="XMLID_167_" class="st90" d="M94.28,61c-0.88,0.33-1.17,1.72-0.65,3.12c0.26,0.71,0.69,1.28,1.15,1.63
			c0.81-0.04,1.48-0.17,2.04-0.34c0.31-0.61,0.33-1.54-0.02-2.46C96.29,61.54,95.16,60.67,94.28,61z"/>
		<path id="XMLID_166_" class="st6" d="M113.09,58.29c-4.41,0.25-4.14,4.73-4.14,4.73s1.66-3,4.59-3.03
			c2.92-0.03,3.64,1.28,3.64,1.28S116.41,58.1,113.09,58.29z"/>
		<path id="XMLID_165_" class="st91" d="M106.98,51l0.35,3.65c0,0,6.39,0.33,9.41,1.97l0.21-1.49
			C116.95,55.13,114.11,51.34,106.98,51z"/>
		<path id="XMLID_164_" class="st91" d="M89.89,57.37l0.63,1.39c2.32-1.92,9.75-3.7,9.75-3.7l-0.92-3.22
			C92.47,53.13,89.89,57.37,89.89,57.37z"/>
		<path id="XMLID_163_" class="st6" d="M94.12,59.52c-4.48,0.26-4.31,4.27-4.31,4.27s0.42-1.89,4.37-2.3
			c3.95-0.41,5.38,1.52,5.38,1.52S98.59,59.25,94.12,59.52z"/>
		<path id="XMLID_162_" class="st92" d="M104.09,73.32c-6.93,0.14-7.05-1.02-7.04-1.17c-0.05,0.32-0.75,6.17,8.01,5.79
			c9.17-0.39,7.41-6.45,7.41-6.45S111.64,73.17,104.09,73.32z"/>
		<path id="XMLID_161_" class="st92" d="M97.05,72.13c0,0,0,0.01,0,0.02C97.05,72.14,97.05,72.13,97.05,72.13z"/>
		<path id="XMLID_160_" class="st3" d="M104.09,73.32c-2.62,0.05-4.26-0.08-5.3-0.27c-0.05,0.6-0.13,1.2-0.29,1.76
			c-0.1,0.36-0.21,0.72-0.33,1.07c1.06,1.22,3.08,2.23,6.88,2.07c3.61-0.15,5.52-1.19,6.52-2.38c-0.29-1.03-0.54-2.07-0.71-3.12
			C109.67,72.85,107.61,73.25,104.09,73.32z"/>
		<path id="XMLID_159_" class="st93" d="M104.09,73.32c-2.62,0.05-4.26-0.08-5.3-0.27c-0.05,0.6-0.13,1.2-0.29,1.76
			c-0.1,0.36-0.21,0.72-0.33,1.07c0.06,0.07,0.13,0.15,0.2,0.22c3.98-2.08,8.66-3.53,12.69-2.61c-0.07-0.35-0.15-0.7-0.21-1.05
			C109.67,72.85,107.61,73.25,104.09,73.32z"/>
		<path id="XMLID_158_" class="st7" d="M106.57,65.13c-2.28-2.86-1.44-7.23-1.44-7.23s-4.88,7.23-2.76,10.93
			c2.12,3.69,9.23,1.27,8.09-2.3C109.32,62.96,106.57,65.13,106.57,65.13z"/>
		<path id="XMLID_157_" class="st94" d="M106.57,65.13c-1.31-1.65-1.58-3.66-1.58-5.18c-0.2,0.07-0.4,0.13-0.61,0.2
			c0.18,2.54,0.55,4.87,1.54,7c1.5-0.14,3.02-0.45,4.46-0.86C109.24,63.09,106.57,65.13,106.57,65.13z"/>
		<path id="XMLID_156_" class="st95" d="M100.82,33.78c-19.58-0.6-16.13,28.83-16.13,28.83s1.89,2.34,1.93,0.25
			c0.16-9.1,3.93-20.53,7.58-20.57c0,0,5.16,2.48,8.81,2.27c4.08-0.23,6.73-2.55,6.73-2.55c3.14,0.05,7.54,8.05,8.96,14.58
			C118.68,56.6,120.8,34.4,100.82,33.78z"/>
		<path id="XMLID_155_" class="st95" d="M84.45,57.1c0,0,1.23-4.03,2.75-8.1c-1.53,0.37-3.09,0.64-4.64,0.7
			C83.38,53.78,84.45,57.1,84.45,57.1z"/>
		<path id="XMLID_154_" class="st91" d="M115.29,43.91c-0.91,0.11-1.82,0.22-2.73,0.33c3.02,3.96,6.51,12.25,7.57,17.11
			c0,0,0.39-10.49-1.14-17.9C117.75,43.6,116.51,43.76,115.29,43.91z"/>
		<path id="XMLID_153_" class="st96" d="M116.57,43.75c-2.25-5.04-6.76-9.69-15.76-9.97c-18.79-0.58-16.37,26.5-16.15,28.69
			c4.32-1.56,8.76-2.76,13.3-3.47c6.82-1.06,15.42-1.92,22.19,0.76c0.04-3.21-0.01-10.65-1.17-16.3
			C118.18,43.55,117.38,43.65,116.57,43.75z"/>
		<path id="XMLID_152_" class="st97" d="M92.22,35.64L92.22,35.64C92.19,35.64,92.21,35.64,92.22,35.64z"/>
		<path id="XMLID_150_" class="st97" d="M92.25,35.64c0,0,0.01,0,0.01,0L92.25,35.64L92.25,35.64z"/>
		<path id="XMLID_149_" class="st95" d="M114.52,71.53c0,0,1.8,7.86-9.5,8.36c-10.92,0.48-9.5-7.62-9.5-7.62s-7.6,0.27-8.91-9.72
			l-1.94,0.07c0,0,2.02,5.77,1.16,9.27c0,0-2.24,15.58,18.37,15.17c20.61-0.4,18.67-16,15.91-25.71
			C120.12,61.36,120.61,70.6,114.52,71.53z"/>
		<path id="XMLID_148_" class="st95" d="M112.66,69.29c-4.03-1.06-6.66-0.59-6.66-0.59c-9.37,0.16-13.94,3.22-13.94,3.22
			s3.33,1.94,13.31,1.35c11.73-0.69,12.58-3.72,12.58-3.72S116.49,70.3,112.66,69.29z"/>
		<path id="XMLID_147_" class="st4" d="M102.09,68.19c0.08,0.22,0.17,0.44,0.28,0.64c1.91,3.33,7.89,1.69,8.2-1.29
			C107.89,68.4,104.94,68.68,102.09,68.19z"/>
		<path id="XMLID_146_" class="st98" d="M103.43,81.28c-0.72-0.06-1.3,0.6-1.14,1.3c0.17,0.74,0.9,1.48,3.19,1.36
			c2.44-0.12,2.97-1.08,2.94-1.92c-0.02-0.69-0.69-1.17-1.35-0.99C106.3,81.23,105.07,81.42,103.43,81.28z"/>
		<path id="XMLID_145_" class="st99" d="M89.71,31.94c-0.35,0.21-0.69,0.44-1.02,0.68c-2.13,1.53-3.84,3.58-4.93,5.97
			c-2.07,4.5-2.02,9.8-1.08,14.57c0.14,0.7,0.38,1.69,0.63,2.36c0.22,0.59,0.67,0.52,0.91,0.41c3.26-1.45,4.65-2.38,5.96-3.01
			c0.22-0.39,0.48-0.78,0.8-1.16c3.14-3.66,8.17-4.91,12.61-5.61c3.34-0.53,6.59-0.5,9.74,0.28c3.2-1.46,5.34-2.31,4.94-4.33
			C115.82,29.69,99.58,25.86,89.71,31.94z"/>
		<path id="XMLID_144_" class="st100" d="M118.28,42.1c-1.55-7.84-8.6-12.25-16.06-12.91c1.09,1.62,1.07,4.11,0.3,6.25
			c-1.42,3.91-5.23,6.55-8.92,8.09c-3.51,1.46-7.73,1.98-11.35,0.65c-0.36,2.99-0.12,6.08,0.45,8.98c0.14,0.7,0.38,1.69,0.63,2.36
			c0.22,0.59,0.67,0.52,0.91,0.41c3.26-1.45,4.65-2.38,5.96-3.01c0.22-0.39,0.48-0.78,0.8-1.16c3.14-3.66,8.17-4.91,12.61-5.61
			c3.34-0.53,6.59-0.5,9.74,0.28C116.54,44.97,118.68,44.12,118.28,42.1z"/>
		<path id="XMLID_143_" class="st101" d="M116.74,42.3c-6.17-3.45-20.11,9.21-20.11,9.21s4.19-3.34,11.85-4.37
			c7.66-1.03,11.59,6.55,11.59,6.55c3.68-0.13,4.06-2.11,4.06-2.11C124.16,49.28,122.91,45.75,116.74,42.3z"/>
		<path id="XMLID_142_" class="st102" d="M85.25,55.19c0,0,9.6,0.73,13.23-1.34c4.05-2.32,4.4-9.69,13.1-10.28
			c8.24-0.56,12.56,8.01,12.56,8.01s1.02-4.12-4.48-9.31C114.15,37.08,93.18,38.61,85.25,55.19z"/>
		<path id="XMLID_141_" class="st99" d="M111.57,42.34c-8.24,0.59-10.11,7.85-13.52,10.27c-2.91,2.06-9.99,1.72-12.2,1.44
			c-0.2,0.38-0.4,0.75-0.59,1.14c0,0,9.98,1.12,13.39-1.29c3.41-2.41,5.36-9.77,13.06-10.34c8.24-0.61,12.34,8.26,12.34,8.26
			c0.27-0.54,0.15-1.35,0.15-1.35S119.81,41.75,111.57,42.34z"/>
		<path id="XMLID_140_" class="st99" d="M68.95,169.05c0,0,0,39.6,0,80.07h65.74l-0.33-80.39
			C103.44,168.04,68.95,169.05,68.95,169.05z"/>
		<path id="XMLID_139_" class="st99" d="M82.56,126.38l-6.46,44.83l55.83,1.03c-1.49-21.53-4.12-45.86-4.12-45.86H82.56z"/>
		<polygon id="XMLID_138_" class="st103" points="90.23,159.39 120.23,159.74 120.23,134.68 90.63,134.43 		"/>
		<polygon id="XMLID_137_" class="st104" points="90.48,143.64 120.23,144.73 120.23,134.68 90.63,134.43 		"/>
		<path id="XMLID_136_" class="st5" d="M46.14,124.58c-0.21,0.41-0.4,0.79-0.58,1.15c11.74-1.95,22.23,6.71,22.34,6.8l0.67-0.8
			C68.46,131.63,58.04,123.03,46.14,124.58z"/>
		<path id="XMLID_135_" class="st105" d="M43.66,128.78c-0.44,8.96,25.3,18.09,25.3,18.09v-5.07
			C60.4,127.38,43.66,128.78,43.66,128.78z"/>
		<path id="XMLID_134_" class="st4" d="M45.37,130.02c0,0-4.53,11.21-1.45,14.68c3.09,3.47,25.88,0.2,25.88,0.2
			S62.14,130.02,45.37,130.02z"/>
		<path id="XMLID_133_" class="st106" d="M74.2,115.58c-2.05-1.29-7.47,17.3-7.47,17.3l6.51,0.52
			C73.24,133.41,75.42,116.35,74.2,115.58z"/>
		<path id="XMLID_132_" class="st104" d="M102.99,160.81c-0.79-0.94-1.31-1.22-1.31-1.22s-0.51-1.92-1.87-2.71
			c-1.36-0.79-1.87-0.7-1.87-0.7s-2.01-1.03-2.99-0.7c0,0-0.56-0.75-2.2-0.84s-3.28-0.05-3.28-0.05l-14.31-14.75l-5.31-2.61
			c0.12,10.79,0.45,22.05,0.88,31.5c-0.58,0.01-1.03,0.01-1.33,0.02c4.77,1.4,8.52,2.4,8.52,2.4c0.36,0.14,1.03,0.32,1.91,0.52
			c0.11,0.02,0.22,0.05,0.34,0.08c5.36,1.17,10.81,1.95,16.25,2.68c0.5,0.07,0.87,0.03,1.27-0.28c0.38-0.29,0.66-0.74,1.15-0.86
			c0.56-0.13,1.17,0.04,1.73,0.06c0.91,0.02,1.83,0.05,2.74,0.07c1.66,0.04,3.33,0.09,4.99,0.13c0.2,0.01,0.39,0.01,0.59,0.02
			l1.22-7.55C110.11,166,103.78,161.74,102.99,160.81z"/>
		<g id="XMLID_130_">
			<path id="XMLID_131_" class="st107" d="M64.57,124.12l-12.95-6.33c-0.26-0.13-0.57-0.01-0.7,0.27c-0.12,0.28-0.01,0.6,0.25,0.73
				l12.95,6.33c0.26,0.13,0.57,0.01,0.7-0.27C64.94,124.57,64.83,124.25,64.57,124.12z"/>
		</g>
		<polygon id="XMLID_129_" class="st108" points="41.17,113.41 39.59,114.73 77.95,154.18 109.59,167.54 110.11,166 75.48,130.3 		
			"/>
		<polygon id="XMLID_128_" class="st95" points="39.59,114.73 77.91,156.28 109.52,167.54 74.85,131.57 		"/>
		<path id="XMLID_127_" class="st7" d="M103.31,151.27c-0.79-0.94-1.31-1.22-1.31-1.22s-0.51-1.92-1.87-2.71
			c-1.36-0.79-1.87-0.7-1.87-0.7s-2.01-1.03-2.99-0.7c0,0-0.56-0.75-2.2-0.84s-3.28-0.05-3.28-0.05l1.28,1.39
			c0.41,0.44,0.35,1.14-0.12,1.51c-1.07,0.83-2.81,2.09-3.35,1.96c0,0-3.07-0.73-3.18-0.94c-0.61-1.15,2.9-1.64,2.38-3.74
			c-0.51-2.1-2.48-2.99-3.93-2.24s-4.07,0.89-5.24,2.1s-0.82,4.98-1.42,5.3c-0.29,0.16-0.31,10.27,2.02,11.21
			c2.34,0.94,18,3.37,19.22,3.27s6.41-7.48,6.45-8.37c0.05-0.89-0.65-2.06-0.65-2.06S104.11,152.21,103.31,151.27z"/>
		<path id="XMLID_126_" class="st7" d="M69.8,147c-2.87-2.2-4.79-5.19-8.01-8.2c-3.22-3.01-17.77-6.59-18.8,0
			c-1.03,6.53,3.1,11.73,10.7,15.01s24.56,7.8,24.56,7.8l-2.02-11.21C76.23,150.4,71.53,148.33,69.8,147z"/>
		<path id="XMLID_125_" class="st109" d="M90.65,148.19c-1.07,0.81-2.55,1.84-3.04,1.73c0,0-3.07-0.73-3.18-0.94
			c-0.61-1.15,2.9-1.64,2.38-3.74c-0.51-2.1-2.48-2.99-3.93-2.24s-4.07,0.89-5.24,2.1c-1.17,1.22-0.82,4.98-1.42,5.3
			c0,0-4.69-2.08-6.43-3.4c-2.87-2.2-4.79-5.19-8.01-8.2c-3.22-3.01-17.77-6.59-18.8,0c-1.03,6.53,3.1,11.73,10.7,15.01
			s24.56,7.8,24.56,7.8c2.34,0.94,18,3.37,19.22,3.27c0.5-0.04,1.65-1.29,2.85-2.82C96.9,165.17,88.81,159.25,90.65,148.19z"/>
		<path id="XMLID_124_" class="st2" d="M144.86,70.16c-2.99,2.95-2.57,9.76-2.57,9.76l4.67,0.92c0,0,0.58-7.08,2.82-9.91
			C150.38,70.17,147.66,67.4,144.86,70.16z"/>
		<path id="XMLID_123_" class="st7" d="M148.86,95.87c0.02-0.47-0.26-11.63-0.43-14.14c-0.02-0.38-0.06-0.68-0.11-0.9
			c-0.34-1.36-5.98-2.91-8.99-3.32c-3.01-0.41-4.78,0.27-5.08,1.15c-0.29,0.88,0.2,2.15,0.2,2.15s-1.47,0.5-2.05,1.5
			c-0.58,0.99-0.69,2.62,0.33,3.59c0,0-0.77,0.74-0.76,2.15c0.01,1.41,1.13,2.47,1.13,2.47s-0.8,0.87-1.1,1.75
			c-0.29,0.88,0.26,2.17,1.26,3.2c1,1.03,2.64,1.33,2.64,1.33s-1.17,4.23,4.36,6.09c-0.75,9.45-2.37,32.57-0.76,38
			c1.95,6.57,7.46,11.17,12.1,10.88c1.1,0.62,2.99,1.41,4.64,0.75c1.65-0.65,2.13-2.88,2.27-4.33c1.53-2.23,2.24-5.72,1.76-11.19
			C159.33,126.34,149.46,109.02,148.86,95.87z"/>
		<path id="XMLID_120_" class="st109" d="M148.86,95.87c0.02-0.47-0.26-11.63-0.43-14.14c-0.02-0.38-0.06-0.68-0.11-0.9
			c-0.11-0.42-0.72-0.86-1.61-1.28c1.31,2.44,0.34,7,0,9.14c-0.48,2.98-1.61,6.14-4.99,6.64c-2.55,0.38-5.78-0.29-8.12-1.53
			c-0.12-0.09-1.07-0.81-0.8-2.01c0.29-1.28,6.37-0.13,6.37-0.13l0.18-0.73c0,0-6.89-1.04-6.73-2.93c0.16-1.89,7.42-0.64,7.42-0.64
			l0.12-0.81c0,0-7.62-0.43-7.22-3.08c0.4-2.65,8.24-0.99,8.24-0.99l0.2-0.7c0,0-9.16-0.95-6.71-3.7c-0.23,0.17-0.38,0.36-0.45,0.57
			c-0.29,0.88,0.2,2.15,0.2,2.15s-1.47,0.5-2.05,1.5c-0.58,0.99-0.69,2.62,0.33,3.59c0,0-0.77,0.74-0.76,2.15
			c0.01,1.41,1.13,2.47,1.13,2.47s-0.47,0.51-0.82,1.14v0l0,0c-0.05,0.1-0.1,0.19-0.15,0.29c0,0,0,0.01,0,0.01
			c-0.05,0.1-0.09,0.2-0.12,0.3c-0.02,0.06-0.04,0.12-0.05,0.19c0,0.02-0.01,0.04-0.01,0.06c-0.01,0.05-0.01,0.09-0.02,0.14
			c0,0.02,0,0.04,0,0.07c0,0.05,0,0.1,0,0.15c0,0.02,0,0.04,0,0.06c0,0.06,0.01,0.12,0.02,0.19c0,0.01,0,0.02,0,0.03
			c0.12,0.74,0.6,1.59,1.31,2.31c1,1.03,2.64,1.33,2.64,1.33s-1.17,4.23,4.36,6.09c-0.75,9.45-2.37,32.57-0.76,38
			c1.95,6.57,7.46,11.17,12.1,10.88c1.1,0.62,2.99,1.41,4.64,0.75c1.65-0.65,2.13-2.88,2.27-4.33c1.53-2.23,2.24-5.72,1.76-11.19
			C159.33,126.34,149.46,109.02,148.86,95.87z M148.46,143.61c-5.18,0.25-5.89-6.44-6.34-16.63c-0.45-10.19-0.59-22.47,1.45-22.98
			c1.65-0.41,1.61,2.96,2.51,7.38c0.9,4.43,4.72,15.01,6.02,20.26C153.4,136.9,153.64,143.36,148.46,143.61z"/>
		<path id="XMLID_119_" class="st99" d="M83.64,89.9c-0.17-0.65-8.57,1.99-8.33,2.41c0.8,0.38,5.2,3.04,6.5,16.11
			c0.22,2.24,0.39,4.27,0.51,6.12h7.6c-0.14-2.06-0.33-4.34-0.58-6.86C88.44,98.67,86.08,93.21,83.64,89.9z"/>
		<path id="XMLID_118_" class="st99" d="M82.55,119.33c0.24,8.14-0.56,11-0.56,11.03l0.41-0.2l7.31,1.92
			c0.11-0.43,0.85-3.64,0.47-12.75H82.55z"/>
		<path id="XMLID_117_" class="st104" d="M82.55,119.33c0.03,1.11,0.04,2.12,0.04,3.04c1.09-0.12,2.18-0.24,3.27-0.38
			c1.36-0.17,2.91-0.57,4.39-0.64c-0.02-0.64-0.04-1.31-0.07-2.02H82.55z"/>
		<path id="XMLID_116_" class="st99" d="M125.9,92.63c-0.29-0.73-8.08-3.08-8.08-2.76c1.3,1.38,4.37,6.04,4,16.77
			c-0.1,2.87-0.22,5.47-0.35,7.8h7.57c0.12-2.27,0.23-4.78,0.33-7.54C129.58,101.26,128.09,94.52,125.9,92.63z"/>
		<path id="XMLID_115_" class="st99" d="M120.32,128.85l7.5,0.98c0.03-0.23,0.53-4.1,1-11.48h-7.58
			C120.79,125.2,120.33,128.8,120.32,128.85z"/>
		<path id="XMLID_114_" class="st104" d="M121.02,121.39c2.52,0.14,5.02,0.43,7.53,0.72c0.09-1.13,0.18-2.38,0.26-3.76h-7.58
			C121.17,119.45,121.09,120.46,121.02,121.39z"/>
		<polygon id="XMLID_113_" class="st110" points="82,113.07 82.11,116.23 83.02,117.03 89.41,116.89 90.13,115.74 90,112.64 		"/>
		<path id="XMLID_112_" class="st111" d="M101.91,96.43c-9.49,0.04-10.93-8.26-10.93-8.26l-4.07,0.95c0,0,0.7,11.18,14.69,11.18
			c14.06-0.01,14.69-11.18,14.69-11.18l-3.86-0.95C112.42,88.17,111.4,96.38,101.91,96.43z"/>
		<polygon id="XMLID_111_" class="st112" points="89.69,117.37 89.44,113.52 90.15,112.7 89.82,109.41 81.62,109.94 81.85,113.07 
			82.76,113.89 82.76,117.48 82.05,118.33 82.15,121.5 90.67,121.2 90.51,118.16 		"/>
		<path id="XMLID_108_" class="st113" d="M88.96,117.59l-0.25-4.26l0.81-0.96l-0.27-2.44l-6.97,0.4l0.21,2.31l0.93,1.01l0.1,3.82
			l-0.73,1.01l0.11,2.37l7.02-0.18l-0.09-2.23L88.96,117.59z M88.08,115.53c-0.11,0.63-1.01,1.13-2.01,1.11
			c-1-0.02-1.71-0.54-1.6-1.17c0.11-0.63,1.01-1.13,2.01-1.11C87.48,114.37,88.19,114.9,88.08,115.53z"/>
		<polygon id="XMLID_107_" class="st110" points="120.85,116.08 121.73,116.84 128.61,116.87 129.5,115.82 129.71,112.94 
			121.09,113.13 		"/>
		<polygon id="XMLID_106_" class="st112" points="129.86,113 129.85,110.13 121.18,110 120.92,113.13 121.8,113.91 121.41,117.25 
			120.56,118.02 120.31,120.98 129.4,121.23 129.64,118.08 128.85,117.32 129.01,113.74 		"/>
		<path id="XMLID_4_" class="st113" d="M121.62,112.75l0.9,0.97l-0.31,3.56l-0.89,0.92l-0.14,2.21l7.49,0.23l0.21-2.3l-0.83-0.82
			l0.15-3.97l0.91-0.87v-1.96l-7.48-0.12L121.62,112.75z M123.47,115.43c0.19-0.58,1.21-1.03,2.28-0.99
			c1.07,0.04,1.78,0.55,1.58,1.13c-0.19,0.58-1.21,1.03-2.28,0.99C123.99,116.52,123.28,116.01,123.47,115.43z"/>
		<polygon id="XMLID_3_" class="st103" points="90.67,133.94 90.14,142.82 120.94,142.82 120.85,133.94 		"/>
		<path id="XMLID_2_" class="st3" d="M95.75,63.6c0.19,0.36-0.19,0.92-0.85,1.27c-0.65,0.34-1.34,0.33-1.52-0.02
			c-0.19-0.36,0.19-0.92,0.85-1.27C94.88,63.23,95.56,63.24,95.75,63.6z"/>
		<path id="XMLID_1_" class="st3" d="M112.07,62.59c0.15,0.28-0.11,0.71-0.58,0.95c-0.47,0.25-0.97,0.22-1.11-0.07
			c-0.15-0.28,0.11-0.71,0.58-0.95C111.42,62.28,111.92,62.31,112.07,62.59z"/>
	</g>
</g>
</svg>
