<?xml version="1.0" encoding="utf-8"?>
<!-- Generator: Adobe Illustrator 23.0.1, SVG Export Plug-In . SVG Version: 6.00 Build 0)  -->
<svg version="1.1" id="Layer_1" xmlns="http://www.w3.org/2000/svg" xmlns:xlink="http://www.w3.org/1999/xlink" x="0px" y="0px"
	 viewBox="0 0 200 200" style="enable-background:new 0 0 200 200;" xml:space="preserve">
<style type="text/css">
	.st0{fill:#E6E6E6;}
	.st1{clip-path:url(#SVGID_2_);}
	.st2{fill:#D58A73;}
	.st3{fill:#FFFFFF;}
	.st4{fill:#D78C74;}
	.st5{opacity:0.05;}
	.st6{fill:#381911;}
	.st7{fill:#E5A185;}
	.st8{opacity:0.38;}
	.st9{fill:#E5A084;}
	.st10{fill:#E59F83;}
	.st11{fill:#E49E83;}
	.st12{fill:#E49D82;}
	.st13{fill:#E49C81;}
	.st14{fill:#E49B80;}
	.st15{fill:#E49A80;}
	.st16{fill:#E3997F;}
	.st17{fill:#E3987E;}
	.st18{fill:#E3977D;}
	.st19{fill:#E3967C;}
	.st20{fill:#E2957C;}
	.st21{fill:#E2947B;}
	.st22{fill:#E2937A;}
	.st23{fill:#E29279;}
	.st24{fill:#E29179;}
	.st25{fill:#E19078;}
	.st26{fill:#E18F77;}
	.st27{fill:#E18E76;}
	.st28{fill:#E18D75;}
	.st29{fill:#E18C75;}
	.st30{fill:#E08B74;}
	.st31{fill:#E08A73;}
	.st32{fill:#E08972;}
	.st33{fill:#E08872;}
	.st34{fill:#DF8771;}
	.st35{fill:#DF8670;}
	.st36{fill:#DF856F;}
	.st37{fill:#DF846F;}
	.st38{fill:#DF836E;}
	.st39{fill:#DE826D;}
	.st40{fill:#DE816C;}
	.st41{fill:#DE806B;}
	.st42{fill:#DE7F6B;}
	.st43{fill:#DE7E6A;}
	.st44{fill:#DD7D69;}
	.st45{fill:#DD7C68;}
	.st46{fill:#DD7B68;}
	.st47{fill:#DD7A67;}
	.st48{fill:#DD7A66;}
	.st49{fill:#DC7965;}
	.st50{fill:#DC7864;}
	.st51{fill:#DC7764;}
	.st52{fill:#DC7663;}
	.st53{fill:#DB7562;}
	.st54{fill:#DB7461;}
	.st55{fill:#DB7361;}
	.st56{fill:#DB7260;}
	.st57{fill:#DB715F;}
	.st58{fill:#DA705E;}
	.st59{fill:#DA6F5D;}
	.st60{fill:#DA6E5D;}
	.st61{fill:#DA6D5C;}
	.st62{fill:#DA6C5B;}
	.st63{fill:#D96B5A;}
	.st64{fill:#D96A5A;}
	.st65{fill:#D96959;}
	.st66{fill:#D96858;}
	.st67{fill:#D86757;}
	.st68{fill:#D86657;}
	.st69{fill:#D86556;}
	.st70{fill:#D86455;}
	.st71{fill:#D86354;}
	.st72{fill:#D76253;}
	.st73{fill:#D76153;}
	.st74{fill:#D76052;}
	.st75{fill:#D75F51;}
	.st76{fill:#D75E50;}
	.st77{fill:#D65D50;}
	.st78{fill:#D65C4F;}
	.st79{fill:#D65B4E;}
	.st80{fill:#D65A4D;}
	.st81{fill:#D5594C;}
	.st82{fill:#D5584C;}
	.st83{fill:#D5574B;}
	.st84{fill:#D5564A;}
	.st85{fill:#D55549;}
	.st86{fill:#D45449;}
	.st87{fill:#D45348;}
	.st88{fill:#D45247;}
	.st89{fill:url(#XMLID_8_);}
	.st90{fill:url(#XMLID_9_);}
	.st91{fill:#422E26;}
	.st92{fill:#6C332E;}
	.st93{opacity:0.35;fill:#C3BBA5;}
	.st94{opacity:0.2;fill:#FFFFFF;}
	.st95{fill:#4F372D;}
	.st96{opacity:0.14;fill:#422E26;}
	.st97{opacity:0.12;fill:#FFFFFF;}
	.st98{opacity:0.16;}
	.st99{fill:#465884;}
	.st100{opacity:0.04;}
	.st101{fill:#334363;}
	.st102{fill:#4C618C;}
	.st103{fill:#4F648E;}
	.st104{opacity:0.08;}
	.st105{fill:#E2E2E2;}
	.st106{fill:#EAEAEA;}
	.st107{fill:#BCB4B3;}
	.st108{fill:#755046;}
	.st109{opacity:0.5;fill:#D78C74;}
	.st110{fill:#3A3838;}
	.st111{fill:#F4F4F4;}
	.st112{fill:#494646;}
	.st113{fill:#514F4F;}
	.st114{fill:#333B49;}
	.st115{fill:#FFCA35;}
	.st116{opacity:0.5;fill:#FFCA35;}
	.st117{fill:#5F6368;}
	.st118{fill:#EF3030;}
	.st119{clip-path:url(#SVGID_4_);}
	.st120{fill:#F2866D;}
	.st121{fill:#FF9D2E;}
	.st122{fill:#574E49;}
	.st123{fill:#323436;}
	.st124{fill:#DB5C04;}
	.st125{fill:#FB822D;}
	.st126{fill:#55ABBD;}
	.st127{fill:#4F565C;}
	.st128{fill:#292F33;}
	.st129{fill:#FB6902;}
	.st130{fill:#E83427;}
	.st131{fill:#444A4F;}
	.st132{fill:#47403C;}
	.st133{fill:#3B3532;}
	.st134{fill:#78695E;}
	.st135{fill:#4C98A8;}
	.st136{fill:#C9EEF5;}
	.st137{opacity:0.7;fill:#FFFFFF;}
	.st138{opacity:0.2;}
	.st139{fill:#B6D8DE;}
	.st140{fill:#FDA73E;}
	.st141{fill:#95A4AD;}
	.st142{fill:#353D42;}
	.st143{fill:#E05E02;}
	.st144{fill:#4D4D4D;}
	.st145{fill:#616161;}
	.st146{fill:#8F8F8F;}
	.st147{fill:#FFA480;}
	.st148{fill:#2FB4BA;}
	.st149{fill:#9B72C4;}
	.st150{fill:#BDAEA3;}
	.st151{fill:#DB92DA;}
	.st152{fill:#E67B5A;}
	.st153{fill:#F94850;}
	.st154{fill:#FFB187;}
	.st155{fill:#FFB086;}
	.st156{fill:#FFAF85;}
	.st157{fill:#FFAE85;}
	.st158{fill:#FFAD84;}
	.st159{fill:#FFAC83;}
	.st160{fill:#FFAB82;}
	.st161{fill:#FFAA81;}
	.st162{fill:#FFA980;}
	.st163{fill:#FFA880;}
	.st164{fill:#FFA77F;}
	.st165{fill:#FFA67E;}
	.st166{fill:#FFA57D;}
	.st167{fill:#FFA47C;}
	.st168{fill:#FFA37C;}
	.st169{fill:#FFA27B;}
	.st170{fill:#FFA17A;}
	.st171{fill:#FFA079;}
	.st172{fill:#FF9F78;}
	.st173{fill:#FF9E77;}
	.st174{fill:#FF9D77;}
	.st175{fill:#FF9C76;}
	.st176{fill:#FF9B75;}
	.st177{fill:#FF9A74;}
	.st178{fill:#FF9973;}
	.st179{fill:#FF9872;}
	.st180{fill:#FF9771;}
	.st181{fill:#FF9670;}
	.st182{fill:#FF956F;}
	.st183{fill:#FF946F;}
	.st184{fill:#FF936E;}
	.st185{fill:#FF926D;}
	.st186{fill:#FF916C;}
	.st187{fill:#FF906B;}
	.st188{fill:#FF8F6A;}
	.st189{fill:#FF8E6A;}
	.st190{fill:#FF8D69;}
	.st191{fill:#FF8C68;}
	.st192{fill:#FF8B67;}
	.st193{fill:#FF8A66;}
	.st194{fill:#FF8966;}
	.st195{fill:#FF8865;}
	.st196{fill:#FF8764;}
	.st197{fill:#FF8663;}
	.st198{fill:#FF8562;}
	.st199{fill:#FF8461;}
	.st200{fill:#FF8361;}
	.st201{fill:#FF8260;}
	.st202{fill:#FF815F;}
	.st203{fill:#421C16;}
	.st204{fill:#703024;}
	.st205{fill:#00BAEB;}
	.st206{fill:#118793;}
	.st207{fill:#572619;}
	.st208{fill:#00AAD6;}
	.st209{fill:#00A2CC;}
	.st210{fill:#BF1B2D;}
	.st211{fill:#A12F2F;}
	.st212{fill:#8A8A8A;}
	.st213{fill:#404040;}
	.st214{fill:#F44E4E;}
	.st215{fill:#303030;}
	.st216{fill:#CAE1FC;}
	.st217{opacity:0.3;fill:#DA97B8;}
	.st218{opacity:0.6;fill:#CBCFFF;}
	.st219{fill:#EEF0FF;}
	.st220{fill:#7AB6F6;}
	.st221{fill:#6977A4;}
	.st222{opacity:0.3;fill:#FFFFFF;}
	.st223{fill:#F5B29C;}
	.st224{fill:#2E90EC;}
	.st225{fill:#3D4166;}
	.st226{fill:#FA7071;}
	.st227{fill:#3C5670;}
	.st228{fill:#FA989C;}
	.st229{fill:#D05C53;}
	.st230{fill:#5C595E;}
	.st231{fill:#E6DFEA;}
	.st232{fill:#C9C9DD;}
	.st233{opacity:0.3;}
	.st234{opacity:0.6;fill:#A8BCFF;}
	.st235{fill:#999DB8;}
	.st236{fill:#0B1238;}
	.st237{fill:#2D3170;}
	.st238{fill:#5C75C3;}
	.st239{fill:#0B124A;}
	.st240{fill:#2E3054;}
	.st241{fill:#B9B3C0;}
	.st242{fill:#595D8B;}
	.st243{fill:#0B2B4A;}
	.st244{opacity:0.25;fill:#EEF0FF;}
	.st245{fill:#C68824;}
	.st246{fill:#A36D1F;}
	.st247{fill:#CECECE;}
	.st248{fill:#C9C9C9;}
	.st249{fill:#BCBCBC;}
	.st250{fill:#E5E5E5;}
	.st251{fill:#424242;}
	.st252{fill:#CCCCCC;}
	.st253{fill:#FFBF3C;}
	.st254{fill:#D3D5D3;}
	.st255{fill:#46676C;}
	.st256{fill:url(#SVGID_5_);}
	.st257{fill:#98B1C7;}
	.st258{fill:url(#SVGID_6_);}
	.st259{fill:url(#SVGID_7_);}
	.st260{fill:#0E1714;}
	.st261{fill:#BFD2E1;}
	.st262{fill:url(#SVGID_8_);}
	.st263{fill:url(#SVGID_9_);}
	.st264{fill:url(#SVGID_10_);}
	.st265{fill:url(#SVGID_11_);}
	.st266{fill:url(#SVGID_12_);}
	.st267{fill:url(#SVGID_13_);}
	.st268{fill:url(#SVGID_14_);}
	.st269{fill:url(#SVGID_15_);}
	.st270{fill:url(#SVGID_16_);}
	.st271{fill:url(#SVGID_17_);}
	.st272{fill:url(#SVGID_18_);}
	.st273{fill:#1D2C2C;}
	.st274{fill:#ECEBF3;}
	.st275{fill:url(#SVGID_19_);}
	.st276{fill:#0074A6;}
	.st277{fill:url(#SVGID_20_);}
	.st278{fill:url(#SVGID_21_);}
	.st279{fill:url(#SVGID_22_);}
	.st280{fill:url(#SVGID_23_);}
	.st281{fill:#80979A;}
	.st282{fill:url(#SVGID_24_);}
	.st283{fill:url(#SVGID_25_);}
	.st284{fill:#3A4848;}
	.st285{fill:#FFBD95;}
	.st286{fill:#B8B3B3;}
	.st287{fill:#A39D9D;}
	.st288{fill:#8D3B26;}
	.st289{fill:#191919;}
	.st290{fill:#00233F;}
	.st291{fill:#002D56;}
	.st292{fill:#D7D4D4;}
	.st293{fill:#CFCCCC;}
	.st294{fill:#004877;}
</style>
<circle class="st0" cx="100" cy="100" r="100"/>
<g>
	<g>
		<g>
			<g>
				<path class="st3" d="M61.83,159.65c-0.45,0-0.85-0.39-0.85-0.85L60.36,52.18c0-0.45,0.39-0.85,0.84-0.85l76.97-0.44
					c0.45,0,0.85,0.39,0.85,0.84l0.61,106.62c0,0.45-0.39,0.85-0.84,0.86L61.83,159.65z"/>
				<path class="st114" d="M138.13,44.15L61.17,44.6c-4.17,0.02-7.56,3.46-7.54,7.63l0.61,106.62c0.02,4.17,3.46,7.56,7.63,7.54
					l76.97-0.44c4.17-0.02,7.56-3.46,7.54-7.63l-0.61-106.62C145.73,47.52,142.3,44.13,138.13,44.15z M139.64,158.35
					c0,0.45-0.39,0.85-0.84,0.86l-76.97,0.44c-0.45,0-0.85-0.39-0.85-0.85L60.36,52.18c0-0.45,0.39-0.85,0.84-0.85l76.97-0.44
					c0.45,0,0.85,0.39,0.85,0.84L139.64,158.35z"/>
			</g>
			<g>
				<path class="st106" d="M115.05,39.88l-3.13,0.02l-0.02-3.38c-0.01-1.07-0.89-1.94-1.96-1.93L88.99,34.7
					c-1.07,0.01-1.94,0.89-1.93,1.96l0.02,3.38l-3.13,0.02c-1.59,0.01-2.88,1.32-2.87,2.9l0.06,10.26c0.01,1.59,1.32,2.88,2.9,2.87
					l31.1-0.18c1.59-0.01,2.88-1.32,2.87-2.9l-0.06-10.26C117.95,41.16,116.64,39.87,115.05,39.88z"/>
				<path class="st115" d="M115.05,38.91l-3.13,0.02l-0.02-3.38c-0.01-1.07-0.89-1.94-1.96-1.93l-20.96,0.12
					c-1.07,0.01-1.94,0.89-1.93,1.96l0.02,3.38l-3.13,0.02c-1.59,0.01-2.88,1.32-2.87,2.9l0.06,10.26c0.01,1.59,1.32,2.88,2.9,2.87
					l31.1-0.18c1.59-0.01,2.88-1.32,2.87-2.9l-0.06-10.26C117.94,40.2,116.64,38.9,115.05,38.91z"/>
				<path class="st116" d="M115.44,38.95l-31.88,0.18c-1.4,0.2-2.49,1.41-2.48,2.86l0.06,10.26c0.01,1.59,1.32,2.88,2.9,2.87
					l31.1-0.18c1.59-0.01,2.88-1.32,2.87-2.9l-0.06-10.26C117.94,40.33,116.84,39.13,115.44,38.95z"/>
			</g>
			<g>
				<g>
					<path class="st114" d="M71.51,136.15l-0.03-5.01l2.11-0.01l0.01,0.93l-1.14,0.01l0.01,1.01l1.03-0.01l0.01,0.92l-1.03,0.01
						l0.01,1.17l1.14-0.01l0.01,0.98L71.51,136.15z"/>
					<path class="st114" d="M74.65,136.13l-0.03-5.01l1.01-0.01l1.03,2.69c0.03,0.09,0.07,0.22,0.13,0.4
						c0.05,0.18,0.12,0.39,0.19,0.63c-0.05-0.35-0.1-0.68-0.12-0.98c-0.03-0.3-0.04-0.57-0.04-0.83l-0.01-1.92l0.93-0.01l0.03,5.01
						l-0.93,0.01l-1.11-2.8c-0.02-0.04-0.07-0.21-0.15-0.51c-0.04-0.14-0.07-0.24-0.09-0.32c0.02,0.19,0.04,0.41,0.06,0.66
						c0.01,0.24,0.02,0.53,0.02,0.87l0.01,2.11L74.65,136.13z"/>
					<path class="st114" d="M80.29,133.27l1.86-0.01c0,0.03,0,0.06,0,0.11c0,0.05,0,0.09,0,0.11c0,0.84-0.15,1.49-0.45,1.96
						c-0.3,0.47-0.73,0.71-1.27,0.71c-0.53,0-0.95-0.22-1.26-0.68c-0.31-0.46-0.47-1.08-0.47-1.87c0-0.8,0.15-1.43,0.47-1.89
						c0.32-0.46,0.75-0.69,1.31-0.7c0.38,0,0.69,0.11,0.96,0.32c0.26,0.22,0.46,0.54,0.58,0.95l-0.9,0.42
						c-0.04-0.25-0.12-0.43-0.22-0.56c-0.11-0.12-0.25-0.18-0.43-0.18c-0.27,0-0.46,0.13-0.59,0.39c-0.12,0.26-0.18,0.67-0.18,1.23
						c0,0.53,0.07,0.94,0.2,1.21c0.13,0.27,0.33,0.41,0.58,0.41c0.22,0,0.39-0.1,0.52-0.28c0.12-0.19,0.18-0.45,0.18-0.79
						l-0.89,0.01L80.29,133.27z"/>
					<path class="st114" d="M83.19,136.08l-0.03-5.01l1.02-0.01l0.03,5.01L83.19,136.08z"/>
					<path class="st114" d="M85.4,136.07l-0.03-5.01l1.01-0.01l1.03,2.69c0.03,0.09,0.07,0.22,0.13,0.4
						c0.05,0.18,0.12,0.39,0.19,0.63c-0.05-0.35-0.1-0.68-0.12-0.98c-0.03-0.3-0.04-0.57-0.04-0.83l-0.01-1.92l0.93-0.01l0.03,5.01
						l-0.93,0.01l-1.11-2.8c-0.02-0.04-0.07-0.21-0.15-0.51c-0.04-0.14-0.07-0.24-0.09-0.32c0.02,0.19,0.04,0.41,0.06,0.66
						c0.01,0.24,0.02,0.53,0.02,0.87l0.01,2.11L85.4,136.07z"/>
					<path class="st114" d="M89.64,136.04l-0.03-5.01l2.11-0.01l0.01,0.93l-1.14,0.01l0.01,1.01l1.03-0.01l0.01,0.92l-1.03,0.01
						l0.01,1.17l1.14-0.01l0.01,0.98L89.64,136.04z"/>
					<path class="st114" d="M94.52,135.84l-0.01-1.04c0.13,0.11,0.25,0.19,0.37,0.24c0.12,0.05,0.24,0.08,0.37,0.08
						c0.17,0,0.3-0.05,0.4-0.14c0.1-0.09,0.14-0.21,0.14-0.36c0-0.19-0.13-0.39-0.4-0.62c-0.07-0.06-0.13-0.11-0.17-0.14
						c-0.31-0.27-0.52-0.52-0.64-0.74c-0.12-0.22-0.17-0.46-0.18-0.74c0-0.43,0.12-0.78,0.36-1.05c0.24-0.27,0.56-0.4,0.95-0.41
						c0.14,0,0.28,0.02,0.41,0.06c0.14,0.04,0.28,0.1,0.43,0.18l0.01,0.88c-0.18-0.08-0.31-0.14-0.41-0.17
						c-0.1-0.03-0.18-0.05-0.26-0.05c-0.14,0-0.26,0.05-0.35,0.14c-0.09,0.09-0.14,0.21-0.14,0.36c0,0.13,0.04,0.25,0.1,0.36
						c0.07,0.11,0.23,0.27,0.48,0.49c0.34,0.29,0.56,0.52,0.65,0.71c0.1,0.19,0.15,0.42,0.15,0.69c0,0.46-0.12,0.82-0.38,1.08
						c-0.26,0.27-0.61,0.4-1.05,0.4c-0.17,0-0.33-0.02-0.47-0.06C94.77,135.98,94.64,135.92,94.52,135.84z"/>
					<path class="st114" d="M97.72,136l-0.03-5.01l2.11-0.01l0.01,0.93l-1.14,0.01l0.01,1.01l1.03-0.01l0.01,0.92l-1.03,0.01
						l0.01,1.17l1.14-0.01l0.01,0.98L97.72,136z"/>
					<path class="st114" d="M100.86,135.98l-0.03-5.01l1.04-0.01c0.57,0,0.99,0.11,1.25,0.33c0.26,0.22,0.39,0.58,0.39,1.07
						c0,0.36-0.06,0.64-0.19,0.86c-0.13,0.22-0.33,0.37-0.59,0.46l0.97,2.28l-1.05,0.01l-0.83-2.07l0.01,2.07L100.86,135.98z
						 M101.81,133.14c0.01,0,0.03,0,0.06,0c0.03,0,0.05,0,0.06,0c0.22,0,0.38-0.06,0.49-0.18c0.11-0.12,0.16-0.3,0.16-0.54
						c0-0.24-0.05-0.41-0.15-0.52c-0.1-0.11-0.26-0.16-0.48-0.16c-0.03,0-0.06,0-0.08,0c-0.02,0-0.04,0-0.05,0.01L101.81,133.14z"/>
					<path class="st114" d="M105.33,135.95l-1.46-5l1.01-0.01l0.6,2.26c0.06,0.22,0.11,0.46,0.15,0.71s0.07,0.52,0.1,0.79
						c0.01-0.26,0.04-0.51,0.08-0.76c0.04-0.25,0.08-0.49,0.14-0.73l0.56-2.29l1.04-0.01l-1.39,5.02L105.33,135.95z"/>
					<path class="st114" d="M108.24,135.93l-0.03-5.01l1.02-0.01l0.03,5.01L108.24,135.93z"/>
					<path class="st114" d="M113.02,135.85c-0.1,0.04-0.19,0.07-0.29,0.09c-0.1,0.02-0.19,0.03-0.29,0.03
						c-0.64,0-1.16-0.23-1.56-0.69c-0.4-0.46-0.6-1.07-0.61-1.82c0-0.78,0.19-1.41,0.57-1.9c0.39-0.48,0.9-0.73,1.52-0.73
						c0.12,0,0.23,0.01,0.33,0.03s0.2,0.05,0.3,0.09l0.01,0.94c-0.1-0.04-0.19-0.07-0.28-0.08c-0.09-0.02-0.18-0.03-0.27-0.03
						c-0.33,0-0.6,0.15-0.81,0.45c-0.21,0.3-0.31,0.69-0.31,1.17c0,0.47,0.11,0.85,0.33,1.14c0.22,0.29,0.49,0.43,0.83,0.43
						c0.08,0,0.17-0.01,0.26-0.03c0.09-0.02,0.18-0.05,0.27-0.09L113.02,135.85z"/>
					<path class="st114" d="M113.99,135.9l-0.03-5.01l2.11-0.01l0.01,0.93l-1.14,0.01l0.01,1.01l1.03-0.01l0.01,0.92l-1.03,0.01
						l0.01,1.17l1.14-0.01l0.01,0.98L113.99,135.9z"/>
				</g>
				<path class="st114" d="M67.68,133.66c0,0.76-0.61,1.39-1.37,1.39l0,0c-0.76,0-1.39-0.61-1.39-1.37l0,0
					c0-0.76,0.61-1.39,1.37-1.39l0,0C67.05,132.28,67.68,132.9,67.68,133.66L67.68,133.66z"/>
			</g>
			<g>
				<g>
					<path class="st114" d="M71.94,77.49l-0.02-4.08l-0.76,0l-0.01-0.93l2.53-0.01l0.01,0.93l-0.76,0l0.02,4.08L71.94,77.49z"/>
					<path class="st114" d="M74.6,77.48l-0.03-5.01l1.02-0.01l0.03,5.01L74.6,77.48z"/>
					<path class="st114" d="M76.81,77.47l-0.03-5.01l1.04-0.01c0.57,0,0.99,0.11,1.25,0.33c0.26,0.22,0.39,0.58,0.39,1.07
						c0,0.36-0.06,0.64-0.19,0.86c-0.13,0.22-0.33,0.37-0.59,0.46l0.97,2.28l-1.05,0.01l-0.83-2.07l0.01,2.07L76.81,77.47z
						 M77.76,74.62c0.01,0,0.03,0,0.06,0c0.03,0,0.05,0,0.06,0c0.22,0,0.38-0.06,0.49-0.18c0.11-0.12,0.16-0.3,0.16-0.54
						c0-0.24-0.05-0.41-0.15-0.52c-0.1-0.11-0.26-0.16-0.48-0.16c-0.03,0-0.06,0-0.08,0c-0.02,0-0.04,0-0.05,0.01L77.76,74.62z"/>
					<path class="st114" d="M80.38,77.44l-0.03-5.01l2.11-0.01l0.01,0.93l-1.14,0.01l0.01,1.01l1.03-0.01l0.01,0.92l-1.03,0.01
						l0.01,1.17l1.14-0.01l0.01,0.98L80.38,77.44z"/>
					<path class="st114" d="M85.26,77.24l-0.01-1.04c0.13,0.11,0.25,0.19,0.37,0.24c0.12,0.05,0.24,0.08,0.37,0.08
						c0.17,0,0.3-0.05,0.4-0.14c0.1-0.09,0.14-0.21,0.14-0.36c0-0.19-0.13-0.39-0.4-0.62c-0.07-0.06-0.13-0.11-0.17-0.14
						c-0.31-0.27-0.52-0.52-0.64-0.74c-0.12-0.22-0.17-0.46-0.18-0.74c0-0.43,0.12-0.78,0.36-1.05c0.24-0.27,0.56-0.4,0.95-0.41
						c0.14,0,0.28,0.02,0.41,0.06c0.14,0.04,0.28,0.1,0.43,0.18l0.01,0.88c-0.18-0.08-0.31-0.14-0.41-0.17s-0.18-0.05-0.26-0.05
						c-0.14,0-0.26,0.05-0.35,0.14c-0.09,0.09-0.14,0.21-0.14,0.36c0,0.13,0.04,0.25,0.1,0.36s0.23,0.27,0.48,0.49
						c0.34,0.29,0.56,0.52,0.65,0.71c0.1,0.19,0.15,0.42,0.15,0.69c0,0.46-0.12,0.82-0.38,1.08c-0.26,0.27-0.61,0.4-1.05,0.4
						c-0.17,0-0.33-0.02-0.47-0.06C85.51,77.38,85.38,77.32,85.26,77.24z"/>
					<path class="st114" d="M88.46,77.4l-0.03-5.01l2.11-0.01l0.01,0.93l-1.14,0.01l0.01,1.01l1.03-0.01l0.01,0.92l-1.03,0.01
						l0.01,1.17l1.14-0.01l0.01,0.98L88.46,77.4z"/>
					<path class="st114" d="M91.59,77.38l-0.03-5.01l1.04-0.01c0.57,0,0.99,0.11,1.25,0.33c0.26,0.22,0.39,0.58,0.39,1.07
						c0,0.36-0.06,0.64-0.19,0.86c-0.13,0.22-0.33,0.37-0.59,0.46l0.97,2.28l-1.05,0.01l-0.83-2.07l0.01,2.07L91.59,77.38z
						 M92.54,74.54c0.01,0,0.03,0,0.06,0c0.03,0,0.05,0,0.06,0c0.22,0,0.38-0.06,0.49-0.18c0.11-0.12,0.16-0.3,0.16-0.54
						c0-0.24-0.05-0.41-0.15-0.52c-0.1-0.11-0.26-0.16-0.48-0.16c-0.03,0-0.06,0-0.08,0c-0.02,0-0.04,0-0.05,0.01L92.54,74.54z"/>
					<path class="st114" d="M96.07,77.35l-1.46-5l1.01-0.01l0.6,2.26c0.06,0.22,0.11,0.46,0.15,0.71c0.04,0.25,0.07,0.52,0.1,0.79
						c0.01-0.26,0.04-0.51,0.08-0.76c0.04-0.25,0.08-0.49,0.14-0.73l0.56-2.29l1.04-0.01l-1.39,5.02L96.07,77.35z"/>
					<path class="st114" d="M98.97,77.34l-0.03-5.01l1.02-0.01l0.03,5.01L98.97,77.34z"/>
					<path class="st114" d="M103.76,77.26c-0.1,0.04-0.19,0.07-0.29,0.09c-0.1,0.02-0.19,0.03-0.29,0.03
						c-0.64,0-1.16-0.23-1.56-0.69c-0.4-0.46-0.6-1.07-0.61-1.82c0-0.78,0.19-1.41,0.57-1.9c0.39-0.48,0.9-0.73,1.52-0.73
						c0.12,0,0.23,0.01,0.33,0.03c0.1,0.02,0.2,0.05,0.3,0.09l0.01,0.94c-0.1-0.04-0.19-0.07-0.28-0.08
						c-0.09-0.02-0.18-0.03-0.27-0.03c-0.33,0-0.6,0.15-0.81,0.45c-0.21,0.3-0.31,0.69-0.31,1.17c0,0.47,0.11,0.85,0.33,1.14
						c0.22,0.29,0.49,0.43,0.83,0.43c0.08,0,0.17-0.01,0.26-0.03s0.18-0.05,0.27-0.09L103.76,77.26z"/>
					<path class="st114" d="M104.73,77.3l-0.03-5.01l2.11-0.01l0.01,0.93l-1.14,0.01l0.01,1.01l1.03-0.01l0.01,0.92l-1.03,0.01
						l0.01,1.17l1.14-0.01l0.01,0.98L104.73,77.3z"/>
				</g>
				<path class="st114" d="M67.34,75.01c0,0.76-0.61,1.39-1.37,1.39l0,0c-0.76,0-1.39-0.61-1.39-1.37l0,0
					c0-0.76,0.61-1.39,1.37-1.39l0,0C66.72,73.63,67.34,74.25,67.34,75.01L67.34,75.01z"/>
			</g>
			<g>
				<g>
					<path class="st114" d="M74.85,103.94c0,0.76-0.15,1.37-0.47,1.82s-0.74,0.68-1.28,0.68c-0.55,0-0.99-0.22-1.3-0.67
						c-0.31-0.45-0.47-1.08-0.47-1.88c0-0.8,0.15-1.43,0.46-1.89c0.31-0.46,0.74-0.69,1.28-0.69c0.55,0,0.98,0.23,1.3,0.69
						C74.68,102.47,74.84,103.11,74.85,103.94z M73.09,105.49c0.26,0,0.45-0.14,0.57-0.4c0.13-0.27,0.19-0.67,0.18-1.21
						c0-0.54-0.07-0.95-0.2-1.21c-0.13-0.27-0.32-0.4-0.58-0.4c-0.26,0-0.45,0.14-0.57,0.4c-0.12,0.27-0.18,0.67-0.18,1.22
						c0,0.54,0.07,0.95,0.2,1.21C72.65,105.36,72.84,105.49,73.09,105.49z"/>
					<path class="st114" d="M75.87,106.37l-0.03-5.01l1.02-0.01l0.03,5.01L75.87,106.37z"/>
					<path class="st114" d="M78.08,106.36l-0.03-5.01l0.99-0.01l0.02,4.03l1.14-0.01l0.01,0.98L78.08,106.36z"/>
					<path class="st114" d="M85.43,106.26c-0.1,0.04-0.19,0.07-0.29,0.09c-0.1,0.02-0.19,0.03-0.29,0.03
						c-0.64,0-1.16-0.23-1.56-0.69s-0.6-1.07-0.61-1.82c0-0.78,0.19-1.41,0.57-1.9c0.39-0.48,0.9-0.73,1.52-0.73
						c0.12,0,0.23,0.01,0.33,0.03c0.1,0.02,0.2,0.05,0.3,0.09l0.01,0.94c-0.1-0.04-0.19-0.07-0.28-0.08
						c-0.09-0.02-0.18-0.03-0.27-0.03c-0.33,0-0.6,0.15-0.81,0.45c-0.21,0.3-0.31,0.69-0.31,1.17c0,0.47,0.11,0.85,0.33,1.14
						c0.22,0.29,0.49,0.43,0.83,0.43c0.08,0,0.17-0.01,0.26-0.03s0.18-0.05,0.27-0.09L85.43,106.26z"/>
					<path class="st114" d="M86.4,106.31l-0.03-5.01l0.99-0.01l0.01,1.85l1.12-0.01l-0.01-1.85l1-0.01l0.03,5.01l-1,0.01l-0.01-2.18
						l-1.12,0.01l0.01,2.18L86.4,106.31z"/>
					<path class="st114" d="M90.21,106.29l1.14-5.01l1.05-0.01l1.14,5l-1,0.01l-0.17-0.88l-1.01,0.01l-0.15,0.88L90.21,106.29z
						 M91.54,104.62l0.67,0c-0.07-0.35-0.13-0.72-0.19-1.1c-0.06-0.38-0.11-0.79-0.15-1.21c-0.05,0.38-0.1,0.76-0.15,1.14
						C91.66,103.83,91.6,104.23,91.54,104.62z"/>
					<path class="st114" d="M94.25,106.26l-0.03-5.01l1.01-0.01l1.03,2.69c0.03,0.09,0.07,0.22,0.13,0.4
						c0.05,0.18,0.12,0.39,0.19,0.63c-0.05-0.35-0.1-0.68-0.12-0.98c-0.03-0.3-0.04-0.57-0.04-0.83l-0.01-1.92l0.93-0.01l0.03,5.01
						l-0.93,0.01l-1.11-2.8c-0.02-0.04-0.07-0.21-0.15-0.51c-0.04-0.14-0.07-0.24-0.09-0.32c0.02,0.19,0.04,0.41,0.06,0.66
						c0.01,0.24,0.02,0.53,0.02,0.87l0.01,2.11L94.25,106.26z"/>
					<path class="st114" d="M99.9,103.4l1.86-0.01c0,0.03,0,0.06,0,0.11c0,0.05,0,0.09,0,0.11c0,0.84-0.15,1.49-0.45,1.96
						c-0.3,0.47-0.73,0.71-1.27,0.71c-0.53,0-0.95-0.22-1.26-0.68c-0.31-0.46-0.47-1.08-0.47-1.87c0-0.8,0.15-1.43,0.47-1.89
						c0.32-0.46,0.75-0.69,1.31-0.7c0.38,0,0.69,0.11,0.96,0.32s0.46,0.54,0.58,0.95l-0.9,0.42c-0.04-0.25-0.12-0.43-0.22-0.56
						c-0.11-0.12-0.25-0.18-0.43-0.18c-0.27,0-0.46,0.13-0.59,0.39c-0.12,0.26-0.18,0.67-0.18,1.23c0,0.53,0.07,0.94,0.2,1.21
						c0.13,0.27,0.33,0.41,0.58,0.41c0.22,0,0.39-0.1,0.52-0.28c0.12-0.19,0.18-0.45,0.18-0.79l-0.89,0.01L99.9,103.4z"/>
					<path class="st114" d="M102.76,106.21l-0.03-5.01l2.11-0.01l0.01,0.93l-1.14,0.01l0.01,1.01l1.03-0.01l0.01,0.92l-1.03,0.01
						l0.01,1.17l1.14-0.01l0.01,0.98L102.76,106.21z"/>
				</g>
				<path class="st114" d="M67.51,103.91c0,0.76-0.61,1.39-1.37,1.39l0,0c-0.76,0-1.39-0.61-1.39-1.37l0,0
					c0-0.76,0.61-1.39,1.37-1.39l0,0C66.88,102.53,67.51,103.15,67.51,103.91L67.51,103.91z"/>
			</g>
			<g>
				<path class="st114" d="M131.19,77.21l-12.26,0.07l-0.07-12.26l12.26-0.07L131.19,77.21z M119.88,76.32l10.34-0.06l-0.06-10.34
					l-10.34,0.06L119.88,76.32z"/>
			</g>
			<g>
				<path class="st114" d="M131.52,135.86l-12.26,0.07l-0.07-12.26l12.26-0.07L131.52,135.86z M120.22,134.97l10.34-0.06
					l-0.06-10.34l-10.34,0.06L120.22,134.97z"/>
			</g>
			<g>
				<path class="st114" d="M131.35,106.11l-12.26,0.07l-0.07-12.26l12.26-0.07L131.35,106.11z M120.04,105.21l10.34-0.06
					l-0.06-10.34l-10.34,0.06L120.04,105.21z"/>
			</g>
			<g>
				
					<rect x="70.65" y="81.64" transform="matrix(1 -5.761332e-03 5.761332e-03 1 -0.4724 0.582)" class="st117" width="60.28" height="1.28"/>
				
					<rect x="70.68" y="86.45" transform="matrix(1 -5.761337e-03 5.761337e-03 1 -0.5001 0.5823)" class="st117" width="60.28" height="1.28"/>
			</g>
			<g>
				
					<rect x="70.81" y="109.54" transform="matrix(1 -5.761332e-03 5.761332e-03 1 -0.6331 0.5834)" class="st117" width="60.28" height="1.28"/>
				
					<rect x="70.84" y="114.35" transform="matrix(1 -5.761332e-03 5.761332e-03 1 -0.6608 0.5837)" class="st117" width="60.28" height="1.28"/>
				
					<rect x="70.87" y="119.16" transform="matrix(1 -5.761332e-03 5.761332e-03 1 -0.6885 0.5839)" class="st117" width="60.28" height="1.28"/>
			</g>
			<g>
				
					<rect x="70.98" y="139.04" transform="matrix(1 -5.761332e-03 5.761332e-03 1 -0.803 0.5849)" class="st117" width="60.28" height="1.28"/>
				
					<rect x="71.01" y="143.85" transform="matrix(1 -5.761332e-03 5.761332e-03 1 -0.8308 0.5851)" class="st117" width="60.28" height="1.28"/>
				
					<rect x="71.03" y="148.65" transform="matrix(1 -5.761332e-03 5.761332e-03 1 -0.8585 0.5854)" class="st117" width="60.28" height="1.28"/>
				<polyline class="st117" points="71.07,154.92 71.06,153.64 131.34,153.29 131.35,154.57 				"/>
			</g>
			<g>
				<path class="st118" d="M120.87,71.29c1.77,1.06,3.53,2.13,5.3,3.19c0.36,0.22,0.86,0.32,1.21,0c2.7-2.49,5.4-4.97,8.1-7.46
					c0.93-0.86-0.27-2.42-1.21-1.56c-2.7,2.49-5.4,4.97-8.1,7.46c0.4,0,0.8,0,1.21,0c-1.77-1.06-3.53-2.13-5.3-3.19
					C120.99,69.07,119.78,70.63,120.87,71.29L120.87,71.29z"/>
			</g>
			<g>
				<path class="st118" d="M121.74,100.06c1.77,1.06,3.53,2.13,5.3,3.19c0.36,0.22,0.86,0.32,1.21,0c2.7-2.49,5.4-4.97,8.1-7.46
					c0.93-0.86-0.27-2.42-1.21-1.56c-2.7,2.49-5.4,4.97-8.1,7.46c0.4,0,0.8,0,1.21,0c-1.77-1.06-3.53-2.13-5.3-3.19
					C121.86,97.84,120.65,99.4,121.74,100.06L121.74,100.06z"/>
			</g>
			<g>
				<path class="st118" d="M121.91,129.4c1.77,1.06,3.53,2.13,5.3,3.19c0.36,0.22,0.86,0.32,1.21,0c2.7-2.49,5.4-4.97,8.1-7.46
					c0.93-0.86-0.27-2.42-1.21-1.56c-2.7,2.49-5.4,4.97-8.1,7.46c0.4,0,0.8,0,1.21,0c-1.77-1.06-3.53-2.13-5.3-3.19
					C122.03,127.18,120.82,128.74,121.91,129.4L121.91,129.4z"/>
			</g>
		</g>
		<g>
			<path class="st106" d="M115.05,39.88l-3.13,0.02l-0.02-3.38c-0.01-1.07-0.89-1.94-1.96-1.93L88.99,34.7
				c-1.07,0.01-1.94,0.89-1.93,1.96l0.02,3.38l-3.13,0.02c-1.59,0.01-2.88,1.32-2.87,2.9l0.06,10.26c0.01,1.59,1.32,2.88,2.9,2.87
				l31.1-0.18c1.59-0.01,2.88-1.32,2.87-2.9l-0.06-10.26C117.95,41.16,116.64,39.87,115.05,39.88z"/>
			<path class="st115" d="M115.05,38.91l-3.13,0.02l-0.02-3.38c-0.01-1.07-0.89-1.94-1.96-1.93l-20.96,0.12
				c-1.07,0.01-1.94,0.89-1.93,1.96l0.02,3.38l-3.13,0.02c-1.59,0.01-2.88,1.32-2.87,2.9l0.06,10.26c0.01,1.59,1.32,2.88,2.9,2.87
				l31.1-0.18c1.59-0.01,2.88-1.32,2.87-2.9l-0.06-10.26C117.94,40.2,116.64,38.9,115.05,38.91z"/>
			<path class="st116" d="M115.44,38.95l-31.88,0.18c-1.4,0.2-2.49,1.41-2.48,2.86l0.06,10.26c0.01,1.59,1.32,2.88,2.9,2.87
				l31.1-0.18c1.59-0.01,2.88-1.32,2.87-2.9l-0.06-10.26C117.94,40.33,116.84,39.13,115.44,38.95z"/>
		</g>
		<g>
			<g>
				<path class="st114" d="M71.51,136.15l-0.03-5.01l2.11-0.01l0.01,0.93l-1.14,0.01l0.01,1.01l1.03-0.01l0.01,0.92l-1.03,0.01
					l0.01,1.17l1.14-0.01l0.01,0.98L71.51,136.15z"/>
				<path class="st114" d="M74.65,136.13l-0.03-5.01l1.01-0.01l1.03,2.69c0.03,0.09,0.07,0.22,0.13,0.4
					c0.05,0.18,0.12,0.39,0.19,0.63c-0.05-0.35-0.1-0.68-0.12-0.98c-0.03-0.3-0.04-0.57-0.04-0.83l-0.01-1.92l0.93-0.01l0.03,5.01
					l-0.93,0.01l-1.11-2.8c-0.02-0.04-0.07-0.21-0.15-0.51c-0.04-0.14-0.07-0.24-0.09-0.32c0.02,0.19,0.04,0.41,0.06,0.66
					c0.01,0.24,0.02,0.53,0.02,0.87l0.01,2.11L74.65,136.13z"/>
				<path class="st114" d="M80.29,133.27l1.86-0.01c0,0.03,0,0.06,0,0.11c0,0.05,0,0.09,0,0.11c0,0.84-0.15,1.49-0.45,1.96
					c-0.3,0.47-0.73,0.71-1.27,0.71c-0.53,0-0.95-0.22-1.26-0.68c-0.31-0.46-0.47-1.08-0.47-1.87c0-0.8,0.15-1.43,0.47-1.89
					c0.32-0.46,0.75-0.69,1.31-0.7c0.38,0,0.69,0.11,0.96,0.32c0.26,0.22,0.46,0.54,0.58,0.95l-0.9,0.42
					c-0.04-0.25-0.12-0.43-0.22-0.56c-0.11-0.12-0.25-0.18-0.43-0.18c-0.27,0-0.46,0.13-0.59,0.39c-0.12,0.26-0.18,0.67-0.18,1.23
					c0,0.53,0.07,0.94,0.2,1.21c0.13,0.27,0.33,0.41,0.58,0.41c0.22,0,0.39-0.1,0.52-0.28c0.12-0.19,0.18-0.45,0.18-0.79l-0.89,0.01
					L80.29,133.27z"/>
				<path class="st114" d="M83.19,136.08l-0.03-5.01l1.02-0.01l0.03,5.01L83.19,136.08z"/>
				<path class="st114" d="M85.4,136.07l-0.03-5.01l1.01-0.01l1.03,2.69c0.03,0.09,0.07,0.22,0.13,0.4
					c0.05,0.18,0.12,0.39,0.19,0.63c-0.05-0.35-0.1-0.68-0.12-0.98c-0.03-0.3-0.04-0.57-0.04-0.83l-0.01-1.92l0.93-0.01l0.03,5.01
					l-0.93,0.01l-1.11-2.8c-0.02-0.04-0.07-0.21-0.15-0.51c-0.04-0.14-0.07-0.24-0.09-0.32c0.02,0.19,0.04,0.41,0.06,0.66
					c0.01,0.24,0.02,0.53,0.02,0.87l0.01,2.11L85.4,136.07z"/>
				<path class="st114" d="M89.64,136.04l-0.03-5.01l2.11-0.01l0.01,0.93l-1.14,0.01l0.01,1.01l1.03-0.01l0.01,0.92l-1.03,0.01
					l0.01,1.17l1.14-0.01l0.01,0.98L89.64,136.04z"/>
				<path class="st114" d="M94.52,135.84l-0.01-1.04c0.13,0.11,0.25,0.19,0.37,0.24c0.12,0.05,0.24,0.08,0.37,0.08
					c0.17,0,0.3-0.05,0.4-0.14c0.1-0.09,0.14-0.21,0.14-0.36c0-0.19-0.13-0.39-0.4-0.62c-0.07-0.06-0.13-0.11-0.17-0.14
					c-0.31-0.27-0.52-0.52-0.64-0.74c-0.12-0.22-0.17-0.46-0.18-0.74c0-0.43,0.12-0.78,0.36-1.05c0.24-0.27,0.56-0.4,0.95-0.41
					c0.14,0,0.28,0.02,0.41,0.06c0.14,0.04,0.28,0.1,0.43,0.18l0.01,0.88c-0.18-0.08-0.31-0.14-0.41-0.17
					c-0.1-0.03-0.18-0.05-0.26-0.05c-0.14,0-0.26,0.05-0.35,0.14c-0.09,0.09-0.14,0.21-0.14,0.36c0,0.13,0.04,0.25,0.1,0.36
					c0.07,0.11,0.23,0.27,0.48,0.49c0.34,0.29,0.56,0.52,0.65,0.71c0.1,0.19,0.15,0.42,0.15,0.69c0,0.46-0.12,0.82-0.38,1.08
					c-0.26,0.27-0.61,0.4-1.05,0.4c-0.17,0-0.33-0.02-0.47-0.06C94.77,135.98,94.64,135.92,94.52,135.84z"/>
				<path class="st114" d="M97.72,136l-0.03-5.01l2.11-0.01l0.01,0.93l-1.14,0.01l0.01,1.01l1.03-0.01l0.01,0.92l-1.03,0.01
					l0.01,1.17l1.14-0.01l0.01,0.98L97.72,136z"/>
				<path class="st114" d="M100.86,135.98l-0.03-5.01l1.04-0.01c0.57,0,0.99,0.11,1.25,0.33c0.26,0.22,0.39,0.58,0.39,1.07
					c0,0.36-0.06,0.64-0.19,0.86c-0.13,0.22-0.33,0.37-0.59,0.46l0.97,2.28l-1.05,0.01l-0.83-2.07l0.01,2.07L100.86,135.98z
					 M101.81,133.14c0.01,0,0.03,0,0.06,0c0.03,0,0.05,0,0.06,0c0.22,0,0.38-0.06,0.49-0.18c0.11-0.12,0.16-0.3,0.16-0.54
					c0-0.24-0.05-0.41-0.15-0.52c-0.1-0.11-0.26-0.16-0.48-0.16c-0.03,0-0.06,0-0.08,0c-0.02,0-0.04,0-0.05,0.01L101.81,133.14z"/>
				<path class="st114" d="M105.33,135.95l-1.46-5l1.01-0.01l0.6,2.26c0.06,0.22,0.11,0.46,0.15,0.71s0.07,0.52,0.1,0.79
					c0.01-0.26,0.04-0.51,0.08-0.76c0.04-0.25,0.08-0.49,0.14-0.73l0.56-2.29l1.04-0.01l-1.39,5.02L105.33,135.95z"/>
				<path class="st114" d="M108.24,135.93l-0.03-5.01l1.02-0.01l0.03,5.01L108.24,135.93z"/>
				<path class="st114" d="M113.02,135.85c-0.1,0.04-0.19,0.07-0.29,0.09c-0.1,0.02-0.19,0.03-0.29,0.03
					c-0.64,0-1.16-0.23-1.56-0.69c-0.4-0.46-0.6-1.07-0.61-1.82c0-0.78,0.19-1.41,0.57-1.9c0.39-0.48,0.9-0.73,1.52-0.73
					c0.12,0,0.23,0.01,0.33,0.03s0.2,0.05,0.3,0.09l0.01,0.94c-0.1-0.04-0.19-0.07-0.28-0.08c-0.09-0.02-0.18-0.03-0.27-0.03
					c-0.33,0-0.6,0.15-0.81,0.45c-0.21,0.3-0.31,0.69-0.31,1.17c0,0.47,0.11,0.85,0.33,1.14c0.22,0.29,0.49,0.43,0.83,0.43
					c0.08,0,0.17-0.01,0.26-0.03c0.09-0.02,0.18-0.05,0.27-0.09L113.02,135.85z"/>
				<path class="st114" d="M113.99,135.9l-0.03-5.01l2.11-0.01l0.01,0.93l-1.14,0.01l0.01,1.01l1.03-0.01l0.01,0.92l-1.03,0.01
					l0.01,1.17l1.14-0.01l0.01,0.98L113.99,135.9z"/>
			</g>
			<path class="st114" d="M67.68,133.66c0,0.76-0.61,1.39-1.37,1.39l0,0c-0.76,0-1.39-0.61-1.39-1.37l0,0
				c0-0.76,0.61-1.39,1.37-1.39l0,0C67.05,132.28,67.68,132.9,67.68,133.66L67.68,133.66z"/>
		</g>
		<g>
			<g>
				<path class="st114" d="M71.94,77.49l-0.02-4.08l-0.76,0l-0.01-0.93l2.53-0.01l0.01,0.93l-0.76,0l0.02,4.08L71.94,77.49z"/>
				<path class="st114" d="M74.6,77.48l-0.03-5.01l1.02-0.01l0.03,5.01L74.6,77.48z"/>
				<path class="st114" d="M76.81,77.47l-0.03-5.01l1.04-0.01c0.57,0,0.99,0.11,1.25,0.33c0.26,0.22,0.39,0.58,0.39,1.07
					c0,0.36-0.06,0.64-0.19,0.86c-0.13,0.22-0.33,0.37-0.59,0.46l0.97,2.28l-1.05,0.01l-0.83-2.07l0.01,2.07L76.81,77.47z
					 M77.76,74.62c0.01,0,0.03,0,0.06,0c0.03,0,0.05,0,0.06,0c0.22,0,0.38-0.06,0.49-0.18c0.11-0.12,0.16-0.3,0.16-0.54
					c0-0.24-0.05-0.41-0.15-0.52c-0.1-0.11-0.26-0.16-0.48-0.16c-0.03,0-0.06,0-0.08,0c-0.02,0-0.04,0-0.05,0.01L77.76,74.62z"/>
				<path class="st114" d="M80.38,77.44l-0.03-5.01l2.11-0.01l0.01,0.93l-1.14,0.01l0.01,1.01l1.03-0.01l0.01,0.92l-1.03,0.01
					l0.01,1.17l1.14-0.01l0.01,0.98L80.38,77.44z"/>
				<path class="st114" d="M85.26,77.24l-0.01-1.04c0.13,0.11,0.25,0.19,0.37,0.24c0.12,0.05,0.24,0.08,0.37,0.08
					c0.17,0,0.3-0.05,0.4-0.14c0.1-0.09,0.14-0.21,0.14-0.36c0-0.19-0.13-0.39-0.4-0.62c-0.07-0.06-0.13-0.11-0.17-0.14
					c-0.31-0.27-0.52-0.52-0.64-0.74c-0.12-0.22-0.17-0.46-0.18-0.74c0-0.43,0.12-0.78,0.36-1.05c0.24-0.27,0.56-0.4,0.95-0.41
					c0.14,0,0.28,0.02,0.41,0.06c0.14,0.04,0.28,0.1,0.43,0.18l0.01,0.88c-0.18-0.08-0.31-0.14-0.41-0.17s-0.18-0.05-0.26-0.05
					c-0.14,0-0.26,0.05-0.35,0.14c-0.09,0.09-0.14,0.21-0.14,0.36c0,0.13,0.04,0.25,0.1,0.36s0.23,0.27,0.48,0.49
					c0.34,0.29,0.56,0.52,0.65,0.71c0.1,0.19,0.15,0.42,0.15,0.69c0,0.46-0.12,0.82-0.38,1.08c-0.26,0.27-0.61,0.4-1.05,0.4
					c-0.17,0-0.33-0.02-0.47-0.06C85.51,77.38,85.38,77.32,85.26,77.24z"/>
				<path class="st114" d="M88.46,77.4l-0.03-5.01l2.11-0.01l0.01,0.93l-1.14,0.01l0.01,1.01l1.03-0.01l0.01,0.92l-1.03,0.01
					l0.01,1.17l1.14-0.01l0.01,0.98L88.46,77.4z"/>
				<path class="st114" d="M91.59,77.38l-0.03-5.01l1.04-0.01c0.57,0,0.99,0.11,1.25,0.33c0.26,0.22,0.39,0.58,0.39,1.07
					c0,0.36-0.06,0.64-0.19,0.86c-0.13,0.22-0.33,0.37-0.59,0.46l0.97,2.28l-1.05,0.01l-0.83-2.07l0.01,2.07L91.59,77.38z
					 M92.54,74.54c0.01,0,0.03,0,0.06,0c0.03,0,0.05,0,0.06,0c0.22,0,0.38-0.06,0.49-0.18c0.11-0.12,0.16-0.3,0.16-0.54
					c0-0.24-0.05-0.41-0.15-0.52c-0.1-0.11-0.26-0.16-0.48-0.16c-0.03,0-0.06,0-0.08,0c-0.02,0-0.04,0-0.05,0.01L92.54,74.54z"/>
				<path class="st114" d="M96.07,77.35l-1.46-5l1.01-0.01l0.6,2.26c0.06,0.22,0.11,0.46,0.15,0.71c0.04,0.25,0.07,0.52,0.1,0.79
					c0.01-0.26,0.04-0.51,0.08-0.76c0.04-0.25,0.08-0.49,0.14-0.73l0.56-2.29l1.04-0.01l-1.39,5.02L96.07,77.35z"/>
				<path class="st114" d="M98.97,77.34l-0.03-5.01l1.02-0.01l0.03,5.01L98.97,77.34z"/>
				<path class="st114" d="M103.76,77.26c-0.1,0.04-0.19,0.07-0.29,0.09c-0.1,0.02-0.19,0.03-0.29,0.03c-0.64,0-1.16-0.23-1.56-0.69
					c-0.4-0.46-0.6-1.07-0.61-1.82c0-0.78,0.19-1.41,0.57-1.9c0.39-0.48,0.9-0.73,1.52-0.73c0.12,0,0.23,0.01,0.33,0.03
					c0.1,0.02,0.2,0.05,0.3,0.09l0.01,0.94c-0.1-0.04-0.19-0.07-0.28-0.08c-0.09-0.02-0.18-0.03-0.27-0.03
					c-0.33,0-0.6,0.15-0.81,0.45c-0.21,0.3-0.31,0.69-0.31,1.17c0,0.47,0.11,0.85,0.33,1.14c0.22,0.29,0.49,0.43,0.83,0.43
					c0.08,0,0.17-0.01,0.26-0.03s0.18-0.05,0.27-0.09L103.76,77.26z"/>
				<path class="st114" d="M104.73,77.3l-0.03-5.01l2.11-0.01l0.01,0.93l-1.14,0.01l0.01,1.01l1.03-0.01l0.01,0.92l-1.03,0.01
					l0.01,1.17l1.14-0.01l0.01,0.98L104.73,77.3z"/>
			</g>
			<path class="st114" d="M67.34,75.01c0,0.76-0.61,1.39-1.37,1.39l0,0c-0.76,0-1.39-0.61-1.39-1.37l0,0c0-0.76,0.61-1.39,1.37-1.39
				l0,0C66.72,73.63,67.34,74.25,67.34,75.01L67.34,75.01z"/>
		</g>
		<g>
			<g>
				<path class="st114" d="M74.85,103.94c0,0.76-0.15,1.37-0.47,1.82s-0.74,0.68-1.28,0.68c-0.55,0-0.99-0.22-1.3-0.67
					c-0.31-0.45-0.47-1.08-0.47-1.88c0-0.8,0.15-1.43,0.46-1.89c0.31-0.46,0.74-0.69,1.28-0.69c0.55,0,0.98,0.23,1.3,0.69
					C74.68,102.47,74.84,103.11,74.85,103.94z M73.09,105.49c0.26,0,0.45-0.14,0.57-0.4c0.13-0.27,0.19-0.67,0.18-1.21
					c0-0.54-0.07-0.95-0.2-1.21c-0.13-0.27-0.32-0.4-0.58-0.4c-0.26,0-0.45,0.14-0.57,0.4c-0.12,0.27-0.18,0.67-0.18,1.22
					c0,0.54,0.07,0.95,0.2,1.21C72.65,105.36,72.84,105.49,73.09,105.49z"/>
				<path class="st114" d="M75.87,106.37l-0.03-5.01l1.02-0.01l0.03,5.01L75.87,106.37z"/>
				<path class="st114" d="M78.08,106.36l-0.03-5.01l0.99-0.01l0.02,4.03l1.14-0.01l0.01,0.98L78.08,106.36z"/>
				<path class="st114" d="M85.43,106.26c-0.1,0.04-0.19,0.07-0.29,0.09c-0.1,0.02-0.19,0.03-0.29,0.03c-0.64,0-1.16-0.23-1.56-0.69
					s-0.6-1.07-0.61-1.82c0-0.78,0.19-1.41,0.57-1.9c0.39-0.48,0.9-0.73,1.52-0.73c0.12,0,0.23,0.01,0.33,0.03
					c0.1,0.02,0.2,0.05,0.3,0.09l0.01,0.94c-0.1-0.04-0.19-0.07-0.28-0.08c-0.09-0.02-0.18-0.03-0.27-0.03
					c-0.33,0-0.6,0.15-0.81,0.45c-0.21,0.3-0.31,0.69-0.31,1.17c0,0.47,0.11,0.85,0.33,1.14c0.22,0.29,0.49,0.43,0.83,0.43
					c0.08,0,0.17-0.01,0.26-0.03s0.18-0.05,0.27-0.09L85.43,106.26z"/>
				<path class="st114" d="M86.4,106.31l-0.03-5.01l0.99-0.01l0.01,1.85l1.12-0.01l-0.01-1.85l1-0.01l0.03,5.01l-1,0.01l-0.01-2.18
					l-1.12,0.01l0.01,2.18L86.4,106.31z"/>
				<path class="st114" d="M90.21,106.29l1.14-5.01l1.05-0.01l1.14,5l-1,0.01l-0.17-0.88l-1.01,0.01l-0.15,0.88L90.21,106.29z
					 M91.54,104.62l0.67,0c-0.07-0.35-0.13-0.72-0.19-1.1c-0.06-0.38-0.11-0.79-0.15-1.21c-0.05,0.38-0.1,0.76-0.15,1.14
					C91.66,103.83,91.6,104.23,91.54,104.62z"/>
				<path class="st114" d="M94.25,106.26l-0.03-5.01l1.01-0.01l1.03,2.69c0.03,0.09,0.07,0.22,0.13,0.4
					c0.05,0.18,0.12,0.39,0.19,0.63c-0.05-0.35-0.1-0.68-0.12-0.98c-0.03-0.3-0.04-0.57-0.04-0.83l-0.01-1.92l0.93-0.01l0.03,5.01
					l-0.93,0.01l-1.11-2.8c-0.02-0.04-0.07-0.21-0.15-0.51c-0.04-0.14-0.07-0.24-0.09-0.32c0.02,0.19,0.04,0.41,0.06,0.66
					c0.01,0.24,0.02,0.53,0.02,0.87l0.01,2.11L94.25,106.26z"/>
				<path class="st114" d="M99.9,103.4l1.86-0.01c0,0.03,0,0.06,0,0.11c0,0.05,0,0.09,0,0.11c0,0.84-0.15,1.49-0.45,1.96
					c-0.3,0.47-0.73,0.71-1.27,0.71c-0.53,0-0.95-0.22-1.26-0.68c-0.31-0.46-0.47-1.08-0.47-1.87c0-0.8,0.15-1.43,0.47-1.89
					c0.32-0.46,0.75-0.69,1.31-0.7c0.38,0,0.69,0.11,0.96,0.32s0.46,0.54,0.58,0.95l-0.9,0.42c-0.04-0.25-0.12-0.43-0.22-0.56
					c-0.11-0.12-0.25-0.18-0.43-0.18c-0.27,0-0.46,0.13-0.59,0.39c-0.12,0.26-0.18,0.67-0.18,1.23c0,0.53,0.07,0.94,0.2,1.21
					c0.13,0.27,0.33,0.41,0.58,0.41c0.22,0,0.39-0.1,0.52-0.28c0.12-0.19,0.18-0.45,0.18-0.79l-0.89,0.01L99.9,103.4z"/>
				<path class="st114" d="M102.76,106.21l-0.03-5.01l2.11-0.01l0.01,0.93l-1.14,0.01l0.01,1.01l1.03-0.01l0.01,0.92l-1.03,0.01
					l0.01,1.17l1.14-0.01l0.01,0.98L102.76,106.21z"/>
			</g>
			<path class="st114" d="M67.51,103.91c0,0.76-0.61,1.39-1.37,1.39l0,0c-0.76,0-1.39-0.61-1.39-1.37l0,0
				c0-0.76,0.61-1.39,1.37-1.39l0,0C66.88,102.53,67.51,103.15,67.51,103.91L67.51,103.91z"/>
		</g>
		<g>
			<path class="st114" d="M131.19,77.21l-12.26,0.07l-0.07-12.26l12.26-0.07L131.19,77.21z M119.88,76.32l10.34-0.06l-0.06-10.34
				l-10.34,0.06L119.88,76.32z"/>
		</g>
		<g>
			<path class="st114" d="M131.52,135.86l-12.26,0.07l-0.07-12.26l12.26-0.07L131.52,135.86z M120.22,134.97l10.34-0.06l-0.06-10.34
				l-10.34,0.06L120.22,134.97z"/>
		</g>
		<g>
			<path class="st114" d="M131.35,106.11l-12.26,0.07l-0.07-12.26l12.26-0.07L131.35,106.11z M120.04,105.21l10.34-0.06l-0.06-10.34
				l-10.34,0.06L120.04,105.21z"/>
		</g>
		<g>
			
				<rect x="70.65" y="81.64" transform="matrix(1 -5.761332e-03 5.761332e-03 1 -0.4724 0.582)" class="st117" width="60.28" height="1.28"/>
			
				<rect x="70.68" y="86.45" transform="matrix(1 -5.761337e-03 5.761337e-03 1 -0.5001 0.5823)" class="st117" width="60.28" height="1.28"/>
		</g>
		<g>
			
				<rect x="70.81" y="109.54" transform="matrix(1 -5.761332e-03 5.761332e-03 1 -0.6331 0.5834)" class="st117" width="60.28" height="1.28"/>
			
				<rect x="70.84" y="114.35" transform="matrix(1 -5.761332e-03 5.761332e-03 1 -0.6608 0.5837)" class="st117" width="60.28" height="1.28"/>
			
				<rect x="70.87" y="119.16" transform="matrix(1 -5.761332e-03 5.761332e-03 1 -0.6885 0.5839)" class="st117" width="60.28" height="1.28"/>
		</g>
		<g>
			
				<rect x="70.98" y="139.04" transform="matrix(1 -5.761332e-03 5.761332e-03 1 -0.803 0.5849)" class="st117" width="60.28" height="1.28"/>
			
				<rect x="71.01" y="143.85" transform="matrix(1 -5.761332e-03 5.761332e-03 1 -0.8308 0.5851)" class="st117" width="60.28" height="1.28"/>
			
				<rect x="71.03" y="148.65" transform="matrix(1 -5.761332e-03 5.761332e-03 1 -0.8585 0.5854)" class="st117" width="60.28" height="1.28"/>
			<polyline class="st117" points="71.07,154.92 71.06,153.64 131.34,153.29 131.35,154.57 			"/>
		</g>
		<g>
			<path class="st118" d="M120.87,71.29c1.77,1.06,3.53,2.13,5.3,3.19c0.36,0.22,0.86,0.32,1.21,0c2.7-2.49,5.4-4.97,8.1-7.46
				c0.93-0.86-0.27-2.42-1.21-1.56c-2.7,2.49-5.4,4.97-8.1,7.46c0.4,0,0.8,0,1.21,0c-1.77-1.06-3.53-2.13-5.3-3.19
				C120.99,69.07,119.78,70.63,120.87,71.29L120.87,71.29z"/>
		</g>
		<g>
			<path class="st118" d="M121.74,100.06c1.77,1.06,3.53,2.13,5.3,3.19c0.36,0.22,0.86,0.32,1.21,0c2.7-2.49,5.4-4.97,8.1-7.46
				c0.93-0.86-0.27-2.42-1.21-1.56c-2.7,2.49-5.4,4.97-8.1,7.46c0.4,0,0.8,0,1.21,0c-1.77-1.06-3.53-2.13-5.3-3.19
				C121.86,97.84,120.65,99.4,121.74,100.06L121.74,100.06z"/>
		</g>
		<g>
			<path class="st118" d="M121.91,129.4c1.77,1.06,3.53,2.13,5.3,3.19c0.36,0.22,0.86,0.32,1.21,0c2.7-2.49,5.4-4.97,8.1-7.46
				c0.93-0.86-0.27-2.42-1.21-1.56c-2.7,2.49-5.4,4.97-8.1,7.46c0.4,0,0.8,0,1.21,0c-1.77-1.06-3.53-2.13-5.3-3.19
				C122.03,127.18,120.82,128.74,121.91,129.4L121.91,129.4z"/>
		</g>
	</g>
</g>
</svg>
