<?xml version="1.0" encoding="utf-8"?>
<!-- Generator: Adobe Illustrator 23.0.1, SVG Export Plug-In . SVG Version: 6.00 Build 0)  -->
<svg version="1.1" id="Layer_1" xmlns="http://www.w3.org/2000/svg" xmlns:xlink="http://www.w3.org/1999/xlink" x="0px" y="0px"
	 viewBox="0 0 200 200" style="enable-background:new 0 0 200 200;" xml:space="preserve">
<style type="text/css">
	.st0{fill:#E6E6E6;}
	.st1{clip-path:url(#SVGID_2_);}
	.st2{fill:#D58A73;}
	.st3{fill:#FFFFFF;}
	.st4{fill:#D78C74;}
	.st5{opacity:0.05;}
	.st6{fill:#381911;}
	.st7{fill:#E5A185;}
	.st8{opacity:0.38;}
	.st9{fill:#E5A084;}
	.st10{fill:#E59F83;}
	.st11{fill:#E49E83;}
	.st12{fill:#E49D82;}
	.st13{fill:#E49C81;}
	.st14{fill:#E49B80;}
	.st15{fill:#E49A80;}
	.st16{fill:#E3997F;}
	.st17{fill:#E3987E;}
	.st18{fill:#E3977D;}
	.st19{fill:#E3967C;}
	.st20{fill:#E2957C;}
	.st21{fill:#E2947B;}
	.st22{fill:#E2937A;}
	.st23{fill:#E29279;}
	.st24{fill:#E29179;}
	.st25{fill:#E19078;}
	.st26{fill:#E18F77;}
	.st27{fill:#E18E76;}
	.st28{fill:#E18D75;}
	.st29{fill:#E18C75;}
	.st30{fill:#E08B74;}
	.st31{fill:#E08A73;}
	.st32{fill:#E08972;}
	.st33{fill:#E08872;}
	.st34{fill:#DF8771;}
	.st35{fill:#DF8670;}
	.st36{fill:#DF856F;}
	.st37{fill:#DF846F;}
	.st38{fill:#DF836E;}
	.st39{fill:#DE826D;}
	.st40{fill:#DE816C;}
	.st41{fill:#DE806B;}
	.st42{fill:#DE7F6B;}
	.st43{fill:#DE7E6A;}
	.st44{fill:#DD7D69;}
	.st45{fill:#DD7C68;}
	.st46{fill:#DD7B68;}
	.st47{fill:#DD7A67;}
	.st48{fill:#DD7A66;}
	.st49{fill:#DC7965;}
	.st50{fill:#DC7864;}
	.st51{fill:#DC7764;}
	.st52{fill:#DC7663;}
	.st53{fill:#DB7562;}
	.st54{fill:#DB7461;}
	.st55{fill:#DB7361;}
	.st56{fill:#DB7260;}
	.st57{fill:#DB715F;}
	.st58{fill:#DA705E;}
	.st59{fill:#DA6F5D;}
	.st60{fill:#DA6E5D;}
	.st61{fill:#DA6D5C;}
	.st62{fill:#DA6C5B;}
	.st63{fill:#D96B5A;}
	.st64{fill:#D96A5A;}
	.st65{fill:#D96959;}
	.st66{fill:#D96858;}
	.st67{fill:#D86757;}
	.st68{fill:#D86657;}
	.st69{fill:#D86556;}
	.st70{fill:#D86455;}
	.st71{fill:#D86354;}
	.st72{fill:#D76253;}
	.st73{fill:#D76153;}
	.st74{fill:#D76052;}
	.st75{fill:#D75F51;}
	.st76{fill:#D75E50;}
	.st77{fill:#D65D50;}
	.st78{fill:#D65C4F;}
	.st79{fill:#D65B4E;}
	.st80{fill:#D65A4D;}
	.st81{fill:#D5594C;}
	.st82{fill:#D5584C;}
	.st83{fill:#D5574B;}
	.st84{fill:#D5564A;}
	.st85{fill:#D55549;}
	.st86{fill:#D45449;}
	.st87{fill:#D45348;}
	.st88{fill:#D45247;}
	.st89{fill:url(#XMLID_8_);}
	.st90{fill:url(#XMLID_9_);}
	.st91{fill:#422E26;}
	.st92{fill:#6C332E;}
	.st93{opacity:0.35;fill:#C3BBA5;}
	.st94{opacity:0.2;fill:#FFFFFF;}
	.st95{fill:#4F372D;}
	.st96{opacity:0.14;fill:#422E26;}
	.st97{opacity:0.12;fill:#FFFFFF;}
	.st98{opacity:0.16;}
	.st99{fill:#465884;}
	.st100{opacity:0.04;}
	.st101{fill:#334363;}
	.st102{fill:#4C618C;}
	.st103{fill:#4F648E;}
	.st104{opacity:0.08;}
	.st105{fill:#E2E2E2;}
	.st106{fill:#EAEAEA;}
	.st107{fill:#BCB4B3;}
	.st108{fill:#755046;}
	.st109{opacity:0.5;fill:#D78C74;}
	.st110{fill:#3A3838;}
	.st111{fill:#F4F4F4;}
	.st112{fill:#494646;}
	.st113{fill:#514F4F;}
	.st114{fill:#333B49;}
	.st115{fill:#FFCA35;}
	.st116{opacity:0.5;fill:#FFCA35;}
	.st117{fill:#5F6368;}
	.st118{fill:#EF3030;}
	.st119{clip-path:url(#SVGID_4_);}
	.st120{fill:#F2866D;}
	.st121{fill:#FF9D2E;}
	.st122{fill:#574E49;}
	.st123{fill:#323436;}
	.st124{fill:#DB5C04;}
	.st125{fill:#FB822D;}
	.st126{fill:#55ABBD;}
	.st127{fill:#4F565C;}
	.st128{fill:#292F33;}
	.st129{fill:#FB6902;}
	.st130{fill:#E83427;}
	.st131{fill:#444A4F;}
	.st132{fill:#47403C;}
	.st133{fill:#3B3532;}
	.st134{fill:#78695E;}
	.st135{fill:#4C98A8;}
	.st136{fill:#C9EEF5;}
	.st137{opacity:0.7;fill:#FFFFFF;}
	.st138{opacity:0.2;}
	.st139{fill:#B6D8DE;}
	.st140{fill:#FDA73E;}
	.st141{fill:#95A4AD;}
	.st142{fill:#353D42;}
	.st143{fill:#E05E02;}
	.st144{fill:#4D4D4D;}
	.st145{fill:#616161;}
	.st146{fill:#8F8F8F;}
	.st147{fill:#FFA480;}
	.st148{fill:#2FB4BA;}
	.st149{fill:#9B72C4;}
	.st150{fill:#BDAEA3;}
	.st151{fill:#DB92DA;}
	.st152{fill:#E67B5A;}
	.st153{fill:#F94850;}
	.st154{fill:#FFB187;}
	.st155{fill:#FFB086;}
	.st156{fill:#FFAF85;}
	.st157{fill:#FFAE85;}
	.st158{fill:#FFAD84;}
	.st159{fill:#FFAC83;}
	.st160{fill:#FFAB82;}
	.st161{fill:#FFAA81;}
	.st162{fill:#FFA980;}
	.st163{fill:#FFA880;}
	.st164{fill:#FFA77F;}
	.st165{fill:#FFA67E;}
	.st166{fill:#FFA57D;}
	.st167{fill:#FFA47C;}
	.st168{fill:#FFA37C;}
	.st169{fill:#FFA27B;}
	.st170{fill:#FFA17A;}
	.st171{fill:#FFA079;}
	.st172{fill:#FF9F78;}
	.st173{fill:#FF9E77;}
	.st174{fill:#FF9D77;}
	.st175{fill:#FF9C76;}
	.st176{fill:#FF9B75;}
	.st177{fill:#FF9A74;}
	.st178{fill:#FF9973;}
	.st179{fill:#FF9872;}
	.st180{fill:#FF9771;}
	.st181{fill:#FF9670;}
	.st182{fill:#FF956F;}
	.st183{fill:#FF946F;}
	.st184{fill:#FF936E;}
	.st185{fill:#FF926D;}
	.st186{fill:#FF916C;}
	.st187{fill:#FF906B;}
	.st188{fill:#FF8F6A;}
	.st189{fill:#FF8E6A;}
	.st190{fill:#FF8D69;}
	.st191{fill:#FF8C68;}
	.st192{fill:#FF8B67;}
	.st193{fill:#FF8A66;}
	.st194{fill:#FF8966;}
	.st195{fill:#FF8865;}
	.st196{fill:#FF8764;}
	.st197{fill:#FF8663;}
	.st198{fill:#FF8562;}
	.st199{fill:#FF8461;}
	.st200{fill:#FF8361;}
	.st201{fill:#FF8260;}
	.st202{fill:#FF815F;}
	.st203{fill:#421C16;}
	.st204{fill:#703024;}
	.st205{fill:#00BAEB;}
	.st206{fill:#118793;}
	.st207{fill:#572619;}
	.st208{fill:#00AAD6;}
	.st209{fill:#00A2CC;}
	.st210{fill:#BF1B2D;}
	.st211{fill:#A12F2F;}
	.st212{fill:#8A8A8A;}
	.st213{fill:#404040;}
	.st214{fill:#F44E4E;}
	.st215{fill:#303030;}
	.st216{fill:#CAE1FC;}
	.st217{opacity:0.3;fill:#DA97B8;}
	.st218{opacity:0.6;fill:#CBCFFF;}
	.st219{fill:#EEF0FF;}
	.st220{fill:#7AB6F6;}
	.st221{fill:#6977A4;}
	.st222{opacity:0.3;fill:#FFFFFF;}
	.st223{fill:#F5B29C;}
	.st224{fill:#2E90EC;}
	.st225{fill:#3D4166;}
	.st226{fill:#FA7071;}
	.st227{fill:#3C5670;}
	.st228{fill:#FA989C;}
	.st229{fill:#D05C53;}
	.st230{fill:#5C595E;}
	.st231{fill:#E6DFEA;}
	.st232{fill:#C9C9DD;}
	.st233{opacity:0.3;}
	.st234{opacity:0.6;fill:#A8BCFF;}
	.st235{fill:#999DB8;}
	.st236{fill:#0B1238;}
	.st237{fill:#2D3170;}
	.st238{fill:#5C75C3;}
	.st239{fill:#0B124A;}
	.st240{fill:#2E3054;}
	.st241{fill:#B9B3C0;}
	.st242{fill:#595D8B;}
	.st243{fill:#0B2B4A;}
	.st244{opacity:0.25;fill:#EEF0FF;}
	.st245{fill:#C68824;}
	.st246{fill:#A36D1F;}
	.st247{fill:#CECECE;}
	.st248{fill:#C9C9C9;}
	.st249{fill:#BCBCBC;}
	.st250{fill:#E5E5E5;}
	.st251{fill:#424242;}
	.st252{fill:#CCCCCC;}
	.st253{fill:#FFBF3C;}
	.st254{fill:#D3D5D3;}
	.st255{fill:#46676C;}
	.st256{fill:url(#SVGID_5_);}
	.st257{fill:#98B1C7;}
	.st258{fill:url(#SVGID_6_);}
	.st259{fill:url(#SVGID_7_);}
	.st260{fill:#0E1714;}
	.st261{fill:#BFD2E1;}
	.st262{fill:url(#SVGID_8_);}
	.st263{fill:url(#SVGID_9_);}
	.st264{fill:url(#SVGID_10_);}
	.st265{fill:url(#SVGID_11_);}
	.st266{fill:url(#SVGID_12_);}
	.st267{fill:url(#SVGID_13_);}
	.st268{fill:url(#SVGID_14_);}
	.st269{fill:url(#SVGID_15_);}
	.st270{fill:url(#SVGID_16_);}
	.st271{fill:url(#SVGID_17_);}
	.st272{fill:url(#SVGID_18_);}
	.st273{fill:#1D2C2C;}
	.st274{fill:#ECEBF3;}
	.st275{fill:url(#SVGID_19_);}
	.st276{fill:#0074A6;}
	.st277{fill:url(#SVGID_20_);}
	.st278{fill:url(#SVGID_21_);}
	.st279{fill:url(#SVGID_22_);}
	.st280{fill:url(#SVGID_23_);}
	.st281{fill:#80979A;}
	.st282{fill:url(#SVGID_24_);}
	.st283{fill:url(#SVGID_25_);}
	.st284{fill:#3A4848;}
	.st285{fill:#FFBD95;}
	.st286{fill:#B8B3B3;}
	.st287{fill:#A39D9D;}
	.st288{fill:#8D3B26;}
	.st289{fill:#191919;}
	.st290{fill:#00233F;}
	.st291{fill:#002D56;}
	.st292{fill:#D7D4D4;}
	.st293{fill:#CFCCCC;}
	.st294{fill:#004877;}
</style>
<circle class="st0" cx="100" cy="100" r="100"/>
<g>
	<defs>
		<circle id="SVGID_1_" cx="100" cy="-135.29" r="100"/>
	</defs>
	<clipPath id="SVGID_2_">
		<use xlink:href="#SVGID_1_"  style="overflow:visible;"/>
	</clipPath>
	<g class="st1">
		<path id="XMLID_140_" class="st99" d="M68.95-66.24c0,0,0,39.6,0,80.07h65.74l-0.33-80.39C103.44-67.25,68.95-66.24,68.95-66.24z"
			/>
	</g>
</g>
<g>
	<path class="st245" d="M146.9,164.41l-90.84-0.6l0.5-127.42c0-0.85,0.69-1.53,1.54-1.53l90.84,0.6l-0.14,36.63l-0.35,90.79
		C148.44,163.73,147.75,164.41,146.9,164.41z"/>
	<polygon class="st246" points="156.41,68.71 156.22,38.94 148.43,35.5 148.78,74.61 	"/>
	
		<rect x="39.85" y="60.23" transform="matrix(0.0425 -0.9991 0.9991 0.0425 -8.1392 199.5289)" class="st3" width="120.36" height="87.57"/>
	<path class="st247" d="M141.7,166.53l-0.51-0.02l-88-3.74l5.16-121.27l0.51,0.02l88,3.74l-0.02,0.51L141.7,166.53z M54.26,161.79
		l86.47,3.68l5.07-119.23l-86.47-3.68L54.26,161.79z"/>
	
		<rect x="46.69" y="40.99" transform="matrix(0.9991 -0.0434 0.0434 0.9991 -4.301 4.0176)" class="st3" width="87.57" height="120.36"/>
	<path class="st247" d="M48.86,163.72L43.59,42.45l0.51-0.02l88-3.82l0.02,0.51l5.24,120.76l-0.51,0.02L48.86,163.72z M44.66,43.43
		l5.17,119.23l86.46-3.75l-5.17-119.23L44.66,43.43z"/>
	<rect x="48.7" y="42.75" class="st3" width="89.34" height="122.52"/>
	<path class="st248" d="M138.55,165.78H48.19V42.24h90.36V165.78z M49.21,164.76h88.32V43.26H49.21V164.76z"/>
	<rect x="58.91" y="68.29" class="st249" width="22.63" height="2.45"/>
	<rect x="58.91" y="74.11" class="st250" width="44.71" height="2.2"/>
	<rect x="63.31" y="127.21" class="st250" width="13.7" height="1.22"/>
	<rect x="110.9" y="127.82" class="st250" width="13.7" height="1.22"/>
	<rect x="63.31" y="139.57" class="st250" width="13.7" height="0.61"/>
	<rect x="111.15" y="139.57" class="st250" width="13.7" height="0.61"/>
	<rect x="72.61" y="161.35" class="st250" width="42.82" height="0.61"/>
	<path class="st247" d="M110.7,125.41c2.68-0.92,5.55-0.03,7.28,2.01c0.29,0.35,0.76,0.49,1.19,0.34c-1.8-2.85-5.39-4.22-8.72-3.07
		c-3.33,1.14-5.33,4.42-5,7.78c0.43-0.15,0.71-0.54,0.73-1C106.3,128.79,108.02,126.32,110.7,125.41z M115.04,138.05
		c-2.6,0.89-5.38,0.08-7.13-1.84c-0.29-0.32-0.75-0.45-1.16-0.31l-0.04,0.01c1.84,2.71,5.33,3.97,8.58,2.86
		c3.24-1.11,5.23-4.25,5.02-7.52l-0.04,0.01c-0.41,0.14-0.7,0.52-0.73,0.96C119.34,134.81,117.64,137.16,115.04,138.05z"/>
	<path class="st247" d="M116.02,140.93c-5.07,1.74-10.61-0.97-12.35-6.04c-1.74-5.07,0.97-10.61,6.04-12.35
		c5.07-1.74,10.61,0.97,12.35,6.04C123.8,133.65,121.09,139.19,116.02,140.93z M110.04,123.48c-4.55,1.56-6.98,6.53-5.42,11.08
		c1.56,4.55,6.53,6.98,11.08,5.42c4.55-1.56,6.98-6.53,5.42-11.08C119.56,124.35,114.59,121.92,110.04,123.48z"/>
	<path class="st247" d="M117.85,130.82l-8.96,3.07c-0.26,0.09-0.55-0.05-0.64-0.31l-0.1-0.29c-0.09-0.26,0.05-0.55,0.31-0.64
		l8.96-3.07c0.26-0.09,0.55,0.05,0.64,0.31l0.1,0.29C118.25,130.45,118.11,130.73,117.85,130.82z"/>
	<path class="st251" d="M64.44,62.04h-2.8c-0.36,0-0.7-0.05-1-0.16c-0.31-0.11-0.57-0.26-0.79-0.47c-0.22-0.2-0.4-0.45-0.52-0.74
		c-0.13-0.29-0.19-0.62-0.19-1c0-0.35,0.06-0.67,0.19-0.96c0.13-0.29,0.3-0.54,0.53-0.75c0.22-0.21,0.48-0.37,0.78-0.49
		c0.3-0.12,0.62-0.17,0.97-0.17c0.34,0,0.67,0.06,0.97,0.18c0.3,0.12,0.56,0.28,0.78,0.49c0.22,0.21,0.4,0.46,0.53,0.75
		c0.13,0.29,0.19,0.61,0.19,0.96c0,0.17-0.02,0.33-0.06,0.48c-0.04,0.16-0.09,0.3-0.17,0.44c-0.07,0.14-0.17,0.26-0.29,0.37
		c-0.12,0.11-0.25,0.2-0.41,0.27v0.01h1.29V62.04z M60.19,59.67c0,0.2,0.04,0.39,0.11,0.56c0.07,0.17,0.18,0.33,0.3,0.45
		c0.13,0.13,0.28,0.23,0.45,0.3c0.17,0.07,0.35,0.11,0.55,0.11c0.2,0,0.38-0.04,0.55-0.11c0.17-0.07,0.32-0.18,0.45-0.3
		c0.13-0.13,0.23-0.28,0.3-0.45c0.07-0.17,0.11-0.36,0.11-0.56c0-0.2-0.04-0.39-0.11-0.56c-0.07-0.17-0.18-0.33-0.3-0.45
		c-0.13-0.13-0.28-0.23-0.45-0.3c-0.17-0.07-0.35-0.11-0.55-0.11c-0.2,0-0.38,0.04-0.55,0.11c-0.17,0.07-0.32,0.18-0.45,0.3
		c-0.13,0.13-0.23,0.28-0.3,0.45C60.22,59.28,60.19,59.47,60.19,59.67z"/>
	<path class="st251" d="M68.84,60.26c0,0.27-0.04,0.53-0.12,0.76c-0.08,0.23-0.21,0.43-0.37,0.6c-0.16,0.17-0.37,0.3-0.61,0.4
		c-0.24,0.1-0.52,0.14-0.84,0.14c-0.32,0-0.6-0.05-0.85-0.14c-0.24-0.1-0.45-0.23-0.61-0.4c-0.16-0.17-0.29-0.37-0.37-0.6
		c-0.08-0.23-0.12-0.48-0.12-0.76v-2.84h1.02v2.8c0,0.14,0.02,0.28,0.07,0.4c0.05,0.12,0.11,0.23,0.19,0.32
		c0.08,0.09,0.18,0.16,0.3,0.21c0.12,0.05,0.24,0.07,0.38,0.07c0.13,0,0.26-0.02,0.37-0.07c0.11-0.05,0.21-0.12,0.29-0.21
		c0.08-0.09,0.15-0.19,0.19-0.32c0.05-0.12,0.07-0.25,0.07-0.4v-2.8h1.02V60.26z"/>
	<path class="st251" d="M69.53,59.73c0-0.37,0.06-0.7,0.19-1.01c0.12-0.3,0.3-0.56,0.52-0.77c0.22-0.21,0.49-0.37,0.79-0.49
		c0.3-0.11,0.64-0.17,1-0.17c0.36,0,0.69,0.06,1,0.17c0.3,0.11,0.57,0.28,0.79,0.49c0.22,0.21,0.4,0.47,0.52,0.77
		c0.12,0.3,0.19,0.64,0.19,1.01s-0.06,0.7-0.19,1.01c-0.12,0.3-0.3,0.56-0.52,0.77c-0.22,0.21-0.49,0.37-0.79,0.49
		c-0.3,0.11-0.64,0.17-1,0.17c-0.36,0-0.69-0.06-1-0.17c-0.3-0.11-0.57-0.28-0.79-0.49c-0.22-0.21-0.4-0.47-0.52-0.77
		C69.59,60.43,69.53,60.1,69.53,59.73z M70.59,59.73c0,0.22,0.03,0.42,0.1,0.6c0.07,0.18,0.16,0.34,0.29,0.47
		c0.13,0.13,0.28,0.24,0.45,0.31c0.18,0.07,0.37,0.11,0.59,0.11c0.22,0,0.41-0.04,0.59-0.11c0.18-0.07,0.33-0.18,0.45-0.31
		c0.13-0.13,0.22-0.29,0.29-0.47c0.07-0.18,0.1-0.38,0.1-0.6c0-0.21-0.03-0.41-0.1-0.59c-0.07-0.18-0.16-0.34-0.29-0.47
		c-0.13-0.13-0.28-0.24-0.45-0.31c-0.18-0.07-0.37-0.11-0.59-0.11c-0.22,0-0.41,0.04-0.59,0.11c-0.18,0.07-0.33,0.18-0.45,0.31
		c-0.13,0.13-0.22,0.29-0.29,0.47C70.62,59.32,70.59,59.52,70.59,59.73z"/>
	<polygon class="st251" points="76.1,58.32 74.78,58.32 74.78,57.42 78.44,57.42 78.44,58.32 77.12,58.32 77.12,62.04 76.1,62.04 	
		"/>
	<path class="st251" d="M79.87,57.42h0.84l2.01,4.62h-1.15l-0.4-0.98h-1.8L79,62.04h-1.12L79.87,57.42z M80.27,58.76L79.7,60.2h1.13
		L80.27,58.76z"/>
	<polygon class="st251" points="83.48,58.32 82.17,58.32 82.17,57.42 85.82,57.42 85.82,58.32 84.5,58.32 84.5,62.04 83.48,62.04 	
		"/>
	<rect x="86.32" y="57.42" class="st251" width="1.02" height="4.62"/>
	<path class="st251" d="M88.02,59.73c0-0.37,0.06-0.7,0.19-1.01c0.12-0.3,0.3-0.56,0.52-0.77c0.22-0.21,0.49-0.37,0.79-0.49
		c0.3-0.11,0.64-0.17,1-0.17s0.69,0.06,1,0.17c0.3,0.11,0.57,0.28,0.79,0.49c0.22,0.21,0.4,0.47,0.52,0.77
		c0.12,0.3,0.19,0.64,0.19,1.01s-0.06,0.7-0.19,1.01c-0.12,0.3-0.3,0.56-0.52,0.77c-0.22,0.21-0.49,0.37-0.79,0.49
		c-0.3,0.11-0.64,0.17-1,0.17s-0.69-0.06-1-0.17c-0.3-0.11-0.57-0.28-0.79-0.49c-0.22-0.21-0.4-0.47-0.52-0.77
		C88.08,60.43,88.02,60.1,88.02,59.73z M89.08,59.73c0,0.22,0.03,0.42,0.1,0.6c0.07,0.18,0.16,0.34,0.29,0.47
		c0.13,0.13,0.28,0.24,0.45,0.31c0.18,0.07,0.37,0.11,0.59,0.11c0.22,0,0.41-0.04,0.59-0.11c0.18-0.07,0.33-0.18,0.45-0.31
		c0.13-0.13,0.22-0.29,0.29-0.47c0.07-0.18,0.1-0.38,0.1-0.6c0-0.21-0.03-0.41-0.1-0.59c-0.07-0.18-0.16-0.34-0.29-0.47
		c-0.13-0.13-0.28-0.24-0.45-0.31c-0.18-0.07-0.37-0.11-0.59-0.11c-0.22,0-0.41,0.04-0.59,0.11c-0.18,0.07-0.33,0.18-0.45,0.31
		c-0.13,0.13-0.22,0.29-0.29,0.47C89.11,59.32,89.08,59.52,89.08,59.73z"/>
	<polygon class="st251" points="93.7,57.42 95.08,57.42 97.05,60.63 97.06,60.63 97.06,57.42 98.08,57.42 98.08,62.04 96.75,62.04 
		94.73,58.75 94.72,58.75 94.72,62.04 93.7,62.04 	"/>
	<rect x="58.91" y="80.83" class="st250" width="69.05" height="29.15"/>
	<rect x="58.91" y="80.83" class="st249" width="69.05" height="3.33"/>
	<rect x="99.71" y="112.71" class="st250" width="27.96" height="1.02"/>
	<rect x="61.42" y="86.69" class="st252" width="27.96" height="0.51"/>
	<rect x="61.42" y="89.24" class="st252" width="27.96" height="0.51"/>
	<rect x="61.42" y="91.79" class="st252" width="27.96" height="0.51"/>
	<rect x="61.42" y="94.35" class="st252" width="22.79" height="0.51"/>
	<rect x="115.79" y="86.69" class="st252" width="6.33" height="0.51"/>
	<rect x="115.79" y="89.24" class="st252" width="6.33" height="0.51"/>
	<path class="st253" d="M122.1,50.36c-1.16-0.47-2.04-1.66-1.49-3.04l4.88-11.99c0.05-0.12,0.19-0.18,0.31-0.13l0,0
		c0.12,0.05,0.18,0.19,0.13,0.31l-4.88,11.99c-0.46,1.13,0.31,2.04,1.22,2.41c0.9,0.36,2.08,0.24,2.54-0.89l5.23-12.94
		c0.42-1.03-0.08-1.77-0.72-2.03c-0.63-0.26-1.49-0.08-1.89,0.91l-4.63,11.44c-0.34,0.84-0.11,1.38,0.25,1.53
		c0.38,0.16,0.94-0.12,1.28-0.94l3.12-7.71c0.05-0.12,0.19-0.18,0.31-0.13c0.12,0.05,0.18,0.19,0.13,0.31l-3.12,7.71
		c-0.45,1.11-1.3,1.45-1.9,1.2c-0.58-0.23-0.98-1.01-0.52-2.15L127,34.78c0.5-1.24,1.65-1.53,2.52-1.17
		c0.88,0.36,1.5,1.38,0.99,2.65l-5.23,12.94C124.68,50.64,123.22,50.81,122.1,50.36z"/>
</g>
</svg>
