<?xml version="1.0" encoding="utf-8"?>
<!-- Generator: Adobe Illustrator 23.0.2, SVG Export Plug-In . SVG Version: 6.00 Build 0)  -->
<svg version="1.1" id="Layer_1" xmlns="http://www.w3.org/2000/svg" xmlns:xlink="http://www.w3.org/1999/xlink" x="0px" y="0px"
	 viewBox="0 0 2012 2125" style="enable-background:new 0 0 2012 2125;" xml:space="preserve">
<style type="text/css">
	.st0{fill:#125785;}
	.st1{fill:#4D87B8;}
	.st2{fill:#FFFFFF;}
	.st3{fill:none;stroke:#FFFFFF;stroke-linecap:round;stroke-miterlimit:10;}
	.st4{fill:#F68741;}
	.st5{fill:#F36B21;}
	.st6{fill:#6C401A;}
	.st7{fill:#F2B383;}
	.st8{fill:#F9BB88;}
	.st9{fill:#FCC8A0;}
	.st10{fill:#E35E2F;}
	.st11{fill:#D64E28;}
	.st12{fill:#F9D4B9;}
	.st13{fill:#2E5052;}
	.st14{fill:#223F3F;}
	.st15{fill:#2E6569;}
	.st16{fill:#354DA1;}
	.st17{fill:#DAF0F7;}
	.st18{fill:#BEDDE5;}
	.st19{fill:#93532E;}
	.st20{fill:#683E17;}
	.st21{fill:#AE643C;}
	.st22{fill:#BC6C48;}
	.st23{fill:#70BEEA;}
	.st24{fill:none;}
	.st25{fill:#CDECFC;}
</style>
<g>
	<g>
		<g>
			<g>
				<path class="st6" d="M912.35,1458.87c0,11.17-23.01,20.22-51.39,20.22c-28.37,0-51.38-9.05-51.38-20.22
					c0-11.17,23.01-20.22,51.38-20.22C889.34,1438.66,912.35,1447.71,912.35,1458.87z"/>
				<g>
					<path class="st7" d="M1358.38,1485.81c-20.38-25.7-57.18-20.38-87.54-9.56l-267.53,78.98c-0.28,0.1-0.55,0.21-0.82,0.32
						c-1.66-0.12-3.33-0.22-5-0.25l-349.42-7.22c-38.38-0.8-69.96,21.59-70.56,50c-0.58,28.41,35.74,25.72,74.11,26.52l343.73,33.58
						c7.72,0.16,15.17-0.63,22.15-2.21c6.7-0.16,13.59-1.38,20.37-3.8l333.81-122.93
						C1371.67,1529.23,1376.25,1508.34,1358.38,1485.81z"/>
				</g>
				<path class="st8" d="M791.9,1435.52c0,0-14.82-56.28-110.6-22.62c-95.79,33.65-150.16,75.08-150.16,75.08l-121.68-7.76
					l-17.04,174.86c0,0,242.28-19.53,268.17-29.88c25.89-10.36,296.24-165.45,296.24-165.45L791.9,1435.52z"/>
				<path class="st8" d="M1341.41,1452.97c-12.36-14.33-20.79-18.07-36.33-18.11c-15.61-0.05-33.8,4.78-49.21,10.64l-271.33,86.23
					c-0.28,0.11-0.55,0.23-0.82,0.34c-1.69-0.09-3.4-0.15-5.12-0.15l-356.68,0c-39.18,0-70.93,23.51-70.93,52.51
					c0,29,31.76,52.51,70.93,52.51h356.68c7.89,0,15.47-0.97,22.56-2.73c6.83-0.3,13.83-1.69,20.69-4.3l317.83-120.84
					c9.61-3.65,15.57-7.17,15.57-7.17S1354.43,1468.07,1341.41,1452.97z"/>
				<g>
					<path class="st9" d="M1251.32,1453.47c15.41-5.85,33.6-10.69,49.21-10.64c15.54,0.05,23.97,3.78,36.33,18.11
						c9.8,11.37,12.69,33.34,13.52,43.51c3.13-1.52,4.88-2.56,4.88-2.56s-0.82-33.83-13.84-48.93
						c-12.36-14.33-20.79-18.07-36.33-18.11c-15.61-0.05-33.8,4.78-49.21,10.64l-66.47,21.13L1251.32,1453.47z"/>
				</g>
				<g>
					<path class="st7" d="M526.97,1487.72l-117.52-7.5l-17.04,174.86c0,0,61.79-4.98,126.3-11.24L526.97,1487.72z"/>
					<g>
						<polygon class="st2" points="505.77,1409.7 243.24,1404.95 281.51,1522.73 272.68,1545.32 367.2,1697.32 490.58,1696.9 						
							"/>
					</g>
					<polygon class="st10" points="139.52,1714.28 458.43,1716.78 488.67,1396.71 139.52,1392.39 					"/>
					<polygon class="st11" points="139.52,1467.98 481.37,1471.03 488.67,1396.71 139.52,1392.39 					"/>
				</g>
				<path class="st7" d="M1139.55,1482.47l-128.95,18.45c23.47-34.25-17.79,4.2-18.07,4.31c-1.69-0.09-32.72,8.61-34.44,8.61
					l-313.52,18.09c5.59,9.52,18.23,14.21,39.06,10.33c24.57-4.57,141.28,21.33,187.55,9.15l232.19-34.65
					C1121.75,1513.5,1135.55,1499.56,1139.55,1482.47z"/>
				<g>
					<g>
						<path class="st8" d="M1003.4,1431.07c0,0-66.67,0.87-131.87-9.95c-61.67-10.24-130.32-31.23-178.42-16.54
							c-244.69,74.73-29.86,188.22,45.18,171.02c58.18-13.34,242.16-73.21,242.16-73.21L1003.4,1431.07z"/>
						<path class="st8" d="M821.63,1549.4c-24.41,5.37,97.08-41.37,91.7-65.77l0,0c-5.39-24.41-56.93-39.9-32.51-45.29l201.32-38.31
							c24.41-5.4,48.56,10.04,53.96,34.45l0,0c5.38,24.4-10.05,48.56-34.46,53.94L821.63,1549.4z"/>
						<g>
							<path class="st9" d="M1128.26,1426.63c5.38,24.4-10.05,48.56-34.46,53.94l-154.42,43.18l162.26-35.34
								c24.41-5.38,39.84-29.55,34.46-53.94c-2.37-10.7-8.33-19.67-16.34-25.92C1123.78,1413.71,1126.75,1419.82,1128.26,1426.63z"
								/>
						</g>
						<g>
							<path class="st12" d="M1103.1,1415.57l-18.35,4.13c-13.02,2.95-21.06,16.56-17.97,30.43c3.1,13.87,16.15,22.75,29.19,19.82
								l18.33-4.13c0,0,2.84-8.09-1.04-24.75C1108.45,1420.38,1106.5,1420.23,1103.1,1415.57z"/>
							<g>
								<path class="st12" d="M992.97,1435.63c1.51-0.34,2.99,0.67,3.34,2.25l11.12,49.92c0.36,1.59-0.55,3.16-2.05,3.47l0,0
									c-1.5,0.34-2.98-0.67-3.34-2.25l-11.12-49.93C990.58,1437.51,991.49,1435.94,992.97,1435.63L992.97,1435.63z"/>
								<path class="st12" d="M1009.16,1445.59c1.31-0.31,2.62,0.59,2.95,2l5.5,24.67c0.32,1.41-0.52,2.77-1.8,3.07l0,0
									c-1.34,0.3-2.64-0.61-2.97-1.99l-5.5-24.68C1007.04,1447.25,1007.86,1445.87,1009.16,1445.59L1009.16,1445.59z"/>
								<path class="st7" d="M1008.19,1612c1.31-0.31,2.63,0.59,2.95,2l5.5,24.67c0.32,1.41-0.52,2.77-1.8,3.07l0,0
									c-1.34,0.3-2.64-0.61-2.97-1.99l-5.5-24.68C1006.07,1613.66,1006.89,1612.28,1008.19,1612L1008.19,1612z"/>
							</g>
						</g>
					</g>
				</g>
				<path class="st12" d="M1339.68,1509.07c9.61-3.65,15.57-7.17,15.57-7.17s-0.34-14.04-4.06-28.06
					c-7.63-2.93-15.96-1.01-21.19,0.66l-22.36,6.37c-15.85,4.53-24.84,21.89-20.05,38.8c0.81,2.85,1.96,5.51,3.39,7.93
					L1339.68,1509.07z"/>
				<path class="st8" d="M1310.6,1551.72l61.07-22.49c0,0,1.84-8.41-1.37-20.3c-6.14-0.9-12.23,0.58-16.37,1.9l-22.36,6.37
					C1317.05,1521.35,1308.3,1536.25,1310.6,1551.72z"/>
			</g>
		</g>
	</g>
	<path class="st8" d="M1065.46,928.7l-52.17,0.25c0,0-25.3-0.26-23.7-24.51c0.46-6.89,2.31-12.49,4.92-17.04l5.92-7.63
		c9.93-9.72,23.02-11.53,23.02-11.53s51.08-10.98,90.82-23.56l18.29,11.17L1065.46,928.7z"/>
	<path class="st8" d="M1000.44,879.78l-5.92,7.63C996.22,884.44,998.25,881.92,1000.44,879.78z"/>
	<path class="st7" d="M1498.93,599.14c-22.74-34.28-86.77-43.11-86.77-43.11l-172.97-28.12l-74.19-98.62l-72.26-21.08l-63.69,21.8
		c0,0,3.11,19.16,29.03,22.34c25.94,3.17,35.77,3.22,35.77,3.22l33.82,21.57l31.24,66.24l33.39,69.81l295,89.47
		C1487.3,702.67,1516.8,626.06,1498.93,599.14z"/>
	<path class="st8" d="M1491.82,631.45l-319.27-92.7l-157.74-75.28l-100.37,17.91l-81.19,40.21c0,0-2.23,23.28,26.62,27.64
		c49.58,7.54,78.68-15.2,78.68-15.2l61.42,4.79l85.79,59.04l377.53,105.52L1491.82,631.45z"/>
	<polygon class="st7" points="1011.58,535.48 1095.31,594.35 1082.33,595.5 999.98,538.83 994.91,538.43 	"/>
	<path class="st8" d="M1124,585.93l-202.48-20.45l-141.03,95.81c0,0,9.05,23.69,36.61,23.57c31.12-0.12,57.7-23.28,57.7-23.28
		l47.03-18.28l165.65,20.69L1124,585.93z"/>
	<polygon class="st7" points="1054.95,659.93 944.12,646.08 1081.56,645.14 	"/>
	<path class="st12" d="M879.18,511.06c0,0-17.07,14.23-30.2,12.73c-5.49-0.63-8.45-2.84-10.07-5.01l36.46-18.05L879.18,511.06z"/>
	<path class="st12" d="M823.34,648.86c0,0-17.07,14.25-30.2,12.76c-3.97-0.46-6.56-1.76-8.35-3.24l33.63-22.85L823.34,648.86z"/>
	<path class="st8" d="M1065.46,928.7l-52.17,0.25c0,0-25.3-0.26-23.7-24.51c0.46-6.89,2.31-12.49,4.92-17.04l5.92-7.63
		c9.93-9.72,23.02-11.53,23.02-11.53s51.08-10.98,90.82-23.56l6.01,8.91L1065.46,928.7z"/>
	<path class="st8" d="M1469.76,785.07c-26.38,17.08-53.64,31.46-61.09,35.05c-14.06,6.79-125.24,76.85-125.24,76.85l-181.11,31.56
		l-36.86,0.18l54.83-75.12l-6.01-8.91c19.35-6.13,36.01-12.65,42.76-18.46c12.7-10.92,24.5-28.56-9.04-55.34
		c-45.73-36.5-88.42-20.01-88.42-20.01l-75.53,19.95c0,0,9.21,35.53,14.74,63.54c5.54,28.01,5.79,40.8-9.18,56.62
		c-8.87,9.39-23.41,6.82-23.41,6.82s-13.36-32.89-19.65-47.89c-11.83-28.22-41.24-119.42-41.24-119.42l184.72-101.33l39.88-82.7
		l110.36,38.67l-11.24,40.66l60.78,19.75l204.6-13.3c0,0,39.37,51.24,19.47,102.91C1506.81,753.48,1493.14,769.91,1469.76,785.07z"
		/>
	<g>
		<path class="st12" d="M1161.42,577.87c0.79,0.43,1.74,0.13,2.16-0.65l13.06-24.32c0.43-0.76,0.13-1.73-0.63-2.14l0,0
			c-0.78-0.41-1.74-0.12-2.14,0.65l-13.08,24.32C1160.37,576.5,1160.66,577.46,1161.42,577.87L1161.42,577.87z"/>
		<path class="st12" d="M1171.72,575.27c0.69,0.37,1.53,0.12,1.91-0.57l6.46-12.02c0.38-0.68,0.11-1.52-0.57-1.89l0,0
			c-0.69-0.37-1.52-0.11-1.91,0.56l-6.46,12.02C1170.79,574.07,1171.04,574.92,1171.72,575.27L1171.72,575.27z"/>
	</g>
	<g>
		<g>
			<path class="st12" d="M1137.63,649.63c0.85,0.25,1.73-0.23,1.98-1.07l7.9-26.46c0.26-0.84-0.22-1.73-1.06-1.97l0,0
				c-0.85-0.24-1.73,0.23-1.98,1.06l-7.91,26.47C1136.32,648.5,1136.79,649.38,1137.63,649.63L1137.63,649.63z"/>
		</g>
	</g>
	<g>
		<path class="st13" d="M1053.92,1075.46l-22.88,6.24c-21.75,5.93-44.27-6.94-50.2-28.69l-7.53-27.61
			c-5.93-21.75,6.94-44.27,28.69-50.2l22.88-6.24c21.75-5.93,44.27,6.94,50.2,28.69l7.53,27.61
			C1088.54,1047.01,1075.67,1069.53,1053.92,1075.46z M1006.3,990.98c-13.05,3.56-20.77,17.07-17.21,30.12l7.53,27.61
			c3.56,13.05,17.07,20.77,30.12,17.21l22.88-6.24c13.05-3.56,20.77-17.07,17.21-30.12l-7.53-27.61
			c-3.56-13.05-17.07-20.77-30.12-17.21L1006.3,990.98z"/>
	</g>
	<path class="st13" d="M1176.26,1196.49c4.93,18.09-5.73,36.76-23.82,41.69l-124.48,33.95c-18.09,4.93-36.76-5.73-41.69-23.82
		l-27.99-192.97c-4.93-18.09,5.73-36.76,23.82-41.69l80.26-21.89c18.09-4.93,36.76,5.73,41.69,23.82L1176.26,1196.49z"/>
	<path class="st14" d="M1030.33,1105.34c11.93-37.57,6.85-75.53-10.64-101.95l-37.6,10.25c-18.09,4.93-28.76,23.6-23.82,41.69
		l16.04,110.6C998.88,1158.97,1019.39,1139.8,1030.33,1105.34z"/>
	<path class="st15" d="M961.4,1066.8c-4.93-18.09,5.73-36.76,23.82-41.69l80.26-21.89c18.09-4.93,36.76,5.73,41.69,23.82
		l70.19,175.83c-0.16-2.12-0.52-4.26-1.1-6.39l-72.21-180.91c-4.93-18.09-23.6-28.76-41.69-23.82l-80.26,21.89
		c-18.09,4.93-28.76,23.6-23.82,41.69l27.99,192.97c0.6,2.18,1.39,4.25,2.36,6.2L961.4,1066.8z"/>
	<path class="st15" d="M1053.19,1050.12c2.65,9.72-3.08,19.76-12.81,22.41c-9.72,2.65-19.76-3.08-22.41-12.81
		c-2.65-9.72,3.08-19.76,12.81-22.41C1040.51,1034.66,1050.54,1040.4,1053.19,1050.12z"/>
	<path class="st16" d="M1121.31,1098.42c-0.04,0.22-0.09,0.44-0.14,0.66c0,0,0,0,0.01,0
		C1121.22,1098.86,1121.27,1098.64,1121.31,1098.42z"/>
	<g>
		<g>
			<polygon class="st17" points="853.38,1346.36 888.51,1329.05 948.72,1132.43 894.1,1115.7 867.86,1201.42 847.67,1212.14 
				858.39,1232.32 858.28,1232.67 838.1,1243.39 848.82,1263.57 848.71,1263.93 828.53,1274.65 839.25,1294.83 833.9,1312.32 			"/>
			<polygon class="st2" points="871.68,1324.67 857.69,1331.57 860.03,1335.64 884.23,1323.71 935.08,1157.64 921.08,1163.33 			"/>
			<polygon class="st18" points="868.6,1323.69 854.61,1330.59 856.95,1334.67 881.15,1322.74 932,1156.67 918.01,1162.36 			"/>
		</g>
		<path class="st18" d="M932.15,1186.55l16.57-54.12l-54.62-16.72l-16.91,55.23c7.08,4.1,14.86,7.49,23.19,10.14
			C911.11,1184.48,921.8,1186.36,932.15,1186.55z"/>
	</g>
	<path class="st19" d="M1018.22,1105.34c-18.67,58.82-65.2,73.09-112.25,58.15c-47.06-14.94-76.83-53.43-58.15-112.25
		c18.67-58.82,71.96-94.39,119.01-79.45C1013.89,986.73,1036.89,1046.52,1018.22,1105.34z"/>
	<path class="st20" d="M1006.74,1100.05c-16.05,50.56-56.05,62.83-96.5,49.99c-40.45-12.84-66.04-45.93-49.99-96.5
		c16.05-50.56,61.86-81.14,102.31-68.3C1003.01,998.08,1022.79,1049.48,1006.74,1100.05z"/>
	<path class="st21" d="M1006.74,1100.05c-16.05,50.56-56.05,62.83-96.5,49.99c-40.45-12.84-66.04-45.93-49.99-96.5
		c16.05-50.56,61.86-81.14,102.31-68.3C1003.01,998.08,1022.79,1049.48,1006.74,1100.05z"/>
	<path class="st22" d="M1011.62,1077.09c-0.91,5.16-2.18,10.35-3.82,15.54c-16.05,50.56-56.05,62.83-96.5,49.99
		c-34.63-10.99-58.36-36.82-54.41-75.75c-7.92,43.07,16.57,71.49,53.35,83.16c40.45,12.84,80.44,0.57,96.5-49.99
		C1009.17,1092.37,1010.78,1084.67,1011.62,1077.09z"/>
	<path class="st23" d="M983.36,1014.75c-2.15,6.77-15.39,5.91-30.52,1.11c-15.14-4.81-26.45-11.74-24.3-18.51
		c2.15-6.77,17.09-11.29,32.23-6.48C975.91,995.67,985.51,1007.98,983.36,1014.75z"/>
	<g>
		<path class="st24" d="M1004.14,998.54c14.75-6.94,26.69-19.75,32-36.47c10.11-31.84-7.57-65.97-39.42-76.08
			c-31.84-10.11-65.97,7.57-76.08,39.42c-5,15.74-3.2,32.03,3.73,45.71c13.99-3.75,28.5-3.76,42.46,0.67
			C981.94,976.58,994.58,986.01,1004.14,998.54z"/>
		<path class="st23" d="M980.34,1004.29c-3.84-5.31-10.77-10.64-19.57-13.43c-7.84-2.49-15.62-2.48-21.61-0.95
			c5.95,5.07,12.98,9.06,20.89,11.57C966.8,1003.63,973.65,1004.52,980.34,1004.29z"/>
		<path class="st23" d="M929.45,995.54c-0.4,0.58-0.71,1.18-0.91,1.8c-2.15,6.77,9.16,13.7,24.3,18.51
			c15.07,4.79,28.26,5.66,30.49-1.02c-8.84,0.61-17.8-0.44-26.5-3.2C946.44,1008.33,937.14,1002.82,929.45,995.54z"/>
		<path class="st17" d="M1041.64,910.97c-8.75-16.9-23.56-29.37-41.7-35.13c-18.14-5.76-37.43-4.11-54.32,4.64
			c-16.9,8.75-29.37,23.56-35.13,41.7c-5.54,17.44-4.22,35.95,3.67,52.37c0.32,0.65,0.64,1.31,0.97,1.96
			c3.74,7.21,8.58,13.62,14.31,19.04c7.69,7.28,16.99,12.79,27.38,16.09c8.7,2.76,17.66,3.81,26.5,3.2
			c0.01-0.03,0.02-0.06,0.03-0.09c0.9-2.83-0.26-6.64-3.02-10.45c-6.7,0.22-13.55-0.67-20.29-2.81c-7.91-2.51-14.94-6.5-20.89-11.57
			c-6.17-5.26-11.18-11.67-14.79-18.8c-6.94-13.68-8.73-29.98-3.73-45.71c10.11-31.84,44.24-49.53,76.08-39.42
			c31.84,10.11,49.53,44.24,39.42,76.08c-5.31,16.72-17.25,29.54-32,36.47c2.16,2.83,4.16,5.82,6,8.95
			c0.34-0.17,0.67-0.33,1.01-0.51c16.9-8.75,29.37-23.56,35.13-41.7C1052.04,947.16,1050.39,927.86,1041.64,910.97z"/>
		<g>
			<path class="st13" d="M1034.11,967.54c-1.31,3.07-6.46,5.46-8.21,8.2c-2.52,3.96-1.85,8.08-5.14,11.29l8.42-2.3
				c2.7-0.74,5.42-0.98,8.06-0.81c1.49-2.18,6.39-4.46,7.63-6.82c1.44-2.72-0.83-5.54,0.26-8.47
				C1041.57,967.79,1037.86,967.4,1034.11,967.54z"/>
		</g>
	</g>
	<g>
		<path class="st25" d="M980.34,1004.29c-3.16,0.11-6.36-0.04-9.56-0.45c1.72,2.83,3.3,6.5,4.08,11.06
			c2.83,0.14,5.66,0.12,8.47-0.08c0.01-0.03,0.02-0.06,0.03-0.09C984.26,1011.91,983.1,1008.11,980.34,1004.29z"/>
		<path class="st25" d="M1015.8,991.37c-3.61,2.82-7.52,5.23-11.66,7.18c2.16,2.83,4.16,5.82,6,8.95c0.34-0.17,0.67-0.33,1.01-0.51
			c3.82-1.98,7.42-4.28,10.76-6.84C1020.04,997.08,1017.92,994.1,1015.8,991.37z"/>
	</g>
	<path class="st7" d="M1498.93,599.14c-22.74-34.28-86.77-43.11-86.77-43.11l-11.23-1.83l-18.98,281.53
		c12.99-7.89,23.09-13.86,26.72-15.61c7.45-3.59,34.71-17.98,61.09-35.05c23.38-15.15,37.05-31.58,44.11-49.92
		c13.72-35.63-0.74-71.06-11.04-89.62C1505.67,627.5,1505.86,609.58,1498.93,599.14z"/>
	<g>
		<polygon class="st2" points="1429.07,537.75 1407.27,861.21 1611.52,857.57 1611.52,543.2 		"/>
		<rect x="1454.52" y="526.85" class="st21" width="417.97" height="350.71"/>
		
			<ellipse transform="matrix(0.9732 -0.2298 0.2298 0.9732 -149.4267 377.2654)" class="st19" cx="1545.37" cy="830.31" rx="16.35" ry="16.35"/>
		
			<ellipse transform="matrix(0.9732 -0.2298 0.2298 0.9732 -150.6905 366.4105)" class="st19" cx="1498.13" cy="830.31" rx="16.35" ry="16.35"/>
	</g>
	<path class="st18" d="M999.95,875.84c-5.96-1.89-12.05-2.98-18.13-3.28c-2.13,3.31-3.88,6.86-5.21,10.61
		c6.65-0.2,13.43,0.69,20.12,2.81c28.14,8.94,45.22,36.64,41.83,64.94c3.83-0.77,7.51-1.94,11-3.46c0.68-12.53-1.99-25.06-7.91-36.5
		C1032.89,894.07,1018.08,881.6,999.95,875.84z"/>
	<path class="st8" d="M1065.46,928.7l-52.17,0.25c0,0-25.3-0.26-23.7-24.51c0.46-6.89,2.31-12.49,4.92-17.04l5.92-7.63
		c9.93-9.72,23.02-11.53,23.02-11.53s51.08-10.98,90.82-23.56l6.01,8.91L1065.46,928.7z"/>
	<path class="st12" d="M1039.72,900.61c-9.19,2.15-15.12,3.42-15.12,3.42s-11.24,1.56-19.76,9.9l-5.08,6.55
		c-0.65,1.13-1.24,2.34-1.77,3.62c6.83,4.77,15.3,4.86,15.3,4.86l29.47-0.14L1039.72,900.61z"/>
</g>
</svg>
