<?xml version="1.0" encoding="utf-8"?>
<!-- Generator: Adobe Illustrator 19.0.0, SVG Export Plug-In . SVG Version: 6.00 Build 0)  -->
<svg version="1.1" id="Layer_1" xmlns="http://www.w3.org/2000/svg" xmlns:xlink="http://www.w3.org/1999/xlink" x="0px" y="0px"
	 viewBox="-122.2 739.4 366.3 312.3" style="enable-background:new -122.2 739.4 366.3 312.3;" xml:space="preserve">
<style type="text/css">
	.st0{fill:#FFDE1B;}
</style>
<g>
	<path class="st0" d="M-67.4,811.4l-0.7,2l15.2,25.1l2,0.7l47.5-27.7l0.7-2c-4.6-11.2-0.7-23.8,1.3-35
		C-25.2,786.9-47,800.1-67.4,811.4L-67.4,811.4z"/>
	<path class="st0" d="M-32.4,841.7c11.2,0.7,21.8,2.6,33,1.3c0.7-6.6,2-15.2,3.3-21.8C-8.7,826.5-20.6,834.5-32.4,841.7L-32.4,841.7
		z"/>
	<path class="st0" d="M-45,851c0.7,7.9-0.7,17.2-2,25.1c12.5-5.3,25.7-13.2,38.9-20.5L-45,851L-45,851z"/>
	<path class="st0" d="M-43,887.9c9.2,21.1,21.1,41.6,31,62h2c21.1-19.8,45.5-35.6,68.6-50.2L44.8,876c-5.9,5.3-11.9,16.5-20.5,19.8
		c-9.9-9.2-16.5-19.8-19.8-32.3C-12,871.4-27.8,878.7-43,887.9L-43,887.9z"/>
	<path class="st0" d="M-53.6,895.8c-13.9,25.7-24.4,53.5-33,81.8c-7.3,14.5-19.8,26.4-30.4,38.9c-3.3,4-6.6,8.6-4.6,14.5
		c0.7,2,2,4.6,4.6,4c39.6-11.9,68-46.9,97-76.6c-9.2-21.1-21.1-40.9-31-61.4L-53.6,895.8L-53.6,895.8z"/>
	<path class="st0" d="M63.9,908.4l-31.7,20.5c-46.9,30.4-77.2,81.8-126.7,106.9c-6.6,3.3-13.9,5.3-19.8,9.9c2,2.6,2,6.6,5.9,5.9
		c19.8-7.9,38.3-19.1,54.8-33C-16,983,23.6,940,69.2,915C67.9,912.4,65.9,909.7,63.9,908.4L63.9,908.4z"/>
	<path class="st0" d="M244.1,739.4c0,11.2-7.9,20.5-16.5,27.1c-29,16.5-68.6,11.2-102.3,7.9c-0.7,0.7-1.3,0.7-2,2
		c2.6,5.3,9.9,6.6,16.5,8.6c-7.9,8.6-19.1,9.9-31,9.2c2,2.6,5.3,4.6,9.9,5.3c2,2.6-6.6,5.3-9.9,5.9c-9.2,4-19.8,1.3-27.7-1.3
		c-4,4.6,0.7,11.2-2,17.8c-1.3,4.6-3.3,11.2-6.6,14.5c-4.6-0.7-9.2-9.9-10.6-4c0.7,7.9-2.6,13.9-5.3,19.8
		c-5.9,1.3-11.2-16.5-13.9-2.6c-2.6,9.9-7.9,19.1-13.9,26.4c-4.6-0.7-7.3-5.9-9.2-9.9c-7.3-13.9-5.3-32.3-3.3-46.9
		c-9.9-12.5-11.2-33-4.6-47.5c17.2-33.7,58.1-29,91.1-29C149.1,747.3,199.9,749.3,244.1,739.4L244.1,739.4z M72.5,757.2
		c-2.6,2.6-4.6,5.3-7.9,7.3c-4,2-9.9-2.6-12.5,2c-2.6,7.9-10.6,8.6-16.5,9.2c1.3,4,6.6,4.6,10.6,5.3c5.9,0.7,11.2-2,14.5-5.9
		c7.3,2,13.2-2.6,17.2-8.6c4.6,0,8.6-0.7,11.9-3.3c0.7-1.3,2.6-4,0-4.6C83.7,759.9,77.8,757.9,72.5,757.2L72.5,757.2z M21,797.5
		c-3.3,7.3,9.2,5.9,8.6,13.9c1.3,3.3,5.3,5.9,8.6,5.3v-2c-0.7-0.7-2.6-10.6-3.3-14.5C29.6,800.1,25.7,798.2,21,797.5L21,797.5z"/>
</g>
</svg>
