<?xml version="1.0" encoding="utf-8"?>
<!-- Generator: Adobe Illustrator 19.0.0, SVG Export Plug-In . SVG Version: 6.00 Build 0)  -->
<svg version="1.1" id="Layer_1" xmlns="http://www.w3.org/2000/svg" xmlns:xlink="http://www.w3.org/1999/xlink" x="0px" y="0px"
	 viewBox="-112.1 726.2 338.8 351.6" style="enable-background:new -112.1 726.2 338.8 351.6;" xml:space="preserve">
<style type="text/css">
	.st0{fill:#6AC4FF;}
	.st1{fill:#5890F4;}
	.st2{fill:#FFFFFF;}
	.st3{fill:#CCCCCC;}
	.st4{fill:#6A0044;}
	.st5{fill:#3B444F;}
	.st6{fill:#4B5866;}
	.st7{fill:#86C5EF;}
	.st8{fill:#F4B77A;}
	.st9{fill:#E08653;}
	.st10{fill:#FF153E;}
	.st11{fill:#343B44;}
	.st12{fill:#E5072D;}
	.st13{fill:#EF4118;}
	.st14{fill:#FF682A;}
	.st15{fill:#72212F;}
	.st16{fill:#872323;}
</style>
<g id="XMLID_276_">
	<g id="XMLID_3242_">
		<circle id="XMLID_2444_" class="st0" cx="57.3" cy="908.4" r="168.1"/>
	</g>
	<path id="XMLID_3239_" class="st1" d="M142.8,953.4c-0.7-5.6-2.1-11.5-4-17.2c0.5-0.9,3.4-6,3-12.3c-0.3-5.8-1.8-9.8-4.4-12.1
		c-0.5-2.3-1.8-5.5-4.6-7.5c-0.1-1-0.5-2.9-2-4.7c-1.2-1.4-2.9-2.4-5.1-3c-1.3-1.3-8.3-7.7-18-7.7l0,0c-0.4,0-0.7,0-1.1,0
		c-14.1-11.1-30.9-17.1-49.8-17.8c0.3-1,0.7-2.1,1.1-3.1c0.7-1.9,1.6-3.9,2.4-5.9c1.6-4,3.1-8.1,3.7-12.6c0.3-2.2,0.4-4.5,0.1-6.8
		c0-0.3-0.1-0.6-0.1-0.9l-0.2-0.8c-0.1-0.6-0.2-1.1-0.4-1.6l-0.8-3.1c-0.5-2.1-1-4.1-1.1-6c-0.1-2,0-4,0.3-6.1
		c0.3-2.2,0.4-4.4,0.4-6.5c0-1.4-0.1-2.8-0.2-4.3c3.7,1.5,11.1,4,15.5,2c1.6-0.7,2.7-2,3.2-3.7c1.6-5.6-4.3-25.2-16.3-36.2
		c-6-5.5-12.8-8-19.7-7.3c-3.2-2.7-18-15.2-30.7-22c-22.9,6.1-43.9,16.9-61.8,31.3c-5.3,10.5-9,25.8-5.9,47.2
		c-0.8-0.1-1.6-0.2-2.5-0.1c-1,0.1-2.1,0.3-3.1,0.9c-1,0.6-1.8,1.4-2.3,2.4c-1,1.9-1.1,3.9-1,5.8c0,0.5,0.1,0.9,0.1,1.3l0.2,1.3
		c0.1,0.8,0.2,1.7,0.4,2.5s0.3,1.7,0.6,2.5c0.2,0.8,0.4,1.7,0.7,2.5c1,3.3,2.3,6.5,4.1,9.5s3.9,5.8,6.4,8.2c1.2,1.2,2.5,2.3,3.9,3.4
		c1.4,1.1,3.1,2.1,5,2.6s3.9,0.5,5.7,0c0.9-0.3,1.8-0.6,2.6-1.1c0.2-0.1,0.3-0.2,0.5-0.3c0.1,0.2,0.2,0.5,0.3,0.7
		c0.9,1.9,2,3.9,3,5.7c2.1,3.8,4.4,7.4,6.8,11c0.8,1.2,1.7,2.4,2.5,3.5c0.6,2.1,2.5,10.2,2.3,17.5c-0.2,0-0.5,0.1-0.7,0.2
		c-2.5,1.6-6.6,4.2-8.5,5.1l0,0c-0.4-0.2-0.8-0.4-0.9-0.4c-1.5-1-3.6-0.4-6.8,0.5c-1,0.3-2.2,0.7-3.5,1c-4.5,1.1-6.3,4-6.9,5.1
		c-1.6,0.6-3.6,1.2-5.3,1.4c-1,0.1-3.2,0.4-10,15.6c-3.9,8.7-7.8,18.9-10.1,25.4c-5,14.1-5.9,31.1-3.2,35.4c-1.1,3.8-2.6,9.8-3,16.4
		c6.8,8.9,14.4,17.1,22.8,24.5c6.4-0.9,21.4-4.2,27.3-16.7c0,0,0,0,0.1,0c2.3,0.2,4.6,0.2,7,0l0,0c0.3,1.6,0.9,5,1.5,9.6
		c7,3.2,14.3,6,21.7,8.3c15.2,4.8,31,7.9,46.9,9.4c9,0.9,18.4,1.6,27.4,0.6c0.3-1.9,2.7-3.4,4.4-1.6c0.3,0.3,0.5,0.6,0.7,0.8
		c4.9-0.9,9.7-2.4,14.3-4.8c3-1.5,5.7,3,2.7,4.5c-4.2,2.2-8.6,3.7-13.1,4.8c0.4,0.5,0.8,0.9,1.1,1.4
		C141,1031.7,147.4,988,142.8,953.4z M78.2,1007.3c-2,0.8-5.1,0.9-6.9,0.9c0.8-8.7,1.3-17.9,0.9-25.3c0.5-1.4,0.8-2.7,1.1-4
		c0.2-0.7,0.3-1.4,0.4-2.2c0.1-0.7,0.2-1.4,0.3-2.2c0.4-2.9,0.5-5.8,0.5-8.7c0-2.5-0.2-5-0.4-7.5c0.4,0,0.9-0.1,1.3-0.1
		c6.1,3.8,10.1,4.6,12.3,4.6c0.3,0,0.6,0,0.8,0c0.9,4.4,1.3,8.9,1.3,13.6C89.8,992.8,83.8,1002.1,78.2,1007.3z"/>
	<g id="XMLID_3233_">
		<circle id="XMLID_2437_" class="st2" cx="57.3" cy="908.4" r="149.7"/>
	</g>
	<path id="XMLID_3225_" class="st3" d="M138.8,936.1c0.5-0.9,3.4-6,3-12.3c-0.3-5.8-1.8-9.8-4.4-12.1c-0.5-2.3-1.8-5.5-4.6-7.5
		c-0.1-1-0.5-2.9-2-4.7c-1.2-1.4-2.9-2.4-5.1-3c-1.3-1.3-8.3-7.7-18-7.7l0,0c-0.4,0-0.7,0-1.1,0c-14.1-11.1-30.9-17.1-49.8-17.8
		c0.3-1,0.7-2.1,1.1-3.1c0.7-1.9,1.6-3.9,2.4-5.9c1.6-4,3.1-8.1,3.7-12.6c0.3-2.2,0.4-4.5,0.1-6.8c0-0.3-0.1-0.6-0.1-0.9l-0.2-0.8
		c-0.1-0.6-0.2-1.1-0.4-1.6l-0.8-3.1c-0.5-2.1-1-4.1-1.1-6c-0.1-2,0-4,0.3-6.1c0.3-2.2,0.4-4.4,0.4-6.5c0-1.4-0.1-2.8-0.2-4.3
		c3.7,1.5,11.1,4,15.5,2c1.6-0.7,2.7-2,3.2-3.7c1.6-5.6-4.3-25.2-16.3-36.2c-6-5.5-12.8-8-19.7-7.3c-1.4-1.2-4.9-4.1-9.4-7.7
		c-35.7,5.3-67.3,23.2-90.1,49c0,4.7,0.3,9.7,1.1,15.1c-0.8-0.1-1.6-0.2-2.5-0.1c-1,0.1-2.1,0.3-3.1,0.9c-1,0.6-1.8,1.4-2.3,2.4
		c-1,1.9-1.1,3.9-1,5.8c0,0.5,0.1,0.9,0.1,1.3l0.2,1.3c0.1,0.8,0.2,1.7,0.4,2.5c0.2,0.8,0.3,1.7,0.6,2.5c0.2,0.8,0.4,1.7,0.7,2.5
		c1,3.3,2.3,6.5,4.1,9.5s3.9,5.8,6.4,8.2c1.2,1.2,2.5,2.3,3.9,3.4s3.1,2.1,5,2.6s3.9,0.5,5.7,0c0.9-0.3,1.8-0.6,2.6-1.1
		c0.2-0.1,0.3-0.2,0.5-0.3c0.1,0.2,0.2,0.5,0.3,0.7c0.9,1.9,2,3.9,3,5.7c2.1,3.8,4.4,7.4,6.8,11c0.8,1.2,1.7,2.4,2.5,3.5
		c0.6,2.1,2.5,10.2,2.3,17.5c-0.2,0-0.5,0.1-0.7,0.2c-2.5,1.6-6.6,4.2-8.5,5.1l0,0c-0.4-0.2-0.8-0.4-0.9-0.4c-1.5-1-3.6-0.4-6.8,0.5
		c-1,0.3-2.2,0.7-3.5,1c-4.5,1.1-6.3,4-6.9,5.1c-1.6,0.6-3.6,1.2-5.3,1.4c-1,0.1-3.2,0.4-10,15.6c-3.9,8.7-7.8,18.9-10.1,25.4
		c-2.4,6.8-3.9,14.2-4.4,20.6c10,18.8,24,35.2,40.8,48.1c3-2.3,5.7-5.3,7.5-9.2c0,0,0,0,0.1,0c2.3,0.2,4.6,0.2,7,0l0,0
		c0.6,2.8,1.9,10.3,2.3,20.5C5,1050.8,30.4,1058,57.6,1058c3.4,0,6.8-0.1,10.1-0.3c0.1-0.6,0.1-1.3,0.2-2c3.2-0.1,7.8-1.2,8-1.2
		c64.4-16.3,72.1-64,67.2-101.1C142,947.8,140.7,941.9,138.8,936.1z M78.2,1007.3c-2,0.8-5.1,0.9-6.9,0.9c0.8-8.7,1.3-17.9,0.9-25.3
		c0.5-1.4,0.8-2.7,1.1-4c0.2-0.7,0.3-1.4,0.4-2.2c0.1-0.7,0.2-1.4,0.3-2.2c0.4-2.9,0.5-5.8,0.5-8.7c0-2.5-0.2-5-0.4-7.5
		c0.4,0,0.9-0.1,1.3-0.1c6.1,3.8,10.1,4.6,12.3,4.6c0.3,0,0.6,0,0.8,0c0.9,4.4,1.3,8.9,1.3,13.6C89.8,992.8,83.8,1002.1,78.2,1007.3
		z"/>
	<g id="XMLID_3214_">
		<path id="XMLID_3215_" class="st4" d="M57.3,1077.8c-45.3,0-87.8-17.6-119.8-49.6c-32-32-49.6-74.5-49.6-119.8
			c0-45.3,17.6-87.8,49.6-119.8S12,739,57.3,739s87.8,17.6,119.8,49.6s49.6,74.5,49.6,119.8s-17.6,87.8-49.6,119.8
			C145.1,1060.2,102.6,1077.8,57.3,1077.8z M57.3,741.6c-91.9,0-166.7,74.8-166.7,166.7S-34.6,1075,57.3,1075S224,1000.3,224,908.4
			S149.2,741.6,57.3,741.6z"/>
	</g>
	<g id="XMLID_301_">
		<g id="XMLID_3209_">
			<g>
				<path id="XMLID_83_" class="st5" d="M97.1,1038.9c0,0,25.5-2.2,45.2-17.1s25.5-31.6,26.9-36.6c1.5-5,6-22.1,3.8-41.6
					c-1.9-17-6.7-36.6-22.5-55.6c-15.7-19-37-26.5-37-26.5s-11-3.6-18.5-4.2s-9.4-0.6-9.4-0.6l-2.2,8.9c0,0-1.5,8.2-1.7,11.7
					s-1.1,11.5-3.6,14.1c-2.5,2.5-5.8,4.4-5.8,4.4l0.5,3c0,0,2.7,0,4.5,0.5s19.5,6.9,27,15.9c7.4,8.9,16.5,21.2,17.4,38.3
					c0.8,17-2.6,26.4-4.2,29.6c-1.7,3.2-7.5,10-7.5,10s-7.1,4.9-8.1,5.2c-1,0.4-1.6,0.4-1.6,0.4L97.1,1038.9z"/>
			</g>
		</g>
		<g id="XMLID_3207_">
			<path id="XMLID_2424_" class="st6" d="M112.7,877c0,0,7.4,1.9,13.4,6.4s18.6,19.4,18.6,19.4l-6-14.7l12.4,13.6l-1.9-7.8
				l10.9,12.2l2.5,5.8l-5.6-5l-0.2,6.6l-6.4-8.1l3.3,16.5l-11.8-16.5c0,0,4.3,12.2,4.3,26s-3.3,18.2-3.3,18.2s0.6-24.1-2.7-33.2
				c-3.3-9.1-6.8-11.8-6.8-11.8l-0.4,17.3c0,0-0.2-7.2-5.2-20.2C122.6,888.7,112.7,877,112.7,877z"/>
		</g>
		<g id="XMLID_3205_">
			<path id="XMLID_2423_" class="st7" d="M-10.5,900.4c0,0-7.7,2.1-8.6,2.6c-0.9,0.5-4.5,5.1-7,10.6s-9.4,22.3-9.4,22.3
				s-5.2,13.6-6.2,20.9c-0.9,7.3-1.1,13.1-1.1,14.3c0.1,1.2,1.3,6.3,1.3,6.3s-1.9-2.3,3.8-3.9c5.8-1.6,13-2.3,13-2.3h10.3
				c0,0,1.9-18.8,3-21.6c1.1-2.8,2.3-5.5,3.3-6.2c1.1-0.8,5.6-3.7,10.3-4s12.6-0.7,12.6-0.7l19.2-0.1c0,0,26.3-2.5,31.5-2.1
				c5.2,0.4,23.5,2.2,23.5,2.2l12.3,27.3c0,0,2.3-6.3,2.5-13.2c0.3-7,0-11.4,0-11.4s3.1,0,6.7-1s7-4,7-4s-4.4-10.2-10.4-18
				c-6-7.9-14.9-13.2-20.8-15.6c-5.9-2.4-12.4-4.1-12.4-4.1s-6.4,6.7-17,6.3c-10.6-0.4-15-0.9-22.1-3.1s-14.3-5.1-15.8-6.2
				c-1.5-1.1-6.1-5.6-6.1-5.6S-0.8,899.2-10.5,900.4z"/>
		</g>
		<g id="XMLID_3203_">
			<path id="XMLID_2422_" class="st8" d="M-40.1,974.7c0,0-4.1,14-4.1,20s0.5,18.6,6.3,22c5.8,3.4,18.1,1.1,22.8-0.7
				c4.7-1.8,12.2-6,13.8-7.8s4.8-6.9,4.8-6.9s6.2,0.4,9.8-0.6s7.4-2.5,8.8-3.8s3.7-1.5,5-2.7c1.2-1.2,3.4-5.5,3.4-7.9
				c0-2.4-1.1-5.2-1.1-5.2s1.8-5.5,1.6-7.4c-0.2-1.9-1.1-4.7-1.1-4.7l-1.6-1.4c0,0,1.7-5.3,1.6-6.9c-0.1-1.6-1.1-5.1-1.1-5.1
				l-0.6-0.9c0,0,1.2-6.2-0.3-8.8s-2.8-4.1-6.7-5.6c-3.8-1.5-6.2-1.7-6.2-1.7l-2.6,0.1c0,0,1.6-13.5-0.7-17.7
				c-2.3-4.2-3.9-6.7-13.1-7.4c-9.1-0.7-6.2,6.3-6.2,6.3s1.2,8.3,1.2,10.5c0,2.1-0.5,12.2-0.5,12.2s-4.9,2.4-5.9,15.2
				c-1,12.8-1.5,13.4-1.5,13.4s-8.1-0.3-12.5,0.2C-31,971.8-37.2,972.9-40.1,974.7z"/>
		</g>
		<g id="XMLID_3201_">
			<path id="XMLID_2421_" class="st9" d="M106.8,941.3c0,0,3.8,2.6,6.8,3.5c3,0.9,6.8,0.8,6.8,0.8l-2.4-8.8
				C118,936.8,113.5,940.5,106.8,941.3z"/>
		</g>
		<g id="XMLID_3199_">
			<path id="XMLID_2420_" class="st8" d="M168.5,920c0,0,4.6-9.9,2.5-15.6s-3.9-7.6-3.9-7.6s-2.1-4.4-2.7-5.8c-0.6-1.4-2-1.8-2-1.8
				s-0.4-4-2.6-5.3c-2.3-1.3-3.9-1.9-3.9-1.9s-5.4-5.3-11.6-6.7c-6.2-1.4-11.5-0.4-15.4,1c-3.9,1.4-4.3,3.1-3.3,4.8
				c1,1.7,2,2.6,3.3,2.8s8,0.2,8,0.2s-6.6,2.8-7,5.3c-0.3,2.4,1.4,4.7,2.8,5c1.3,0.2,4.2-0.9,4.2-0.9s-2.4,1.8-0.7,3.9
				c1.7,2.1,3.1,3.6,5.5,3.4c2.4-0.2,4.9-1.1,4.9-1.1s-1.6,4.1,0.7,5.9c2.4,1.8,4.7,0.8,7.8,0.1c3-0.7,6.3-1.2,6.3-1.2L168.5,920z"
				/>
		</g>
		<g id="XMLID_3195_">
			<path id="XMLID_2419_" class="st10" d="M101.4,963c-0.4-2.5-1.7-15.4-1.7-20.4c-0.1-5-2-17.8-3.3-22.6
				c-1.3-4.8-4.6-12.6-4.6-12.6s-2.2-3.4-5-4.7s-11.3-4.6-10.7-3.7c0.6,0.9,3.3,5.2,6.9,13.3c3.6,8.1,5.9,17.4,6.4,20.1
				s1,6.5-0.5,6.4c-1.5-0.1-13.3-2.2-26.7-2.3c-13.4-0.1-29.1,2.3-29.1,2.3s-4.4-14-6.9-19s-8-14.8-12.4-18.1s-11.2-7.1-11.2-7.1
				s-3.1,1-7.6,1.6c-4.5,0.6-6.3,3-6.6,3.4c-0.3,0.4,4.9,1.8,10.1,5.5c5.2,3.7,9.3,8.3,10.9,11.5c0.3,0.6,0.6,1.2,0.9,2
				c0.6,0.8,1.1,1.7,1.6,2.6c0.6,1.1,1,3,1.1,5c0.2,0.6,0.3,1,0.4,1.3c0.4,1.3,1.4,7.4,1.4,7.4l0.3,3.9c0,0,2.4,0.2,6.2,1.7
				c3.8,1.5,5.2,3,6.7,5.6c1.5,2.6,0.3,8.8,0.3,8.8l0.6,0.9c0,0,1,3.5,1.1,5.1c0.1,1.6-1.6,6.9-1.6,6.9l1.6,1.4c0,0,0.9,2.7,1.1,4.7
				c0.2,1.9-1.6,7.4-1.6,7.4s1.1,2.8,1.1,5.2c0,2.4-2.2,6.7-3.4,7.9c-1.2,1.2-3.5,1.4-5,2.7c-1.5,1.3-5.3,2.8-8.8,3.8
				c-0.2,0.1-0.4,0.1-0.7,0.2l0,0c0,0,1.8,15,2.5,20.9c0.7,5.8-0.1,15.7-0.1,15.7l-1.6,14.1c0,0,9.1,3,25.4,5.4
				c16.3,2.4,33.8,0.7,40.4-0.4c6.5-1.1,16.8-3.9,16.8-3.9l3.4-42.8l2.3-27.7C101.7,982,101.7,965.5,101.4,963z"/>
		</g>
		<g id="XMLID_3193_">
			<path id="XMLID_2415_" class="st9" d="M12.6,870.8c0,0,1.1,4.3,1.5,8.2c0.4,3.8,0.6,9.1,0.6,9.5c0,0.3-0.2,2.7-0.2,2.7
				s2.6,5.4,19.5,10.2s22.4,4.7,29.2,3c6.8-1.7,9.7-4.6,9.7-4.6l-0.3-4.2c0,0-3.4,1.7-17.7,0c-14.3-1.7-21.6-6.6-26.1-9
				C22.5,883.2,12.6,870.8,12.6,870.8z"/>
		</g>
		<g id="XMLID_3189_">
			<path id="XMLID_2414_" class="st4" d="M100.3,998.9c0,0,3.8-1.7,5.1-2.7c1.3-1,3.2-2.8,3.2-2.8l-7.8,0.6L100.3,998.9z"/>
		</g>
		<g id="XMLID_3185_">
			<path id="XMLID_2413_" class="st6" d="M129.1,1014.4c0,0,9.2-6.3,14-20c4.8-13.6,3.4-21.3,3.4-21.3s0.8,3.3,0.8,6.9
				c0,3.6,0.2,4.8-0.4,8.7s-1.5,8.5-1.5,8.5s2.4-2.7,2.9-3.8c0.6-1.1,1.2-4.6,1.2-4.6s0.7,2.9,0.5,4.2c-0.2,1.3-1.4,6.5-1.4,6.5
				s3.4-3.9,5.6-11.1s2.9-16,2.9-16l-0.1-4.3c0,0,1.7,11.5,1.2,16.2s-1.8,11.6-1.8,11.6s1.5-2,2.3-4s1.2-3.6,1.2-3.6s0,3.5-0.1,4.5
				s-0.6,2.3-0.6,2.3s2.3-2.7,2.8-4s1.3-2.2,1.3-2.2s-2.3,5.9-4.9,10.1s-11.4,9.4-11.4,9.4l2.5-5.3c0,0-5,4.7-10.1,7.4
				C134.3,1013.2,129.1,1014.4,129.1,1014.4z"/>
		</g>
		<g id="XMLID_3177_">
			<g>
				<g id="XMLID_84_">
					<path class="st11" d="M104.1,886.2c-7.9-5.5-16.2-7.8-22.2-8.7c-0.2,3.6-1.2,11.3-3.6,13.8c-2.5,2.5-5.8,4.4-5.8,4.4l0.5,3
						c0,0,2.7,0,4.5,0.5s19.5,6.9,27,15.9c7.4,8.9,16.5,21.2,17.4,38.3c0.8,17-2.6,26.4-4.2,29.6c-1.7,3.2-7.5,10-7.5,10
						s-7.1,4.9-8.1,5.2c-1,0.4-1.6,0.4-1.6,0.4l-2.6,33c8-1.8,23.5-8.8,32-24.1c10.6-19.1,13.7-40.2,8.7-65.9
						C133.4,915.8,118.2,895.9,104.1,886.2z"/>
				</g>
			</g>
		</g>
		<g id="XMLID_3119_">
			<g id="XMLID_3175_">
				<path id="XMLID_2403_" class="st12" d="M28.2,954.8l0.6,0.9c0,0,1,3.5,1.1,5.1c0.1,1.6-1.6,6.9-1.6,6.9l1.6,1.4
					c0,0,0.9,2.7,1.1,4.7c0.2,1.9-1.6,7.4-1.6,7.4s1.1,2.8,1.1,5.2c0,2.4-2.2,6.7-3.4,7.9c-1.2,1.2-3.5,1.4-5,2.7
					c-1.5,1.3-5.3,2.8-8.8,3.8c-0.2,0.1-0.4,0.1-0.7,0.2c0,0,1.8,15,2.5,20.9c0.7,5.8-0.1,15.7-0.1,15.7l-1.6,14.1
					c0,0,7.7,2.6,21.6,4.8c3.2-21.9,1.9-69.6-6.4-104.9C28.5,953.3,28.2,954.8,28.2,954.8z"/>
			</g>
			<g id="XMLID_3120_">
				<path id="XMLID_2402_" class="st12" d="M10.1,918.4c0.6,0.8,1.1,1.7,1.6,2.6c0.6,1.1,1,3,1.1,5c0.2,0.6,0.3,1,0.4,1.3
					c0.4,1.3,1.4,7.4,1.4,7.4l0.3,3.9c0,0,2.4,0.2,6.2,1.7c2.9,1.1,4.3,2.3,5.5,3.8c-2.4-8.6-5.2-16.2-8.6-22.1
					c-9.4-16.6-18.2-23.2-24.5-25.8c-3.6,0.8-5,2.8-5.3,3.2c-0.3,0.4,4.9,1.8,10.1,5.5c5.2,3.7,9.3,8.3,10.9,11.5
					C9.5,917,9.8,917.7,10.1,918.4z"/>
			</g>
		</g>
		<g id="XMLID_3117_">
			<path id="XMLID_2401_" class="st9" d="M-13.9,969.1c0,0-2.6,12.5,3.4,21.6c6.1,9.1,6.4,11,16.8,10.6c10.5-0.4,15.8-4.4,15.8-4.4
				l-1-0.7c0,0-15.5,1.8-20.3,0.2c-4.7-1.6-12.1-46-11.3-49.1C-9.7,944.1-13.9,963.5-13.9,969.1z"/>
		</g>
		<g id="XMLID_3115_">
			<path id="XMLID_2400_" class="st9" d="M-6.3,914.4c0,0,5.2,0.6,7.2,5.8s1.5,19.1,1.5,19.1l-9.2,3.2c0,0,0.8-11.5,0-17.1
				C-7.5,920-10.1,916.7-6.3,914.4z"/>
		</g>
		<g id="XMLID_3113_">
			<path id="XMLID_2390_" class="st9" d="M-37.9,1016.6c5.8,3.3,18.1,1.1,22.8-0.7s12.2-6,13.8-7.8c1.4-1.5,4-5.7,4.6-6.7
				c-2.9-7.8-10.9-14.1-11.6-10.2c-1,5.4-15.5,15.5-25,15.8c-9.4,0.3-10.9-12.4-10.9-12.4C-44.2,1000.6-43.7,1013.3-37.9,1016.6z"/>
		</g>
		<g id="XMLID_3102_">
			<path id="XMLID_3103_" class="st4" d="M55.8,906.3c-14.7,0-30.8-6.5-31.9-6.9c-6.7-2.7-9.4-6-10.7-7.6l0,0
				c-2.2,1.4-7.3,4.6-8.9,5.2l-0.9-2.6c1.2-0.4,6.3-3.6,9.2-5.5c0.4-0.3,0.9-0.3,1.3-0.1c0.5,0.2,0.8,0.6,1.3,1.3
				c1.2,1.5,3.6,4.3,9.7,6.8c12.5,5.1,38.6,11.7,48.3,0.6l2,1.8C70.7,904.6,63.4,906.3,55.8,906.3z M12.6,891.2L12.6,891.2
				L12.6,891.2z"/>
		</g>
		<g id="XMLID_3097_">
			<path id="XMLID_2387_" class="st4" d="M-42.5,978.2c-2.8-4.1-1.9-21.3,3.1-35.5c2.3-6.6,6.2-16.7,10.1-25.4
				c6.8-15.2,9-15.4,10-15.6c3.4-0.4,8.2-2.5,8.3-2.5l1.1,2.5c-0.2,0.1-5.2,2.2-8.9,2.7c-2.5,1.1-11.1,19.8-18,39.2
				c-5.2,14.7-5.4,30.3-3.4,33.1L-42.5,978.2z"/>
		</g>
		<g id="XMLID_3091_">
			<path id="XMLID_2386_" class="st4" d="M-41.3,977l-1.6-2.2c9.5-7.1,28.1-4.7,28.9-4.5l-0.4,2.7C-14.5,973-32.6,970.6-41.3,977z"
				/>
		</g>
		<g id="XMLID_3086_">
			<path id="XMLID_2385_" class="st4" d="M-29,1019.4c-5.2,0-10.1-0.9-11.8-3.2c-10.4-14.7-1-40.8-0.6-41.9l2.5,0.9
				c-0.1,0.3-9.4,25.9,0.2,39.4c0.9,1.3,6.3,2.6,14.1,1.8c4.9-0.5,21.1-3.1,26.8-15.8l2.5,1.1c-6.2,14-23.7,16.8-29,17.4
				C-25.8,1019.3-27.4,1019.4-29,1019.4z"/>
		</g>
		<g id="XMLID_3080_">
			<path id="XMLID_2359_" class="st4" d="M-34.9,987.9c1.2-1.9,2.5-3.6,3.9-5.3c1.4-1.7,3-3.2,4.7-4.7s3.5-2.8,5.5-3.9
				c2-1.1,4.1-2,6.3-2.7l0.6,2.6c-2,0.4-4,1-6,1.9c-1.9,0.9-3.8,1.9-5.5,3.2c-1.8,1.2-3.4,2.6-5,4.1S-33.5,986.2-34.9,987.9z"/>
		</g>
		<g id="XMLID_3073_">
			<path id="XMLID_2358_" class="st4" d="M97.3,1053.2l-2.7-0.4c0.8-5.5,1.6-17.3,2.4-28.6c0.6-8.1,1.1-15.7,1.6-21.1l0.2-2.2
				c1.2-12.5,2.7-28,1.2-37.9c-1.2-8.2-1.4-12.1-1.5-15.8c0-1.1-0.1-2.2-0.2-3.5s-0.1-2.3-0.1-3.2c0-3.1,0.1-6.1-3.1-19.5
				c-3.2-13.5-6.3-15.3-9-16.9c-0.3-0.2-0.7-0.4-1-0.6c-1.5-1-4.2-1.8-6.4-2.4c1.1,1.8,2.5,4.3,3.6,6.8c6.3,14,10,28.7,7.9,31.4
				c-0.4,0.6-1.1,0.8-1.8,0.7c-0.2,0-18.3-2.7-31-2.2C45,938.3,33.1,940,33,940c-0.7,0.1-1.4-0.4-1.5-1.1c0-0.1-1.7-9-9.2-23.7
				C15.6,902,6.4,898,3,896.5c-0.7-0.3-1.1-0.5-1.4-0.7c-0.5-0.3-2.6,0.3-4.5,0.9c-1.1,0.3-2.3,0.7-3.6,1c-4,1-5.2,3.8-5.2,3.9
				l-2.5-1c0.1-0.2,1.6-4.2,7.1-5.6c1.3-0.3,2.5-0.7,3.5-1c3.1-0.9,5.2-1.6,6.8-0.5c0.1,0.1,0.6,0.3,0.9,0.4
				c3.7,1.6,13.5,5.9,20.6,19.9c6.2,12,8.5,20.2,9.2,23.2c3.4-0.5,13.3-1.7,23.5-2.1c11.5-0.4,27.3,1.7,30.8,2.1
				c0.3-2.7-1.8-13.8-8.3-28.3c-2-4.4-5.1-9.1-5.1-9.2c-0.3-0.5-0.3-1,0-1.5c0.3-0.4,0.8-0.7,1.4-0.6c0.3,0.1,7.2,1.3,10.5,3.5
				c0.3,0.2,0.6,0.4,0.9,0.6c3.2,1.9,6.7,4,10.2,18.6c3.2,13.7,3.2,16.8,3.2,20.1c0,0.9,0,1.8,0.1,3c0.1,1.3,0.1,2.4,0.2,3.5
				c0.1,3.8,0.3,7.5,1.5,15.5c1.5,10.2,0,25.9-1.2,38.5l-0.2,2.2c-0.5,5.4-1,13-1.6,21C98.9,1035.8,98.1,1047.6,97.3,1053.2z"/>
		</g>
		<g id="XMLID_3069_">
			<path id="XMLID_2357_" class="st4" d="M14.7,1051.7l-2.7-0.5c4.6-26.6-0.8-50-0.8-50.2l2.6-0.6
				C13.9,1000.7,19.4,1024.6,14.7,1051.7z"/>
		</g>
		<g id="XMLID_3061_">
			<path id="XMLID_2356_" class="st4" d="M8.2,917.5c-5.2-11.2-20.5-16.3-20.7-16.3l0.8-2.6c0.7,0.2,16.5,5.5,22.3,17.8L8.2,917.5z"
				/>
		</g>
		<g id="XMLID_3055_">
			<path id="XMLID_2355_" class="st4" d="M100.5,966.6c0.4-1.2,0.8-2.6,1.1-4c0.3-1.4,0.5-2.7,0.8-4.1c0.5-2.8,0.7-5.6,0.8-8.4
				c0-1.4,0.1-2.8,0.1-4.2c0-0.7,0-1.4,0-2.1l-0.1-2.1v-1.1l-0.1-1.1c-0.1-0.7-0.1-1.4-0.1-2.1c-0.1-1.4-0.1-2.9,0-4.3
				c0.6,1.3,1.1,2.7,1.4,4.2c0.1,0.7,0.3,1.4,0.4,2.1l0.2,1.1l0.1,1.1c0.4,2.9,0.5,5.8,0.6,8.7c0,2.9-0.2,5.8-0.5,8.7
				c-0.1,0.7-0.2,1.5-0.3,2.2c-0.1,0.7-0.3,1.4-0.4,2.2c-0.3,1.5-0.7,2.8-1.2,4.3L100.5,966.6z"/>
		</g>
		<g id="XMLID_3051_">
			<path id="XMLID_2354_" class="st4" d="M104.1,942.8l-0.1-2.7c7.6-0.1,12.6-3.8,12.7-3.8l1.6,2.2
				C118.1,938.5,112.6,942.6,104.1,942.8z"/>
		</g>
		<g id="XMLID_3047_">
			<path id="XMLID_2351_" class="st4" d="M118.7,947.2c-2.3,0-6.3-0.8-12.6-4.8l1.4-2.3c8.7,5.6,12.3,4.3,12.3,4.3l1.2,2.4
				C120.8,946.9,120.1,947.2,118.7,947.2z"/>
		</g>
		<g id="XMLID_3043_">
			<path id="XMLID_2350_" class="st4" d="M-14.5,977c-1.1-3.5-0.8-7-0.5-10.5s0.6-6.9,1.1-10.4c0.2-1.7,0.5-3.5,0.9-5.2
				s0.8-3.5,1.5-5.3l0.3-0.7c0.1-0.2,0.3-0.5,0.4-0.7c0.3-0.4,0.6-0.9,1-1.2c0.7-0.7,1.5-1.3,2.3-1.8c1.6-1,3.3-1.7,5.1-2.3
				c3.5-1.1,7-1.6,10.6-1.8c1.8-0.1,3.6-0.1,5.4,0.1c0.9,0.1,1.8,0.2,2.7,0.4c0.9,0.2,1.7,0.3,2.6,0.5c1.7,0.4,3.5,0.9,5.3,1.7
				c0.9,0.4,1.7,1,2.5,1.7s1.4,1.6,1.9,2.5c1.7,3.5,2.1,7.5,0.8,11.3l-2.5-0.9c0.1-0.3,0.2-0.7,0.2-1.1c0.1-0.4,0.1-0.8,0.1-1.2
				c0.1-0.8,0-1.6,0-2.3c-0.1-0.8-0.2-1.5-0.5-2.3c-0.2-0.8-0.5-1.5-0.9-2.1c-0.4-0.6-0.8-1.2-1.3-1.6c-0.5-0.4-1.1-0.8-1.8-1.2
				c-1.4-0.6-3-1.1-4.6-1.4c-0.8-0.2-1.7-0.3-2.5-0.5c-0.8-0.1-1.6-0.2-2.4-0.3c-1.6-0.1-3.3-0.1-5-0.1c-3.3,0.2-6.7,0.7-9.8,1.6
				c-1.6,0.5-3.1,1.1-4.4,1.9c-0.7,0.4-1.3,0.8-1.8,1.3c-0.2,0.2-0.5,0.5-0.6,0.8l-0.2,0.4l-0.2,0.5c-0.6,1.4-1,3-1.4,4.7
				c-0.4,1.6-0.7,3.3-1,5c-0.6,3.4-1,6.8-1.3,10.2C-12.7,970.2-13,973.6-14.5,977z"/>
		</g>
		<g id="XMLID_3039_">
			<path id="XMLID_2346_" class="st4" d="M-2.2,1000.7c2.3-0.3,4.6-0.3,6.8-0.4c2.2,0,4.4-0.2,6.6-0.6c1.1-0.2,2.1-0.4,3.2-0.7
				c1-0.3,2-0.6,3-1c1-0.4,1.9-0.9,2.8-1.4c0.4-0.3,0.9-0.6,1.3-0.9c0.2-0.2,0.4-0.3,0.6-0.5c0.2-0.1,0.4-0.3,0.5-0.4l2,1.8
				c-0.3,0.3-0.5,0.5-0.7,0.7s-0.5,0.4-0.7,0.6c-0.5,0.4-1,0.8-1.5,1.1c-1,0.7-2.1,1.2-3.2,1.7c-2.2,0.9-4.6,1.4-6.9,1.6
				c-2.3,0.2-4.7,0.2-7,0c-1.1-0.1-2.3-0.3-3.4-0.5C0,1001.5-1.1,1001.2-2.2,1000.7z"/>
		</g>
		<g id="XMLID_3035_">
			<path id="XMLID_2344_" class="st4" d="M10.7,996.8c4.1-0.6,8.1-1.2,11.9-2.2c0.9-0.2,1.9-0.6,2.7-0.9l0.6-0.3
				c0.2-0.1,0.3-0.2,0.5-0.3c0.3-0.2,0.6-0.5,0.8-0.8c1-1.3,1.5-3.1,1.7-5c0.1-0.9,0.2-1.9,0.1-2.8c0-0.5-0.1-0.9-0.1-1.3
				c0-0.2-0.1-0.4-0.1-0.6s-0.1-0.3-0.1-0.3s0,0.1,0.1,0.1c0.1,0.1,0.2,0.1,0.3,0.2c0.1,0.1,0.4,0,0.3,0h-0.2h-0.7H27h-3.1
				c-4.1,0-8.2-0.1-12.3-0.5c4-0.9,8.1-1.5,12.2-1.9c1-0.1,2-0.2,3.1-0.3l1.5-0.1h0.8h0.2c0,0,0.4,0,0.7,0.1
				c0.3,0.1,0.4,0.2,0.6,0.3c0.1,0.1,0.2,0.2,0.3,0.4c0.3,0.4,0.5,0.8,0.6,1.1s0.2,0.6,0.3,0.9c0.1,0.6,0.2,1.2,0.2,1.7
				c0.1,1.1,0,2.2-0.1,3.3c-0.2,1.1-0.4,2.2-0.8,3.3s-0.9,2.2-1.7,3.1c-0.4,0.5-0.9,0.9-1.4,1.3c-0.3,0.2-0.6,0.3-0.8,0.5l-0.8,0.3
				c-1.1,0.4-2.1,0.7-3.2,0.9c-2.1,0.4-4.2,0.5-6.3,0.5c-2.1,0-4.1-0.1-6.2-0.5L10.7,996.8z"/>
		</g>
		<g id="XMLID_3031_">
			<path id="XMLID_2342_" class="st4" d="M7.4,968.3c2.9-0.8,5.8-1.3,8.8-1.7c3-0.4,5.9-0.6,9-0.6c0.8,0,1.5,0,2.4,0.1
				c0.4,0.1,0.8,0.1,1.3,0.3l0.4,0.1c0.1,0,0.3,0.1,0.4,0.2c0.2,0.1,0.9,0.6,0.9,0.7c0.7,0.8,1,1.6,1.3,2.4s0.4,1.6,0.5,2.5
				c0.4,3.3-0.3,6.6-1.9,9.4l-2.4-1.2c1.1-2.5,1.5-5.2,1.2-7.8c-0.1-0.6-0.2-1.3-0.4-1.9c-0.2-0.6-0.4-1.1-0.7-1.5v-0.1
				c0,0,0,0,0,0.1c0,0,0,0,0.1,0l0,0c0,0,0,0-0.1,0l-0.2-0.1c-0.2-0.1-0.5-0.1-0.9-0.2c-0.7-0.1-1.4-0.2-2.1-0.2
				c-2.9-0.2-5.8-0.2-8.8-0.2C13.4,968.5,10.4,968.5,7.4,968.3z"/>
		</g>
		<g id="XMLID_3018_">
			<path id="XMLID_2340_" class="st4" d="M6.3,954.8c2.9-0.8,5.8-1.4,8.8-1.8c3-0.4,5.9-0.6,9-0.5c0.8,0,1.5,0.1,2.4,0.2
				c0.4,0.1,0.8,0.1,1.3,0.3l0.4,0.1c0.1,0,0.3,0.1,0.4,0.2c0.2,0.1,0.9,0.6,0.9,0.7c0.7,0.8,1,1.6,1.3,2.4s0.4,1.6,0.5,2.5
				c0.3,3.3-0.3,6.6-2,9.4l-2.1-1.1c1-2.5,1.5-5.3,1.1-7.9c-0.1-0.7-0.2-1.3-0.4-1.9c-0.2-0.6-0.5-1.1-0.7-1.5v-0.1l0,0
				c0,0,0,0,0.1,0l0,0c0,0,0,0-0.1,0l-0.2-0.1c-0.2-0.1-0.6-0.1-0.9-0.2c-0.7-0.1-1.4-0.2-2.1-0.2c-2.9-0.2-5.8-0.1-8.8-0.2
				C12.3,955.1,9.3,955.1,6.3,954.8z"/>
		</g>
		<g id="XMLID_3012_">
			<path id="XMLID_2316_" class="st4" d="M-5.4,942.7l-2.7-0.3c0-0.1,0.8-8,0.4-14.9c-0.1-2.5-0.6-4.5-0.9-6.2
				c-0.7-3.3-1.3-6.1,1.6-7.7c3.6-2,15-2.5,18.9,4.3c3.5,6.3,1.8,19.8,1.7,20.4l-2.7-0.3c0-0.1,1.7-13.3-1.4-18.7
				c-2.8-5-12.3-4.9-15.2-3.3c-1.1,0.6-1,1.4-0.3,4.8c0.4,1.8,0.8,4,1,6.6C-4.6,934.6-5.4,942.4-5.4,942.7z"/>
		</g>
		<g id="XMLID_2999_">
			<g id="XMLID_3008_">
				<path id="XMLID_2315_" class="st4" d="M97.8,1040.2c-0.2,0-0.4,0-0.6,0l0.1-2.7c2.8,0.2,8.6-1.1,8.6-1.2
					c62.4-15.8,69.9-62.1,65.1-98.2c-1.4-10.9-5.3-22.7-10.8-33.1l2.4-1.3c5.6,10.7,9.6,22.8,11.1,34c4.9,37.1-2.8,84.8-67.2,101.1
					C106.3,1039,101,1040.2,97.8,1040.2z"/>
			</g>
			<g id="XMLID_3004_">
				<path id="XMLID_2314_" class="st4" d="M101.3,999.7l-0.8-2.6c0.8-0.2,20.2-6.4,20.2-36.3c0-30.6-18.8-55-46.8-60.9l0.6-2.6
					c29.3,6.2,48.9,31.7,48.9,63.6c0,16.6-6,26.3-11,31.5C107,998,101.6,999.7,101.3,999.7z"/>
			</g>
			<g id="XMLID_3000_">
				<path id="XMLID_2313_" class="st4" d="M102.4,995.3c-0.6,0-1.1,0-1.1,0l0.1-2.7c1.5,0.1,5.8,0,8.1-1l1.1,2.5
					C108.1,995.2,104.3,995.3,102.4,995.3z"/>
			</g>
		</g>
		<g id="XMLID_2982_">
			<g id="XMLID_2995_">
				<path id="XMLID_2312_" class="st4" d="M136.1,875.5C122,864.3,105,858.4,85.7,858l0.1-2.7c19.9,0.4,37.4,6.4,52.1,18
					L136.1,875.5z"/>
			</g>
			<g id="XMLID_2991_">
				<path id="XMLID_2311_" class="st4" d="M100.7,1000l-0.8-2.6l0.4,1.3l-0.4-1.3c0.9-0.3,20.8-6.7,20.8-36.6
					c0-30.6-18.8-55-46.8-60.9l0.6-2.6c29.3,6.2,48.9,31.7,48.9,63.6C123.5,992.8,101,999.9,100.7,1000z"/>
			</g>
			<g id="XMLID_2987_">
				<path id="XMLID_2310_" class="st4" d="M102.4,995.3c-0.6,0-1.1,0-1.1,0l0.1-2.7c1.5,0.1,5.8,0,8.1-1l1.1,2.5
					C108.1,995.2,104.3,995.3,102.4,995.3z"/>
			</g>
			<g id="XMLID_2983_">
				<path id="XMLID_2308_" class="st4" d="M98.3,1033.1l-0.8-2.6l4.1-1.3c16.7-6.9,28.5-20.1,34.1-38.3c8-25.8,2.8-60.2-12.6-83.7
					c-10-15.2-25.9-26.2-41.6-28.6l0.4-2.7c16.4,2.6,33,14,43.4,29.8c15.8,24.1,21.1,59.4,12.9,86c-5.9,19-18.2,32.9-35.7,40h-0.1
					L98.3,1033.1z"/>
			</g>
		</g>
		<g id="XMLID_2978_">
			<path id="XMLID_2307_" class="st4" d="M131.9,885.8c-2.1,0-3.8-0.4-5.1-1.2c-1.4-0.9-2.2-2.2-2.6-4c-0.1-0.7-0.1-1.9,0.9-3.1
				c2.1-2.6,7.4-4.2,13.6-4.2l0,0c10.5,0,17.9,7.5,18.2,7.9l-1.9,1.9c-0.1-0.1-7-7-16.3-7l0,0c-6.1,0-10.2,1.6-11.5,3.3
				c-0.2,0.2-0.4,0.6-0.4,0.9c0.2,1.1,0.6,1.8,1.4,2.3c1.2,0.8,4,1.4,10.2-0.2l0.7,2.6C136.2,885.5,133.8,885.8,131.9,885.8z"/>
		</g>
		<g id="XMLID_2974_">
			<path id="XMLID_2306_" class="st4" d="M134,895.9c-1.4,0-2.9-0.7-4-2.1c-1.7-2-1.8-4.7-0.4-6.4c2.6-3.2,11.7-7.8,22.7-7.3
				c4.4,0.2,7.6,1.5,9.6,3.7c2.2,2.5,2.1,5.3,2,5.4l-2.7-0.2l1.3,0.1l-1.3-0.1c0-0.1,0.1-1.9-1.4-3.5c-1.5-1.7-4.1-2.6-7.7-2.8
				c-10.4-0.5-18.5,3.9-20.4,6.3c-0.7,0.9-0.3,2.2,0.4,3c0.6,0.7,1.7,1.4,2.7,0.9c3.2-1.7,14.5-5.7,17.6-5.9l0.2,2.7
				c-2.6,0.2-13.3,3.9-16.5,5.6C135.3,895.8,134.6,895.9,134,895.9z"/>
		</g>
		<g id="XMLID_2970_">
			<path id="XMLID_2305_" class="st4" d="M141.9,902c-1.4,0-2.5-0.3-3.4-0.7c-2-0.9-3.4-2.7-4-4.9c-0.1-0.6-0.1-1.5,0.7-2.5
				c2.9-3.6,15.4-7.2,22.5-7.2c0.1,0,0.1,0,0.2,0c7.2,0.1,10.1,6.6,10.6,10l-2.7,0.4c0-0.3-1.2-7.6-7.9-7.7c-0.1,0-0.1,0-0.2,0
				c-8.2,0-20.2,4.4-20.5,6.5c0.3,1.3,1.3,2.5,2.5,3c1.7,0.8,4.1,0.5,6.8-0.8c6.6-3.2,8.9-3.5,9.1-3.6l0.3,2.7c0,0-2.1,0.3-8.2,3.3
				C145.3,901.6,143.4,902,141.9,902z"/>
		</g>
		<g id="XMLID_2950_">
			<path id="XMLID_2304_" class="st4" d="M169.7,920.7l-2.3-1.4l1.1,0.7l-1.1-0.7c0,0,3-5,2.7-10.9c-0.5-10.2-4.7-11.6-7.7-11.8
				c-6.9-0.3-14.4,3.1-14.9,4.5c-0.3,0.9-0.3,2.2,0.5,3c1,1,2.8,0.8,4.2,0.5c6.4-1.6,12.7-2.7,15.7,0.6l-2,1.8
				c-2.1-2.3-8.1-1.1-13.1,0.2c-3.8,1-5.8-0.2-6.8-1.3c-1.5-1.6-1.6-4-1.1-5.7c1.2-3.6,11.1-6.7,17.6-6.4c6.3,0.3,9.8,5.1,10.3,14.3
				C173.2,915,169.8,920.5,169.7,920.7z"/>
		</g>
		<g id="XMLID_2943_">
			<path id="XMLID_2303_" class="st4" d="M15.8,891.5l-2.7-0.3c1-8.9-2.2-20.3-2.2-20.5l2.6-0.7C13.6,870.4,16.9,882,15.8,891.5z"/>
		</g>
		<g id="XMLID_2939_">
			
				<rect id="XMLID_2302_" x="70.6" y="896.4" transform="matrix(0.1113 0.9938 -0.9938 0.1113 956.8029 725.5936)" class="st4" width="4.2" height="2.7"/>
		</g>
		<g id="XMLID_2935_">
			<path id="XMLID_2301_" class="st4" d="M16.4,938.7h-2.7c0-4.7-2.5-13.5-2.6-13.6l2.6-0.8C13.8,924.7,16.4,933.6,16.4,938.7z"/>
		</g>
		<g id="XMLID_2931_">
			<path id="XMLID_2300_" class="st4" d="M40.8,956.1c1.8,5.9,3.4,11.8,4.9,17.7c0.8,3,1.4,6,2.2,8.9l0.5,2.2l0.1,0.3v0.1
				c0,0,0,0.1,0,0c-0.1-0.2-0.1-0.2,0-0.1c0.1,0.1,0.3,0.2,0.6,0.4c1.2,0.5,2.7,0.8,4.1,1.1c2.9,0.5,5.9,0.8,9,0.9
				c3,0.2,6,0.2,9.1,0.2c3,0,6.1-0.1,9.1-0.4c1.5-0.1,3-0.3,4.5-0.6s3-0.6,4.4-1.2c-1.3,0.8-2.8,1.4-4.2,1.9c-1.5,0.5-3,0.8-4.5,1.2
				c-3,0.6-6.1,1-9.2,1.2c-6.2,0.4-12.4,0.4-18.6-0.6c-0.8-0.1-1.6-0.3-2.3-0.5c-0.8-0.2-1.6-0.4-2.4-0.8c-0.4-0.2-0.8-0.4-1.3-0.9
				c-0.2-0.2-0.5-0.5-0.6-1.1c0-0.2,0-0.2-0.1-0.2v-0.1l-0.1-0.3l-0.5-2.2c-0.6-3-1.2-6-1.7-9C42.6,968.2,41.6,962.2,40.8,956.1z"/>
		</g>
		<g id="XMLID_2927_">
			<path id="XMLID_2299_" class="st4" d="M-19.5,902c0.3,0.1,0.4,0.1,0.6,0.2c0.2,0.1,0.3,0.2,0.5,0.2c0.3,0.2,0.6,0.4,0.9,0.6
				c0.6,0.4,1.1,0.8,1.6,1.3c1,0.9,1.8,2,2.4,3.1c0.7,1.1,1.2,2.3,1.7,3.4l0.6,1.8l0.5,1.8l-0.8-1.7l-0.9-1.6c-0.7-1-1.4-2-2.2-2.9
				c-0.8-0.9-1.7-1.7-2.6-2.3c-0.5-0.3-1-0.6-1.5-0.8c-0.2-0.1-0.5-0.2-0.8-0.3c-0.1,0-0.2-0.1-0.4-0.1c-0.1,0-0.3-0.1-0.3,0
				L-19.5,902z"/>
		</g>
		<g id="XMLID_2885_">
			<path id="XMLID_2298_" d="M23.6,900.7c1.6,0.9,3.2,1.7,4.9,2.4c1.6,0.8,3.3,1.5,5,2.1c3.4,1.3,6.8,2.5,10.3,3.2
				c3.5,0.8,7.1,1.3,10.7,1.3s7.2-0.7,10.5-2.1c-1.6,0.8-3.3,1.4-5.1,1.9c-1.8,0.4-3.6,0.6-5.4,0.7s-3.7,0-5.5-0.2s-3.6-0.5-5.4-0.9
				c-3.5-0.8-7-2-10.4-3.4C30,904.3,26.7,902.6,23.6,900.7z"/>
		</g>
		<g id="XMLID_2830_">
			<path id="XMLID_2831_" class="st4" d="M72.4,978.8c-0.1,0-0.2,0-0.2,0c-4-0.7-24.3-4.6-26.6-6c-2.4-1.5-4.8-11.9-6-18
				c-0.1-0.4,0-0.8,0.2-1.1s0.6-0.5,1-0.5c0.2,0,22-1.8,29.9-2c8-0.2,19.5,1.9,20,2c0.6,0.1,1.1,0.6,1.1,1.2
				c0,0.6,1.1,14.6,1.1,16.5c0,1.1,0,2.8-20.1,7.9C72.6,978.8,72.5,978.8,72.4,978.8z M42.5,955.7c1.4,6.7,3.4,13.9,4.5,14.8
				c1.4,0.8,15.6,3.7,25.4,5.6c7.5-1.9,16-4.5,17.7-5.7c-0.1-2.2-0.6-10-1-14.8c-3-0.5-12.1-1.9-18.4-1.8
				C64.1,954,47.6,955.3,42.5,955.7z"/>
		</g>
		<g id="XMLID_2826_">
			<path id="XMLID_2295_" class="st4" d="M92,971.6c-0.1,1.1-0.2,2.2-0.3,3.2c-0.1,1.1-0.3,2.1-0.4,3.2c-0.2,1.1-0.4,2.1-0.6,3.2
				c-0.2,1.1-0.5,2.1-0.9,3.1c0.2-1.1,0.2-2.1,0.2-3.2c0-1.1,0-2.1-0.1-3.2c-0.1-1.1-0.1-2.1-0.2-3.2c-0.1-1.1-0.2-2.1-0.3-3.1H92z"
				/>
		</g>
		<g id="XMLID_2824_">
			<path id="XMLID_2294_" class="st8" d="M93.3,825c-2-8.1-2.7-9.7-1.8-16.9c0.9-7.2,0-12.6,0-12.6h-0.1c-0.1-1-0.4-2.5-0.8-4.2
				c-0.8-3.3-5.9-11.9-10.1-16.4c-4.3-4.5-9-4-14.9-3.7c-5.9,0.3-19.6,8.6-19.6,8.6s-3.2,3.4-6.2,7.2c-3,3.9-9.3,8.3-14.2,10.8
				c-4.9,2.5-17.6,2.3-17.6,2.3s-1.2,2-2.5,4.7c-1.3,2.7-2.8,8.7-3.2,12.2c-0.4,3.4,0,17.5,0.2,19.1c0.2,1.6-0.1,2.1-1.8,1.2
				c-1.7-0.9-2.2-3-2.8-5.5c-0.5-2.5-2-7.9-3.6-10.7c-1.7-2.9-4.9-2.4-4.9-2.4s-1.5-1.9-2.7-3.2c-1.3-1.3-4.1-3-5-3.5
				s-3.4-1.3-6.7-1.7c-3.3-0.4-4.6,3.5-5,5.3s-0.5,7.6,3.4,15.9c4,8.3,10.1,16.1,15.9,18.4c4.8,1.9,8.4-0.7,9.6-1.7
				c2.5,5.4,8,15.9,17,26.8c13,15.7,28.8,20.5,46.8,21.7c18,1.3,18.9-12.7,19.1-18.8c0.2-6.2,2.5-18.7,6.1-27.5
				C91.5,841.6,95.3,833.1,93.3,825z"/>
		</g>
		<g id="XMLID_2746_">
			<path id="XMLID_2288_" class="st9" d="M62.7,896.8c4,0.3,7.2-0.2,9.7-1.2c-67-14.2-53.7-74.3-45.4-98.4c-0.5,0.3-1,0.5-1.4,0.8
				c-4.9,2.5-17.6,2.3-17.6,2.3s-1.2,2-2.5,4.7c-1.3,2.7-2.8,8.7-3.2,12.2c-0.4,3.4,0,17.5,0.2,19.1c0.2,1.6-0.1,2.1-1.8,1.2
				c-1.7-0.9-2.2-3-2.8-5.5c-0.5-2.5-2-7.9-3.6-10.7c-1.7-2.9-4.9-2.4-4.9-2.4s-0.2-0.2-0.5-0.6l0,0c8.6,14.7,9.2,28.1,9.2,28.1
				s-0.5-0.9,0.3,2.5c0.2-0.2,0.4-0.3,0.6-0.4c2.5,5.4,8,15.9,17,26.8C29,890.8,44.7,895.6,62.7,896.8z"/>
		</g>
		<g id="XMLID_2738_">
			<path id="XMLID_2287_" class="st4" d="M20.9,799c0,0,6.7-2.3,15-0.7c8.4,1.6,12.4,6.9,11.3,6.5c-1.1-0.4-5.6-3.5-12.1-4.1
				c-6.5-0.6-12.5,1.9-13.2,3.7C21.2,806.3,18.6,799.6,20.9,799z"/>
		</g>
		<g id="XMLID_2734_">
			<path id="XMLID_2270_" class="st4" d="M90.4,798.1c0,0-4.9-2.3-11-0.7c-6.1,1.6-9.1,6.9-8.3,6.5c0.8-0.4,4.1-3.5,8.9-4.1
				c4.7-0.6,9.2,1.9,9.7,3.7C90.2,805.3,92.1,798.7,90.4,798.1z"/>
		</g>
		<g id="XMLID_2732_">
			<path id="XMLID_2269_" class="st13" d="M-16.6,813.1c0,0,3.5-8.1,6.5-11.8c3-3.6,3.6-4.3,3.6-4.3s15.9,4.7,23.8,3.4
				s17.1-6.8,21.1-11.5c4-4.8,7.2-8.4,7.2-8.4s7.9-12.6,10.5-15.3c2.6-2.8,7.1-7,10.4-8.5s8.8-2.7,8.8-2.7s-11.9-10.3-19.9-15.5
				c-8.1-5.2-17.1-12.6-27.7-10.9c-10.6,1.7-27.4,15.9-27.4,15.9s-11.8,9.8-15.3,17.7c-3.5,7.9-6.5,16.4-7,23.4s0,19.5,0,19.5l1.4,7
				L-16.6,813.1z"/>
		</g>
		<g id="XMLID_2728_">
			<path id="XMLID_2184_" class="st14" d="M4.2,755.6c-7.7,11.1,0,31.7,0,31.7c2.2-2.2,15.8-10.6,34.3-18.8c6.8-3,13.9-4.8,20.1-5.8
				c2.5-2.4,5.5-4.8,7.8-5.9c3.3-1.5,8.8-2.7,8.8-2.7s-10.4-9-18.3-14.4C37,738.6,10.3,746.8,4.2,755.6z"/>
		</g>
		<g id="XMLID_2726_">
			<path id="XMLID_2093_" class="st13" d="M44.6,781c0,0,7.6-5.6,16.5-8.2c9-2.6,15.6-2,20.1,3.1c4.6,5.2,7,8.9,7.9,11.4
				c0.9,2.4,2.7,8.5,2.7,8.5s11.8,4.6,15.3,3c3.5-1.6,4.7-3.5,1.9-13.6c-2.8-10-10.2-20.5-13.5-23.4c-3.4-2.9-9.8-8.5-17.9-8
				c-8.1,0.4-11.1,2.2-14.8,5.3C59.1,762.1,48.9,772.8,44.6,781z"/>
		</g>
		<g id="XMLID_2721_">
			<path id="XMLID_2084_" class="st4" d="M2.4,837.5c0,0-0.4-9.6-0.5-12c-0.1-2.4,0.1-9.5,1.3-14.1c1.3-4.6,3-8.2,3-8.2l1.8-2.9
				c0,0-4.9-0.8-6.6-1.3c-1.7-0.5-7.9-2.1-7.9-2.1s-4.5,5-6,7.8s-4.2,8.3-4.2,8.3s2.6,1.4,3.6,2.9c1,1.4,2.7,2.7,2.7,2.7
				s3.5,0.3,5.3,4.7c1.9,4.4,3.6,11.2,3.6,11.2s0.7,1.8,2.1,2.8C2.1,838.4,2.3,838.9,2.4,837.5z"/>
		</g>
		<g id="XMLID_2717_">
			<path id="XMLID_2083_" class="st15" d="M3.2,799.5c-0.7-0.1-1.4-0.3-1.8-0.4c-1.7-0.5-7.9-2.1-7.9-2.1s-4.5,5-6,7.8
				c-1.5,2.8-4.2,8.3-4.2,8.3s2.6,1.4,3.6,2.9c1,1.4,2.7,2.7,2.7,2.7s2,0.2,3.8,2.3l0,0c0,0-3.4-5-1.2-4.6c2.2,0.4,3.4,4.3,3.4,4.3
				s0.3-4.2,1.6-3.8c1.4,0.3,2,3.8,2,3.8s-1-6.4-0.6-7.5c0.4-1.1,1.5,3.4,1.5,3.4s-0.4-4.3,0-7.9C0.6,805.5,2.6,800.9,3.2,799.5z"/>
		</g>
		<g id="XMLID_2692_">
			<path id="XMLID_2059_" class="st2" d="M41.2,867.6c0,0,2.9,3.2,15.2,2.3c12.3-0.9,20.1-1.2,20.1-1.2l-0.5-4.8c0,0,1.4-1.1,2-1.9
				c0.7-0.8,1.5-2.4,1.5-2.4s-16.7-0.5-26.9-1.6c-10.1-1.1-13.4-2.4-15.2-3.4c-1.7-1-1,0.7,0,2.3c1,1.5,3.2,4.5,5.3,5.4
				C45.1,863,35.1,862.9,41.2,867.6z"/>
		</g>
		<g id="XMLID_2682_">
			<path id="XMLID_2052_" class="st16" d="M39.3,866.4c0,0-0.7-1.8,0.4-2.5s3.9-1.6,3.9-1.6s-3.3-0.7-4.6-2.9
				c-1.3-2.2-2.8-5.3-2.8-5.3l-4.7-3.6C31.5,850.5,36.6,863.4,39.3,866.4z"/>
		</g>
		<g id="XMLID_2653_">
			<path id="XMLID_2021_" class="st4" d="M-22.5,811.3c-6.7-41,11.1-60.3,19.1-66.7c0.4-0.4,1-0.8,1.6-1.3
				c7.7-6.4,25.8-21.2,39.9-16c14.7,5.4,37,24.8,38,25.6l-1.8,2c-0.2-0.2-22.9-19.9-37.1-25.2c-12.7-4.7-30.6,10-37.3,15.5
				c-0.6,0.5-1.2,1-1.6,1.3c-7.6,6.1-24.7,24.6-18.2,64.1L-22.5,811.3z"/>
		</g>
		<g id="XMLID_2649_">
			<path id="XMLID_2019_" class="st4" d="M-15.3,813.6L-18,813c0.1-0.3,2-8.5,12.6-19.2c9.7-9.7,28.8-23.5,65-33.9l0.7,2.6
				C-7.5,782-15.3,813.3-15.3,813.6z"/>
		</g>
		<g id="XMLID_2640_">
			<path id="XMLID_2641_" class="st4" d="M12.9,801.7c-5.6,0-12.1-1-19.8-3.4l0.8-2.6c32.2,10.1,42.1-4.5,52.6-19.9
				C52.5,767,58.6,758,69,754c9.3-3.6,18.4-1.6,26.4,5.7c12,11,17.9,30.6,16.3,36.2c-0.5,1.7-1.6,3-3.2,3.7
				c-5.7,2.6-16.3-2.3-17.5-2.9c-0.5-0.2-0.8-0.7-0.8-1.2c0-2.8-4.2-17.9-15.3-22.3c-10.5-4.2-27.3,7.4-29.2,8.7
				C38.2,792.3,29.6,801.7,12.9,801.7z M92.7,794.6c3.4,1.5,11,4.2,14.6,2.5c0.9-0.4,1.5-1,1.7-2c1.3-4.4-4.3-23.1-15.6-33.5
				c-7.2-6.6-15.2-8.3-23.6-5.1c-9.2,3.5-14.8,11.3-20.5,19.7c6.7-3.8,17.9-8.9,26.3-5.6C87.5,775.3,92.1,790,92.7,794.6z"/>
		</g>
		<g id="XMLID_2570_">
			<path id="XMLID_2007_" class="st4" d="M2.2,839.7c-0.8,0-1.6-0.7-2.5-1.5c-0.3-0.3-0.7-0.6-1.1-1c-1.1-0.9-1.6-2.8-2.2-5.8
				c-1.1-4.7-2.6-11.1-7-11.4l0.2-2.7c6.4,0.5,8.2,8.3,9.4,13.5c0.4,1.6,0.9,3.9,1.3,4.3c0.3,0.3,0.6,0.5,0.9,0.8
				c-0.5-4.4-0.8-13.3,0-20.8c0.9-8.1,5.6-15.3,5.8-15.6l2.3,1.5c0,0.1-4.5,7-5.3,14.4c-0.9,7.5-0.5,16.4,0,20.6
				c0.1,1.1,0.3,2.9-0.9,3.5C2.7,839.7,2.4,839.7,2.2,839.7z"/>
		</g>
		<g id="XMLID_2564_">
			<path id="XMLID_2006_" class="st4" d="M0.2,848.9c-0.4,0.4-0.8,0.6-1.1,0.9c-0.4,0.3-0.8,0.5-1.2,0.7c-0.8,0.4-1.7,0.8-2.6,1.1
				c-1.8,0.5-3.8,0.5-5.7,0s-3.5-1.5-5-2.6c-1.3-1.1-2.6-2.2-3.9-3.4c-2.5-2.4-4.6-5.2-6.4-8.2c-1.7-3-3.1-6.2-4.1-9.5
				c-0.3-0.8-0.5-1.7-0.7-2.5s-0.4-1.7-0.6-2.5c-0.2-0.8-0.3-1.7-0.4-2.5l-0.2-1.3c-0.1-0.4-0.1-0.9-0.1-1.3c-0.1-1.8,0-3.8,1-5.8
				c0.5-1,1.3-1.8,2.3-2.4c1-0.6,2-0.8,3.1-0.9c2-0.1,3.9,0.3,5.6,1c1.7,0.7,3.2,1.5,4.7,2.6c1.4,1,2.8,2.2,3.9,3.5
				c1.2,1.3,2.2,2.8,2.9,4.5l-0.1-0.2c0.2,0.4,0.4,0.8,0.6,1.3c0.2,0.4,0.3,0.9,0.4,1.3c0.1,0.5,0.2,0.9,0.2,1.4s0,1-0.2,1.5l-1-1
				c-0.3-0.3-0.6-0.7-0.9-1c-0.3-0.3-0.5-0.7-0.8-1s-0.5-0.7-0.7-1.1c0,0,0-0.1-0.1-0.1v-0.1c-1.3-2.7-3.5-5-6.1-6.7
				c-1.3-0.9-2.7-1.6-4.1-2.1c-1.4-0.5-2.9-0.8-4.2-0.7c-0.6,0.1-1.2,0.2-1.7,0.5c-0.5,0.3-0.8,0.7-1.1,1.2c-0.5,1-0.7,2.5-0.5,4
				c0,0.4,0.1,0.7,0.1,1.1l0.2,1.2l0.2,1.2l0.2,1.2c0.2,0.8,0.3,1.6,0.5,2.4c0.2,0.8,0.4,1.6,0.6,2.3c0.9,3.1,2.2,6,3.7,8.8
				c1.6,2.8,3.5,5.3,5.8,7.6c1.1,1.1,2.3,2.2,3.5,3.2s2.4,1.7,3.8,2.1c1.3,0.4,2.8,0.4,4.2,0.1c0.7-0.2,1.4-0.4,2-0.7
				c0.3-0.2,0.6-0.3,1-0.5c0.3-0.2,0.6-0.4,0.8-0.6L0.2,848.9z"/>
		</g>
		<g id="XMLID_2557_">
			<path id="XMLID_1976_" class="st4" d="M92.7,795.3c0.3,2.3,0.5,4.4,0.5,6.6s-0.1,4.4-0.4,6.5c-0.2,2.1-0.4,4.1-0.3,6.1
				s0.6,4,1.1,6l0.8,3.1c0.1,0.5,0.3,1,0.4,1.6L95,826c0,0.3,0.1,0.6,0.1,0.9c0.3,2.3,0.2,4.6-0.1,6.8c-0.7,4.4-2.2,8.6-3.7,12.6
				c-0.8,2-1.6,4-2.4,5.9c-0.7,1.9-1.4,3.9-2,6c-1.1,4-2.1,8.2-2.7,12.3c-0.3,2.1-0.6,4.2-0.7,6.2l-0.1,3.2
				c-0.1,1.1-0.2,2.2-0.3,3.3c-0.3,2.2-1,4.5-2,6.6c-1.1,2.1-2.6,4-4.6,5.4c-1,0.7-2,1.3-3.1,1.7c-0.5,0.2-1.1,0.4-1.7,0.6
				c-0.6,0.1-1.1,0.3-1.7,0.4c-2.3,0.5-4.6,0.5-6.8,0.4c-4.3-0.3-8.6-0.8-12.9-1.6c-4.3-0.8-8.5-2-12.6-3.7
				c-4.1-1.7-7.9-3.8-11.5-6.4s-6.8-5.6-9.7-8.8c-2.9-3.3-5.5-6.7-7.9-10.3c-2.5-3.6-4.7-7.2-6.8-11c-1-1.9-2-3.8-3-5.7
				c-0.5-1-0.9-1.9-1.2-3c-0.3-1.1-0.4-2.2-0.2-3.4c1.9,1.5,2.9,3.3,3.8,5.2c0.9,1.9,1.9,3.7,3,5.6c2.1,3.7,4.4,7.2,6.8,10.7
				c2.4,3.4,5,6.8,7.8,9.9s5.9,5.9,9.3,8.3s7,4.4,10.9,6c3.8,1.6,7.9,2.7,12,3.5s8.3,1.3,12.5,1.5c2,0.1,4,0,6-0.3
				c0.5-0.1,0.9-0.2,1.4-0.3c0.4-0.2,0.9-0.3,1.3-0.5c0.9-0.3,1.7-0.8,2.5-1.4c3.1-2.2,4.7-5.9,5.3-9.9c0.2-1,0.3-2,0.3-3l0.1-3.2
				c0.2-2.2,0.4-4.4,0.8-6.5c0.7-4.3,1.6-8.5,2.8-12.7c0.6-2.1,1.3-4.2,2.1-6.2c0.8-2.1,1.6-4,2.4-6c1.6-3.9,3.1-7.9,3.7-11.9
				c0.3-2,0.4-4,0.2-6c-0.2-1.9-0.9-4-1.3-6.1c-0.5-2.1-1-4.3-1.1-6.5c-0.1-2.3,0.1-4.5,0.4-6.6c0.3-2.1,0.4-4.1,0.5-6.2
				c0-2.1-0.1-4.2-0.3-6.2L92.7,795.3z"/>
		</g>
		<g id="XMLID_2545_">
			<path id="XMLID_1973_" class="st4" d="M61.1,831.8c2.3-1.3,4.7-2.1,7.3-2.5c1.3-0.2,2.6-0.3,4-0.2c1.4,0.1,2.8,0.5,4.1,1.3
				c0.7,0.4,1.2,1,1.7,1.6c0.1,0.2,0.2,0.3,0.3,0.5l0.3,0.5c0.2,0.4,0.2,0.7,0.4,1c0.4,1.3,0.6,2.8,0.4,4.2
				c-0.4,2.8-2.1,5.2-4.4,6.6c1.4-2.1,2.3-4.5,2.2-6.7c0-1.1-0.3-2.2-0.7-3.2c-0.1-0.2-0.2-0.5-0.3-0.8l-0.2-0.3
				c-0.1-0.1-0.1-0.2-0.2-0.3c-0.3-0.4-0.6-0.7-1-0.9c-0.8-0.5-1.9-0.9-3-1.1s-2.3-0.3-3.5-0.3C66.1,831.4,63.6,831.6,61.1,831.8z"
				/>
		</g>
		<g id="XMLID_2541_">
			<path id="XMLID_1960_" class="st4" d="M57.5,836.3c-0.1,1.2-0.3,2.2-0.4,3.2c-0.2,1-0.3,1.9-0.4,2.7c0,0.8,0,1.4,0.4,2
				c0.4,0.6,1.2,1.2,2.2,1.9c-0.6,0.2-1.1,0.3-1.8,0.3c-0.6,0-1.3-0.2-1.9-0.6c-0.6-0.4-1.1-1-1.3-1.7c-0.3-0.7-0.3-1.4-0.3-2
				c0.1-1.3,0.5-2.4,1.1-3.4C55.7,837.8,56.4,837,57.5,836.3z"/>
		</g>
		<g id="XMLID_2518_">
			<path id="XMLID_1959_" class="st4" d="M67.5,814.8c-0.1,1.5-0.1,2.9-0.1,4.4c0.1,1.5,0.2,2.9,0.6,4.3c0.3,1.4,0.8,2.7,1.6,3.8
				c0.7,1.1,1.7,1.7,2.8,1.8l-0.6,2.6c-0.9-0.3-1.7-0.7-2.4-1.3c-0.7-0.6-1.2-1.3-1.6-2.1c-0.7-1.5-1-3.1-1.1-4.6s-0.1-3,0.1-4.5
				C66.9,817.7,67.1,816.2,67.5,814.8z"/>
		</g>
		<g id="XMLID_2514_">
			<path id="XMLID_1953_" class="st4" d="M68.6,842.1c1.9-0.3-3.4-1.7-5,0S67.6,842.3,68.6,842.1z"/>
		</g>
		<g id="XMLID_2510_">
			<path id="XMLID_1949_" class="st4" d="M72.8,842.1c0,0,2.7-2.8,3.3-1.8C76.7,841.4,73.3,843.2,72.8,842.1z"/>
		</g>
		<g id="XMLID_2506_">
			<path id="XMLID_1948_" class="st4" d="M39.5,814.1c-1.4,0-2.6-1.2-2.6-2.6c0-0.6,0.2-1.1,0.5-1.6c-0.5-0.2-1.1-0.3-1.7-0.3
				c-2.7,0-4.9,2.2-4.9,4.9s2.2,4.9,4.9,4.9c2.7,0,4.9-2.2,4.9-4.9c0-0.2,0-0.4-0.1-0.7C40.3,814,39.9,814.1,39.5,814.1z"/>
		</g>
		<g id="XMLID_2502_">
			<path id="XMLID_1946_" class="st4" d="M81.5,812.9c-1.4,0-2.6-1.2-2.6-2.6c0-0.6,0.2-1.1,0.5-1.6c-0.5-0.2-1.1-0.3-1.7-0.3
				c-2.7,0-4.9,2.2-4.9,4.9s2.2,4.9,4.9,4.9s4.9-2.2,4.9-4.9c0-0.2,0-0.4-0.1-0.7C82.3,812.8,81.9,812.9,81.5,812.9z"/>
		</g>
		<g id="XMLID_1943_">
			<g id="XMLID_2498_">
				<path id="XMLID_274_" class="st4" d="M77.7,868.3L75,868c0.2-1.5,0.2-3.2-0.1-3.6c0,0,0,0,0,0.1l2-1.8
					C78.1,863.9,77.9,866.7,77.7,868.3z"/>
			</g>
			<g id="XMLID_2493_">
				<path id="XMLID_272_" class="st4" d="M41.6,869.7c-1.4-1.1-4.5-3.8-3.3-6.1c1.1-2.1,5.4-2.2,7.2-2.1l-0.1,2.7
					c-1.9-0.1-4,0.2-4.6,0.5c0.2,0.6,1.3,1.9,2.5,2.8L41.6,869.7z"/>
			</g>
			<g id="XMLID_1947_">
				<path id="XMLID_1955_" class="st4" d="M51.1,871.2c-0.5,0-0.9,0-1.3,0c-7.4-0.2-10.7-1.4-14.1-7.7c-3.3-6-5.9-13.7-6-14.1
					c-0.2-0.6,0.1-1.3,0.7-1.6c0.6-0.3,1.3-0.1,1.7,0.5c0,0.1,4.4,6.4,15,7.8c11.4,1.4,28.9,2.5,32.4,1.7c0.5-0.1,1,0.1,1.4,0.5
					c0.3,0.4,0.4,1,0.2,1.4c-0.3,0.7-2.1,4.3-4.4,5.3c-2.4,1-20.8,0.7-26.6,0.1c-6.8-0.7-10.8-2.4-12.4-5.3
					c-1.1-1.9-2.3-4.4-2.8-5.3c-0.2-0.1-0.4-0.2-0.5-0.4c1,2.5,2.3,5.6,3.8,8.2c2.9,5.3,5.1,6.1,11.8,6.3c6.8,0.2,26.9-1.7,27.1-1.7
					l0.3,2.7C76.5,869.6,58.9,871.2,51.1,871.2z M39,856.6c0.3,0.6,0.6,1.2,0.9,1.7c1.2,2,4.6,3.3,10.4,3.9
					c7.2,0.7,23.6,0.7,25.3,0.1c0.5-0.2,1.1-0.9,1.7-1.7c-6.8,0.3-21.6-0.8-30.5-2C43.7,858.3,41.1,857.5,39,856.6z"/>
			</g>
		</g>
		<g id="XMLID_1918_">
			<path id="XMLID_269_" class="st4" d="M-7.7,834c-1.8-2.9-3.6-5.8-5.5-8.5c-0.9-1.4-1.9-2.7-3-4c-0.5-0.6-1.1-1.2-1.6-1.8
				c-0.6-0.6-1.1-1.1-1.7-1.5c-0.6-0.5-1.2-0.8-1.9-1c-0.6-0.2-1.2-0.3-1.9-0.2c-0.6,0.1-0.9,0.3-1.2,0.7c-0.3,0.4-0.4,1.1-0.4,1.9
				c0,1.5,0.3,3.2,0.8,4.8c0.4,1.6,0.9,3.2,1.5,4.9c-1.1-1.4-1.9-2.8-2.7-4.4c-0.7-1.6-1.4-3.2-1.6-5.1c-0.1-0.9-0.1-2,0.4-3.1
				c0.2-0.5,0.7-1.1,1.2-1.4c0.3-0.2,0.5-0.3,0.8-0.4c0.3-0.1,0.6-0.2,0.8-0.2c1.1-0.2,2.2-0.1,3.2,0.2s1.8,0.8,2.6,1.4
				c1.5,1.1,2.7,2.5,3.8,3.9c1,1.4,2,2.9,2.8,4.4C-9.8,827.5-8.5,830.7-7.7,834z"/>
		</g>
		<g id="XMLID_302_">
			<path id="XMLID_268_" class="st4" d="M-12.3,824c-1.2,1.5-2.2,3.3-3,5.1c-0.7,1.8-1.1,3.8-0.7,5.6c0.3,0.9,0.7,1.7,1.4,2.5
				c0.7,0.8,1.4,1.5,2.3,2c0.9,0.5,1.8,0.8,2.9,0.9c0.5,0,1,0,1.5-0.2c0.5-0.1,1-0.3,1.3-0.7c-0.3,0.5-0.8,0.7-1.3,0.9
				s-1,0.3-1.6,0.3c-1.1,0.1-2.2-0.2-3.2-0.6c-1-0.4-1.9-1.1-2.7-1.9c-0.8-0.7-1.5-1.7-2-2.8c-0.4-1.1-0.6-2.3-0.5-3.4
				c0-1.1,0.2-2.2,0.5-3.3c0.3-1.1,0.7-2.1,1.1-3.1c0.5-1,0.9-2,1.6-3L-12.3,824z"/>
		</g>
	</g>
	<g id="XMLID_288_">
		<path id="XMLID_267_" class="st4" d="M164.1,801.6c-19.3-19.3-42.8-32.7-68.5-39.4c1.4,1.1,2.8,2.4,3.7,3.9
			c61.4,18.2,106.3,75.1,106.3,142.3c0,81.8-66.5,148.3-148.3,148.3S-91,990.2-91,908.4c0-52.7,27.6-99,69.1-125.3
			c0-0.2,0.1-0.5,0.2-0.7c0.6-1.3,1.2-2.5,1.8-3.8c-10.6,6.4-20.6,14.1-29.6,23.1c-28.5,28.5-44.2,66.5-44.2,106.8
			s15.7,78.3,44.2,106.8c28.5,28.5,66.5,44.2,106.8,44.2s78.3-15.7,106.8-44.2c28.5-28.5,44.2-66.5,44.2-106.8
			S192.6,830.1,164.1,801.6z"/>
	</g>
</g>
</svg>
