<?xml version="1.0" encoding="utf-8"?>
<!-- Generator: Adobe Illustrator 23.0.2, SVG Export Plug-In . SVG Version: 6.00 Build 0)  -->
<svg version="1.1" id="Layer_1" xmlns="http://www.w3.org/2000/svg" xmlns:xlink="http://www.w3.org/1999/xlink" x="0px" y="0px"
	 viewBox="0 0 200 200" style="enable-background:new 0 0 200 200;" xml:space="preserve">
<style type="text/css">
	.st0{fill:#E1713C;}
	.st1{fill:#C7542B;}
	.st2{fill:#F68C5B;}
	.st3{fill:#B44C28;}
	.st4{fill:#1A1A1A;}
	.st5{fill:#45210F;}
	.st6{fill:#FAAF43;}
	.st7{fill:#455767;}
	.st8{opacity:0.15;fill:#010101;}
	.st9{fill:#FCDD56;}
	.st10{fill:#FAA719;}
	.st11{fill:#010101;}
	.st12{fill:#74B4C9;}
	.st13{fill:#98D8E7;}
	.st14{fill:#939598;}
	.st15{fill:#D34C55;}
	.st16{fill:#E6E7E7;}
	.st17{opacity:0.05;}
	.st18{fill:#BDBEC0;}
	.st19{fill:#71523B;}
	.st20{fill:#FFDE11;}
	.st21{fill:#FEE56C;}
	.st22{fill:#FEBE44;}
	.st23{fill:#CDEBEF;}
	.st24{fill:#75CDF3;}
	.st25{fill:#54544C;}
	.st26{fill:#4D4C4C;}
	.st27{fill:#AC9F80;}
	.st28{fill:#151515;}
	.st29{fill:#1E1F27;}
	.st30{fill:#80141D;}
	.st31{fill:#F79224;}
	.st32{fill:#00ADE5;}
	.st33{fill:#FFFFFF;}
	.st34{fill:#FBAD3A;}
	.st35{fill:#C63C2B;}
	.st36{fill:#A41E22;}
	.st37{fill:#E1252A;}
	.st38{fill:#B5B5B6;}
	.st39{fill:#303030;}
	.st40{fill:#4D87B7;}
	.st41{fill:#19323F;}
</style>
<g>
	<path class="st7" d="M111.53,50.79v3.6H88.47v-3.6c0-1.61,2.21-3.04,3.46-3.72c0.61-0.33,1.1-0.83,1.4-1.43
		c1.73-3.5,1.69-7.56-0.11-11.04c-0.28-0.55-0.44-1.15-0.45-1.76l-0.03-10.29c0-1.35,1.16-2.45,2.6-2.45h9.32
		c0.25,0,0.49,0.03,0.72,0.1c1.09,0.3,1.88,1.24,1.87,2.36l-0.03,10.29c0,0.61-0.16,1.21-0.45,1.76c-1.8,3.48-1.84,7.54-0.11,11.04
		c0.3,0.6,0.79,1.09,1.4,1.43C109.32,47.75,111.53,49.17,111.53,50.79z"/>
	<path class="st8" d="M111.53,50.79v3.6H100V20.11h4.66c0.25,0,0.49,0.03,0.72,0.1c1.09,0.3,1.88,1.24,1.87,2.36l-0.03,10.29
		c0,0.61-0.16,1.21-0.45,1.76c-1.8,3.48-1.84,7.54-0.11,11.04c0.3,0.6,0.79,1.09,1.4,1.43C109.32,47.75,111.53,49.17,111.53,50.79z"
		/>
	<path class="st7" d="M117.21,130.34H82.79c-0.83,0-1.5-0.67-1.5-1.5v-5.15c0-0.83,0.67-1.5,1.5-1.5h34.43c0.83,0,1.5,0.67,1.5,1.5
		v5.15C118.71,129.67,118.04,130.34,117.21,130.34z"/>
	<rect x="93.76" y="122.2" class="st8" width="12.47" height="8.14"/>
	<rect x="86.44" y="119.49" class="st9" width="27.13" height="2.71"/>
	<path class="st7" d="M115.24,119.49H84.76c-0.57,0-1.04-0.47-1.04-1.04v-6.06c0-0.57,0.47-1.04,1.04-1.04h30.48
		c0.57,0,1.04,0.47,1.04,1.04v6.06C116.28,119.02,115.81,119.49,115.24,119.49z"/>
	<path class="st9" d="M114.92,111.35H85.08v-1.17c0-0.85,0.69-1.55,1.55-1.55h26.75c0.85,0,1.55,0.69,1.55,1.55V111.35z"/>
	<path class="st1" d="M113.56,108.64H86.44V56.11c0-0.95,0.77-1.73,1.73-1.73h23.68c0.95,0,1.73,0.77,1.73,1.73V108.64z"/>
	<rect x="94.57" y="111.35" class="st8" width="10.85" height="8.14"/>
	<path class="st9" d="M93.29,162.9v4.58c0,1.97,1.32,3.56,2.94,3.56h3.03v3.83c0,0.41,0.33,0.74,0.74,0.74h0.01
		c0.41,0,0.74-0.33,0.74-0.74v-3.83h3.03c1.62,0,2.94-1.59,2.94-3.56v-4.58H93.29z"/>
	<path class="st7" d="M114.92,162.9H88.05c-1.64,0-2.98-1.33-2.98-2.98v-5.16h29.84V162.9z"/>
	<rect x="85.08" y="146.62" class="st1" width="29.84" height="2.71"/>
	<rect x="85.08" y="143.91" class="st7" width="29.84" height="2.71"/>
	<rect x="85.08" y="141.19" class="st1" width="29.84" height="2.71"/>
	<rect x="85.08" y="138.48" class="st7" width="29.84" height="2.71"/>
	<rect x="85.08" y="135.77" class="st1" width="29.84" height="2.71"/>
	<rect x="85.08" y="130.34" class="st1" width="29.84" height="2.71"/>
	<rect x="85.08" y="133.06" class="st7" width="29.84" height="2.71"/>
	<rect x="85.08" y="152.05" class="st1" width="29.84" height="2.71"/>
	<rect x="85.08" y="149.33" class="st7" width="29.84" height="2.71"/>
	<rect x="95.03" y="154.76" class="st8" width="9.95" height="8.14"/>
	<path class="st7" d="M99.52,178.34h10.26c2.05,0,3.72-1.81,3.72-4.05v-15.7c0-0.06-0.01-0.11-0.01-0.17h1.27
		c0.06,0.07,0.1,0.11,0.16,0.17v15.7c0,3.1-2.3,5.61-5.14,5.61h-9.35c-0.64,0-1.16-0.57-1.16-1.26v-0.02
		C99.27,178.46,99.38,178.34,99.52,178.34z"/>
	<polygon class="st10" points="99.56,81.99 95.59,81.48 103.52,65.78 100.44,81.03 104.41,81.54 96.48,97.24 	"/>
	<path class="st8" d="M113.56,56.11v52.53H100V54.38h11.84C112.79,54.38,113.56,55.15,113.56,56.11z"/>
	<rect x="100" y="119.49" class="st8" width="13.56" height="2.71"/>
	<path class="st8" d="M114.92,110.14v1.21H100v-2.71h13.42C114.25,108.64,114.92,109.31,114.92,110.14z"/>
	<rect x="100" y="130.34" class="st8" width="14.92" height="24.42"/>
	<path class="st8" d="M106.71,162.9v4.58c0,1.97-1.32,3.56-2.94,3.56h-3.03v3.83c0,0.41-0.33,0.74-0.74,0.74H100v-12.7H106.71z"/>
</g>
</svg>
