<?xml version="1.0" encoding="utf-8"?>
<!-- Generator: Adobe Illustrator 23.0.1, SVG Export Plug-In . SVG Version: 6.00 Build 0)  -->
<svg version="1.1" id="Layer_1" xmlns="http://www.w3.org/2000/svg" xmlns:xlink="http://www.w3.org/1999/xlink" x="0px" y="0px"
	 viewBox="0 0 200 200" style="enable-background:new 0 0 200 200;" xml:space="preserve">
<style type="text/css">
	.st0{clip-path:url(#SVGID_2_);}
	.st1{opacity:0.51;fill:#98A175;}
	.st2{fill:#080C0D;}
	.st3{fill:#FD1A16;}
	.st4{opacity:0.25;fill:#DDDBDB;}
	.st5{fill:#CF1712;}
	.st6{fill:#172224;}
	.st7{fill:#FEFDEF;}
	.st8{fill:#A6A7A8;}
	.st9{fill:#CCCCCC;stroke:#1A1A1A;stroke-miterlimit:10;}
	.st10{fill:#B0140F;}
	.st11{fill:#094349;}
	.st12{fill:#B20808;}
	.st13{opacity:0.15;fill:#79D4E1;}
	.st14{fill:#04242B;}
	.st15{fill:#D1DAF2;}
	.st16{fill:#B21616;}
	.st17{fill:#F04341;}
	.st18{opacity:0.5;fill:#700C09;}
	.st19{fill:#E4EBF9;}
	.st20{fill:#BF1111;}
	.st21{opacity:0.14;fill:#DDDBDB;}
	.st22{opacity:0.36;fill:#444B4D;}
	.st23{opacity:0.74;}
	.st24{fill:#4D4D4D;}
	.st25{fill:#9E9D9E;}
	.st26{opacity:0.22;fill:#444B4D;}
	.st27{fill:#911A1D;}
	.st28{fill:#BD2225;}
	.st29{fill:#232323;}
	.st30{fill:#B01F24;}
	.st31{fill:#C92127;}
	.st32{fill:#B72025;}
	.st33{fill:#333333;}
	.st34{fill:#1C1717;}
	.st35{fill:#BA2026;}
	.st36{fill:#1E1E1E;}
	.st37{fill:#4E5C61;}
	.st38{clip-path:url(#SVGID_4_);fill:#607983;}
	.st39{clip-path:url(#SVGID_4_);fill:#50646B;}
	.st40{clip-path:url(#SVGID_4_);fill:#2F3435;}
	.st41{clip-path:url(#SVGID_4_);fill:#373C3D;}
	.st42{opacity:0.56;fill:#FFFFFF;}
	.st43{opacity:0.56;fill:#919191;}
	.st44{fill:#B8272B;}
	.st45{fill:#F2F2F2;}
	.st46{fill:#261F1F;}
	.st47{fill:#212121;}
	.st48{opacity:0.51;fill:#444B4D;}
	.st49{opacity:0.35;fill:#FFFFFF;}
	.st50{opacity:0.62;fill:#DEDFE2;}
	.st51{fill:#553256;}
	.st52{fill:#2E3E5B;}
	.st53{fill:#332A29;}
	.st54{fill:#7F5D44;}
	.st55{fill:#A9ABA8;}
	.st56{fill:#3F3534;}
	.st57{fill:#4F4D4C;}
	.st58{opacity:0.25;fill:#69747C;}
	.st59{fill:#364A7C;}
	.st60{fill:#435A89;}
	.st61{fill:#98B4DB;}
	.st62{fill:#EBEFF2;}
	.st63{fill:#FCA78D;}
	.st64{fill:#FFFFFF;}
	.st65{fill:#F79673;}
	.st66{fill:#EA8A6C;}
	.st67{fill:#744628;}
	.st68{fill:#D38462;}
	.st69{fill:#844F31;}
	.st70{fill:#242D22;}
	.st71{fill:#9D9F9A;}
	.st72{fill:#8F918A;}
	.st73{fill:#FF0609;}
	.st74{fill:#2C2D29;}
	.st75{opacity:0.8;fill:#FFFFFF;}
	.st76{opacity:0.2;}
	.st77{fill:#0098D4;}
	.st78{fill:#E2B698;}
	.st79{fill:#F7C79F;}
	.st80{fill:#F0F0F0;}
	.st81{fill:#CACACA;}
	.st82{fill:#E4E4E4;}
	.st83{fill:#979797;}
	.st84{fill:#AF9B89;}
	.st85{fill:#626262;}
	.st86{fill:#BEAB97;}
	.st87{fill:#B1B1B1;}
	.st88{fill:url(#SVGID_5_);}
	.st89{clip-path:url(#SVGID_7_);}
	.st90{fill:#1B6DB3;}
	.st91{fill:#878787;}
	.st92{fill:#C6C6C6;}
	.st93{fill:#3C3C3B;}
	.st94{fill:#F5B493;}
	.st95{fill:#432918;}
	.st96{fill:#EB9C7A;}
	.st97{fill:#223A61;}
	.st98{fill:#496999;}
	.st99{fill:#314D7A;}
	.st100{fill:#EDEDED;}
	.st101{fill:url(#SVGID_8_);}
	.st102{clip-path:url(#SVGID_10_);}
	.st103{fill:#999999;}
	.st104{fill:url(#SVGID_11_);}
	.st105{fill:#DD73BB;}
	.st106{fill:#D144A4;}
	.st107{fill:#C61089;}
	.st108{fill:#960E63;}
	.st109{fill:url(#SVGID_12_);}
	.st110{fill:url(#SVGID_13_);}
	.st111{fill:#8383BF;}
	.st112{fill:#585AA7;}
	.st113{fill:#2D3091;}
	.st114{fill:#1E1F72;}
	.st115{fill:url(#SVGID_14_);}
	.st116{fill:url(#SVGID_15_);}
	.st117{fill:#66CEF5;}
	.st118{fill:#34BDF1;}
	.st119{fill:#01AFEE;}
	.st120{fill:#0090DE;}
	.st121{fill:url(#SVGID_16_);}
	.st122{fill:url(#SVGID_17_);}
	.st123{fill:#67C996;}
	.st124{fill:#34B775;}
	.st125{fill:#009C52;}
	.st126{fill:#007D3B;}
	.st127{fill:url(#SVGID_18_);}
	.st128{fill:url(#SVGID_19_);}
	.st129{fill:#FEE068;}
	.st130{fill:#FFD538;}
	.st131{fill:#FFC905;}
	.st132{fill:#FFAE00;}
	.st133{fill:url(#SVGID_20_);}
	.st134{fill:url(#SVGID_21_);}
	.st135{fill:#F8AC7A;}
	.st136{fill:#F4914D;}
	.st137{fill:#F77128;}
	.st138{fill:#F65400;}
	.st139{fill:url(#SVGID_22_);}
	.st140{fill:url(#SVGID_23_);}
	.st141{fill:#F4777D;}
	.st142{fill:#F04951;}
	.st143{fill:#EB1C24;}
	.st144{fill:#B11519;}
	.st145{fill:url(#SVGID_24_);}
	.st146{fill:#383838;}
	.st147{fill:#ED2424;}
	.st148{fill:#CE2227;}
	.st149{fill:#EE4041;}
	.st150{fill:#2D2525;}
	.st151{fill:#4A3D3D;}
	.st152{opacity:0.88;fill:#A7D8DF;}
	.st153{clip-path:url(#SVGID_26_);fill:#5F7982;}
	.st154{clip-path:url(#SVGID_26_);fill:#50595C;}
	.st155{opacity:0.64;clip-path:url(#SVGID_26_);fill:#FFFFFF;}
	.st156{fill:#2E2A2A;}
	.st157{opacity:0.2;clip-path:url(#SVGID_28_);fill:#981C1F;}
	.st158{clip-path:url(#SVGID_30_);fill:#FFFFFF;}
	.st159{opacity:0.64;clip-path:url(#SVGID_32_);fill:#FFFFFF;}
	.st160{fill:#0D212B;}
	.st161{clip-path:url(#SVGID_34_);}
	.st162{fill:#F58529;}
	.st163{fill:#FAA829;}
	.st164{fill:#0C1C29;}
	.st165{fill:none;stroke:#142E3C;stroke-width:1.1353;stroke-miterlimit:10;}
	.st166{fill:#EAE7E7;}
	.st167{fill:#97A9B8;}
	.st168{fill:#31A84D;}
	.st169{fill:#B72A33;}
	.st170{fill:#788FA0;}
	.st171{fill:#1E0D0D;}
	.st172{fill:#1A568C;}
	.st173{fill:#F7A282;}
	.st174{fill:#EF9073;}
	.st175{fill:#6A98D0;}
	.st176{fill:#3D71B7;}
	.st177{fill:#5A382F;}
	.st178{fill:#F4F9FC;}
	.st179{fill:#EEA53F;}
	.st180{fill:#8E5C3F;}
</style>
<rect x="53.02" y="165.95" class="st160" width="152.85" height="2.67"/>
<g>
	<defs>
		<rect id="SVGID_33_" width="200" height="200"/>
	</defs>
	<clipPath id="SVGID_2_">
		<use xlink:href="#SVGID_33_"  style="overflow:visible;"/>
	</clipPath>
	<g class="st0">
		<g>
			<g>
				<polygon class="st162" points="87.14,155.56 80.05,155.56 80.05,165.95 96.5,165.95 96.5,162.42 				"/>
				<path class="st163" d="M86.39,33.44c-0.38-0.01-0.75-0.04-1.12-0.06c-0.88,0.03-1.76,0.05-2.64,0.06
					c-0.22,0-0.42-0.02-0.64-0.03c-0.38,0.01-0.77,0.01-1.16,0.02c-3.41,0.28-6.85,0.41-10.35,0.18c-0.39,0.01-0.78,0.01-1.17,0.02
					v121.93h17.82V33.41C86.89,33.42,86.64,33.44,86.39,33.44z"/>
				<path class="st162" d="M86.39,33.44c-0.41-0.01-0.81-0.04-1.22-0.06c-0.34,0.01-0.67,0.03-1.01,0.04v122.15h2.97V33.41
					C86.89,33.42,86.64,33.44,86.39,33.44z"/>
				<path class="st164" d="M89.58,33.44c-0.5-0.04-1.01-0.07-1.54-0.1c-0.24,0.03-0.48,0.05-0.73,0.06
					c-0.31,0.02-0.62,0.04-0.93,0.04c-0.25,0-0.49-0.03-0.74-0.04v122.16l9.67,7.11v3.27h4.28v-3.27l-10.01-7.11V33.44z"/>
				<polygon class="st163" points="93.53,165.95 56.98,165.95 56.98,162.75 69.31,155.56 84.17,155.56 93.53,162.42 				"/>
			</g>
			<g>
				<polygon class="st2" points="46.65,131.57 48.71,132.45 84.63,132.45 85.95,131.34 85.5,128.23 85,125.37 84.45,122.47 
					83.7,119.2 81.32,116 78.79,113.24 77.12,111.68 73.46,109.69 70.19,108.89 65.89,108.89 61.93,109.24 57.36,110.64 
					53.66,113.04 50.6,116.1 48.65,120.25 47.4,124.32 				"/>
				<polygon class="st2" points="156.98,131.35 158.76,132.27 194.78,130.2 196.64,128.61 196.17,125.46 195.1,121.04 
					194.03,117.68 191.87,114.35 188.83,111.21 184.01,109.14 179.06,107.94 175.36,107.67 170.89,108 166.33,109.95 162.92,113.01 
					160.39,116.21 158.65,119.97 157.65,124.14 				"/>
				<path class="st3" d="M208.56,114.62v2.88c-0.27,9-0.37,9.38-2.88,10.27c-4.45,1.58-10.9,2.43-10.9,2.43
					c-0.13-4.05-0.82-10.84-4.87-15.6c-2.71-3.18-6.93-5.46-13.5-5.39c-1.86,0.02-3.53,0.24-5.03,0.63
					c-0.14,0.03-0.27,0.07-0.41,0.11c-4.46,1.24-7.35,3.9-9.03,6.69c-0.15,0.24-0.28,0.48-0.41,0.72c-3.58,6.8-2.77,14.9-2.77,14.9
					l-29.31,0.07h-0.4l-40.38,0.1l-0.41,0l-3.63,0.01c-0.47-6.8-1.46-10.51-2.6-13.02c-0.49-1.08-1.01-1.94-1.52-2.74
					c-2.75-4.23-7.99-6.88-14.23-6.93c-6.33-0.06-12.31,3.12-15.4,8.37c-0.36,0.62-0.68,1.26-0.94,1.92
					c-2.33,5.73-1.22,12.4-1.22,12.4s-7.65,0-12.25-2.61c0,0-2.52-2.23-6.94-9.46v-4.95l2.52-3.69l-0.81-4.94l-0.36-2.18
					c0,0-0.03-0.11,0.1-0.34c0.22-0.39,0.91-1.14,2.99-2.27c0.87-0.47,1.97-1.01,3.39-1.63c0,0,1.38-0.62,4.07-1.46
					c3.25-1.02,8.43-2.36,15.39-3.31c0,0,11.8-1.62,22.15-1.89l-0.28,0.01c0,0,0.04-0.02,0.12-0.07
					c1.66-0.94,20.06-11.26,29.42-14.44c0,0,0.01,0,0.02-0.01h0c0.22-0.1,2.58-1.13,6.41-2.08c2.42-0.6,5.44-1.16,8.88-1.43
					c10.95-0.86,26.24-0.57,38.54,0.4c10.78,0.86,20.9,1.76,27.77,3.02c1.52,0.28,1.38,0.84,1.38,0.84c-0.9,0.29-1.34,0.72-1.5,1.17
					c-0.05,0.14-0.08,0.28-0.08,0.42c-0.04,0.88,0.69,1.71,0.69,1.71c1.62,1.92,4.74,5.22,4.74,5.22c0.24,0.27,0.49,0.52,0.74,0.76
					c0.53,0.5,1.07,0.94,1.61,1.3c2.02,1.37,4.03,1.85,5.68,2c0.13,0.01,0.25,0.02,0.38,0.03c0.26,0.02,0.52,0.06,0.76,0.13
					c0.56,0.15,1.06,0.42,1.47,0.75c0.09,0.07,0.18,0.14,0.27,0.22c0,0,0.01,0.01,0.01,0.01c0.16,0.14,0.31,0.29,0.44,0.45
					c0.21,0.25,0.38,0.5,0.5,0.74c0.04,0.07,0.07,0.13,0.09,0.19c0.05,0.11,0.09,0.22,0.13,0.34c0.18,0.46,0.33,0.95,0.46,1.46
					c0.11,0.42,0.21,0.85,0.29,1.29c0.03,0.19,0.07,0.37,0.09,0.56c0.82,5.24-0.12,11.57-0.53,13.9c-0.1,0.58-0.17,0.92-0.17,0.92
					L208.56,114.62z"/>
				<path class="st4" d="M207.63,96.87c-20.71,1.09-61.55,2.44-61.55,2.44c-10.13,0.36-29.54,1.04-39.39,1.14
					c-13.38,0.13-35.46,0.29-47.28,0.57c-11.64,0.28-19.78,1.26-25.44,2.4c0.89-0.49,2.02-1.04,3.48-1.67c0,0,1.42-0.63,4.17-1.49
					c28.04-5.61,74.61-6.77,74.61-6.77c28.3,0.99,62.34-1.34,81.2-2.92c0.87-0.07,1.71-0.14,2.51-0.21c1.05,1,2.12,1.71,3.17,2.21
					c0.9,0.44,1.78,0.72,2.61,0.91c0.09,0.07,0.18,0.14,0.27,0.22c0,0,0.01,0.01,0.01,0.01c0.16,0.14,0.31,0.29,0.44,0.45
					c0.21,0.25,0.38,0.5,0.5,0.74c0.04,0.07,0.07,0.13,0.09,0.19c0.05,0.11,0.09,0.22,0.13,0.34
					C207.34,95.88,207.5,96.36,207.63,96.87z"/>
				<path class="st5" d="M49.93,120.05c-2.33,5.73-1.22,12.4-1.22,12.4s-7.65,0-12.25-2.61c0,0-2.52-2.23-6.94-9.46v0
					C35.1,120.3,42.08,120.19,49.93,120.05z"/>
				<path class="st5" d="M117.39,118.52c10.83-0.33,27.34-0.89,44.55-1.88c-0.15,0.24-0.28,0.48-0.41,0.72
					c-3.58,6.8-2.77,14.9-2.77,14.9l-29.31,0.07h-0.4l-40.38,0.1l-0.41,0l-3.63,0.01c-0.47-6.8-1.46-10.51-2.6-13.02
					C93.89,119.17,106.08,118.87,117.39,118.52z"/>
				<path class="st5" d="M208.56,114.62v2.88c-0.27,9-0.37,9.38-2.88,10.27c-4.45,1.58-10.9,2.43-10.9,2.43
					c-0.13-4.05-0.82-10.84-4.87-15.6c6.23-0.58,12.18-1.23,17.56-1.98c-0.1,0.58-0.17,0.92-0.17,0.92L208.56,114.62z"/>
				<g>
					<path class="st6" d="M81.32,127.02c0,0.75-0.06,1.49-0.16,2.21c-1.07,7.35-7.39,12.99-15.04,12.99c-8.39,0-15.2-6.8-15.2-15.2
						c0-0.21,0-0.41,0.02-0.62c0.32-8.11,7-14.58,15.18-14.58C74.52,111.82,81.32,118.63,81.32,127.02z"/>
					<g>
						<path class="st7" d="M66.35,123.77c0,0.72-0.01,2-0.73,2c-0.72,0-1.86-1.28-1.86-2c0-0.72,0.58-1.3,1.3-1.3
							C65.77,122.48,66.35,123.06,66.35,123.77z"/>
						<path class="st7" d="M64.4,124.26c0.42,0.58,1.16,1.62,0.58,2.04c-0.58,0.42-2.26,0.06-2.68-0.52
							c-0.42-0.58-0.29-1.39,0.29-1.81C63.16,123.55,63.98,123.68,64.4,124.26z"/>
						<path class="st7" d="M63.1,125.8c0.68,0.22,1.9,0.63,1.67,1.31c-0.22,0.68-1.79,1.38-2.47,1.16
							c-0.68-0.22-1.06-0.95-0.83-1.63C61.69,125.95,62.42,125.58,63.1,125.8z"/>
						<path class="st7" d="M62.96,127.81c0.68-0.22,1.9-0.61,2.12,0.08c0.22,0.68-0.64,2.17-1.32,2.39
							c-0.68,0.22-1.41-0.15-1.64-0.83C61.91,128.76,62.28,128.03,62.96,127.81z"/>
						<path class="st7" d="M64.03,129.51c0.42-0.58,1.18-1.61,1.76-1.19c0.58,0.42,0.76,2.13,0.33,2.71
							c-0.42,0.58-1.23,0.71-1.81,0.29C63.74,130.9,63.61,130.09,64.03,129.51z"/>
						<path class="st7" d="M65.89,130.27c0-0.72,0.01-2,0.73-2c0.72,0,1.86,1.28,1.86,2c0,0.72-0.58,1.3-1.3,1.3
							C66.48,131.57,65.9,130.98,65.89,130.27z"/>
						<path class="st7" d="M67.85,129.78c-0.42-0.58-1.16-1.62-0.58-2.04c0.58-0.42,2.26-0.06,2.68,0.52
							c0.42,0.58,0.29,1.39-0.29,1.81C69.08,130.49,68.27,130.36,67.85,129.78z"/>
						<path class="st7" d="M69.14,128.24c-0.68-0.22-1.89-0.63-1.67-1.31c0.22-0.68,1.79-1.38,2.47-1.16
							c0.68,0.22,1.06,0.95,0.83,1.63C70.56,128.09,69.82,128.46,69.14,128.24z"/>
						<path class="st7" d="M69.28,126.23c-0.68,0.22-1.9,0.61-2.12-0.08c-0.22-0.68,0.64-2.17,1.32-2.39
							c0.68-0.22,1.41,0.15,1.64,0.83C70.34,125.28,69.96,126.01,69.28,126.23z"/>
						<path class="st7" d="M68.22,124.53c-0.42,0.58-1.18,1.61-1.76,1.19c-0.58-0.42-0.76-2.13-0.34-2.71
							c0.42-0.58,1.23-0.71,1.81-0.29C68.51,123.13,68.64,123.95,68.22,124.53z"/>
						<polygon class="st8" points="66.49,126.31 65.76,126.31 65.25,115.74 67,115.74 						"/>
						<polygon class="st8" points="66,126.23 65.41,126.66 58.78,118.41 60.2,117.38 						"/>
						<polygon class="st8" points="65.56,126.45 65.33,127.14 55.12,124.37 55.66,122.7 						"/>
						<polygon class="st8" points="65.33,126.9 65.56,127.59 55.66,131.34 55.12,129.67 						"/>
						<polygon class="st8" points="65.41,127.38 66,127.81 60.2,136.66 58.78,135.63 						"/>
						<polygon class="st8" points="65.76,127.73 66.49,127.73 67,138.3 65.25,138.3 						"/>
						<polygon class="st8" points="66.25,127.81 66.84,127.38 73.46,135.63 72.04,136.66 						"/>
						<polygon class="st8" points="66.69,127.59 66.91,126.9 77.12,129.67 76.58,131.34 						"/>
						<polygon class="st8" points="66.91,127.14 66.69,126.45 76.58,122.7 77.12,124.37 						"/>
						<polygon class="st8" points="66.84,126.66 66.25,126.23 72.04,117.38 73.46,118.41 						"/>
						<g>
							<path class="st7" d="M66.12,138.77c-6.48,0-11.75-5.27-11.75-11.75c0-6.48,5.27-11.75,11.75-11.75
								c6.48,0,11.75,5.27,11.75,11.75C77.87,133.5,72.6,138.77,66.12,138.77z M66.12,116.21c-5.96,0-10.81,4.85-10.81,10.81
								s4.85,10.81,10.81,10.81c5.96,0,10.81-4.85,10.81-10.81S72.09,116.21,66.12,116.21z"/>
						</g>
						<path class="st7" d="M67.58,127.02c0,0.81-0.65,1.46-1.46,1.46c-0.81,0-1.46-0.65-1.46-1.46c0-0.8,0.65-1.46,1.46-1.46
							C66.93,125.56,67.58,126.22,67.58,127.02z"/>
						<path class="st9" d="M65.56,123.56c0,0.31-0.25,0.56-0.56,0.56c-0.31,0-0.56-0.25-0.56-0.56c0-0.31,0.25-0.56,0.56-0.56
							C65.31,123,65.56,123.25,65.56,123.56z"/>
						<path class="st9" d="M62.66,126.49c0.3,0.1,0.46,0.41,0.36,0.71c-0.1,0.29-0.41,0.46-0.71,0.36c-0.29-0.1-0.46-0.41-0.36-0.71
							C62.05,126.55,62.37,126.39,62.66,126.49z"/>
						<path class="st9" d="M64.55,130.15c0.18-0.25,0.53-0.31,0.78-0.13c0.25,0.18,0.31,0.53,0.12,0.79
							c-0.18,0.25-0.53,0.31-0.78,0.13C64.42,130.75,64.36,130.4,64.55,130.15z"/>
						<path class="st9" d="M68.61,129.49c-0.18-0.25-0.13-0.6,0.12-0.78c0.25-0.18,0.6-0.13,0.78,0.12c0.18,0.25,0.13,0.6-0.13,0.78
							C69.15,129.79,68.79,129.74,68.61,129.49z"/>
						<path class="st9" d="M69.24,125.42c-0.29,0.1-0.61-0.07-0.71-0.36c-0.09-0.3,0.07-0.61,0.36-0.71
							c0.29-0.1,0.61,0.06,0.71,0.36C69.69,125,69.53,125.32,69.24,125.42z"/>
					</g>
				</g>
				<g>
					<path class="st6" d="M191.87,127.04c0,0.75-0.06,1.49-0.16,2.21c-1.06,7.35-7.39,12.99-15.04,12.99c-8.39,0-15.2-6.8-15.2-15.2
						c0-0.21,0-0.41,0.01-0.62c0.32-8.11,7-14.58,15.18-14.58C185.07,111.84,191.87,118.64,191.87,127.04z"/>
					<g>
						<path class="st7" d="M176.9,123.79c0,0.72-0.01,2-0.73,2c-0.72,0-1.86-1.28-1.86-2c0-0.72,0.58-1.3,1.3-1.3
							C176.32,122.49,176.9,123.07,176.9,123.79z"/>
						<path class="st7" d="M174.95,124.28c0.42,0.58,1.16,1.62,0.58,2.04c-0.58,0.42-2.26,0.06-2.68-0.52
							c-0.42-0.58-0.29-1.39,0.29-1.81C173.72,123.57,174.53,123.69,174.95,124.28z"/>
						<path class="st7" d="M173.65,125.82c0.68,0.22,1.9,0.63,1.67,1.31c-0.22,0.68-1.79,1.38-2.47,1.16
							c-0.68-0.22-1.06-0.95-0.83-1.63C172.24,125.97,172.97,125.6,173.65,125.82z"/>
						<path class="st7" d="M173.52,127.82c0.68-0.22,1.9-0.61,2.12,0.08c0.22,0.68-0.64,2.17-1.32,2.39
							c-0.68,0.22-1.41-0.15-1.64-0.83C172.46,128.78,172.83,128.04,173.52,127.82z"/>
						<path class="st7" d="M174.58,129.53c0.42-0.58,1.18-1.61,1.76-1.19c0.58,0.42,0.76,2.13,0.33,2.71
							c-0.42,0.58-1.23,0.71-1.81,0.29C174.29,130.92,174.16,130.11,174.58,129.53z"/>
						<path class="st7" d="M176.45,130.28c0-0.72,0.01-2,0.73-2c0.72,0,1.87,1.28,1.87,2c0,0.72-0.58,1.3-1.3,1.3
							C177.03,131.58,176.45,131,176.45,130.28z"/>
						<path class="st7" d="M178.4,129.8c-0.42-0.58-1.16-1.62-0.59-2.04c0.58-0.42,2.26-0.06,2.68,0.52
							c0.42,0.58,0.29,1.39-0.29,1.81C179.63,130.51,178.82,130.38,178.4,129.8z"/>
						<path class="st7" d="M179.69,128.25c-0.68-0.22-1.89-0.63-1.67-1.31c0.22-0.68,1.79-1.38,2.47-1.16
							c0.68,0.22,1.06,0.95,0.83,1.63C181.11,128.1,180.37,128.48,179.69,128.25z"/>
						<path class="st7" d="M179.83,126.25c-0.68,0.22-1.9,0.61-2.12-0.07c-0.22-0.68,0.64-2.17,1.32-2.39
							c0.68-0.22,1.41,0.15,1.64,0.83C180.89,125.29,180.51,126.03,179.83,126.25z"/>
						<path class="st7" d="M178.77,124.54c-0.42,0.58-1.18,1.61-1.76,1.19c-0.58-0.42-0.76-2.13-0.34-2.71
							c0.42-0.58,1.23-0.71,1.81-0.29C179.06,123.15,179.19,123.96,178.77,124.54z"/>
						<polygon class="st8" points="177.04,126.32 176.31,126.32 175.8,115.75 177.55,115.75 						"/>
						<polygon class="st8" points="176.55,126.24 175.96,126.67 169.33,118.42 170.75,117.39 						"/>
						<polygon class="st8" points="176.11,126.47 175.88,127.16 165.67,124.38 166.22,122.72 						"/>
						<polygon class="st8" points="175.88,126.91 176.11,127.6 166.22,131.35 165.67,129.69 						"/>
						<polygon class="st8" points="175.96,127.4 176.55,127.83 170.75,136.68 169.33,135.65 						"/>
						<polygon class="st8" points="176.31,127.75 177.04,127.75 177.55,138.32 175.8,138.32 						"/>
						<polygon class="st8" points="176.8,127.83 177.39,127.4 184.01,135.65 182.6,136.68 						"/>
						<polygon class="st8" points="177.24,127.6 177.46,126.91 187.67,129.69 187.13,131.35 						"/>
						<polygon class="st8" points="177.46,127.16 177.24,126.47 187.13,122.72 187.67,124.38 						"/>
						<polygon class="st8" points="177.39,126.67 176.8,126.24 182.6,117.39 184.01,118.42 						"/>
						<g>
							<path class="st7" d="M176.67,138.78c-6.48,0-11.75-5.27-11.75-11.75c0-6.48,5.27-11.75,11.75-11.75
								c6.48,0,11.75,5.27,11.75,11.75C188.42,133.51,183.15,138.78,176.67,138.78z M176.67,116.22c-5.96,0-10.81,4.85-10.81,10.81
								c0,5.96,4.85,10.81,10.81,10.81c5.96,0,10.81-4.85,10.81-10.81C187.49,121.07,182.64,116.22,176.67,116.22z"/>
						</g>
						<path class="st7" d="M178.13,127.04c0,0.81-0.65,1.46-1.46,1.46c-0.8,0-1.46-0.65-1.46-1.46c0-0.8,0.65-1.46,1.46-1.46
							C177.48,125.58,178.13,126.23,178.13,127.04z"/>
						<path class="st9" d="M176.11,123.58c0,0.31-0.25,0.56-0.56,0.56c-0.31,0-0.56-0.25-0.56-0.56c0-0.31,0.25-0.56,0.56-0.56
							C175.86,123.02,176.11,123.27,176.11,123.58z"/>
						<path class="st9" d="M173.21,126.5c0.3,0.1,0.46,0.41,0.36,0.71c-0.1,0.29-0.41,0.46-0.71,0.36c-0.29-0.1-0.46-0.41-0.36-0.71
							C172.6,126.57,172.92,126.41,173.21,126.5z"/>
						<path class="st9" d="M175.1,130.17c0.18-0.25,0.53-0.31,0.78-0.13c0.25,0.18,0.31,0.53,0.12,0.79
							c-0.18,0.25-0.53,0.31-0.78,0.13C174.97,130.77,174.92,130.41,175.1,130.17z"/>
						<path class="st9" d="M179.16,129.5c-0.18-0.25-0.13-0.6,0.12-0.78c0.25-0.18,0.6-0.13,0.78,0.12c0.18,0.25,0.13,0.6-0.12,0.78
							C179.7,129.81,179.35,129.75,179.16,129.5z"/>
						<path class="st9" d="M179.79,125.43c-0.29,0.1-0.61-0.07-0.71-0.36c-0.1-0.3,0.07-0.61,0.36-0.71
							c0.29-0.1,0.61,0.06,0.71,0.36C180.24,125.02,180.08,125.33,179.79,125.43z"/>
					</g>
				</g>
				<g>
					<path class="st10" d="M88.67,132.44l-0.41,0c-3.45-18.95-1.4-33.21-1.38-33.35l0.01-0.08l4.7-3.52l0.24,0.32l-4.57,3.42
						C87.08,100.39,85.34,114.27,88.67,132.44z"/>
				</g>
				<g>
					<path class="st10" d="M133.38,93.76l-1.13,5.72c-0.01,0.11-1.56,12.35-2.8,32.86h-0.4c1.24-20.54,2.79-32.8,2.81-32.92
						l1.13-5.74L133.38,93.76z"/>
				</g>
				<g>
					<path class="st10" d="M171.38,109.84c-0.14,0.03-0.27,0.07-0.41,0.11c1.28-6.52,1.09-14.32,1.05-15.11l-2.74-3.05l0.3-0.27
						l2.84,3.16l0,0.07C172.43,94.83,172.65,102.99,171.38,109.84z"/>
				</g>
				<path class="st11" d="M204.25,92.72c-0.24-0.07-0.5-0.11-0.76-0.13c-2.33-0.15-5.52-0.9-8.4-4.08c0,0-3.12-3.3-4.74-5.22
					c0,0-0.98-1.13-0.6-2.14C196.18,84.57,202.43,90.82,204.25,92.72z"/>
				<path class="st12" d="M208.01,98.72c-1.03,0.04-2.01,0.05-2.93,0.02c-5.94-0.18-9.52-1.65-9.52-1.65
					c-3.48-1.32-2.65-1.92-1.98-2.28c1.25-0.67,6.05-0.71,10.27-0.68c0.9,0.01,1.78,0.01,2.58,0.02c0.27,0.32,0.47,0.64,0.59,0.93
					c0.39,0.94,0.68,1.98,0.89,3.08C207.95,98.35,207.98,98.53,208.01,98.72z"/>
				<path class="st11" d="M112.29,79.5c0,0-10.51,3.72-25.04,14.89c0,0-5.67,0.04-8.44-0.72c1.66-0.94,20.06-11.26,29.42-14.44
					c0,0,0.01,0,0.02-0.01h0C109.65,79.23,111.16,79.3,112.29,79.5z"/>
				<path class="st11" d="M179.61,86.88c-0.95,1.24-2.75,3.17-4.46,4.45c-0.34,0.26-0.68,0.49-1.01,0.68c0,0-0.78,0.68-3.36,1.08
					c-0.43,0.07-0.92,0.13-1.45,0.18c-2.14,0.19-4.35,0.36-6.7,0.5c-0.05,0-0.1,0.01-0.15,0.01c-4.17,0.26-8.82,0.46-14.44,0.68
					c-3.4,0.14-7.17,0.28-11.4,0.44c-0.6,0.02-1.21,0.05-1.83,0.07c-0.83,0.03-1.69,0.07-2.58,0.1c-1.18,0.05-2.41,0.11-3.7,0.16
					c-2.65,0.12-5.5,0.25-8.48,0.38c-2.58,0.11-5.26,0.22-8,0.32c-1.79,0.06-3.61,0.13-5.44,0.18c-2.69,0.08-5.42,0.14-8.13,0.19
					c-0.12,0-0.24,0-0.36,0.01c-2.62,0.04-5.23,0.06-7.8,0.05c0,0,1.73-1.51,4.55-3.65c1.04-0.79,2.22-1.66,3.51-2.58
					c0.42-0.3,0.86-0.6,1.3-0.91c1.07-0.74,2.2-1.49,3.38-2.23c1.66-1.06,3.42-2.1,5.22-3.08c2.25-1.22,4.57-2.34,6.89-3.24
					c0.62-0.24,1.27-0.46,1.96-0.67c3.88-1.16,8.78-1.75,14.2-2.03h0c0.07,0,0.14-0.01,0.2-0.01c2.2-0.11,4.47-0.16,6.8-0.18
					c1.51-0.01,3.04-0.01,4.57,0c1.32,0.01,2.55,0.03,3.72,0.06c4.96,0.12,8.59,0.38,11.59,0.73c1.75,0.21,3.28,0.44,4.73,0.69
					c0.02,0,0.04,0.01,0.06,0.01c0.24,0.04,0.48,0.08,0.72,0.13C171.52,80.82,180.86,85.26,179.61,86.88z"/>
				<path class="st13" d="M175.15,91.33c-0.34,0.26-0.68,0.49-1.01,0.68c0,0-0.78,0.68-3.36,1.08c-0.43,0.07-0.92,0.13-1.45,0.18
					c-2.14,0.19-4.35,0.36-6.7,0.5l-16.01-15.93c4.96,0.12,8.59,0.38,11.59,0.73c1.75,0.21,3.28,0.44,4.73,0.69
					c0.02,0,0.04,0.01,0.06,0.01L175.15,91.33z"/>
				<path class="st13" d="M148.04,94.47c-3.4,0.14-7.17,0.28-11.4,0.44c-0.6,0.02-1.21,0.05-1.83,0.07
					c-0.83,0.03-1.69,0.07-2.58,0.1L117.13,80c3.88-1.16,8.78-1.75,14.2-2.03h0c0.07,0,0.14-0.01,0.2-0.01L148.04,94.47z"/>
				<path class="st13" d="M112.04,95.95c-1.79,0.06-3.61,0.13-5.44,0.18c-2.69,0.08-5.42,0.14-8.13,0.19l-3.61-3.6
					c1.04-0.79,2.22-1.66,3.51-2.58c0.42-0.3,0.86-0.6,1.3-0.91c1.07-0.74,2.2-1.49,3.38-2.23L112.04,95.95z"/>
				<path class="st14" d="M98.38,90.14l-0.26,6.18c-2.62,0.04-5.23,0.06-7.8,0.05C90.32,96.37,93.56,93.54,98.38,90.14z"/>
				<path class="st14" d="M170.79,93.1c-0.43,0.07-0.92,0.13-1.45,0.18c-2.19,0.2-4.44,0.36-6.85,0.51l0.41-6.72l-4.69-8.49
					c1.75,0.21,3.28,0.44,4.73,0.69L170.79,93.1z"/>
				<path class="st14" d="M138.34,77.78l-1.7,17.13c-0.6,0.02-1.21,0.05-1.83,0.07c-1.92,0.07-4.02,0.17-6.28,0.27l2.8-17.28h0
					C133.59,77.86,135.94,77.8,138.34,77.78z"/>
				<path class="st15" d="M51.28,104.98c-0.65,1.33-1.14,1.25-3.74,1.89c-2.25,0.55-5.58,0.86-8.99,0.96c-0.03,0-0.06,0-0.09,0
					c-0.73,0.02-1.45,0.03-2.17,0.03c0,0-1-0.15-2.23-0.39c-0.91-0.18-1.95-0.41-2.81-0.67l-0.36-2.18c0,0-0.03-0.11,0.1-0.34
					c0.82-0.24,1.85-0.53,3.05-0.83c1.39-0.34,2.99-0.7,4.75-1.01c0.1-0.02,0.2-0.03,0.29-0.05c3.85-0.67,8.41-1.13,12.96-0.83
					C52.94,101.62,52.44,102.62,51.28,104.98z"/>
				<path class="st16" d="M40.25,122.82c-0.05,1.47-0.38,2.35-1.17,2.46c-2.04,0.28-4.47-0.19-4.47-0.19l-3.18-4.43l-0.06-4.92
					l2.46-3.92c3.48-0.29,4.89-0.22,5.21,0.95c0.13,0.46,0.24,0.92,0.33,1.4c0.36,1.73,0.57,3.63,0.79,6.26
					C40.23,121.34,40.27,122.14,40.25,122.82z"/>
				<path class="st15" d="M40.25,122.82c-0.46-0.33-1-2.06-1.26-4.19c-0.3-2.4-0.14-4.4,0.36-4.46c0.01,0,0.02,0,0.03,0
					c0.36,1.73,0.57,3.63,0.79,6.26C40.23,121.34,40.27,122.14,40.25,122.82z"/>
				<g>
					<path class="st17" d="M103.53,96.03c-1.07,0.31-5.81,1.2-6.74-0.16c-0.03-0.04-0.05-0.09-0.08-0.12
						c-0.75-1.36,1.06-3.3,2.97-4.62c1.96-1.37,3.12-1.51,4.36-1.17c0.37,0.1,0.6,0.45,0.72,0.93
						C105.2,92.54,104.36,95.78,103.53,96.03z"/>
					<path class="st3" d="M103.53,96.03c-1.07,0.31-5.81,1.2-6.74-0.16c-0.03-0.04-0.05-0.09-0.08-0.12
						c1.58-1.31,5.38-4.29,8.05-4.85C105.2,92.54,104.36,95.78,103.53,96.03z"/>
				</g>
				<g>
					<path class="st18" d="M168.47,97.84l-0.57,0.02c-0.66-0.35-1.69-0.55-2.63-0.51c-0.94,0.04-1.94,0.32-2.58,0.72l-0.57,0.02
						c-0.53,0.02-0.94,0.49-0.93,0.91c0.02,0.42,0.46,0.81,0.99,0.79l0.64-0.03c0.67,0.33,1.66,0.52,2.57,0.48
						c0.91-0.04,1.88-0.31,2.52-0.68l0.64-0.03c0.53-0.02,0.94-0.45,0.93-0.87C169.45,98.26,169,97.82,168.47,97.84z"/>
					<path class="st3" d="M161.43,99c0.02,0.39,0.43,0.7,0.93,0.68l5.98-0.24c0.5-0.02,0.89-0.35,0.87-0.75l0,0
						c-0.02-0.39-0.43-0.7-0.93-0.68l-5.98,0.24C161.81,98.27,161.42,98.6,161.43,99L161.43,99z"/>
				</g>
				<g>
					<path class="st18" d="M127.54,99.42l-0.57,0.02c-0.66-0.35-1.69-0.55-2.63-0.51c-0.94,0.04-1.94,0.32-2.58,0.72l-0.57,0.02
						c-0.53,0.02-0.94,0.49-0.93,0.91c0.02,0.42,0.46,0.81,0.99,0.79l0.64-0.03c0.67,0.33,1.66,0.52,2.57,0.48
						c0.91-0.04,1.88-0.31,2.52-0.68l0.64-0.03c0.53-0.02,0.95-0.45,0.93-0.87C128.52,99.84,128.07,99.4,127.54,99.42z"/>
					<path class="st3" d="M120.5,100.57c0.02,0.39,0.43,0.7,0.93,0.68l5.98-0.24c0.5-0.02,0.89-0.35,0.87-0.75l0,0
						c-0.02-0.39-0.43-0.7-0.93-0.68l-5.98,0.24C120.88,99.85,120.49,100.18,120.5,100.57L120.5,100.57z"/>
				</g>
				<path class="st19" d="M38.46,107.83c-0.73,0.02-1.45,0.03-2.17,0.03c0,0-1-0.15-2.23-0.39c-0.47-1.95-0.28-3.25-0.02-4.01
					c1.39-0.34,2.99-0.7,4.75-1.01c0.1-0.02,0.2-0.03,0.29-0.05C38.59,104.2,38.37,106.51,38.46,107.83z"/>
				<path class="st21" d="M191.24,79.98c-0.9,0.29-1.34,0.72-1.5,1.17c-0.05,0.14-0.08,0.28-0.08,0.42
					c-28.92-6.33-57.3-5.79-74.98-4.42c2.42-0.6,5.44-1.16,8.88-1.43c10.95-0.86,26.24-0.57,38.54,0.4
					c10.78,0.86,20.9,1.76,27.77,3.02C191.38,79.41,191.24,79.98,191.24,79.98z"/>
			</g>
			<rect x="39.06" y="143.1" class="st160" width="185.36" height="4.8"/>
			<g>
				<polygon class="st162" points="184.38,155.56 177.3,155.56 177.3,165.95 193.75,165.95 193.75,162.42 				"/>
				<path class="st163" d="M172.6,33.21c-1.87,0.12-3.75,0.24-5.65,0.26c-0.14,0-0.26-0.02-0.39-0.04v122.13h17.82V33.61
					C180.45,33.49,176.53,33.25,172.6,33.21z"/>
				<line class="st165" x1="175.47" y1="56.41" x2="175.47" y2="156.93"/>
				<path class="st162" d="M181.41,33.51v122.06h2.97V33.61C183.39,33.58,182.4,33.55,181.41,33.51z"/>
				<path class="st166" d="M179.81,58.46c0,0.76-0.61,1.37-1.37,1.37h-14.62c-0.76,0-1.37-0.61-1.37-1.37V37.67
					c0-0.76,0.61-1.37,1.37-1.37h14.62c0.76,0,1.37,0.61,1.37,1.37V58.46z"/>
				<path class="st167" d="M178.89,57.35c0,0.68-0.55,1.22-1.22,1.22H164.6c-0.68,0-1.23-0.55-1.23-1.22V38.78
					c0-0.68,0.55-1.22,1.23-1.22h13.06c0.68,0,1.22,0.55,1.22,1.22V57.35z"/>
				<path class="st168" d="M168.62,43.55c0,1.04-0.84,1.88-1.89,1.88c-1.04,0-1.88-0.84-1.88-1.88c0-1.04,0.84-1.89,1.88-1.89
					C167.77,41.67,168.62,42.51,168.62,43.55z"/>
				<path class="st169" d="M174.9,43.55c0,1.04-0.84,1.88-1.88,1.88c-1.04,0-1.89-0.84-1.89-1.88c0-1.04,0.84-1.89,1.89-1.89
					C174.06,41.67,174.9,42.51,174.9,43.55z"/>
				<path class="st168" d="M168.62,49.04c0,1.04-0.84,1.88-1.89,1.88c-1.04,0-1.88-0.84-1.88-1.88c0-1.04,0.84-1.89,1.88-1.89
					C167.77,47.15,168.62,48,168.62,49.04z"/>
				<path class="st168" d="M168.62,54.52c0,1.04-0.84,1.88-1.89,1.88c-1.04,0-1.88-0.84-1.88-1.88c0-1.04,0.84-1.89,1.88-1.89
					C167.77,52.64,168.62,53.48,168.62,54.52z"/>
				<polygon class="st163" points="190.78,165.95 154.22,165.95 154.22,162.75 166.56,155.56 181.41,155.56 190.78,162.42 				"/>
				<g>
					<path class="st167" d="M192.49,114.44c0,0.76-0.61,1.37-1.37,1.37H171.7c-0.76,0-1.37-0.61-1.37-1.37V87.25
						c0-0.76,0.61-1.37,1.37-1.37h19.42c0.76,0,1.37,0.61,1.37,1.37V114.44z"/>
					<path class="st170" d="M190.78,112.34c0,0.64-0.52,1.16-1.16,1.16H173.2c-0.64,0-1.16-0.52-1.16-1.16V89.35
						c0-0.64,0.52-1.16,1.16-1.16h16.42c0.64,0,1.16,0.52,1.16,1.16V112.34z"/>
				</g>
			</g>
		</g>
		<g>
			<path class="st171" d="M30.28,168.59c0,0-0.14,1.08,0,2.22c0,0,1.33,0.38,2.38,0.1v-0.3c0,0,1.72,0.24,2.44,0.3h2.13
				c0,0,0.14-0.55-0.17-0.85c-0.3-0.3-3.68-0.96-3.93-2.32L30.28,168.59z"/>
			<path class="st171" d="M8.59,164.66c0,0-0.92-0.8-2.96-0.85c0,0-0.62,1.23-0.56,2.32l0.29,0.06c0,0-0.56,1.64-0.76,2.34
				l-0.41,2.09c0,0,0.51,0.24,0.87,0c0.36-0.24,1.65-3.43,3.03-3.42L8.59,164.66z"/>
			<path class="st172" d="M24.22,160.83c0,0,2.12,9.05,0.86,10.09c-1.27,1.04-12.73-1.23-17.17-2.56c0,0-1.18-3.15,0.76-4.04
				l10.36,1.5c0,0-3.59-3.28-3.94-6.57L24.22,160.83z"/>
			<polygon class="st173" points="34.68,120.47 35.62,119.1 36.83,120.46 36.21,122.04 			"/>
			<g>
				<g>
					<path class="st173" d="M27,126.97c0,0,0.05,0.26,0,0.49c0,0,0.03,0.26-0.14,0.46c-0.18,0.2-0.2,0.81-0.27,1.43
						c0,0-0.12,0.5-0.69,0.49c-0.37,0-0.56,0.01-1.6-0.2c0,0-0.43-0.09-0.91-0.22c0.09,0.85,0.24,1.71,0.37,2.35
						c0,0,0.48,0.6,1.07,1.35h-8.32c0.67-1.11,1.39-1.52,1.39-1.52c1.43-1.44,2.19-2.61,2.1-4.19c-0.32-0.55-2.25-4.07-0.84-6.5
						c0.93-1.61,2.32-2.02,3.53-2.01v0c1.31,0.04,2.06,0.21,3.03,1.06c0,0,1.63,1.17,1.26,3.93c0,0-0.35,0.52,0.53,1.97
						c0,0,0.33,0.44,0.12,0.62C27.45,126.61,27,126.97,27,126.97z"/>
					<path class="st174" d="M20.92,127.06c0.48,1.55,1.8,2.16,2.51,2.38c-0.01,0-0.03-0.01-0.04-0.01c0.07,0.65,0.18,1.3,0.28,1.86
						C20.77,130.56,20.92,127.06,20.92,127.06z"/>
				</g>
				<path class="st175" d="M15.35,138.6c0.04-0.54,0.06-1.06,0.08-1.55c0.02-0.44,0.22-1.76,0.22-1.76c0.01-0.03,0.01-0.06,0.02-0.1
					c0.02-0.1,0.05-0.19,0.08-0.28c0.01-0.03,0.02-0.06,0.02-0.08c0.03-0.1,0.06-0.19,0.09-0.29l0,0c0.11-0.31,0.22-0.6,0.35-0.85
					c0.01-0.02,0.02-0.03,0.02-0.05c0.04-0.07,0.07-0.14,0.11-0.21c0.01-0.02,0.02-0.05,0.04-0.07c0.03-0.07,0.07-0.13,0.11-0.19
					c0.01-0.02,0.02-0.04,0.04-0.06c0.04-0.06,0.07-0.12,0.11-0.17c0.01-0.01,0.01-0.02,0.02-0.03c0.12-0.19,0.25-0.35,0.36-0.49
					c0.01-0.01,0.02-0.02,0.03-0.04c0.03-0.04,0.06-0.08,0.1-0.11c0.01-0.01,0.03-0.03,0.04-0.04c0.03-0.03,0.06-0.06,0.09-0.09
					c0.01-0.02,0.03-0.03,0.04-0.04c0.03-0.03,0.05-0.06,0.08-0.08c0.01-0.01,0.03-0.03,0.04-0.04c0.08-0.08,0.16-0.15,0.23-0.2
					c0.01-0.01,0.03-0.02,0.04-0.03c0.01-0.01,0.03-0.02,0.04-0.03c0.01-0.01,0.03-0.02,0.04-0.02c0.01-0.01,0.02-0.02,0.03-0.02
					c0.01-0.01,0.02-0.01,0.03-0.02c0.01,0,0.02-0.01,0.02-0.01c0.01-0.01,0.02-0.01,0.02-0.02c0,0,0.01-0.01,0.01-0.01
					c0.01,0,0.01-0.01,0.01-0.01c0.11-0.11,0.21-0.21,0.31-0.32c0.44-0.46,0.8-0.9,1.08-1.34c0,0,0,0,0,0.01
					c1.62,2.14,2.93,2.79,4.13,2.91c0.2,0.02,0.64-0.13,0.99-0.28c0.3,0.38,0.66,0.84,1.02,1.31c0,0,0,0,0,0.01
					c0,0,0,0.01,0.01,0.01h0c0.23,0.3,0.45,0.6,0.66,0.88c0,0,0,0,0,0c0.01,0.01,0.01,0.01,0.01,0.02c0.06,0.09,0.12,0.17,0.18,0.26
					c0,0.01,0.01,0.01,0.01,0.02c0,0,0.01,0.01,0.01,0.01c0.06,0.08,0.11,0.16,0.16,0.24c0,0.01,0.01,0.02,0.01,0.03
					c0.05,0.07,0.1,0.15,0.14,0.21c0,0,0,0,0,0.01c0,0,0.01,0.01,0.01,0.01c0.04,0.07,0.08,0.13,0.12,0.19
					c0.22,0.38,0.77,1.46,1.17,2.83H15.35z"/>
				<path class="st176" d="M15.43,137.05c0.01-0.21,0.06-0.61,0.11-0.98c0.31-0.06,0.76-0.22,0.98-0.63c0,0,0.32-5.01,3.93-4.16l0,0
					c0.24,0.24,3.07,1.17,4.01,6.33c0,0,1.27-0.15,2.96-0.5c0.72,1.74,1.55,4.71,0.42,7.19c0,0-1.32,7.07-1.54,10.54
					c0,0-0.12,2.12-0.8,2.45c-0.67,0.33-9.87-1.73-10.9-2.88C13.51,153,15.23,142.71,15.43,137.05z"/>
				<path class="st177" d="M26.86,121.12c0,0,0.26,0.52-0.58,0.26c-0.47-0.14-2.46-0.36-3.1,0c-0.65,0.36-0.54,2.31-0.88,2.57
					c0,0-0.36,0.47-0.89,0.47c-0.4,0-1.04-0.87-1.39-0.68c-0.36,0.19-0.02,2.13,0.91,2.39c0,0,0.03,0.52-0.2,0.92
					c-0.23,0.4-0.48,1.2-0.74,1.11c-0.26-0.09-0.42-1.55-0.81-1.97c-0.39-0.42-2.72-4.07,0.2-6.76
					C19.36,119.44,23.95,115.88,26.86,121.12z"/>
			</g>
			<path class="st178" d="M26.35,120.32c0,0-6.2,0.66-8.06,4.27c0,0-0.27,0.32-0.66-0.27c-0.39-0.59-1.31-4.06,1.05-5.76
				C21.05,116.86,24.78,116.83,26.35,120.32z"/>
			<path class="st178" d="M22.5,121.29c0,0,2.34,1.11,4.11,0.16c0,0,0.98-0.55,3.11-0.89c0,0,0.04-0.11-0.26-0.18
				c-0.3-0.07-3.43-0.69-3.43-0.69S22.64,120.91,22.5,121.29z"/>
			<path class="st175" d="M32.62,130.46c-0.64,1.17-1.67,1.6-1.67,1.6c-2.22,1.49-8.77,3.71-8.77,3.71c-1.25,0.4-4.09,2-4.69-1.34
				c0,0-1.38-2.45,11.97-5.58c0,0,4.77-8.03,5.41-8.79c0,0,1.14,0.26,1.8,1.36C36.67,121.42,33.04,129.7,32.62,130.46z"/>
			<path class="st179" d="M23.66,137.57c0.05,0.26,0.21,0.44,0.36,0.41c0.15-0.03,0.23-0.26,0.18-0.51
				c-0.05-0.26-0.21-0.44-0.36-0.41C23.7,137.09,23.61,137.32,23.66,137.57z"/>
			<path class="st180" d="M37.28,118.61c0,0-0.05,1.57-0.47,2.01c-0.2,0.21-1.4-0.28-1.46-1.25c0,0-0.12-1.81,0.63-3.01
				c0.28-0.46,1.53-0.88,2.04-0.82c0,0,0.35,0.13,0.12,0.4c-0.24,0.27-1.12,0.7-1.12,0.7s0.21,0.23,0.13,0.37
				C37.15,117.01,37.3,118.12,37.28,118.61z"/>
			<path class="st176" d="M14.23,151.7c3.11,1.39,8.43,0.55,10.75,1.28c2.54-1.56,8.81-3.16,11.76-3.25c0,0,0.69,0.27,1.05,1.9
				c0.37,1.63-2.61,12.27-4.05,16.1c0,0-2.79,1.58-3.82,1.21c-1.04-0.37,0.84-11.03,0.84-11.03s-5.03,4-8.46,5.13
				C12.06,166.41,13.96,152.07,14.23,151.7z"/>
		</g>
	</g>
</g>
</svg>
