<?xml version="1.0" encoding="utf-8"?>
<!-- Generator: Adobe Illustrator 23.0.1, SVG Export Plug-In . SVG Version: 6.00 Build 0)  -->
<svg version="1.1" id="Layer_1" xmlns="http://www.w3.org/2000/svg" xmlns:xlink="http://www.w3.org/1999/xlink" x="0px" y="0px"
	 viewBox="0 0 2012 2125" style="enable-background:new 0 0 2012 2125;" xml:space="preserve">
<style type="text/css">
	.st0{fill:#A3D850;}
	.st1{fill:#84BC3B;}
	.st2{fill:#263238;}
	.st3{fill:#506770;}
</style>
<g>
	<path class="st0" d="M966.37,1118.05v306.26c-15.14-0.18-30.19-6.05-41.74-17.6L502.64,985.01
		c-11.33-11.31-17.66-26.64-17.66-42.66c0-16,6.38-31.31,17.7-42.62l72.93-72.79c23.42-23.33,61.24-23.48,84.8-0.3l289,284.17
		C954.15,1115.46,960.22,1117.86,966.37,1118.05z"/>
	<path class="st1" d="M1789.99,564.28c17.1,17.32,17.02,45.23-0.2,62.45l-779.94,779.96c-7.82,7.8-17.22,13.01-27.16,15.62
		c-5.33,1.42-10.83,2.08-16.32,2v-306.26c5.73,0.2,11.55-1.58,16.32-5.29c0.8-0.64,1.56-1.3,2.31-2.04l646.89-643.22
		c8.36-8.31,19.67-12.95,31.46-12.89c11.78,0.05,23.06,4.8,31.34,13.18L1789.99,564.28z"/>
	<path class="st2" d="M1668.67,929.74c3.38-3.38,8.55-4.19,12.79-2.01s6.6,6.85,5.83,11.56
		c-43.33,265.32-147.28,529.18-408.57,772.59c-70.55,65.55-203.24,170.72-301.27,208.39c-3.89,1.48-7.94,2.33-12.03,2.55v-174.75
		c5.05,0.04,10.1-0.92,14.88-2.87c113.05-46.27,274.23-195.26,325.29-264.6c102.46-138.56,162.27-254.26,197.81-379.08
		c1.69-5.94,4.87-11.38,9.23-15.74L1668.67,929.74z"/>
	<path class="st2" d="M1498.52,386.37c3.94,0.64,7.2,3.45,8.43,7.25c1.23,3.81,0.21,7.99-2.61,10.81l-112.74,112.74
		c-7.84,7.84-19.01,11.38-29.94,9.47c-0.11-0.02-0.21-0.04-0.25-0.04c-141.98-28.94-255-76.64-384.12-140.22
		c-2.99-1.48-6.21-2.23-9.54-2.23c-0.78,0-1.55,0.04-2.31,0.13V202.16c0.15-0.02,0.32-0.02,0.47-0.02c4.36,0,8.67,1,12.61,2.9
		c174.68,84.05,311.63,140.71,491.46,176.65C1470.77,381.85,1481.66,383.63,1498.52,386.37z"/>
	<path class="st3" d="M392.97,556.55c-9.7,1.63-16.76,10.09-16.67,19.92c1.12,113.14,13.56,318.08,20.26,370.31
		c3.58,29.32,32.29,167.9,82.19,287.01c129.57,306.21,391.51,477.88,472.07,511.33c4.7,1.95,9.64,2.94,14.6,2.95v174.74
		c-5.26,0.23-10.57-0.59-15.57-2.5c-95.41-36.32-447.43-253.98-623.78-680.61c-46.34-112.38-86.02-289.09-90.94-328.16
		c-8.58-66.21-24.47-324.94-25.91-466.86c-0.11-12.5,8.86-23.18,21.21-25.17h0.02c241.74-38.71,376.51-45.02,722.94-214.47
		c3.77-1.84,7.84-2.82,12.03-2.88v182.13c-2.71,0.27-5.34,1.02-7.78,2.25c-271.74,134.93-377.09,139.5-564.66,170.01H392.97z"/>
</g>
</svg>
