<?xml version="1.0" encoding="utf-8"?>
<!-- Generator: Adobe Illustrator 23.0.1, SVG Export Plug-In . SVG Version: 6.00 Build 0)  -->
<svg version="1.1" id="Layer_1" xmlns="http://www.w3.org/2000/svg" xmlns:xlink="http://www.w3.org/1999/xlink" x="0px" y="0px"
	 viewBox="0 0 200 200" style="enable-background:new 0 0 200 200;" xml:space="preserve">
<style type="text/css">
	.st0{clip-path:url(#SVGID_2_);}
	.st1{opacity:0.51;fill:#98A175;}
	.st2{fill:#080C0D;}
	.st3{fill:#FD1A16;}
	.st4{opacity:0.25;fill:#DDDBDB;}
	.st5{fill:#CF1712;}
	.st6{fill:#172224;}
	.st7{fill:#FEFDEF;}
	.st8{fill:#A6A7A8;}
	.st9{fill:#CCCCCC;stroke:#1A1A1A;stroke-miterlimit:10;}
	.st10{fill:#B0140F;}
	.st11{fill:#094349;}
	.st12{fill:#B20808;}
	.st13{opacity:0.15;fill:#79D4E1;}
	.st14{fill:#04242B;}
	.st15{fill:#D1DAF2;}
	.st16{fill:#B21616;}
	.st17{fill:#F04341;}
	.st18{opacity:0.5;fill:#700C09;}
	.st19{fill:#E4EBF9;}
	.st20{fill:#BF1111;}
	.st21{opacity:0.14;fill:#DDDBDB;}
	.st22{opacity:0.36;fill:#444B4D;}
	.st23{opacity:0.74;}
	.st24{fill:#4D4D4D;}
	.st25{fill:#9E9D9E;}
	.st26{opacity:0.22;fill:#444B4D;}
	.st27{fill:#911A1D;}
	.st28{fill:#BD2225;}
	.st29{fill:#232323;}
	.st30{fill:#B01F24;}
	.st31{fill:#C92127;}
	.st32{fill:#B72025;}
	.st33{fill:#333333;}
	.st34{fill:#1C1717;}
	.st35{fill:#BA2026;}
	.st36{fill:#1E1E1E;}
	.st37{fill:#4E5C61;}
	.st38{clip-path:url(#SVGID_4_);fill:#607983;}
	.st39{clip-path:url(#SVGID_4_);fill:#50646B;}
	.st40{clip-path:url(#SVGID_4_);fill:#2F3435;}
	.st41{clip-path:url(#SVGID_4_);fill:#373C3D;}
	.st42{opacity:0.56;fill:#FFFFFF;}
	.st43{opacity:0.56;fill:#919191;}
	.st44{fill:#B8272B;}
	.st45{fill:#F2F2F2;}
	.st46{fill:#261F1F;}
	.st47{fill:#212121;}
	.st48{opacity:0.51;fill:#444B4D;}
	.st49{opacity:0.35;fill:#FFFFFF;}
	.st50{opacity:0.62;fill:#DEDFE2;}
	.st51{fill:#553256;}
	.st52{fill:#2E3E5B;}
	.st53{fill:#332A29;}
	.st54{fill:#7F5D44;}
	.st55{fill:#A9ABA8;}
	.st56{fill:#3F3534;}
	.st57{fill:#4F4D4C;}
	.st58{opacity:0.25;fill:#69747C;}
	.st59{fill:#364A7C;}
	.st60{fill:#435A89;}
	.st61{fill:#98B4DB;}
	.st62{fill:#EBEFF2;}
	.st63{fill:#FCA78D;}
	.st64{fill:#FFFFFF;}
	.st65{fill:#F79673;}
	.st66{fill:#EA8A6C;}
	.st67{fill:#744628;}
	.st68{fill:#D38462;}
	.st69{fill:#844F31;}
	.st70{fill:#242D22;}
	.st71{fill:#9D9F9A;}
	.st72{fill:#8F918A;}
	.st73{fill:#FF0609;}
	.st74{fill:#2C2D29;}
	.st75{opacity:0.8;fill:#FFFFFF;}
	.st76{opacity:0.2;}
	.st77{fill:#0098D4;}
	.st78{fill:#E2B698;}
	.st79{fill:#F7C79F;}
	.st80{fill:#F0F0F0;}
	.st81{fill:#CACACA;}
	.st82{fill:#E4E4E4;}
	.st83{fill:#979797;}
	.st84{fill:#AF9B89;}
	.st85{fill:#626262;}
	.st86{fill:#BEAB97;}
	.st87{fill:#B1B1B1;}
	.st88{fill:url(#SVGID_5_);}
	.st89{clip-path:url(#SVGID_7_);}
	.st90{fill:#1B6DB3;}
	.st91{fill:#878787;}
	.st92{fill:#C6C6C6;}
	.st93{fill:#3C3C3B;}
	.st94{fill:#F5B493;}
	.st95{fill:#432918;}
	.st96{fill:#EB9C7A;}
	.st97{fill:#223A61;}
	.st98{fill:#496999;}
	.st99{fill:#314D7A;}
	.st100{fill:#EDEDED;}
	.st101{fill:url(#SVGID_8_);}
	.st102{clip-path:url(#SVGID_10_);}
	.st103{fill:#999999;}
	.st104{fill:url(#SVGID_11_);}
	.st105{fill:#DD73BB;}
	.st106{fill:#D144A4;}
	.st107{fill:#C61089;}
	.st108{fill:#960E63;}
	.st109{fill:url(#SVGID_12_);}
	.st110{fill:url(#SVGID_13_);}
	.st111{fill:#8383BF;}
	.st112{fill:#585AA7;}
	.st113{fill:#2D3091;}
	.st114{fill:#1E1F72;}
	.st115{fill:url(#SVGID_14_);}
	.st116{fill:url(#SVGID_15_);}
	.st117{fill:#66CEF5;}
	.st118{fill:#34BDF1;}
	.st119{fill:#01AFEE;}
	.st120{fill:#0090DE;}
	.st121{fill:url(#SVGID_16_);}
	.st122{fill:url(#SVGID_17_);}
	.st123{fill:#67C996;}
	.st124{fill:#34B775;}
	.st125{fill:#009C52;}
	.st126{fill:#007D3B;}
	.st127{fill:url(#SVGID_18_);}
	.st128{fill:url(#SVGID_19_);}
	.st129{fill:#FEE068;}
	.st130{fill:#FFD538;}
	.st131{fill:#FFC905;}
	.st132{fill:#FFAE00;}
	.st133{fill:url(#SVGID_20_);}
	.st134{fill:url(#SVGID_21_);}
	.st135{fill:#F8AC7A;}
	.st136{fill:#F4914D;}
	.st137{fill:#F77128;}
	.st138{fill:#F65400;}
	.st139{fill:url(#SVGID_22_);}
	.st140{fill:url(#SVGID_23_);}
	.st141{fill:#F4777D;}
	.st142{fill:#F04951;}
	.st143{fill:#EB1C24;}
	.st144{fill:#B11519;}
	.st145{fill:url(#SVGID_24_);}
	.st146{fill:#383838;}
	.st147{fill:#ED2424;}
	.st148{fill:#CE2227;}
	.st149{fill:#EE4041;}
	.st150{fill:#2D2525;}
	.st151{fill:#4A3D3D;}
	.st152{opacity:0.88;fill:#A7D8DF;}
	.st153{clip-path:url(#SVGID_26_);fill:#5F7982;}
	.st154{clip-path:url(#SVGID_26_);fill:#50595C;}
	.st155{opacity:0.64;clip-path:url(#SVGID_26_);fill:#FFFFFF;}
	.st156{fill:#2E2A2A;}
	.st157{opacity:0.2;clip-path:url(#SVGID_28_);fill:#981C1F;}
	.st158{clip-path:url(#SVGID_30_);fill:#FFFFFF;}
	.st159{opacity:0.64;clip-path:url(#SVGID_32_);fill:#FFFFFF;}
	.st160{fill:#0D212B;}
	.st161{clip-path:url(#SVGID_34_);}
	.st162{fill:#F58529;}
	.st163{fill:#FAA829;}
	.st164{fill:#0C1C29;}
	.st165{fill:none;stroke:#142E3C;stroke-width:1.1353;stroke-miterlimit:10;}
	.st166{fill:#EAE7E7;}
	.st167{fill:#97A9B8;}
	.st168{fill:#31A84D;}
	.st169{fill:#B72A33;}
	.st170{fill:#788FA0;}
	.st171{fill:#1E0D0D;}
	.st172{fill:#1A568C;}
	.st173{fill:#F7A282;}
	.st174{fill:#EF9073;}
	.st175{fill:#6A98D0;}
	.st176{fill:#3D71B7;}
	.st177{fill:#5A382F;}
	.st178{fill:#F4F9FC;}
	.st179{fill:#EEA53F;}
	.st180{fill:#8E5C3F;}
</style>
<g>
	<defs>
		<rect id="SVGID_1_" x="0.38" y="6.88" width="193.12" height="193.12"/>
	</defs>
	<clipPath id="SVGID_2_">
		<use xlink:href="#SVGID_1_"  style="overflow:visible;"/>
	</clipPath>
	<g class="st0">
		<g>
			<path class="st1" d="M-118.58,160.85c0-1.93,69.26-3.49,154.69-3.49c85.43,0,154.69,1.56,154.69,3.49
				c0,1.93-69.26,3.49-154.69,3.49C-49.33,164.34-118.58,162.78-118.58,160.85z"/>
			<polygon class="st2" points="100.09,142.35 103.25,143.98 167.28,140.3 170.58,137.48 169.75,131.87 167.85,124.02 
				165.95,118.05 162.11,112.12 156.7,106.54 148.14,102.86 139.32,100.73 132.75,100.25 124.81,100.84 116.7,104.31 110.65,109.75 
				106.14,115.44 103.05,122.12 101.27,129.53 			"/>
			<path class="st3" d="M191.78,112.61v5.12c-0.48,16.01-0.66,16.67-5.12,18.25c-7.9,2.8-19.37,4.32-19.37,4.32
				c-0.24-7.2-1.46-19.27-8.66-27.73c-4.82-5.66-12.31-9.7-24-9.57c-3.3,0.04-6.28,0.43-8.95,1.11c-0.24,0.06-0.48,0.12-0.72,0.19
				c-7.93,2.21-13.06,6.92-16.06,11.9c-0.26,0.42-0.5,0.85-0.73,1.28c-6.37,12.09-4.93,26.5-4.93,26.5l-52.09,0.13h-0.72
				l-71.79,0.17l-0.73,0l-6.46,0.01c-0.83-12.09-2.6-18.68-4.63-23.15c-0.87-1.92-1.79-3.45-2.71-4.87
				c-4.88-7.52-14.21-12.22-25.3-12.33c-11.26-0.11-21.89,5.54-27.37,14.89c-0.65,1.1-1.2,2.25-1.68,3.41
				c-4.14,10.18-2.16,22.04-2.16,22.04s-13.61,0-21.77-4.64c0,0-4.48-3.97-12.33-16.81v-8.8l4.48-6.57l-1.44-8.78l-0.64-3.87
				c0,0-0.05-0.19,0.18-0.6c0.4-0.7,1.61-2.02,5.31-4.04c1.54-0.84,3.51-1.8,6.03-2.89c0,0,2.45-1.1,7.23-2.59
				c5.79-1.81,14.98-4.19,27.35-5.89c0,0,20.97-2.88,39.38-3.36l-0.49,0.01c0,0,0.07-0.04,0.21-0.12
				c2.96-1.67,35.66-20.01,52.31-25.67c0,0,0.01,0,0.03-0.01h0c0.4-0.18,4.58-2.02,11.4-3.69c4.3-1.06,9.67-2.06,15.79-2.54
				c19.46-1.53,46.65-1.01,68.52,0.72c19.16,1.52,37.15,3.13,49.36,5.37c2.7,0.49,2.45,1.49,2.45,1.49
				c-1.61,0.52-2.37,1.28-2.67,2.08c-0.1,0.25-0.14,0.5-0.15,0.75c-0.07,1.56,1.22,3.04,1.22,3.04c2.88,3.41,8.43,9.29,8.43,9.29
				c0.43,0.48,0.87,0.93,1.31,1.35c0.94,0.9,1.9,1.66,2.86,2.31c3.59,2.44,7.17,3.28,10.1,3.55c0.23,0.02,0.45,0.04,0.67,0.05
				c0.47,0.03,0.92,0.11,1.35,0.23c0.99,0.27,1.88,0.75,2.62,1.33c0.16,0.12,0.32,0.25,0.47,0.39c0.01,0.01,0.01,0.01,0.02,0.02
				c0.28,0.26,0.55,0.52,0.78,0.8c0.38,0.44,0.68,0.89,0.89,1.32c0.06,0.12,0.12,0.23,0.16,0.34c0.08,0.2,0.16,0.4,0.24,0.6
				c0.32,0.82,0.59,1.69,0.82,2.59c0.2,0.74,0.37,1.51,0.51,2.3c0.06,0.33,0.12,0.66,0.17,1c1.46,9.31-0.22,20.58-0.95,24.71
				c-0.19,1.04-0.31,1.63-0.31,1.63L191.78,112.61z"/>
			<path class="st4" d="M190.12,81.05C153.31,82.98,80.7,85.39,80.7,85.39c-18.01,0.64-52.51,1.85-70.02,2.02
				c-23.79,0.23-63.03,0.51-84.04,1.01c-20.69,0.49-35.17,2.24-45.22,4.27c1.58-0.86,3.6-1.85,6.18-2.96c0,0,2.52-1.13,7.42-2.66
				C-55.13,77.1,27.64,75.03,27.64,75.03c50.31,1.76,110.81-2.37,144.34-5.2c1.55-0.13,3.04-0.26,4.47-0.38
				c1.86,1.77,3.77,3.03,5.63,3.93c1.6,0.78,3.16,1.28,4.64,1.61c0.16,0.12,0.32,0.25,0.47,0.39c0.01,0.01,0.01,0.01,0.02,0.02
				c0.28,0.26,0.55,0.52,0.78,0.8c0.38,0.44,0.68,0.89,0.89,1.32c0.06,0.12,0.12,0.23,0.16,0.34c0.08,0.2,0.16,0.4,0.24,0.6
				C189.61,79.29,189.89,80.15,190.12,81.05z"/>
			<path class="st5" d="M29.71,119.55c19.25-0.58,48.6-1.57,79.19-3.34c-0.26,0.42-0.5,0.85-0.73,1.28
				c-6.37,12.09-4.93,26.5-4.93,26.5l-52.09,0.13h-0.72l-71.79,0.17l-0.73,0l-6.46,0.01c-0.83-12.09-2.6-18.68-4.63-23.15
				C-12.06,120.69,9.6,120.15,29.71,119.55z"/>
			<path class="st5" d="M191.78,112.61v5.12c-0.48,16.01-0.66,16.67-5.12,18.25c-7.9,2.8-19.37,4.32-19.37,4.32
				c-0.24-7.2-1.46-19.27-8.66-27.73c11.08-1.03,21.65-2.19,31.22-3.52c-0.19,1.04-0.31,1.63-0.31,1.63L191.78,112.61z"/>
			<g>
				<path class="st6" d="M162.11,134.68c0,1.33-0.1,2.64-0.29,3.92c-1.89,13.06-13.14,23.1-26.73,23.1
					c-14.92,0-27.02-12.1-27.02-27.02c0-0.37,0.01-0.73,0.03-1.1c0.58-14.41,12.44-25.92,26.99-25.92
					C150.01,107.66,162.11,119.76,162.11,134.68z"/>
				<g>
					<path class="st7" d="M135.49,128.9c0,1.27-0.02,3.55-1.29,3.55c-1.27,0-3.31-2.27-3.31-3.55c0-1.27,1.03-2.31,2.3-2.31
						C134.46,126.6,135.49,127.63,135.49,128.9z"/>
					<path class="st7" d="M132.02,129.77c0.75,1.03,2.07,2.88,1.04,3.63c-1.03,0.75-4.02,0.11-4.77-0.92
						c-0.75-1.03-0.52-2.48,0.51-3.22C129.83,128.51,131.28,128.74,132.02,129.77z"/>
					<path class="st7" d="M129.72,132.51c1.21,0.4,3.37,1.11,2.98,2.33c-0.39,1.21-3.19,2.45-4.4,2.05
						c-1.21-0.39-1.88-1.69-1.48-2.9C127.21,132.78,128.51,132.12,129.72,132.51z"/>
					<path class="st7" d="M129.48,136.08c1.21-0.39,3.38-1.08,3.77,0.13c0.39,1.21-1.14,3.85-2.35,4.25
						c-1.21,0.4-2.51-0.27-2.91-1.48C127.6,137.77,128.27,136.47,129.48,136.08z"/>
					<path class="st7" d="M131.37,139.11c0.75-1.03,2.1-2.86,3.13-2.11c1.03,0.75,1.34,3.79,0.6,4.82
						c-0.75,1.03-2.19,1.26-3.22,0.51C130.85,141.58,130.62,140.14,131.37,139.11z"/>
					<path class="st7" d="M134.69,140.45c0-1.27,0.02-3.55,1.3-3.55c1.27,0,3.32,2.27,3.32,3.55c0,1.27-1.03,2.31-2.31,2.31
						C135.72,142.76,134.69,141.72,134.69,140.45z"/>
					<path class="st7" d="M138.16,139.59c-0.75-1.03-2.07-2.88-1.04-3.63c1.03-0.75,4.02-0.11,4.77,0.92
						c0.75,1.03,0.52,2.47-0.51,3.22C140.35,140.85,138.91,140.62,138.16,139.59z"/>
					<path class="st7" d="M140.46,136.84c-1.21-0.4-3.37-1.12-2.97-2.32c0.39-1.21,3.19-2.45,4.4-2.06c1.21,0.39,1.88,1.7,1.48,2.91
						C142.97,136.58,141.67,137.24,140.46,136.84z"/>
					<path class="st7" d="M140.71,133.28c-1.21,0.4-3.38,1.08-3.77-0.13c-0.4-1.21,1.14-3.85,2.35-4.25
						c1.21-0.39,2.51,0.27,2.91,1.48C142.58,131.58,141.92,132.88,140.71,133.28z"/>
					<path class="st7" d="M138.81,130.24c-0.75,1.03-2.1,2.86-3.13,2.11c-1.03-0.75-1.35-3.79-0.6-4.82
						c0.75-1.03,2.19-1.26,3.22-0.51C139.33,127.77,139.56,129.21,138.81,130.24z"/>
					<polygon class="st8" points="135.74,133.41 134.45,133.41 133.54,114.62 136.65,114.62 					"/>
					<polygon class="st8" points="134.87,133.27 133.82,134.03 122.05,119.37 124.56,117.54 					"/>
					<polygon class="st8" points="134.08,133.67 133.69,134.9 115.54,129.96 116.5,127 					"/>
					<polygon class="st8" points="133.69,134.46 134.08,135.68 116.5,142.35 115.54,139.39 					"/>
					<polygon class="st8" points="133.82,135.32 134.87,136.08 124.56,151.82 122.05,149.99 					"/>
					<polygon class="st8" points="134.45,135.94 135.74,135.94 136.65,154.73 133.53,154.73 					"/>
					<polygon class="st8" points="135.32,136.08 136.36,135.32 148.14,149.99 145.62,151.82 					"/>
					<polygon class="st8" points="136.1,135.68 136.5,134.46 154.65,139.39 153.68,142.36 					"/>
					<polygon class="st8" points="136.5,134.9 136.1,133.67 153.68,127 154.65,129.96 					"/>
					<polygon class="st8" points="136.36,134.03 135.32,133.27 145.62,117.54 148.14,119.37 					"/>
					<g>
						<path class="st7" d="M135.09,155.56c-11.52,0-20.88-9.37-20.88-20.88c0-11.51,9.37-20.88,20.88-20.88
							c11.52,0,20.89,9.37,20.89,20.88C155.98,146.19,146.61,155.56,135.09,155.56z M135.09,115.45c-10.6,0-19.22,8.62-19.22,19.22
							s8.62,19.22,19.22,19.22c10.6,0,19.22-8.62,19.22-19.22S145.69,115.45,135.09,115.45z"/>
					</g>
					<path class="st7" d="M137.68,134.68c0,1.43-1.16,2.59-2.59,2.59c-1.43,0-2.59-1.16-2.59-2.59c0-1.43,1.16-2.59,2.59-2.59
						C136.52,132.09,137.68,133.25,137.68,134.68z"/>
					<path class="st9" d="M134.09,128.53c0,0.55-0.44,1-1,1c-0.55,0-1-0.45-1-1c0-0.55,0.45-1,1-1
						C133.64,127.53,134.09,127.98,134.09,128.53z"/>
					<path class="st9" d="M128.94,133.73c0.53,0.17,0.81,0.73,0.64,1.26c-0.17,0.52-0.74,0.81-1.26,0.64
						c-0.52-0.17-0.81-0.73-0.64-1.26C127.85,133.85,128.41,133.56,128.94,133.73z"/>
					<path class="st9" d="M132.29,140.24c0.32-0.45,0.95-0.55,1.39-0.22c0.45,0.33,0.54,0.95,0.22,1.4
						c-0.33,0.45-0.95,0.55-1.39,0.22C132.07,141.31,131.97,140.68,132.29,140.24z"/>
					<path class="st9" d="M139.52,139.06c-0.32-0.45-0.22-1.07,0.22-1.39c0.45-0.32,1.07-0.22,1.39,0.22
						c0.32,0.45,0.23,1.07-0.22,1.4C140.46,139.61,139.84,139.51,139.52,139.06z"/>
					<path class="st9" d="M140.63,131.82c-0.52,0.17-1.09-0.12-1.26-0.64c-0.17-0.53,0.12-1.09,0.64-1.26
						c0.52-0.17,1.09,0.11,1.26,0.64C141.44,131.09,141.15,131.65,140.63,131.82z"/>
				</g>
			</g>
			<g>
				<path class="st10" d="M58.13,75.52l-2,10.18c-0.02,0.19-2.77,21.95-4.98,58.41h-0.72c2.21-36.51,4.96-58.31,4.99-58.53l2-10.2
					L58.13,75.52z"/>
			</g>
			<g>
				<path class="st10" d="M125.68,104.12c-0.24,0.06-0.48,0.12-0.72,0.19c2.28-11.6,1.93-25.46,1.87-26.86l-4.88-5.43l0.53-0.48
					l5.05,5.62l0.01,0.12C127.54,77.43,127.94,91.94,125.68,104.12z"/>
			</g>
			<path class="st11" d="M184.11,73.67c-0.43-0.12-0.88-0.2-1.35-0.23c-4.14-0.27-9.82-1.6-14.94-7.26c0,0-5.55-5.87-8.43-9.29
				c0,0-1.74-2-1.07-3.8C169.77,59.18,180.88,70.3,184.11,73.67z"/>
			<path class="st12" d="M190.8,84.34c-1.83,0.08-3.57,0.09-5.21,0.04c-10.57-0.32-16.92-2.94-16.92-2.94
				c-6.19-2.35-4.7-3.42-3.52-4.06c2.22-1.2,10.75-1.26,18.26-1.21c1.6,0.01,3.16,0.03,4.59,0.03c0.48,0.56,0.84,1.14,1.06,1.66
				c0.7,1.67,1.21,3.52,1.57,5.48C190.69,83.68,190.75,84.01,190.8,84.34z"/>
			<path class="st11" d="M20.64,50.17c0,0-18.68,6.62-44.51,26.47c0,0-10.09,0.07-15.01-1.28c2.96-1.67,35.66-20.01,52.31-25.67
				c0,0,0.01,0,0.03-0.01h0C15.95,49.69,18.64,49.82,20.64,50.17z"/>
			<path class="st11" d="M140.32,63.3c-1.69,2.2-4.89,5.63-7.93,7.91c-0.61,0.46-1.21,0.87-1.79,1.21c0,0-1.39,1.21-5.97,1.93
				c-0.77,0.12-1.63,0.23-2.58,0.32c-3.81,0.34-7.73,0.63-11.91,0.89c-0.09,0.01-0.17,0.01-0.26,0.02
				c-7.42,0.46-15.68,0.82-25.68,1.22c-6.05,0.24-12.75,0.49-20.27,0.79c-1.07,0.04-2.16,0.08-3.26,0.12
				c-1.47,0.06-3,0.12-4.59,0.19c-2.1,0.09-4.29,0.19-6.57,0.29c-4.7,0.21-9.77,0.44-15.08,0.67c-4.58,0.2-9.35,0.39-14.22,0.57
				c-3.18,0.11-6.41,0.22-9.67,0.32c-4.79,0.14-9.63,0.26-14.45,0.33c-0.21,0-0.42,0.01-0.64,0.01c-4.66,0.07-9.3,0.1-13.87,0.09
				c0,0,3.08-2.68,8.09-6.49c1.84-1.4,3.94-2.95,6.25-4.58c0.75-0.53,1.52-1.07,2.32-1.62c1.9-1.31,3.91-2.64,6-3.97
				c2.95-1.88,6.07-3.73,9.28-5.48c3.99-2.17,8.12-4.15,12.25-5.76c1.1-0.43,2.26-0.83,3.48-1.19c6.89-2.06,15.61-3.12,25.24-3.6h0
				c0.12-0.01,0.24-0.01,0.36-0.02c3.91-0.19,7.95-0.28,12.09-0.32c2.68-0.02,5.4-0.02,8.13,0.01c2.34,0.02,4.54,0.06,6.6,0.11
				c8.82,0.21,15.28,0.68,20.6,1.3c3.1,0.37,5.83,0.78,8.4,1.23c0.03,0.01,0.07,0.01,0.1,0.02c0.43,0.07,0.85,0.15,1.27,0.22
				C125.93,52.52,142.54,60.41,140.32,63.3z"/>
			<path class="st13" d="M132.39,71.21c-0.61,0.46-1.21,0.87-1.79,1.21c0,0-1.39,1.21-5.97,1.93c-0.77,0.12-1.63,0.23-2.58,0.32
				c-3.81,0.34-7.73,0.63-11.91,0.89L81.68,47.24c8.82,0.21,15.28,0.68,20.6,1.3c3.1,0.37,5.83,0.78,8.4,1.23
				c0.03,0.01,0.07,0.01,0.1,0.02L132.39,71.21z"/>
			<path class="st13" d="M84.2,76.79c-6.05,0.24-12.75,0.49-20.27,0.79c-1.07,0.04-2.16,0.08-3.26,0.12c-1.47,0.06-3,0.12-4.59,0.19
				L29.25,51.06c6.89-2.06,15.61-3.12,25.24-3.6h0c0.12-0.01,0.24-0.01,0.36-0.02L84.2,76.79z"/>
			<path class="st13" d="M20.2,79.41c-3.18,0.11-6.41,0.22-9.67,0.32c-4.79,0.14-9.63,0.26-14.45,0.33l-6.42-6.4
				c1.84-1.4,3.94-2.95,6.25-4.58c0.75-0.53,1.52-1.07,2.32-1.62c1.9-1.31,3.91-2.64,6-3.97L20.2,79.41z"/>
			<path class="st14" d="M124.63,74.35c-0.77,0.12-1.63,0.23-2.58,0.32c-3.89,0.35-7.89,0.64-12.17,0.91l0.74-11.94l-8.33-15.1
				c3.1,0.37,5.83,0.78,8.4,1.23L124.63,74.35z"/>
			<path class="st14" d="M66.94,47.12l-3.02,30.46c-1.07,0.04-2.16,0.08-3.26,0.12c-3.41,0.13-7.15,0.3-11.17,0.47l4.98-30.72h0
				C58.5,47.26,62.67,47.16,66.94,47.12z"/>
			<g>
				<path class="st17" d="M5.07,79.55c-1.9,0.55-10.33,2.13-11.98-0.29c-0.05-0.07-0.1-0.15-0.13-0.22
					c-1.32-2.41,1.89-5.86,5.28-8.21c3.49-2.43,5.55-2.68,7.75-2.07c0.66,0.18,1.07,0.8,1.29,1.65C8.04,73.36,6.54,79.12,5.07,79.55
					z"/>
				<path class="st3" d="M5.07,79.55c-1.9,0.55-10.33,2.13-11.98-0.29c-0.05-0.07-0.1-0.15-0.13-0.22c2.8-2.33,9.57-7.62,14.31-8.62
					C8.04,73.36,6.54,79.12,5.07,79.55z"/>
			</g>
			<g>
				<path class="st18" d="M120.51,82.78l-1.02,0.04c-1.18-0.61-3.01-0.97-4.68-0.91c-1.67,0.07-3.46,0.57-4.59,1.28l-1.02,0.04
					c-0.95,0.04-1.68,0.87-1.65,1.61c0.03,0.75,0.82,1.45,1.77,1.41l1.13-0.05c1.19,0.58,2.95,0.92,4.56,0.85
					c1.61-0.06,3.35-0.54,4.48-1.21l1.13-0.05c0.94-0.04,1.68-0.8,1.65-1.55C122.25,83.52,121.45,82.75,120.51,82.78z"/>
				<path class="st3" d="M108,84.83c0.03,0.7,0.77,1.24,1.66,1.2l10.63-0.43c0.89-0.03,1.58-0.63,1.55-1.33l0,0
					c-0.03-0.7-0.77-1.24-1.66-1.2l-10.63,0.42C108.66,83.54,107.97,84.13,108,84.83L108,84.83z"/>
			</g>
			<g>
				<path class="st18" d="M47.75,85.59l-1.02,0.04c-1.18-0.61-3.01-0.97-4.68-0.91c-1.67,0.07-3.46,0.57-4.59,1.28l-1.02,0.04
					c-0.94,0.04-1.68,0.87-1.65,1.61c0.03,0.75,0.82,1.45,1.77,1.41l1.13-0.05c1.18,0.58,2.95,0.92,4.56,0.85
					c1.62-0.06,3.35-0.54,4.48-1.21l1.13-0.05c0.94-0.04,1.68-0.8,1.65-1.55C49.49,86.33,48.7,85.55,47.75,85.59z"/>
				<path class="st3" d="M35.24,87.64c0.03,0.7,0.77,1.24,1.66,1.2l10.63-0.43c0.89-0.03,1.58-0.63,1.55-1.33l0,0
					c-0.03-0.7-0.77-1.24-1.66-1.2L36.8,86.31C35.91,86.35,35.21,86.94,35.24,87.64L35.24,87.64z"/>
			</g>
			<path class="st20" d="M190.8,84.34c-1.83,0.08-3.57,0.09-5.21,0.04c-0.28-3.95-1.35-6.65-2.18-8.21c1.6,0.01,3.16,0.03,4.59,0.03
				c0.48,0.56,0.84,1.14,1.06,1.66c0.7,1.67,1.21,3.52,1.57,5.48C190.69,83.68,190.75,84.01,190.8,84.34z"/>
			<path class="st21" d="M160.98,51.02c-1.61,0.52-2.37,1.28-2.67,2.08c-0.1,0.25-0.14,0.5-0.15,0.75
				c-51.41-11.26-101.87-10.3-133.3-7.86c4.3-1.06,9.67-2.06,15.79-2.54c19.46-1.53,46.65-1.01,68.52,0.72
				c19.16,1.52,37.15,3.13,49.36,5.37C161.23,50.02,160.98,51.02,160.98,51.02z"/>
		</g>
	</g>
</g>
<g>
	<defs>
		<rect id="SVGID_6_" x="32.01" y="25.38" width="194.79" height="168.7"/>
	</defs>
	<clipPath id="SVGID_4_">
		<use xlink:href="#SVGID_6_"  style="overflow:visible;"/>
	</clipPath>
	<g style="clip-path:url(#SVGID_4_);">
		<g>
			<path class="st90" d="M160.19,172.85c0.7,0,3.57,0,4.19,0c1.55,0.01,7.21,0,8.76,0c3.53,0,4.88-0.22,5.13-1.07
				c0.52-1.79-0.12-2.99-0.34-4.86c-0.15-1.28-0.18-3.08-1.11-4.19c-1.46-1.73-5.55-1.02-7-0.59c-2.18,0.63-4.02,2.21-6.02,3.21
				c-1.98,0.99-4.33,1.84-5.47,3.67C157.31,170.64,157.9,172.85,160.19,172.85z"/>
			<path class="st91" d="M119.11,92.93c-2.16-3.57-8.09-5.18-11.24-2.15c-3.06,2.94-3.11,7.59-0.85,11.15
				c2.03,3.19,6.95,4.73,10.43,2.71C120.91,102.63,121.05,96.14,119.11,92.93z"/>
			<path class="st92" d="M114.9,97.32c0.3-1.73,1.58-3.73-1.4-3.79c-1.79-0.04-3.12,1.33-3.33,3.06c-0.19,1.56,0.5,3.48,1.98,4.25
				c0.72,0.37,1.84,0.66,2.51,0.07C115.72,99.98,114.71,98.44,114.9,97.32z"/>
			<path class="st93" d="M115.75,94.41c-2.5-1.41-3.61,4.27-2.04,4.94c0.92,0.39,2.38-0.52,2.59-1.18
				C116.49,97.6,116.42,94.78,115.75,94.41z"/>
			<path class="st90" d="M129.69,99.67c0.19-1.56-2.69-2.08-3.82-2.37c-2.23-0.57-4.63-1-6.8-1.78c-1.16-0.42-2.69-1.88-3.5-0.79
				c-0.51,0.69-0.77,2.41-0.7,3.23c0.11,1.3,0.54,1.18,1.56,0.91c1.5-0.4,1.91,0.06,3.39,0.56
				C121.21,99.9,129.31,102.85,129.69,99.67z"/>
			<path class="st94" d="M164.94,93.38c0.11-0.38-0.55-1.29-0.64-1.7c-0.16-0.7-0.14-1.44-0.12-2.14c0.03-1.34,0.09-2.68,0.09-4.03
				c0-3.1-0.58-5.93-2.83-8.22c-3.99-4.06-11.1-1.66-13,3.27c-0.46,1.2-0.49,1.78-0.71,3.04c-0.26,1.5-0.13,2.09,0.04,3.48
				c0.11,0.92-0.19,1.19,0.48,1.91c0.42,0.46,0.79,1.28,1.16,1.83c0.6,0.87,0.7,2.02,1.51,2.78c0.87,0.82,1.97,0.65,3.02,1.08
				c1.42,0.58,2.6,0.99,4.12,1.27C159.23,96.17,165.84,95.75,164.94,93.38z"/>
			<path class="st95" d="M164.74,82.93c-0.27-2.64-1.35-4.89-3.59-6.49c-2.21-1.59-5.15-1.78-7.69-1.01
				c-2.35,0.72-4.71,3.34-5.31,4.66c-0.71,1.57-1.08,3.38-0.01,4.47c1.68,1.7,1.78,5.02,4.01,5.77c1.65,0.55,1.28-1.55,2.66-1.37
				c1,0.13,1.04,1.53,1.53,2.24c1.64,2.39,4.91,1.13,6.98,0.08c1.22-0.62,1.14-1.44,1.29-2.71
				C164.83,86.75,164.93,84.77,164.74,82.93z"/>
			<path class="st94" d="M133.86,107.64c-2.26-2.13-5.03-2.56-8.03-2.5c-1.27,0.02-2.77,0.26-3.9-0.49
				c-0.96-0.64-1.16-1.68-1.62-2.66c-0.52-1.09-0.89-1.47-2.12-1.65c-1.16-0.17-3.51-0.29-4.63,0.12c-2.11,0.77-2.33,4.65-1.65,6.37
				c0.44,1.12,1.73,2.06,2.9,2.28c1.21,0.23,2.39-0.35,3.61,0.03c2.4,0.74,5.27,2.89,7.26,3.72c2.32,0.97,4.72,1.25,7.08,0.19
				c0.97-0.44,2.15-1.25,2.55-2.3C135.84,109.41,134.77,108.5,133.86,107.64z"/>
			<path class="st96" d="M156.67,98.94c-0.45-3.19-7.94-1.81-9.85-1.59c-2.02,0.23-5.2,0.56-7.25,0.51
				c-1.73-0.05-3.43-0.32-5.1-0.76c-1.85-0.5-3.65-1.44-5.62-1.23c-0.47,0.05-2.88,0.35-2.69,1.18c0.19,0.85,2.42,0.24,2.04,1.8
				c-0.33,1.33-1.39,1.67-2.16,2.66c-0.91,1.18,0.11,1.39,1.24,1.27c1.65-0.18,3.26-0.7,4.91-0.88c1.9-0.21,3.98-0.11,5.85,0.33
				c1.4,0.33,4.13,1.57,5.51,1.81c0.79,0.14,2.62,0.19,3.41,0.04C148.77,103.73,157.07,101.8,156.67,98.94z"/>
			<path class="st94" d="M144.55,105.99c-2.75-1.91-7.94-0.36-10.74,0.92c-1.54,0.7-3.42,1.66-3.25,3.59
				c0.18,1.92,2.07,2.61,3.66,3.11c3.16,0.97,7.78,3.46,10.92,1.23C148.14,112.71,147.54,107.8,144.55,105.99z"/>
			<path class="st64" d="M134.84,99.42c0.47-1.59,1.03-1.82-0.18-2.64c-1.01-0.68-2.66-1.42-3.83-1.79
				c-1.5-0.48-3.22-0.43-4.56,1.02c-1.33,1.44,0.05,1.55,0.78,2.5c1.11,1.43-0.8,1.93-1.37,3.12c-1.03,2.14,2.19,1.43,3.32,1.17
				c1.57-0.36,3.25,0.44,4.72-0.27C135.39,101.72,134.36,100.86,134.84,99.42z"/>
			<path class="st97" d="M162.29,143.42c-0.31-1.55-0.43-3-0.35-4.56c0.11-2.18,1.88-6.68,0.53-8.69c-1.04-1.56-2.47-1.88-7.45-0.9
				c-4.73,0.93-10.43,3.6-10.42,7.56c0.01,2.53,1.74,7.29,3.16,9.59c1.41,2.3,4.15,3.64,7.54,3.61c3.04-0.02,5.92-2.26,6.89-4.02
				C162.64,145.18,162.45,144.25,162.29,143.42z"/>
			<path class="st98" d="M153.99,75.48c-1.78-0.85-4.11-1.09-6.09-1.01c-1.46,0.05-2.98,0.5-4.24,1.35
				c-1.21,0.81-2.46,2.41-2.3,4.03c0.15,1.54,2.51,2.8,3.57,3.51c1,0.67,4.52,3.08,5.87,2.26c1.68-1.02,3.64-6.33,4.24-7.63
				C155.81,76.32,154.84,75.89,153.99,75.48z"/>
			<path class="st99" d="M163.84,77.56c-2.62-3.37-8.34-5.08-12.23-3.34c-2.07,0.92-4.21,3.16-4.7,5.36
				c-0.26,1.14-0.38,2.53,0.05,3.5c0.19,0.42,0.91,1.62,1.36,2.02c3.5,3.11,8.02,5.95,12.91,4.26c0.84-0.29,2.05-0.79,2.68-1.44
				c0.72-0.75,1.21-1.76,1.44-2.77C165.93,82.67,165.45,79.62,163.84,77.56z"/>
			<path class="st96" d="M144.96,113.31c-2.47-2.19-4.29-0.99-7.16-0.89c-1.67,0.06-3.96-0.68-5.03-0.8
				c-1.43-0.15-2.52,0.13-3.93,0.19c-3.09,0.13-5.16-1.05-7.64-2.67c-0.5-0.33-3.97-2.15-4.14-0.48c-0.01,0.11,0.02,0.23,0.1,0.36
				c0.41-0.02,0.83-0.01,1.25,0.12c2.4,0.74,5.27,2.89,7.26,3.72c2.31,0.96,4.7,1.25,7.05,0.2c0.49,0.22,1.01,0.39,1.5,0.54
				c3.16,0.97,7.78,3.46,10.92,1.23c0.21-0.15,0.41-0.32,0.59-0.5C145.65,114.04,145.41,113.7,144.96,113.31z"/>
			<path class="st64" d="M121.45,103.56c-0.46-1.04-0.89-2.21-1.81-2.98c-1.14-0.95-2.99-0.76-4.37-0.65
				c-3.38,0.27-4.37,1.47-3.95,5.44c0.16,1.55,0.63,2.66,1.99,3.54c1.01,0.65,3.07,1.46,4.25,0.58c0.84-0.63,1.32-2.39,1.84-3.42
				c0.23-0.47,0.57-1.09,1.05-1.38C120.82,104.46,121.83,104.41,121.45,103.56z"/>
			<path class="st64" d="M182.95,108.05c-0.14-3.68-1.5-7.78-4.04-10.5c-2.7-2.9-7.52-4.06-11.31-4.55
				c-2.17-0.28-4.35-0.26-6.42,0.5c-1.01,0.37-2.02,0.85-2.88,1.52c-1.15,0.89-1.43,1.99-2.23,3.08c-1.12,1.53-3.7,1.49-5.43,1.94
				c-2.37,0.63-4.69,1.47-6.75,2.84c-1.52,1.02-3.4,2.35-3.75,4.26c-0.32,1.73,0.3,3.64,1.12,5.15c0.74,1.37,1.87,2.87,3.47,3.27
				c2.67,0.66,5.14-2.15,7.72-0.8c2.01,1.05,2.47,3.12,3.41,4.97c1.26,2.47,3.05,4.61,4.33,7.09c1.97,3.8,4.1,6.35,8.62,6.7
				c3.2,0.25,9.97-1.9,11.89-7.99C182.51,119.87,183.21,113.98,182.95,108.05z"/>
			<path class="st100" d="M168.6,92.93c-2.5-2.14-6.78-0.88-9.38,0.37c-1.11,0.53-4.95,4.38-4.04,5.51
				c0.54,0.68,2.89-0.27,3.41-0.57c1.2-0.7,1.48-1.98,2.57-2.75c1.24-0.88,2.99-1.39,4.45-1.74
				C165.93,93.67,169.38,93.6,168.6,92.93z"/>
			<path class="st99" d="M172.94,108.24c-2.68-3.19-6.66-7.59-10.27-9.64c-1.39-0.79-4.81-1.7-6.08-1
				c-0.16,0.09-1.18,0.83-1.31,0.95c-0.87,0.82-0.91,0.89,0.94,0.67c3.92-0.46,7.09,2.52,9.62,5.04c1.36,1.35,3.99,4.34,5.13,5.65
				c0.37,0.43,0.53,0.57,0.74,0.4c0.48-0.39,1.07-0.94,1.48-1.25C173.35,108.94,173.34,108.72,172.94,108.24z"/>
			<path class="st99" d="M178.85,106.44c-0.4-2.71-0.94-6.01-1.99-8.25c-0.56-1.19-1.68-3.27-2.92-4.04
				c-1.54-0.96-1.66-0.79-1.04,0.09c1.63,2.31,2.32,5.93,2.78,8.54c0.13,0.77,0.48,3.18,0.71,4.28c0.07,0.35,0.24,0.4,0.57,0.34
				c0.48-0.09,1.24-0.19,1.67-0.29C178.88,107.05,178.9,106.78,178.85,106.44z"/>
			<linearGradient id="SVGID_5_" gradientUnits="userSpaceOnUse" x1="146.2481" y1="111.1378" x2="169.1656" y2="130.1501">
				<stop  offset="0" style="stop-color:#F6F6F6"/>
				<stop  offset="1" style="stop-color:#DADADA"/>
			</linearGradient>
			<path class="st88" d="M173.64,130.5c-0.23-1.91-7.25-0.61-8.12-2.66c-0.36-0.85,1.18-0.96,1.2-1.96
				c0.01-1.11-2.48-2.29-3.24-2.84c-0.69-0.49-2.9-1.97-2.18-2.81c0.54-0.63,1.42-0.21,1.77-0.93c0.37-0.76-3.22-1.95-5.21-3.28
				c-2.89-1.93-3.33-5.42-6.98-6.01c-1.86-0.31-3.75,0.23-5.51,0.79c-0.53,0.16-2.98,0.76-4.19,1.33c0.03,0.06,0.06,0.12,0.1,0.18
				c0.74,1.37,1.87,2.87,3.47,3.27c2.66,0.67,5.14-2.15,7.72-0.8c2.02,1.05,2.47,3.12,3.42,4.97c1.25,2.47,3.04,4.62,4.33,7.09
				c0.25,0.47,0.5,0.93,0.75,1.36v0c0.87,0.74,1.79,1.47,2.71,2.24c1.46,1.22,3.97,1.73,5.85,1.7
				C170.44,132.1,173.8,131.87,173.64,130.5z"/>
			<path class="st99" d="M187.72,138.51c-0.35-2.05-1.28-3.97-2.13-5.83c-0.85-1.85-0.58-3.54-0.99-5.46
				c-0.27-1.27-0.69-2.07-1.55-3c-0.52-0.56-0.84-1.3-1.08-2.04c-0.48-1.46-0.62-3.01-0.83-4.47c-0.39-2.65-1.21-7.8-1.96-9.95
				c-0.05-0.13-0.17-0.26-0.49-0.21c-0.43,0.07-1.3,0.28-1.65,0.36c-0.19,0.05-0.32,0.2-0.22,0.57c0.58,2.25,1.87,7.3,1.13,7.34
				c-0.62,0.04-2.22-4.57-3.8-6.37c-0.18-0.21-0.31-0.23-0.49-0.12c-0.41,0.26-1.25,0.91-1.64,1.3c-0.1,0.1-0.21,0.37-0.03,0.65
				c0.64,1.01,1.57,2.61,2.07,3.5c1.34,2.43,2.54,5.06,2.49,7.85c-0.03,2-0.24,5.48-1.89,6.84c-1.47,1.22-6.77,1.41-8.16,0.84
				c-1.84-0.75-5.06-4.84-5.93-5.84c-0.49-0.56-2.7-2.66-3.11-1.25c-0.23,0.79,1.23,2.74,1.62,3.49c2.6,5.12,0.64,5.85,1.47,8.66
				c0.17,0.58,0.71,1.37,0.75,1.94c0.04,0.66-0.43,1.25-1.08,1.61c-6.19,3.47-20.11,14.04-25.62,21.33
				c-1.42,1.88-3.3,5.42-2.02,9.01c1.87,5.23,14.65,3.38,19.38,2.64c5.07-0.8,9.87-3.34,14.73-4.79c1.85-0.55,4.8-0.68,6.74-0.86
				c4.63-0.45,6.35-1.27,6.71-2.85c0.39-1.72-2.21-3.78-2.54-6.15c-0.39-2.8,0.75-4.37,2.42-4.98c1.18-0.44,2.49-1.14,4.6-2.9
				C188.38,146.22,188.39,142.41,187.72,138.51z"/>
			<path class="st97" d="M179.87,151.39c-0.35-0.59-2.45,0.51-4.54,0.6c-2.64,0.11-4.2-0.46-6.69-0.46c-3.78,0-6.04,1.45-9.69,1.94
				c-3.15,0.42-6.48-0.11-8.8,2.56c-0.83,0.96-2.63,3.6-2.32,4.98c0.48,2.14,4-1.76,4.84-2.27c3.12-1.92,6.59-1.85,10.13-2.05
				c3.81-0.23,6.79-1.61,10.32-2.87c1.53-0.54,3.05-0.86,4.67-0.87C178.54,152.95,180.83,152.99,179.87,151.39z"/>
			<path class="st90" d="M181.18,166.42c0.31,2.25-1.1,5.16,0.94,6.43h4.08c1.69-0.62,3.39-1.72,4.17-2.68
				c1.51-1.85,1.07-4.41,0.14-6.47c-0.51-1.13-1.26-3.62-1.42-4.95c-0.17-1.44,0.13-2.85,0.03-4.32c-0.13-1.96-1.06-3.77-2.93-4.52
				c-1.26-0.5-2.45-0.25-3.65,0.17c-1.12,0.4-2.86,0.71-3.75,1.53c-1.96,1.81-2.32,6.3,0.45,10.69
				C179.98,163.49,181.05,165.5,181.18,166.42z"/>
			<path class="st99" d="M182.91,172.85c1.38,0,3.93,0,5.77,0c1.28,0,2.11-1.91,2.47-3c0.93-2.8-0.4-5.96-1.12-8.6
				c-0.78-2.87-0.34-5.41-1.14-8.26c-0.51-1.8-2.5-4.51-4.19-2.31c-1.25,1.63-1.01,4.46-0.48,6.29c1.19,4.06,0.23,7.57-0.22,8.8
				C183.29,167.7,180.86,172.85,182.91,172.85z"/>
		</g>
	</g>
</g>
</svg>
