<?xml version="1.0" encoding="utf-8"?>
<!-- Generator: Adobe Illustrator 23.0.2, SVG Export Plug-In . SVG Version: 6.00 Build 0)  -->
<svg version="1.1" id="Layer_1" xmlns="http://www.w3.org/2000/svg" xmlns:xlink="http://www.w3.org/1999/xlink" x="0px" y="0px"
	 viewBox="0 0 200 200" style="enable-background:new 0 0 200 200;" xml:space="preserve">
<style type="text/css">
	.st0{fill:#E1713C;}
	.st1{fill:#C7542B;}
	.st2{fill:#F68C5B;}
	.st3{fill:#B44C28;}
	.st4{fill:#1A1A1A;}
	.st5{fill:#45210F;}
	.st6{fill:#FAAF43;}
	.st7{fill:#455767;}
	.st8{opacity:0.15;fill:#010101;}
	.st9{fill:#FCDD56;}
	.st10{fill:#FAA719;}
	.st11{fill:#010101;}
	.st12{fill:#74B4C9;}
	.st13{fill:#98D8E7;}
	.st14{fill:#939598;}
	.st15{fill:#D34C55;}
	.st16{fill:#E6E7E7;}
	.st17{opacity:0.05;}
	.st18{fill:#BDBEC0;}
	.st19{fill:#71523B;}
	.st20{fill:#FFDE11;}
	.st21{fill:#FEE56C;}
	.st22{fill:#FEBE44;}
	.st23{fill:#CDEBEF;}
	.st24{fill:#75CDF3;}
	.st25{fill:#54544C;}
	.st26{fill:#4D4C4C;}
	.st27{fill:#AC9F80;}
	.st28{fill:#151515;}
	.st29{fill:#1E1F27;}
	.st30{fill:#80141D;}
	.st31{fill:#F79224;}
	.st32{fill:#00ADE5;}
	.st33{fill:#FFFFFF;}
	.st34{fill:#FBAD3A;}
	.st35{fill:#C63C2B;}
	.st36{fill:#A41E22;}
	.st37{fill:#E1252A;}
	.st38{fill:#B5B5B6;}
	.st39{fill:#303030;}
	.st40{fill:#4D87B7;}
	.st41{fill:#19323F;}
</style>
<g>
	<path class="st40" d="M152.39,51.34l-5.6,5.36c-1.47,1.4-1.58,3.63-0.29,5.19c8.67,10.47,13.85,23.71,13.85,38.12
		c0,14.9-5.54,28.56-14.76,39.19c-1.35,1.55-1.26,3.83,0.23,5.25l6.57,6.29c5.14,4.92,13.89,2.95,16.2-3.65l4.68-13.4
		c7.4-21.19,7.4-44.11,0-65.3l-4.68-13.4C166.28,48.39,157.53,46.41,152.39,51.34z"/>
	<path class="st1" d="M141.04,135.58c8.64-9.97,13.4-22.61,13.4-35.58c0-12.7-4.35-24.67-12.57-34.6c-3.16-3.81-2.84-9.28,0.75-12.7
		l5.07-4.86c-13.44-12.17-31.57-19.63-51.52-19.63c-41.42,0-74.99,32.14-74.99,71.79s33.57,71.79,74.99,71.79
		c19.4,0,37.08-7.05,50.4-18.63l-4.92-4.71C137.98,144.94,137.72,139.41,141.04,135.58z M96.16,143.18
		c-24.91,0-45.1-19.33-45.1-43.18s20.19-43.18,45.1-43.18s45.1,19.33,45.1,43.18S121.07,143.18,96.16,143.18z"/>
	<path class="st41" d="M96.16,62.54c-21.61,0-39.13,16.77-39.13,37.46s17.52,37.46,39.13,37.46s39.13-16.77,39.13-37.46
		S117.77,62.54,96.16,62.54z M96.16,71.24c2.04,0,3.69,1.58,3.69,3.54c0,1.95-1.65,3.54-3.69,3.54s-3.69-1.58-3.69-3.54
		C92.47,72.83,94.12,71.24,96.16,71.24z M74.62,93.3c-0.63,1.86-2.71,2.87-4.65,2.27s-3-2.6-2.37-4.46
		c0.63-1.86,2.71-2.87,4.65-2.27C74.19,89.45,75.25,91.44,74.62,93.3z M83.67,122.48c-1.2,1.58-3.51,1.93-5.16,0.78
		c-1.65-1.15-2.02-3.36-0.82-4.94c1.2-1.58,3.51-1.93,5.16-0.78C84.5,118.69,84.87,120.9,83.67,122.48z M96.16,115.77
		c-9.1,0-16.47-7.06-16.47-15.77c0-8.71,7.38-15.77,16.47-15.77c9.1,0,16.47,7.06,16.47,15.77
		C112.64,108.71,105.26,115.77,96.16,115.77z M113.82,123.26c-1.65,1.15-3.96,0.8-5.16-0.78c-1.2-1.58-0.83-3.79,0.82-4.94
		c1.65-1.15,3.96-0.8,5.16,0.78C115.84,119.9,115.47,122.12,113.82,123.26z M122.36,95.57c-1.94,0.6-4.02-0.41-4.65-2.27
		c-0.63-1.86,0.43-3.85,2.37-4.46c1.94-0.6,4.02,0.41,4.65,2.27C125.36,92.97,124.3,94.97,122.36,95.57z"/>
</g>
</svg>
