<?xml version="1.0" encoding="utf-8"?>
<!-- Generator: Adobe Illustrator 23.0.2, SVG Export Plug-In . SVG Version: 6.00 Build 0)  -->
<svg version="1.1" id="Layer_1" xmlns="http://www.w3.org/2000/svg" xmlns:xlink="http://www.w3.org/1999/xlink" x="0px" y="0px"
	 viewBox="0 0 200 200" style="enable-background:new 0 0 200 200;" xml:space="preserve">
<style type="text/css">
	.st0{fill:#E1713C;}
	.st1{fill:#C7542B;}
	.st2{fill:#F68C5B;}
	.st3{fill:#B44C28;}
	.st4{fill:#1A1A1A;}
	.st5{fill:#45210F;}
	.st6{fill:#FAAF43;}
	.st7{fill:#455767;}
	.st8{opacity:0.15;fill:#010101;}
	.st9{fill:#FCDD56;}
	.st10{fill:#FAA719;}
	.st11{fill:#010101;}
	.st12{fill:#74B4C9;}
	.st13{fill:#98D8E7;}
	.st14{fill:#939598;}
	.st15{fill:#D34C55;}
	.st16{fill:#E6E7E7;}
	.st17{opacity:0.05;}
	.st18{fill:#BDBEC0;}
	.st19{fill:#71523B;}
	.st20{fill:#FFDE11;}
	.st21{fill:#FEE56C;}
	.st22{fill:#FEBE44;}
	.st23{fill:#CDEBEF;}
	.st24{fill:#75CDF3;}
	.st25{fill:#54544C;}
	.st26{fill:#4D4C4C;}
	.st27{fill:#AC9F80;}
	.st28{fill:#151515;}
	.st29{fill:#1E1F27;}
	.st30{fill:#80141D;}
	.st31{fill:#F79224;}
	.st32{fill:#00ADE5;}
	.st33{fill:#FFFFFF;}
	.st34{fill:#FBAD3A;}
	.st35{fill:#C63C2B;}
	.st36{fill:#A41E22;}
	.st37{fill:#E1252A;}
	.st38{fill:#B5B5B6;}
	.st39{fill:#303030;}
	.st40{fill:#4D87B7;}
	.st41{fill:#19323F;}
</style>
<g id="XMLID_14_">
	<g id="XMLID_32_">
		<path id="XMLID_35_" class="st1" d="M160.79,38.94l-16.1-16.1c-3.61-3.61-9.47-3.61-13.09,0l-27.35,27.35
			c-3.61,3.61-3.61,9.47,0,13.09l16.1,16.1c3.61,3.61,9.47,3.61,13.09,0l27.35-27.35C164.4,48.41,164.4,42.55,160.79,38.94z"/>
		<path id="XMLID_34_" class="st11" d="M97.8,79.34c-0.41-0.41-1.09-0.37-1.45,0.08l-27.41,34.6c-0.35,0.45,0.23,1.03,0.67,0.67
			l34.6-27.41c0.46-0.36,0.5-1.04,0.08-1.45L97.8,79.34z"/>
		<path id="XMLID_33_" class="st11" d="M105.33,67.24c-0.83-0.83-2.18-0.83-3.01,0l-5.37,5.37c-0.83,0.83-0.83,2.18,0,3.01
			l11.06,11.06c0.83,0.83,2.18,0.83,3.01,0l5.37-5.37c0.83-0.83,0.83-2.18,0-3.01L105.33,67.24z"/>
	</g>
	<g id="XMLID_28_">
		<path id="XMLID_31_" class="st10" d="M64.76,123.2c0,0-7.57,11.56-7.57,18.79c0,4.95,3.72,7.89,6.99,7.38
			c3.28-0.51,6.09-5.09,2.59-12.47C63.04,129.03,64.76,123.2,64.76,123.2z"/>
		<path id="XMLID_30_" class="st10" d="M69.87,125.74c-1.57-3.31-0.85-5.77-0.85-5.77s-3.19,4.87-3.19,7.91
			c0,2.08,1.57,3.32,2.94,3.11C70.16,130.78,71.35,128.85,69.87,125.74z"/>
	</g>
	<g id="XMLID_15_">
		<path id="XMLID_27_" class="st11" d="M119.64,166.77c1.39,1.43,2.24,3.38,2.24,5.52c0,2.15-0.86,4.1-2.24,5.52
			c1.26-0.31,3.01-0.53,5.65-0.53c0.01,0,0.02,0,0.03,0l0,0c0.01,0,0.01,0,0.02,0c0.01,0,0.01,0,0.02,0l0,0c0.01,0,0.02,0,0.03,0
			c2.64,0,4.39,0.22,5.65,0.53c-1.39-1.43-2.24-3.38-2.24-5.52c0-2.15,0.86-4.1,2.24-5.52c-1.26,0.31-3.01,0.53-5.65,0.53
			c-0.01,0-0.02,0-0.03,0l0,0c-0.01,0-0.01,0-0.02,0c-0.01,0-0.01,0-0.02,0l0,0c-0.01,0-0.02,0-0.03,0
			C122.66,167.3,120.9,167.08,119.64,166.77z"/>
		<g id="XMLID_20_">
			<path id="XMLID_740_" class="st11" d="M111.93,174.21c1.05,0,1.91-0.86,1.91-1.91c0-1.05-0.86-1.91-1.91-1.91
				c-1.05,0-1.91,0.86-1.91,1.91C110.02,173.35,110.88,174.21,111.93,174.21z"/>
			<path id="XMLID_40_" class="st11" d="M37.49,174.21c1.05,0,1.91-0.86,1.91-1.91c0-1.05-0.86-1.91-1.91-1.91
				c-1.05,0-1.91,0.86-1.91,1.91C35.58,173.35,36.44,174.21,37.49,174.21z"/>
			<g id="XMLID_21_">
				<path id="XMLID_739_" class="st11" d="M87.89,174.21c1.05,0,1.91-0.86,1.91-1.91c0-1.05-0.86-1.91-1.91-1.91
					c-1.05,0-1.91,0.86-1.91,1.91C85.98,173.35,86.83,174.21,87.89,174.21z"/>
				<path id="XMLID_743_" class="st11" d="M87.92,179.84c4.28,0,2.87-2.58,11.94-2.58c9.07,0,7.66,2.58,11.94,2.58
					c4.18,0,7.57-3.39,7.57-7.57c0-4.18-3.39-7.57-7.57-7.57c-4.28,0-2.87,2.58-11.94,2.58c-9.07,0-7.66-2.58-11.94-2.58
					c-4.18,0-7.57,3.39-7.57,7.57C80.34,176.45,83.73,179.84,87.92,179.84z M111.93,169.3c1.65,0,3,1.35,3,3c0,1.65-1.35,3-3,3
					c-1.65,0-3-1.35-3-3C108.93,170.64,110.28,169.3,111.93,169.3z M87.89,169.3c1.65,0,3,1.35,3,3c0,1.65-1.35,3-3,3
					c-1.65,0-3-1.35-3-3C84.89,170.64,86.23,169.3,87.89,169.3z"/>
				<path id="XMLID_745_" class="st11" d="M68.96,166.75c1.39,1.43,2.24,3.38,2.24,5.52c0,2.15-0.86,4.1-2.24,5.52
					c1.26-0.31,3.01-0.53,5.65-0.53c0.01,0,0.02,0,0.03,0l0,0c0.01,0,0.01,0,0.02,0c0.01,0,0.01,0,0.02,0l0,0c0.01,0,0.02,0,0.03,0
					c2.64,0,4.39,0.22,5.65,0.53c-1.39-1.43-2.24-3.38-2.24-5.52c0-2.15,0.86-4.1,2.24-5.52c-1.26,0.31-3.01,0.53-5.65,0.53
					c-0.01,0-0.02,0-0.03,0l0,0c-0.01,0-0.01,0-0.02,0c-0.01,0-0.01,0-0.02,0l0,0c-0.01,0-0.02,0-0.03,0
					C71.98,167.27,70.23,167.06,68.96,166.75z"/>
				<path id="XMLID_39_" class="st11" d="M61.53,174.21c1.05,0,1.91-0.86,1.91-1.91c0-1.05-0.86-1.91-1.91-1.91
					c-1.05,0-1.91,0.86-1.91,1.91C59.62,173.35,60.48,174.21,61.53,174.21z"/>
				<path id="XMLID_23_" class="st11" d="M37.52,179.84c4.28,0,2.87-2.58,11.94-2.58c9.07,0,7.66,2.58,11.94,2.58
					c4.18,0,7.57-3.39,7.57-7.57c0-4.18-3.39-7.57-7.57-7.57c-4.28,0-2.87,2.58-11.94,2.58c-9.07,0-7.66-2.58-11.94-2.58
					c-4.18,0-7.57,3.39-7.57,7.57C29.95,176.45,33.34,179.84,37.52,179.84z M61.53,169.3c1.65,0,3,1.35,3,3c0,1.65-1.35,3-3,3
					c-1.65,0-3-1.35-3-3C58.53,170.64,59.88,169.3,61.53,169.3z M37.49,169.3c1.65,0,3,1.35,3,3c0,1.65-1.35,3-3,3
					c-1.65,0-3-1.35-3-3C34.49,170.64,35.84,169.3,37.49,169.3z"/>
			</g>
		</g>
		<path id="XMLID_29_" class="st11" d="M138.58,174.24c1.05,0,1.91-0.86,1.91-1.91c0-1.05-0.86-1.91-1.91-1.91
			c-1.05,0-1.91,0.86-1.91,1.91C136.67,173.38,137.53,174.24,138.58,174.24z"/>
		<path id="XMLID_22_" class="st11" d="M162.62,174.24c1.05,0,1.91-0.86,1.91-1.91c0-1.05-0.86-1.91-1.91-1.91
			c-1.05,0-1.91,0.86-1.91,1.91C160.71,173.38,161.57,174.24,162.62,174.24z"/>
		<path id="XMLID_16_" class="st11" d="M138.61,179.87c4.28,0,2.87-2.58,11.94-2.58c9.07,0,7.66,2.58,11.94,2.58
			c4.18,0,7.57-3.39,7.57-7.57c0-4.18-3.39-7.57-7.57-7.57c-4.28,0-2.87,2.58-11.94,2.58c-9.07,0-7.66-2.58-11.94-2.58
			c-4.18,0-7.57,3.39-7.57,7.57C131.04,176.48,134.43,179.87,138.61,179.87z M162.62,169.33c1.65,0,3,1.35,3,3c0,1.65-1.35,3-3,3
			c-1.65,0-3-1.35-3-3S160.97,169.33,162.62,169.33z M138.58,169.33c1.65,0,3,1.35,3,3c0,1.65-1.35,3-3,3c-1.65,0-3-1.35-3-3
			C135.58,170.67,136.93,169.33,138.58,169.33z"/>
	</g>
</g>
</svg>
