<?xml version="1.0" encoding="utf-8"?>
<!-- Generator: Adobe Illustrator 23.0.2, SVG Export Plug-In . SVG Version: 6.00 Build 0)  -->
<svg version="1.1" id="Layer_1" xmlns="http://www.w3.org/2000/svg" xmlns:xlink="http://www.w3.org/1999/xlink" x="0px" y="0px"
	 viewBox="0 0 200 200" style="enable-background:new 0 0 200 200;" xml:space="preserve">
<style type="text/css">
	.st0{fill:#E1713C;}
	.st1{fill:#C7542B;}
	.st2{fill:#F68C5B;}
	.st3{fill:#B44C28;}
	.st4{fill:#1A1A1A;}
	.st5{fill:#45210F;}
	.st6{fill:#FAAF43;}
	.st7{fill:#455767;}
	.st8{opacity:0.15;fill:#010101;}
	.st9{fill:#FCDD56;}
	.st10{fill:#FAA719;}
	.st11{fill:#010101;}
	.st12{fill:#74B4C9;}
	.st13{fill:#98D8E7;}
	.st14{fill:#939598;}
	.st15{fill:#D34C55;}
	.st16{fill:#E6E7E7;}
	.st17{opacity:0.05;}
	.st18{fill:#BDBEC0;}
	.st19{fill:#71523B;}
	.st20{fill:#FFDE11;}
	.st21{fill:#FEE56C;}
	.st22{fill:#FEBE44;}
	.st23{fill:#CDEBEF;}
	.st24{fill:#75CDF3;}
	.st25{fill:#54544C;}
	.st26{fill:#4D4C4C;}
	.st27{fill:#AC9F80;}
	.st28{fill:#151515;}
	.st29{fill:#1E1F27;}
	.st30{fill:#80141D;}
	.st31{fill:#F79224;}
	.st32{fill:#00ADE5;}
	.st33{fill:#FFFFFF;}
	.st34{fill:#FBAD3A;}
	.st35{fill:#C63C2B;}
	.st36{fill:#A41E22;}
	.st37{fill:#E1252A;}
	.st38{fill:#B5B5B6;}
	.st39{fill:#303030;}
	.st40{fill:#4D87B7;}
	.st41{fill:#19323F;}
</style>
<g>
	<g>
		<g>
			<g>
				<path class="st12" d="M97.7,22.91c0.05,1.66-1.26,3.04-2.92,3.08c-1.65,0.04-3.04-1.26-3.08-2.92
					c-0.05-1.65,1.26-3.03,2.92-3.08C96.28,19.95,97.66,21.26,97.7,22.91z"/>
				<path class="st13" d="M96.42,21.05c-2.13-1.68-5.1,0.43-4.09,2.99c0.12,0.29,0.58,0.15,0.47-0.14
					c-0.82-2.06,1.49-3.91,3.28-2.49C96.33,21.6,96.67,21.24,96.42,21.05z"/>
			</g>
			<g>
				<path class="st12" d="M88.1,35.92c0.05,1.8-1.37,3.29-3.16,3.34c-1.8,0.05-3.29-1.37-3.34-3.16c-0.04-1.8,1.37-3.29,3.17-3.34
					C86.55,32.7,88.05,34.12,88.1,35.92z"/>
				<path class="st13" d="M86.7,33.89c-2.31-1.82-5.54,0.46-4.43,3.24c0.12,0.31,0.63,0.16,0.5-0.16c-0.89-2.23,1.62-4.24,3.56-2.7
					C86.61,34.49,86.97,34.11,86.7,33.89z"/>
			</g>
			<g>
				<path class="st12" d="M104.7,32.21c0.04,1.44-1.1,2.63-2.53,2.67c-1.44,0.04-2.63-1.1-2.67-2.53c-0.04-1.44,1.09-2.63,2.53-2.67
					C103.46,29.64,104.66,30.78,104.7,32.21z"/>
				<path class="st13" d="M103.58,30.6c-1.85-1.46-4.43,0.37-3.54,2.59c0.1,0.25,0.51,0.13,0.4-0.12c-0.71-1.79,1.29-3.38,2.85-2.16
					C103.51,31.08,103.8,30.77,103.58,30.6z"/>
			</g>
			<g>
				<path class="st12" d="M99.87,42.8c0.07,2.56-1.94,4.68-4.5,4.75c-2.56,0.07-4.68-1.94-4.75-4.5c-0.07-2.56,1.94-4.68,4.5-4.75
					C97.67,38.23,99.8,40.24,99.87,42.8z"/>
				<path class="st13" d="M97.89,39.92c-3.29-2.59-7.88,0.66-6.31,4.61c0.18,0.45,0.9,0.23,0.72-0.22c-1.26-3.18,2.3-6.02,5.06-3.84
					C97.75,40.77,98.27,40.23,97.89,39.92z"/>
			</g>
			<g>
				<path class="st12" d="M111.33,43.19c0.07,2.55-1.95,4.68-4.5,4.75c-2.55,0.07-4.68-1.94-4.75-4.5c-0.07-2.56,1.95-4.68,4.5-4.75
					C109.14,38.62,111.26,40.64,111.33,43.19z"/>
				<path class="st13" d="M109.35,40.32c-3.28-2.59-7.87,0.66-6.3,4.61c0.18,0.45,0.9,0.23,0.72-0.22
					c-1.26-3.18,2.29-6.02,5.06-3.84C109.21,41.17,109.74,40.62,109.35,40.32z"/>
			</g>
			<g>
				<path class="st12" d="M122.93,48.95c0.07,2.55-1.95,4.68-4.51,4.75c-2.55,0.07-4.68-1.95-4.75-4.5
					c-0.07-2.56,1.95-4.68,4.5-4.75C120.73,44.38,122.86,46.4,122.93,48.95z"/>
				<path class="st13" d="M120.94,46.08c-3.28-2.59-7.87,0.66-6.31,4.61c0.18,0.45,0.9,0.23,0.72-0.22
					c-1.26-3.18,2.3-6.02,5.07-3.84C120.8,46.93,121.32,46.38,120.94,46.08z"/>
			</g>
			<g>
				<path class="st12" d="M107.31,54c0.07,2.56-1.94,4.68-4.5,4.75c-2.56,0.07-4.68-1.94-4.75-4.5c-0.07-2.56,1.94-4.68,4.5-4.75
					C105.12,49.43,107.24,51.45,107.31,54z"/>
				<path class="st13" d="M105.33,51.13c-3.29-2.59-7.87,0.66-6.31,4.61c0.18,0.45,0.9,0.23,0.72-0.22
					c-1.26-3.18,2.3-6.02,5.06-3.84C105.19,51.98,105.71,51.43,105.33,51.13z"/>
			</g>
			<g>
				<path class="st12" d="M76.5,70.41c0.1,3.93-2.99,7.19-6.92,7.3c-3.92,0.1-7.19-2.99-7.29-6.92c-0.11-3.92,2.99-7.19,6.91-7.29
					C73.13,63.39,76.4,66.49,76.5,70.41z"/>
				<path class="st13" d="M73.46,66c-5.05-3.98-12.09,1.01-9.69,7.08c0.27,0.69,1.39,0.36,1.11-0.34c-1.94-4.88,3.52-9.25,7.78-5.9
					C73.25,67.3,74.05,66.46,73.46,66z"/>
			</g>
			<g>
				<path class="st12" d="M87.99,49.36c0.08,2.95-2.24,5.4-5.19,5.48c-2.95,0.08-5.4-2.25-5.48-5.19c-0.08-2.95,2.25-5.39,5.19-5.48
					C85.46,44.09,87.91,46.41,87.99,49.36z"/>
				<path class="st13" d="M85.71,46.05c-3.79-2.99-9.08,0.76-7.27,5.31c0.2,0.52,1.04,0.27,0.83-0.25
					c-1.45-3.67,2.65-6.95,5.84-4.43C85.55,47.02,86.15,46.39,85.71,46.05z"/>
			</g>
			<g>
				<path class="st12" d="M85.6,59.86c0.1,3.67-2.8,6.73-6.47,6.83c-3.67,0.09-6.73-2.8-6.83-6.47c-0.1-3.67,2.8-6.73,6.47-6.83
					C82.44,53.29,85.5,56.19,85.6,59.86z"/>
				<path class="st13" d="M82.75,55.73c-4.72-3.72-11.31,0.95-9.06,6.62c0.26,0.65,1.29,0.33,1.04-0.31
					c-1.81-4.56,3.3-8.65,7.27-5.51C82.55,56.95,83.3,56.17,82.75,55.73z"/>
			</g>
			<g>
				<path class="st12" d="M99.01,55.47c0.08,2.95-2.25,5.39-5.19,5.48c-2.94,0.08-5.39-2.25-5.47-5.19
					c-0.08-2.95,2.24-5.4,5.19-5.48C96.47,50.2,98.93,52.53,99.01,55.47z"/>
				<path class="st13" d="M96.72,52.16c-3.79-2.99-9.08,0.76-7.27,5.31c0.21,0.52,1.04,0.27,0.83-0.26
					c-1.45-3.66,2.65-6.94,5.84-4.42C96.56,53.13,97.16,52.51,96.72,52.16z"/>
			</g>
			<g>
				<path class="st12" d="M128.08,43.35c0.04,1.44-1.1,2.63-2.53,2.67c-1.44,0.04-2.63-1.1-2.67-2.53c-0.04-1.44,1.1-2.63,2.53-2.67
					C126.85,40.78,128.05,41.91,128.08,43.35z"/>
				<path class="st13" d="M126.97,41.73c-1.85-1.46-4.42,0.37-3.55,2.59c0.1,0.25,0.51,0.13,0.41-0.12
					c-0.71-1.78,1.29-3.38,2.85-2.16C126.89,42.21,127.19,41.9,126.97,41.73z"/>
			</g>
			<g>
				<path class="st12" d="M133.65,51.54c0.04,1.65-1.26,3.03-2.92,3.08c-1.66,0.05-3.04-1.26-3.08-2.92
					c-0.04-1.66,1.26-3.03,2.92-3.08C132.23,48.57,133.61,49.88,133.65,51.54z"/>
				<path class="st13" d="M132.37,49.68c-2.13-1.68-5.1,0.43-4.09,2.99c0.12,0.29,0.58,0.15,0.47-0.14
					c-0.82-2.06,1.49-3.9,3.28-2.49C132.28,50.23,132.62,49.87,132.37,49.68z"/>
			</g>
			<g>
				<path class="st12" d="M119.09,39.29c0.03,1.37-1.05,2.52-2.42,2.56c-1.38,0.04-2.52-1.05-2.56-2.42
					c-0.04-1.38,1.05-2.52,2.42-2.56C117.91,36.83,119.06,37.91,119.09,39.29z"/>
				<path class="st13" d="M118.03,37.74c-1.77-1.4-4.24,0.35-3.4,2.48c0.09,0.24,0.49,0.12,0.39-0.12
					c-0.68-1.71,1.24-3.24,2.73-2.07C117.95,38.2,118.23,37.9,118.03,37.74z"/>
			</g>
			<g>
				<path class="st12" d="M114.16,29.52c0.04,1.46-1.12,2.68-2.58,2.72c-1.46,0.04-2.68-1.11-2.72-2.58
					c-0.04-1.46,1.11-2.68,2.58-2.72C112.9,26.9,114.12,28.05,114.16,29.52z"/>
				<path class="st13" d="M113.03,27.87c-1.88-1.48-4.5,0.38-3.61,2.64c0.1,0.26,0.52,0.13,0.41-0.13c-0.72-1.82,1.31-3.45,2.9-2.2
					C112.94,28.35,113.25,28.04,113.03,27.87z"/>
			</g>
			<g>
				<path class="st12" d="M75.94,40.26c0.03,1.24-0.94,2.27-2.18,2.3c-1.24,0.03-2.27-0.94-2.3-2.18c-0.03-1.24,0.94-2.27,2.18-2.3
					C74.87,38.04,75.9,39.01,75.94,40.26z"/>
				<path class="st13" d="M74.98,38.86c-1.59-1.26-3.81,0.32-3.05,2.23c0.08,0.22,0.43,0.12,0.35-0.1
					c-0.61-1.54,1.11-2.92,2.45-1.86C74.91,39.27,75.16,39.01,74.98,38.86z"/>
			</g>
			<g>
				<path class="st12" d="M73.69,52.36c0.05,1.7-1.29,3.11-3,3.16c-1.7,0.05-3.11-1.29-3.16-3c-0.04-1.7,1.3-3.11,2.99-3.16
					C72.23,49.32,73.65,50.66,73.69,52.36z"/>
				<path class="st13" d="M72.38,50.44c-2.18-1.72-5.24,0.44-4.19,3.06c0.12,0.3,0.6,0.16,0.48-0.14c-0.84-2.11,1.53-4,3.37-2.55
					C72.28,51.01,72.63,50.65,72.38,50.44z"/>
			</g>
			<g>
				<path class="st12" d="M94.7,64.06c0.08,3.15-2.4,5.77-5.55,5.85c-3.15,0.09-5.77-2.4-5.86-5.55c-0.08-3.15,2.4-5.77,5.55-5.85
					C92,58.43,94.62,60.92,94.7,64.06z"/>
				<path class="st13" d="M92.26,60.52c-4.05-3.2-9.7,0.81-7.77,5.68c0.22,0.55,1.11,0.29,0.89-0.27c-1.56-3.92,2.83-7.43,6.24-4.73
					C92.09,61.56,92.73,60.89,92.26,60.52z"/>
			</g>
			<g>
				<path class="st12" d="M88.48,70.72c0.09,3.58-2.73,6.56-6.31,6.66c-3.58,0.1-6.56-2.73-6.66-6.31
					c-0.09-3.58,2.73-6.56,6.31-6.66C85.41,64.31,88.39,67.14,88.48,70.72z"/>
				<path class="st13" d="M85.71,66.69c-4.61-3.63-11.03,0.92-8.83,6.45c0.25,0.63,1.26,0.33,1.01-0.31
					c-1.77-4.45,3.22-8.44,7.1-5.38C85.51,67.88,86.25,67.11,85.71,66.69z"/>
			</g>
			<g>
				<path class="st12" d="M118.31,55.76c0.1,3.59-2.73,6.57-6.33,6.67c-3.59,0.09-6.57-2.73-6.67-6.33
					c-0.1-3.59,2.73-6.57,6.32-6.67C115.23,49.34,118.21,52.17,118.31,55.76z"/>
				<path class="st13" d="M115.53,51.72c-4.61-3.64-11.05,0.92-8.85,6.47c0.25,0.63,1.27,0.33,1.01-0.31
					c-1.77-4.46,3.22-8.46,7.11-5.39C115.33,52.91,116.07,52.14,115.53,51.72z"/>
			</g>
			<g>
				<path class="st12" d="M128.77,57.44c0.08,3.05-2.32,5.58-5.36,5.66c-3.04,0.08-5.57-2.32-5.66-5.36
					c-0.08-3.04,2.32-5.57,5.36-5.65C126.16,52,128.69,54.4,128.77,57.44z"/>
				<path class="st13" d="M126.41,54.02c-3.91-3.09-9.37,0.78-7.51,5.48c0.21,0.53,1.07,0.28,0.86-0.26
					c-1.5-3.78,2.73-7.17,6.03-4.57C126.25,55.03,126.87,54.38,126.41,54.02z"/>
			</g>
			<g>
				<path class="st12" d="M135.48,63.95c0.08,3.04-2.32,5.57-5.36,5.66c-3.04,0.08-5.57-2.32-5.66-5.36
					c-0.08-3.05,2.32-5.58,5.36-5.66C132.87,58.51,135.4,60.91,135.48,63.95z"/>
				<path class="st13" d="M133.12,60.53c-3.91-3.09-9.37,0.78-7.51,5.49c0.22,0.53,1.08,0.28,0.86-0.27
					c-1.5-3.78,2.73-7.17,6.03-4.57C132.96,61.54,133.58,60.89,133.12,60.53z"/>
			</g>
			<g>
				<path class="st12" d="M123.79,65.08c0.09,3.59-2.73,6.57-6.32,6.67c-3.59,0.1-6.58-2.73-6.67-6.32
					c-0.09-3.59,2.73-6.57,6.32-6.67C120.71,58.66,123.7,61.49,123.79,65.08z"/>
				<path class="st13" d="M121.01,61.04c-4.61-3.64-11.06,0.92-8.86,6.47c0.25,0.63,1.27,0.33,1.01-0.31
					c-1.77-4.46,3.23-8.46,7.12-5.39C120.82,62.24,121.55,61.47,121.01,61.04z"/>
			</g>
			<g>
				<path class="st12" d="M129.24,71.44c0.09,3.59-2.74,6.57-6.33,6.67c-3.59,0.1-6.57-2.73-6.67-6.32
					c-0.1-3.59,2.73-6.58,6.32-6.67C126.16,65.02,129.15,67.85,129.24,71.44z"/>
				<path class="st13" d="M126.46,67.4c-4.62-3.64-11.06,0.92-8.86,6.47c0.25,0.63,1.27,0.33,1.01-0.31
					c-1.77-4.46,3.23-8.46,7.12-5.39C126.26,68.59,127,67.82,126.46,67.4z"/>
			</g>
			<g>
				<path class="st12" d="M138.67,73.26c0.07,2.79-2.13,5.11-4.91,5.18c-2.79,0.07-5.11-2.12-5.18-4.91
					c-0.07-2.79,2.13-5.11,4.91-5.18C136.27,68.27,138.59,70.47,138.67,73.26z"/>
				<path class="st13" d="M136.51,70.12c-3.59-2.83-8.59,0.72-6.88,5.02c0.19,0.49,0.98,0.26,0.79-0.24
					c-1.37-3.47,2.51-6.57,5.53-4.19C136.35,71.05,136.93,70.45,136.51,70.12z"/>
			</g>
			<g>
				<path class="st12" d="M108.46,63.26c0.08,3.23-2.46,5.91-5.69,6c-3.23,0.09-5.92-2.46-6-5.69c-0.09-3.23,2.46-5.91,5.69-6
					C105.69,57.49,108.38,60.03,108.46,63.26z"/>
				<path class="st13" d="M105.96,59.63c-4.15-3.28-9.95,0.83-7.97,5.82c0.23,0.57,1.14,0.29,0.91-0.28
					c-1.59-4.02,2.9-7.61,6.4-4.85C105.78,60.7,106.44,60.01,105.96,59.63z"/>
			</g>
			<g>
				<path class="st12" d="M113.36,71.86c0.09,3.25-2.48,5.96-5.73,6.05c-3.25,0.09-5.96-2.48-6.05-5.73
					c-0.09-3.25,2.48-5.96,5.73-6.05C110.57,66.05,113.28,68.61,113.36,71.86z"/>
				<path class="st13" d="M110.85,68.21c-4.18-3.3-10.02,0.84-8.03,5.87c0.23,0.57,1.15,0.29,0.92-0.28
					c-1.6-4.05,2.92-7.67,6.45-4.89C110.67,69.28,111.33,68.59,110.85,68.21z"/>
			</g>
			<g>
				<path class="st12" d="M102.08,71.44c0.09,3.35-2.55,6.14-5.91,6.24c-3.35,0.09-6.14-2.56-6.23-5.91
					c-0.09-3.35,2.55-6.14,5.91-6.23C99.2,65.45,101.99,68.09,102.08,71.44z"/>
				<path class="st13" d="M99.49,67.68c-4.32-3.4-10.34,0.86-8.28,6.04c0.24,0.59,1.19,0.31,0.95-0.29
					c-1.65-4.17,3.02-7.9,6.65-5.03C99.3,68.78,99.99,68.07,99.49,67.68z"/>
			</g>
		</g>
		<rect x="138.87" y="80.21" class="st14" width="3" height="1.27"/>
		<rect x="57.87" y="80.21" class="st14" width="3" height="1.27"/>
		<polygon class="st1" points="132.52,180.01 67.49,180.01 59.94,77.93 140.07,77.93 		"/>
		<path class="st15" d="M142,75.44c0-0.97-0.79-1.76-1.76-1.76H59.76c-0.97,0-1.76,0.79-1.76,1.76v0.73c0,0.97,0.79,1.76,1.76,1.76
			h80.48c0.97,0,1.76-0.79,1.76-1.76V75.44z"/>
		<polygon class="st16" points="139.75,82.18 140.07,77.93 59.94,77.93 60.25,82.18 		"/>
		<path class="st16" d="M138.75,95.67c-2.85,7.82-8,14.72-14.93,19.66c-2.86,2.04-5.95,3.66-9.19,4.87
			c-0.45-0.65-1.24-1.04-2.24-0.73c-8.11,2.57-16.68,2.57-24.78,0c-1.01-0.32-1.8,0.07-2.25,0.74
			c-11.39-4.24-20.07-13.51-24.12-24.63l0.34,4.63c2.72,5.61,6.64,10.64,11.59,14.66c3.56,2.89,7.54,5.13,11.77,6.71
			c-0.01,0.88,0.44,1.75,1.51,2.1c8.79,2.79,18.31,2.79,27.09,0c1.05-0.34,1.51-1.19,1.52-2.05c10.34-3.91,18.65-11.83,23.37-21.6
			L138.75,95.67z"/>
		<path class="st16" d="M68.03,101.59c1.94,0,3.52-1.58,3.52-3.52V81.52c0-0.3,0.24-0.54,0.55-0.54c0.3,0,0.55,0.24,0.55,0.54v20.61
			c0,1.94,1.58,3.52,3.52,3.52c1.94,0,3.52-1.58,3.52-3.52V81.52c0-0.3,0.24-0.54,0.55-0.54c0.3,0,0.55,0.24,0.55,0.54v18.29
			c0,1.94,1.58,3.52,3.52,3.52c1.94,0,3.52-1.57,3.52-3.52V81.52c0-0.3,0.24-0.54,0.55-0.54c0.3,0,0.55,0.24,0.55,0.54v14.23
			c0,1.94,1.57,3.52,3.52,3.52c1.94,0,3.52-1.58,3.52-3.52V77.93H64.51v20.14C64.51,100.01,66.09,101.59,68.03,101.59z"/>
		<polygon class="st17" points="60.37,77.93 59.94,77.93 67.49,180.01 131.35,180.01 		"/>
		<path class="st18" d="M141.28,80.16c-0.06,13.36-6.57,25.96-17.45,33.71c-10.97,7.82-25.37,9.6-38,5.06
			c-16.18-5.8-27.02-21.7-27.1-38.78c0-0.94-1.46-0.94-1.45,0c0.06,12.88,5.9,25.13,15.9,33.26c10.07,8.18,23.53,11.19,36.16,8.45
			c19.37-4.2,33.31-22.03,33.4-41.71C142.74,79.22,141.29,79.22,141.28,80.16z"/>
		<path class="st19" d="M112.39,118.02c-8.11,2.56-16.68,2.56-24.78,0c-2.69-0.85-3.82,3.35-1.16,4.19c8.79,2.79,18.31,2.79,27.09,0
			C116.22,121.37,115.07,117.17,112.39,118.02z"/>
		<path class="st20" d="M94.19,71.11H66.25c-0.96,0-1.74,0.78-1.74,1.74v23.77c0,1.94,1.58,3.52,3.52,3.52
			c1.94,0,3.52-1.57,3.52-3.52V80.07c0-0.3,0.24-0.55,0.55-0.55c0.3,0,0.55,0.24,0.55,0.55v20.61c0,1.94,1.58,3.52,3.52,3.52
			c1.94,0,3.52-1.58,3.52-3.52V80.07c0-0.3,0.24-0.55,0.55-0.55c0.3,0,0.55,0.24,0.55,0.55v18.29c0,1.94,1.58,3.52,3.52,3.52
			c1.94,0,3.52-1.58,3.52-3.52V80.07c0-0.3,0.24-0.55,0.55-0.55c0.3,0,0.55,0.24,0.55,0.55v14.22c0,1.94,1.57,3.52,3.52,3.52
			c1.94,0,3.52-1.58,3.52-3.52V72.85C95.94,71.88,95.16,71.11,94.19,71.11z"/>
	</g>
	<g>
		<path class="st21" d="M72.39,126.02c-1.98,1.87-3.4,4.1-4.27,6.5c0,0.01-0.01,0.02-0.01,0.02c-0.68,1.62-2.78,7.67-5.22,9.96
			c-2.43,2.29-8.59,4.05-10.25,4.63c0,0-0.01,0.01-0.01,0.01c-2.45,0.73-4.77,2.01-6.75,3.88c-6.74,6.36-7.04,16.97-0.68,23.7
			c6.36,6.73,16.97,7.04,23.71,0.69c1.98-1.87,3.4-4.11,4.27-6.51c0-0.01,0.01-0.01,0.01-0.01c0.68-1.63,2.78-7.68,5.22-9.97
			c2.43-2.3,8.59-4.05,10.25-4.63c0-0.01,0.01-0.01,0.02-0.02c2.45-0.72,4.76-2.01,6.74-3.88c6.73-6.35,7.04-16.97,0.68-23.7
			C89.74,119.97,79.13,119.66,72.39,126.02z"/>
		<g>
			<path class="st22" d="M45.92,164.09c0.59,0.63,0.56,1.61-0.06,2.2c-0.63,0.59-1.61,0.56-2.2-0.07c-0.59-0.62-0.56-1.61,0.06-2.2
				C44.35,163.43,45.33,163.47,45.92,164.09z"/>
			<path class="st22" d="M47.13,169.37c0.42,0.44,0.4,1.13-0.05,1.55c-0.44,0.41-1.13,0.4-1.55-0.05c-0.42-0.44-0.4-1.13,0.04-1.56
				C46.02,168.9,46.71,168.93,47.13,169.37z"/>
			<path class="st22" d="M51.95,165.13c0.69,0.74,0.66,1.9-0.07,2.6s-1.9,0.66-2.59-0.07c-0.7-0.74-0.66-1.9,0.07-2.6
				C50.09,164.36,51.26,164.39,51.95,165.13z"/>
			<path class="st22" d="M48.4,160.95c0.32,0.35,0.31,0.89-0.04,1.21c-0.34,0.32-0.88,0.31-1.21-0.03
				c-0.32-0.34-0.31-0.89,0.04-1.21C47.54,160.59,48.08,160.61,48.4,160.95z"/>
		</g>
		<g>
			<path class="st22" d="M60.84,166.2c0.59,0.63,0.56,1.61-0.06,2.2s-1.61,0.56-2.2-0.07c-0.59-0.62-0.56-1.61,0.07-2.2
				C59.27,165.54,60.25,165.58,60.84,166.2z"/>
			<path class="st22" d="M62.05,171.47c0.42,0.44,0.4,1.13-0.04,1.56c-0.44,0.41-1.14,0.4-1.56-0.05c-0.42-0.44-0.4-1.13,0.05-1.56
				C60.94,171.01,61.64,171.03,62.05,171.47z"/>
			<path class="st22" d="M66.87,167.24c0.7,0.74,0.66,1.89-0.07,2.59c-0.74,0.7-1.9,0.67-2.59-0.07c-0.69-0.74-0.66-1.9,0.07-2.6
				C65.02,166.47,66.18,166.5,66.87,167.24z"/>
			<path class="st22" d="M63.33,163.06c0.32,0.35,0.31,0.89-0.04,1.21c-0.34,0.32-0.88,0.31-1.21-0.03
				c-0.32-0.35-0.31-0.89,0.04-1.21C62.46,162.7,63,162.72,63.33,163.06z"/>
		</g>
		<g>
			<path class="st22" d="M58.28,151.07c0.59,0.62,0.56,1.6-0.06,2.19c-0.62,0.6-1.61,0.56-2.2-0.06c-0.59-0.63-0.56-1.61,0.06-2.2
				C56.7,150.42,57.69,150.44,58.28,151.07z"/>
			<path class="st22" d="M59.49,156.34c0.42,0.45,0.4,1.14-0.04,1.56c-0.44,0.42-1.14,0.4-1.55-0.04c-0.42-0.45-0.4-1.14,0.04-1.56
				C58.38,155.88,59.07,155.9,59.49,156.34z"/>
			<path class="st22" d="M64.31,152.1c0.69,0.74,0.66,1.9-0.07,2.6c-0.74,0.69-1.9,0.66-2.59-0.07c-0.69-0.74-0.66-1.9,0.07-2.6
				C62.45,151.34,63.62,151.37,64.31,152.1z"/>
			<path class="st22" d="M60.77,147.93c0.32,0.34,0.31,0.88-0.04,1.21c-0.34,0.32-0.88,0.31-1.21-0.04
				c-0.32-0.34-0.31-0.89,0.04-1.21C59.9,147.57,60.44,147.59,60.77,147.93z"/>
		</g>
		<g>
			<path class="st22" d="M72.27,151.47c0.59,0.63,0.56,1.61-0.06,2.2c-0.63,0.59-1.61,0.56-2.2-0.07c-0.59-0.62-0.56-1.61,0.06-2.19
				C70.69,150.81,71.68,150.85,72.27,151.47z"/>
			<path class="st22" d="M73.48,156.75c0.42,0.44,0.4,1.13-0.05,1.56c-0.44,0.41-1.14,0.4-1.55-0.05c-0.41-0.44-0.39-1.13,0.05-1.55
				C72.37,156.28,73.06,156.31,73.48,156.75z"/>
			<path class="st22" d="M78.3,152.51c0.69,0.74,0.66,1.89-0.07,2.6c-0.74,0.7-1.9,0.66-2.59-0.07c-0.7-0.74-0.67-1.9,0.07-2.6
				C76.44,151.74,77.6,151.77,78.3,152.51z"/>
			<path class="st22" d="M74.75,148.33c0.32,0.35,0.31,0.89-0.03,1.21c-0.34,0.32-0.89,0.31-1.21-0.03
				c-0.32-0.35-0.31-0.89,0.03-1.21C73.89,147.98,74.43,147.99,74.75,148.33z"/>
		</g>
		<g>
			<path class="st22" d="M73.4,136.38c0.59,0.63,0.56,1.61-0.07,2.2c-0.62,0.6-1.61,0.56-2.2-0.06c-0.59-0.63-0.56-1.61,0.07-2.2
				C71.82,135.74,72.81,135.76,73.4,136.38z"/>
			<path class="st22" d="M74.61,141.66c0.41,0.45,0.4,1.14-0.05,1.56c-0.44,0.41-1.14,0.4-1.55-0.04c-0.42-0.45-0.4-1.14,0.04-1.56
				C73.5,141.2,74.19,141.22,74.61,141.66z"/>
			<path class="st22" d="M79.43,137.43c0.69,0.74,0.66,1.9-0.07,2.6c-0.74,0.69-1.9,0.66-2.6-0.07c-0.69-0.74-0.66-1.9,0.07-2.6
				C77.57,136.66,78.73,136.69,79.43,137.43z"/>
			<path class="st22" d="M75.88,133.26c0.32,0.34,0.31,0.88-0.04,1.2c-0.34,0.33-0.88,0.31-1.2-0.03c-0.33-0.34-0.31-0.89,0.03-1.21
				C75.01,132.89,75.56,132.91,75.88,133.26z"/>
		</g>
		<g>
			<path class="st22" d="M89.1,140.17c0.59,0.63,0.56,1.61-0.06,2.2c-0.62,0.59-1.61,0.56-2.2-0.07c-0.59-0.62-0.56-1.6,0.07-2.2
				C87.53,139.51,88.51,139.54,89.1,140.17z"/>
			<path class="st22" d="M90.32,145.44c0.41,0.44,0.4,1.13-0.04,1.56c-0.44,0.41-1.14,0.4-1.56-0.05c-0.42-0.44-0.4-1.13,0.04-1.55
				C89.2,144.98,89.9,145.01,90.32,145.44z"/>
			<path class="st22" d="M95.13,141.21c0.7,0.74,0.67,1.89-0.07,2.59c-0.74,0.7-1.9,0.67-2.59-0.07c-0.69-0.74-0.66-1.9,0.07-2.6
				C93.28,140.44,94.44,140.47,95.13,141.21z"/>
			<path class="st22" d="M91.59,137.03c0.32,0.35,0.31,0.89-0.04,1.21c-0.34,0.32-0.88,0.31-1.21-0.03
				c-0.32-0.35-0.31-0.89,0.04-1.21C90.72,136.67,91.26,136.69,91.59,137.03z"/>
		</g>
		<g>
			<path class="st22" d="M84.38,126.42c0.59,0.62,0.56,1.6-0.06,2.2c-0.62,0.59-1.61,0.56-2.2-0.07c-0.59-0.62-0.56-1.6,0.06-2.2
				C82.81,125.77,83.8,125.79,84.38,126.42z"/>
			<path class="st22" d="M85.6,131.7c0.42,0.44,0.4,1.13-0.04,1.55c-0.44,0.42-1.14,0.4-1.56-0.04c-0.42-0.44-0.4-1.13,0.05-1.56
				C84.48,131.24,85.18,131.25,85.6,131.7z"/>
			<path class="st22" d="M90.42,127.46c0.7,0.74,0.66,1.9-0.07,2.59c-0.74,0.69-1.9,0.66-2.59-0.07s-0.66-1.89,0.07-2.59
				C88.56,126.69,89.72,126.73,90.42,127.46z"/>
			<path class="st22" d="M86.87,123.29c0.33,0.34,0.31,0.89-0.03,1.21c-0.34,0.32-0.89,0.31-1.21-0.03
				c-0.32-0.35-0.31-0.88,0.03-1.21C86.01,122.93,86.54,122.94,86.87,123.29z"/>
		</g>
	</g>
	<g>
		<path class="st23" d="M142.6,146.46c-2.72,0-5.29,0.65-7.57,1.81c-0.01,0-0.02,0-0.02,0c-1.61,0.71-7.29,3.67-10.63,3.67
			c-3.35,0-9.03-2.95-10.63-3.67c-0.01,0-0.01,0-0.02,0c-2.27-1.16-4.84-1.81-7.57-1.81c-9.26,0-16.77,7.51-16.77,16.77
			s7.51,16.77,16.77,16.77c2.73,0,5.3-0.65,7.57-1.81c0.01,0,0.01,0,0.02,0c1.6-0.71,7.28-3.67,10.63-3.67
			c3.34,0,9.02,2.95,10.63,3.67c0,0,0.01,0,0.02,0c2.27,1.16,4.84,1.81,7.57,1.81c9.26,0,16.77-7.51,16.77-16.77
			S151.86,146.46,142.6,146.46z"/>
		<g>
			<circle class="st24" cx="95.66" cy="155.97" r="1.56"/>
			<path class="st24" d="M94.48,160.64c0,0.61-0.49,1.1-1.1,1.1c-0.61,0-1.1-0.49-1.1-1.1c0-0.6,0.49-1.1,1.1-1.1
				C93.99,159.53,94.48,160.03,94.48,160.64z"/>
			<path class="st24" d="M100.89,160.87c0,1.02-0.82,1.84-1.83,1.84c-1.01,0-1.84-0.82-1.84-1.84s0.82-1.84,1.84-1.84
				C100.07,159.03,100.89,159.85,100.89,160.87z"/>
			<path class="st24" d="M101.18,155.4c0,0.47-0.38,0.85-0.85,0.85c-0.48,0-0.86-0.38-0.86-0.85c0-0.47,0.38-0.86,0.86-0.86
				C100.79,154.54,101.18,154.93,101.18,155.4z"/>
		</g>
		<g>
			<path class="st24" d="M106.62,167.74c0,0.86-0.7,1.56-1.56,1.56c-0.86,0-1.56-0.7-1.56-1.56c0-0.85,0.7-1.55,1.56-1.55
				C105.92,166.19,106.62,166.89,106.62,167.74z"/>
			<path class="st24" d="M103.88,172.42c0,0.6-0.49,1.1-1.1,1.1c-0.61,0-1.1-0.5-1.1-1.1c0-0.61,0.49-1.1,1.1-1.1
				C103.39,171.32,103.88,171.81,103.88,172.42z"/>
			<path class="st24" d="M110.29,172.64c0,1.02-0.82,1.84-1.83,1.84c-1.01,0-1.84-0.82-1.84-1.84c0-1.01,0.82-1.83,1.84-1.83
				C109.47,170.81,110.29,171.63,110.29,172.64z"/>
			<path class="st24" d="M110.58,167.17c0,0.47-0.38,0.85-0.86,0.85c-0.47,0-0.85-0.38-0.85-0.85c0-0.47,0.38-0.85,0.85-0.85
				C110.2,166.32,110.58,166.7,110.58,167.17z"/>
		</g>
		<g>
			<path class="st24" d="M115.14,154.98c0,0.86-0.69,1.56-1.56,1.56c-0.86,0-1.56-0.7-1.56-1.56c0-0.85,0.69-1.56,1.56-1.56
				C114.45,153.43,115.14,154.13,115.14,154.98z"/>
			<path class="st24" d="M112.41,159.66c0,0.6-0.49,1.1-1.1,1.1c-0.61,0-1.1-0.5-1.1-1.1c0-0.61,0.49-1.1,1.1-1.1
				C111.91,158.56,112.41,159.05,112.41,159.66z"/>
			<circle class="st24" cx="116.98" cy="159.88" r="1.84"/>
			<path class="st24" d="M119.1,154.41c0,0.47-0.38,0.85-0.85,0.85c-0.47,0-0.86-0.38-0.86-0.85c0-0.47,0.38-0.85,0.86-0.85
				C118.72,153.56,119.1,153.94,119.1,154.41z"/>
		</g>
		<g>
			<path class="st24" d="M125.04,164.88c0,0.86-0.7,1.56-1.56,1.56c-0.86,0-1.56-0.7-1.56-1.56c0-0.86,0.7-1.56,1.56-1.56
				C124.34,163.32,125.04,164.02,125.04,164.88z"/>
			<path class="st24" d="M122.3,169.55c0,0.61-0.49,1.1-1.1,1.1c-0.61,0-1.1-0.49-1.1-1.1c0-0.6,0.49-1.09,1.1-1.09
				C121.8,168.45,122.3,168.94,122.3,169.55z"/>
			<path class="st24" d="M128.71,169.78c0,1.02-0.82,1.84-1.83,1.84c-1.02,0-1.84-0.82-1.84-1.84c0-1.01,0.82-1.84,1.84-1.84
				C127.89,167.94,128.71,168.77,128.71,169.78z"/>
			<path class="st24" d="M129,164.31c0,0.47-0.39,0.85-0.86,0.85c-0.47,0-0.85-0.38-0.85-0.85c0-0.47,0.38-0.86,0.85-0.86
				C128.61,163.45,129,163.84,129,164.31z"/>
		</g>
		<g>
			<path class="st24" d="M136.21,154.69c0,0.86-0.7,1.56-1.56,1.56c-0.86,0-1.56-0.7-1.56-1.56c0-0.85,0.7-1.56,1.56-1.56
				C135.52,153.13,136.21,153.83,136.21,154.69z"/>
			<path class="st24" d="M133.47,159.36c0,0.6-0.49,1.1-1.1,1.1c-0.6,0-1.1-0.5-1.1-1.1c0-0.61,0.49-1.1,1.1-1.1
				C132.98,158.26,133.47,158.75,133.47,159.36z"/>
			<path class="st24" d="M139.88,159.58c0,1.02-0.82,1.84-1.84,1.84c-1.01,0-1.83-0.82-1.83-1.84c0-1.01,0.82-1.83,1.83-1.83
				C139.06,157.76,139.88,158.58,139.88,159.58z"/>
			<path class="st24" d="M140.17,154.11c0,0.47-0.38,0.85-0.85,0.85c-0.47,0-0.85-0.38-0.85-0.85c0-0.47,0.38-0.85,0.85-0.85
				C139.79,153.26,140.17,153.64,140.17,154.11z"/>
		</g>
		<g>
			<circle class="st24" cx="143.48" cy="168.22" r="1.56"/>
			<circle class="st24" cx="141.2" cy="172.89" r="1.1"/>
			<path class="st24" d="M148.71,173.12c0,1.01-0.82,1.84-1.84,1.84s-1.84-0.83-1.84-1.84c0-1.02,0.82-1.84,1.84-1.84
				S148.71,172.1,148.71,173.12z"/>
			<path class="st24" d="M149,167.64c0,0.47-0.38,0.86-0.85,0.86c-0.47,0-0.86-0.39-0.86-0.86c0-0.47,0.39-0.85,0.86-0.85
				C148.62,166.79,149,167.17,149,167.64z"/>
		</g>
		<g>
			<path class="st24" d="M151.05,154.98c0,0.86-0.69,1.56-1.56,1.56s-1.56-0.7-1.56-1.56c0-0.85,0.69-1.56,1.56-1.56
				S151.05,154.13,151.05,154.98z"/>
			<path class="st24" d="M148.31,159.66c0,0.6-0.49,1.1-1.1,1.1c-0.61,0-1.1-0.5-1.1-1.1c0-0.61,0.49-1.1,1.1-1.1
				C147.81,158.56,148.31,159.05,148.31,159.66z"/>
			<path class="st24" d="M154.72,159.88c0,1.02-0.82,1.84-1.84,1.84s-1.84-0.82-1.84-1.84c0-1.01,0.82-1.84,1.84-1.84
				S154.72,158.87,154.72,159.88z"/>
			<path class="st24" d="M155,154.41c0,0.47-0.38,0.85-0.85,0.85c-0.48,0-0.86-0.38-0.86-0.85c0-0.47,0.38-0.85,0.86-0.85
				C154.62,153.56,155,153.94,155,154.41z"/>
		</g>
	</g>
</g>
</svg>
