<?xml version="1.0" encoding="utf-8"?>
<!-- Generator: Adobe Illustrator 23.0.1, SVG Export Plug-In . SVG Version: 6.00 Build 0)  -->
<svg version="1.1" id="Layer_1" xmlns="http://www.w3.org/2000/svg" xmlns:xlink="http://www.w3.org/1999/xlink" x="0px" y="0px"
	 viewBox="0 0 200 200" style="enable-background:new 0 0 200 200;" xml:space="preserve">
<style type="text/css">
	.st0{fill:#DDDDDD;}
	.st1{fill:#67DAF9;}
	.st2{fill:#FFFFFF;}
	.st3{fill:#3A4241;}
	.st4{fill:#DD463E;}
	.st5{fill:#BBB8BB;}
	.st6{fill:#F7FEFB;}
	.st7{fill:#F96046;}
	.st8{fill:#4FA7B5;}
	.st9{fill:#CC3A2F;}
	.st10{fill:#4F5655;}
	.st11{fill:#FC7F6B;}
	.st12{fill:#FFF8F3;}
	.st13{fill:#E8E7E6;}
	.st14{fill:none;stroke:#FFFFFF;stroke-width:2;stroke-miterlimit:10;}
	.st15{clip-path:url(#SVGID_6_);}
	.st16{fill:#232323;}
	.st17{fill:#ED2424;}
	.st18{fill:#E42526;}
	.st19{fill:#EE4244;}
	.st20{fill:#2D2525;}
	.st21{fill:#4A3D3D;}
	.st22{opacity:0.6;fill:#FFFFFF;}
	.st23{fill:#4E5C61;}
	.st24{clip-path:url(#SVGID_8_);fill:#5F7982;}
	.st25{clip-path:url(#SVGID_8_);fill:#50595C;}
	.st26{opacity:0.64;clip-path:url(#SVGID_8_);fill:#FFFFFF;}
	.st27{filter:url(#Adobe_OpacityMaskFilter);}
	.st28{filter:url(#Adobe_OpacityMaskFilter_1_);}
	.st29{clip-path:url(#SVGID_8_);mask:url(#SVGID_9_);fill:url(#SVGID_10_);}
	.st30{opacity:0.25;clip-path:url(#SVGID_8_);fill:url(#SVGID_11_);}
	.st31{clip-path:url(#SVGID_8_);}
	.st32{filter:url(#Adobe_OpacityMaskFilter_2_);}
	.st33{filter:url(#Adobe_OpacityMaskFilter_3_);}
	.st34{mask:url(#SVGID_12_);fill:url(#SVGID_13_);}
	.st35{opacity:0.6;fill:url(#SVGID_14_);}
	.st36{filter:url(#Adobe_OpacityMaskFilter_4_);}
	.st37{filter:url(#Adobe_OpacityMaskFilter_5_);}
	.st38{mask:url(#SVGID_15_);fill:url(#SVGID_16_);}
	.st39{opacity:0.6;fill:url(#SVGID_17_);}
	.st40{fill:#261F1F;}
	.st41{opacity:0.24;fill:#231F20;}
	.st42{fill:#ED1F45;}
	.st43{fill:#C52127;}
	.st44{opacity:0.4;clip-path:url(#SVGID_19_);fill:#5E0D11;}
	.st45{fill:#DD1F26;}
	.st46{opacity:0.24;clip-path:url(#SVGID_21_);fill:#491314;}
	.st47{clip-path:url(#SVGID_21_);fill:#EC2225;}
	.st48{clip-path:url(#SVGID_23_);fill:#D02027;}
	.st49{fill:#F8BA86;}
	.st50{opacity:0.27;fill:#F8BA86;}
	.st51{opacity:0.11;clip-path:url(#SVGID_25_);fill:#F8BA86;}
	.st52{fill:#F4CDAB;}
	.st53{fill:#F7DAC1;}
	.st54{fill:#EEF3F6;}
	.st55{fill:#E1EAEF;}
	.st56{fill:#1B4A54;}
	.st57{fill:#0A343D;}
	.st58{fill:#EBF6F8;}
	.st59{opacity:0.28;clip-path:url(#SVGID_29_);fill:#005E8B;}
	.st60{fill:#468B96;}
	.st61{fill:#355357;}
	.st62{fill:#31747E;}
	.st63{opacity:0.5;}
	.st64{opacity:0.26;clip-path:url(#SVGID_31_);fill:#003545;}
	.st65{fill:#C2D72E;}
	.st66{opacity:0.11;fill:#394D79;}
	.st67{fill:#434343;}
	.st68{fill:#CE2227;}
	.st69{fill:#EE4041;}
	.st70{opacity:0.88;fill:#A7D8DF;}
	.st71{clip-path:url(#SVGID_33_);fill:#5F7982;}
	.st72{clip-path:url(#SVGID_33_);fill:#50595C;}
	.st73{opacity:0.64;clip-path:url(#SVGID_33_);fill:#FFFFFF;}
	.st74{opacity:0.2;clip-path:url(#SVGID_35_);fill:#981C1F;}
	.st75{fill:#161D23;}
	.st76{fill:#850A16;}
	.st77{fill:#991016;}
	.st78{fill:#AB1227;}
	.st79{fill:#94111D;}
	.st80{fill:#323136;}
	.st81{fill:#444444;}
	.st82{fill:#6B6B6B;}
	.st83{fill:#A8A8A8;}
	.st84{fill:#EFEFEF;}
	.st85{fill:#3F3F3F;}
	.st86{fill:#2A2B2A;}
	.st87{fill:#DD9A07;}
	.st88{fill:#F2AF08;}
	.st89{clip-path:url(#SVGID_37_);}
	.st90{clip-path:url(#SVGID_39_);fill:#5F7982;}
	.st91{clip-path:url(#SVGID_39_);fill:#50595C;}
	.st92{opacity:0.64;clip-path:url(#SVGID_39_);fill:#FFFFFF;}
	.st93{opacity:0.2;clip-path:url(#SVGID_41_);fill:#981C1F;}
	.st94{fill:#FFC295;}
	.st95{fill:#DEAE80;}
	.st96{fill:#D1D3D4;}
	.st97{fill:#D4A476;}
	.st98{fill:#F6E2CA;}
	.st99{fill:#F1F2F2;}
	.st100{fill:#D6A678;}
	.st101{fill:#034E6E;}
	.st102{opacity:0.24;fill:#C7DCFF;}
	.st103{fill:#EC463A;}
	.st104{fill:#BCBEC0;}
	.st105{fill:#0E366B;}
	.st106{fill:#E6E7E8;}
	.st107{clip-path:url(#SVGID_43_);}
	.st108{fill:#333332;}
	.st109{fill:url(#SVGID_44_);}
	.st110{filter:url(#Adobe_OpacityMaskFilter_6_);}
	.st111{filter:url(#Adobe_OpacityMaskFilter_7_);}
	.st112{mask:url(#SVGID_45_);fill:url(#SVGID_46_);}
	.st113{fill:url(#SVGID_47_);}
	.st114{fill:#706F6F;}
	.st115{fill:#575756;}
	.st116{fill:#9D9D9C;}
	.st117{fill:#D93664;}
	.st118{fill:url(#SVGID_48_);}
	.st119{fill:#3C3C3B;}
	.st120{fill:url(#SVGID_49_);}
	.st121{fill:url(#SVGID_50_);}
	.st122{fill:#B32C52;}
	.st123{fill:#EB6987;}
	.st124{fill:#EDEDED;}
	.st125{filter:url(#Adobe_OpacityMaskFilter_8_);}
	.st126{filter:url(#Adobe_OpacityMaskFilter_9_);}
	.st127{mask:url(#SVGID_51_);fill:url(#SVGID_52_);}
	.st128{fill:url(#SVGID_53_);}
	.st129{filter:url(#Adobe_OpacityMaskFilter_10_);}
	.st130{filter:url(#Adobe_OpacityMaskFilter_11_);}
	.st131{mask:url(#SVGID_54_);fill:url(#SVGID_55_);}
	.st132{fill:url(#SVGID_56_);}
	.st133{filter:url(#Adobe_OpacityMaskFilter_12_);}
	.st134{filter:url(#Adobe_OpacityMaskFilter_13_);}
	.st135{mask:url(#SVGID_57_);fill:url(#SVGID_58_);}
	.st136{fill:url(#SVGID_59_);}
	.st137{fill:url(#SVGID_60_);}
	.st138{fill:url(#SVGID_61_);}
	.st139{fill:url(#SVGID_62_);}
	.st140{fill:#F6F6F6;}
	.st141{fill:#DADADA;}
	.st142{filter:url(#Adobe_OpacityMaskFilter_14_);}
	.st143{filter:url(#Adobe_OpacityMaskFilter_15_);}
	.st144{mask:url(#SVGID_63_);fill:url(#SVGID_64_);}
	.st145{opacity:0.6;fill:url(#SVGID_65_);}
	.st146{fill:#1B6DB3;}
	.st147{fill:#878787;}
	.st148{fill:#C6C6C6;}
	.st149{fill:#F5B493;}
	.st150{fill:#432918;}
	.st151{fill:#EB9C7A;}
	.st152{fill:#223A61;}
	.st153{fill:#496999;}
	.st154{fill:#314D7A;}
	.st155{fill:url(#SVGID_66_);}
	.st156{fill:#F37900;}
</style>
<g>
	<circle class="st0" cx="100" cy="100" r="100"/>
	<g>
		<defs>
			<circle id="SVGID_3_" cx="100" cy="100" r="100"/>
		</defs>
		<clipPath id="SVGID_2_">
			<use xlink:href="#SVGID_3_"  style="overflow:visible;"/>
		</clipPath>
	</g>
	<g>
		<defs>
			<circle id="SVGID_5_" cx="100" cy="100" r="100"/>
		</defs>
		<clipPath id="SVGID_4_">
			<use xlink:href="#SVGID_5_"  style="overflow:visible;"/>
		</clipPath>
		<g style="clip-path:url(#SVGID_4_);">
			<g>
				<path class="st16" d="M127.52,109.82h10.45c0.57,0,1.03,0.46,1.03,1.03v18c0,0.57-0.46,1.03-1.03,1.03h-10.45
					c-0.57,0-1.03-0.46-1.03-1.03v-18C126.49,110.28,126.95,109.82,127.52,109.82z"/>
				<path class="st16" d="M62.89,109.85h10.45c0.57,0,1.03,0.46,1.03,1.03v18c0,0.57-0.46,1.03-1.03,1.03H62.89
					c-0.57,0-1.03-0.46-1.03-1.03v-18C61.86,110.31,62.32,109.85,62.89,109.85z"/>
				<path class="st17" d="M138.35,90.77h-4.51c-0.33,0-0.61,0.26-0.64,0.59l0,0c-0.07,0.88-0.3,1.74-0.68,2.54l-1.12,2.39
					c-0.17,0.36-0.01,0.79,0.34,0.95l1.61,0.76c0.36,0.17,0.79,0.01,0.95-0.34l0.62-1.31c0.26-0.56,0.82-0.91,1.44-0.91h1.99
					c1.1,0,2.05-0.77,2.28-1.85l0,0C140.94,92.13,139.83,90.77,138.35,90.77z"/>
				<path class="st18" d="M62.45,90.77h4.51c0.33,0,0.61,0.26,0.64,0.59l0,0c0.07,0.87,0.3,1.73,0.67,2.52l1.17,2.48
					c0.15,0.32,0.01,0.7-0.31,0.85l-1.74,0.82c-0.32,0.15-0.7,0.01-0.85-0.31l-0.67-1.42c-0.25-0.53-0.78-0.87-1.37-0.87h-2.04
					c-1.1,0-2.05-0.77-2.28-1.85l0,0C59.86,92.13,60.97,90.77,62.45,90.77z"/>
				<path class="st17" d="M66.21,126.9h69.43c1.73,0,3.1-1.35,3.15-3.05l0.59-20.04c0.14-4.67-3.61-8.53-8.28-8.53H69.81
					c-4.67,0-8.42,3.86-8.28,8.53l0.59,20.04C62.17,125.55,63.57,126.9,66.21,126.9z"/>
				<path class="st19" d="M67.58,105.83l10.57,0.71c2.44,0.16,4.53,1.51,5.61,3.64l0.29,0.57h32.56l0.29-0.57
					c1.09-2.13,3.21-3.48,5.66-3.62l12.57-0.74c0.73,0,1.99-0.41,1.94-0.93l-0.55-5.88c-0.12-1.32-3.76-2.39-8.03-2.39
					c0,0-21.55,1.97-28.59,1.97c-6.98,0-27.48-1.97-27.48-1.97c-4.27,0-7.91,1.08-8.03,2.39l-0.55,5.88
					C63.79,105.41,65.05,105.83,67.58,105.83z"/>
				<path class="st17" d="M128.95,93.31l-5.28-11.16c-0.58-1.23-1.82-2.02-3.19-2.02H80.25c-1.36,0-2.6,0.79-3.19,2.02l-5.28,11.16
					c-0.44,0.94-0.23,1.96,0.38,2.64h-3.42l7.16-15.13c0.66-1.39,2.06-2.27,3.59-2.27c0,0,15.65-0.32,20.87-0.32
					c5.22,0,20.87,0.32,20.87,0.32c1.54,0,2.94,0.89,3.59,2.27l7.16,15.13h-3.42C129.17,95.26,129.39,94.24,128.95,93.31z"/>
				<path class="st17" d="M84.95,122.4h30.77c1.24,0,2.17-1.14,1.92-2.36l-2.17-10.62c-0.19-0.91-0.99-1.57-1.92-1.57H87.12
					c-0.93,0-1.74,0.66-1.92,1.57l-2.17,10.62C82.78,121.26,83.71,122.4,84.95,122.4z"/>
				<path class="st20" d="M115.73,124.28H84.95c-1.24,0-2.17-1.14-1.92-2.36l2.17-10.62c0.19-0.91,0.99-1.57,1.92-1.57h26.43
					c0.93,0,1.74,0.66,1.92,1.57l2.17,10.62C117.9,123.14,116.97,124.28,115.73,124.28z"/>
				<path class="st21" d="M115.85,124.28H86.97c-1.17,0-2.04-1.02-1.8-2.11l2.04-9.51c0.18-0.82,0.93-1.41,1.8-1.41h24.8
					c0.88,0,1.63,0.59,1.81,1.41l2.04,9.51C117.89,123.26,117.02,124.28,115.85,124.28z"/>
				<path class="st22" d="M80.25,80.13h40.23c1.36,0,2.6,0.79,3.19,2.02l5.28,11.16c0.76,1.6-0.41,3.45-2.19,3.45
					c0,0-19.8,0.8-26.4,0.8c-6.6,0-26.4-0.8-26.4-0.8c-1.77,0-2.94-1.85-2.19-3.45l5.28-11.16C77.64,80.91,78.88,80.13,80.25,80.13z
					"/>
				<path class="st23" d="M95.91,83.96h9.79c0.59,0,1.08-0.48,1.08-1.08l0,0c0-0.59-0.48-1.08-1.08-1.08h-9.79
					c-0.59,0-1.08,0.48-1.08,1.08l0,0C94.84,83.48,95.32,83.96,95.91,83.96z"/>
				<g>
					<defs>
						<path id="SVGID_7_" d="M80.25,80.13l40.98-1.58c1.36,0,1.85,2.37,2.43,3.6l5.28,11.16c0.76,1.6-0.41,3.45-2.19,3.45
							c0,0-19.8,0.8-26.4,0.8c-6.6,0-26.4-0.8-26.4-0.8c-1.77,0-2.94-1.85-2.19-3.45l5.28-11.16
							C77.64,80.91,78.88,80.13,80.25,80.13z"/>
					</defs>
					<clipPath id="SVGID_6_">
						<use xlink:href="#SVGID_7_"  style="overflow:visible;"/>
					</clipPath>
					<path style="clip-path:url(#SVGID_6_);fill:#5F7982;" d="M82.16,101.8h11.02c1.26,0,2.23-1.12,2.04-2.37l-1.36-8.91
						c-0.15-1.01-1.02-1.75-2.04-1.75h-8.3c-1.02,0-1.88,0.74-2.04,1.75l-1.36,8.91C79.93,100.68,80.9,101.8,82.16,101.8z"/>
					<path style="clip-path:url(#SVGID_6_);fill:#5F7982;" d="M108.44,101.8h11.02c1.26,0,2.23-1.12,2.04-2.37l-1.36-8.91
						c-0.15-1.01-1.02-1.75-2.04-1.75h-8.3c-1.02,0-1.88,0.74-2.04,1.75l-1.36,8.91C106.21,100.68,107.18,101.8,108.44,101.8z"/>
					<path style="clip-path:url(#SVGID_6_);fill:#50595C;" d="M67.23,99.95h65.32c0.8,0,0.54-0.67-0.5-1.46l-3.95-2.96
						c-0.76-0.57-1.85-1.01-2.48-1.01H74.15c-0.63,0-1.72,0.44-2.48,1.01l-3.95,2.96C66.68,99.28,66.43,99.95,67.23,99.95z"/>
					<path style="clip-path:url(#SVGID_6_);fill:#50595C;" d="M78.11,94.52c0,1.16,3.17,2.11,7.09,2.11c3.92,0,7.09-0.94,7.09-2.11
						c0-1.16-3.17-2.11-7.09-2.11C81.29,92.41,78.11,93.36,78.11,94.52z"/>
					
						<rect x="78.1" y="92.7" transform="matrix(-0.5952 0.8036 -0.8036 -0.5952 229.5723 75.7125)" style="opacity:0.64;clip-path:url(#SVGID_6_);fill:#FFFFFF;" width="35.23" height="5.96"/>
					
						<rect x="71.58" y="94.94" transform="matrix(-0.5952 0.8036 -0.8036 -0.5952 219.3311 81.295)" style="opacity:0.64;clip-path:url(#SVGID_6_);fill:#FFFFFF;" width="35.23" height="1.9"/>
					<defs>
						<filter id="Adobe_OpacityMaskFilter" filterUnits="userSpaceOnUse" x="79.32" y="72.39" width="40.64" height="39.87">
							<feFlood  style="flood-color:white;flood-opacity:1" result="back"/>
							<feBlend  in="SourceGraphic" in2="back" mode="normal"/>
						</filter>
					</defs>
					<mask maskUnits="userSpaceOnUse" x="79.32" y="72.39" width="40.64" height="39.87" id="SVGID_8_">
						<g class="st27">
							<defs>
								<filter id="Adobe_OpacityMaskFilter_1_" filterUnits="userSpaceOnUse" x="79.32" y="72.39" width="40.64" height="39.87">
									<feFlood  style="flood-color:white;flood-opacity:1" result="back"/>
									<feBlend  in="SourceGraphic" in2="back" mode="normal"/>
								</filter>
							</defs>
							<mask maskUnits="userSpaceOnUse" x="79.32" y="72.39" width="40.64" height="39.87" id="SVGID_8_">
							</mask>
							<linearGradient id="SVGID_9_" gradientUnits="userSpaceOnUse" x1="99.6611" y1="93.9042" x2="99.5501" y2="78.9934">
								<stop  offset="0" style="stop-color:#333333"/>
								<stop  offset="1" style="stop-color:#FFFFFF"/>
							</linearGradient>
							<path style="clip-path:url(#SVGID_6_);mask:url(#SVGID_8_);fill:url(#SVGID_9_);" d="M117.86,89.89
								c-0.39-2.4,3.52-7.55,1.08-8.87c-1.88-1.02-3.8-1.21-5.63-0.95l2.99-1.94c0.53-0.35,0.3-1.21-0.33-1.21l-3.56,0.03
								c-0.73,0.01-1.4-0.42-1.75-1.1l-1.56-3.11c-0.23-0.45-0.84-0.46-1.08-0.02l-1.79,3.29c-1.19-0.46-2.47-0.71-3.82-0.71
								c-1.85,0-3.59,0.47-5.1,1.3c-0.22-0.01-0.45,0.1-0.57,0.33l0,0.01c-1.39,0.88-2.57,2.07-3.43,3.47l-5.17-0.79
								c-0.59-0.09-0.96,0.63-0.53,1.05l1.91,2.68c-0.01,0.1-0.02,0.2-0.02,0.3c-3.79-1.6-5.76-0.7-9.42,1.69
								c-3.08,2,4.1,11.06,3.85,14.27c-0.26,3.21-4.1,9.28-0.65,11.67c7.32,5.07,17.28-11.17,19.21-14.49
								c0.13-0.03,0.28-0.09,0.45-0.17c2.05-0.1,3.95-0.78,5.54-1.88c3.28,3.39,7.5,6.42,10.57,3.9
								C121.51,96.63,118.25,92.29,117.86,89.89z"/>
						</g>
					</mask>
					<linearGradient id="SVGID_10_" gradientUnits="userSpaceOnUse" x1="99.6611" y1="93.9042" x2="99.5501" y2="78.9934">
						<stop  offset="0" style="stop-color:#FFFFFF"/>
						<stop  offset="1" style="stop-color:#ED2424"/>
					</linearGradient>
					<path style="opacity:0.25;clip-path:url(#SVGID_6_);fill:url(#SVGID_10_);" d="M117.86,89.89c-0.39-2.4,3.52-7.55,1.08-8.87
						c-1.88-1.02-3.8-1.21-5.63-0.95l2.99-1.94c0.53-0.35,0.3-1.21-0.33-1.21l-3.56,0.03c-0.73,0.01-1.4-0.42-1.75-1.1l-1.56-3.11
						c-0.23-0.45-0.84-0.46-1.08-0.02l-1.79,3.29c-1.19-0.46-2.47-0.71-3.82-0.71c-1.85,0-3.59,0.47-5.1,1.3
						c-0.22-0.01-0.45,0.1-0.57,0.33l0,0.01c-1.39,0.88-2.57,2.07-3.43,3.47l-5.17-0.79c-0.59-0.09-0.96,0.63-0.53,1.05l1.91,2.68
						c-0.01,0.1-0.02,0.2-0.02,0.3c-3.79-1.6-5.76-0.7-9.42,1.69c-3.08,2,4.1,11.06,3.85,14.27c-0.26,3.21-4.1,9.28-0.65,11.67
						c7.32,5.07,17.28-11.17,19.21-14.49c0.13-0.03,0.28-0.09,0.45-0.17c2.05-0.1,3.95-0.78,5.54-1.88c3.28,3.39,7.5,6.42,10.57,3.9
						C121.51,96.63,118.25,92.29,117.86,89.89z"/>
					<g class="st15">
						<path class="st22" d="M102.5,96.79c-0.12,0.2-0.27,0.46-0.45,0.75c2.45-0.03,5.82-0.12,9.28-0.23
							c-0.99-0.76-1.95-1.66-2.84-2.58c-1.59,1.1-3.49,1.78-5.54,1.88C102.78,96.7,102.63,96.76,102.5,96.79z"/>
						<defs>
							<filter id="Adobe_OpacityMaskFilter_2_" filterUnits="userSpaceOnUse" x="116.43" y="80.13" width="12.75" height="16.89">
								<feFlood  style="flood-color:white;flood-opacity:1" result="back"/>
								<feBlend  in="SourceGraphic" in2="back" mode="normal"/>
							</filter>
						</defs>
						<mask maskUnits="userSpaceOnUse" x="116.43" y="80.13" width="12.75" height="16.89" id="SVGID_11_">
							<g class="st32">
								<defs>
									<filter id="Adobe_OpacityMaskFilter_3_" filterUnits="userSpaceOnUse" x="116.43" y="80.13" width="12.75" height="16.89">
										<feFlood  style="flood-color:white;flood-opacity:1" result="back"/>
										<feBlend  in="SourceGraphic" in2="back" mode="normal"/>
									</filter>
								</defs>
								<mask maskUnits="userSpaceOnUse" x="116.43" y="80.13" width="12.75" height="16.89" id="SVGID_11_">
								</mask>
								<linearGradient id="SVGID_12_" gradientUnits="userSpaceOnUse" x1="122.6811" y1="93.6513" x2="122.4409" y2="105.9142">
									<stop  offset="0" style="stop-color:#FFFFFF"/>
									<stop  offset="1" style="stop-color:#000000"/>
								</linearGradient>
								<path style="mask:url(#SVGID_11_);fill:url(#SVGID_12_);" d="M128.95,93.31l-5.28-11.16c-0.58-1.23-1.82-2.02-3.19-2.02
									h-4.05c0.84,0.16,1.68,0.44,2.51,0.89c2.44,1.32-1.47,6.47-1.08,8.87c0.3,1.87,2.35,4.92,2.08,7.13
									c3.93-0.14,6.82-0.26,6.82-0.26C128.54,96.76,129.71,94.91,128.95,93.31z"/>
							</g>
						</mask>
						<linearGradient id="SVGID_13_" gradientUnits="userSpaceOnUse" x1="122.6811" y1="93.6513" x2="122.4409" y2="105.9142">
							<stop  offset="0" style="stop-color:#FFFFFF"/>
							<stop  offset="1" style="stop-color:#FFFFFF"/>
						</linearGradient>
						<path style="opacity:0.6;fill:url(#SVGID_13_);" d="M128.95,93.31l-5.28-11.16c-0.58-1.23-1.82-2.02-3.19-2.02h-4.05
							c0.84,0.16,1.68,0.44,2.51,0.89c2.44,1.32-1.47,6.47-1.08,8.87c0.3,1.87,2.35,4.92,2.08,7.13c3.93-0.14,6.82-0.26,6.82-0.26
							C128.54,96.76,129.71,94.91,128.95,93.31z"/>
						<defs>
							<filter id="Adobe_OpacityMaskFilter_4_" filterUnits="userSpaceOnUse" x="71.54" y="80.13" width="18.39" height="16.98">
								<feFlood  style="flood-color:white;flood-opacity:1" result="back"/>
								<feBlend  in="SourceGraphic" in2="back" mode="normal"/>
							</filter>
						</defs>
						<mask maskUnits="userSpaceOnUse" x="71.54" y="80.13" width="18.39" height="16.98" id="SVGID_14_">
							<g class="st36">
								<defs>
									<filter id="Adobe_OpacityMaskFilter_5_" filterUnits="userSpaceOnUse" x="71.54" y="80.13" width="18.39" height="16.98">
										<feFlood  style="flood-color:white;flood-opacity:1" result="back"/>
										<feBlend  in="SourceGraphic" in2="back" mode="normal"/>
									</filter>
								</defs>
								<mask maskUnits="userSpaceOnUse" x="71.54" y="80.13" width="18.39" height="16.98" id="SVGID_14_">
								</mask>
								<linearGradient id="SVGID_15_" gradientUnits="userSpaceOnUse" x1="80.486" y1="93.1857" x2="79.4345" y2="111.5454">
									<stop  offset="0" style="stop-color:#FFFFFF"/>
									<stop  offset="1" style="stop-color:#000000"/>
								</linearGradient>
								<path style="mask:url(#SVGID_14_);fill:url(#SVGID_15_);" d="M80.09,85.35c3.66-2.39,6.03-3.3,9.82-1.7
									c0.01-0.1,0.01-0.2,0.02-0.3l-2.31-2.67c-0.16-0.16-0.21-0.37-0.17-0.55h-7.2c-1.36,0-2.6,0.79-3.19,2.02l-5.28,11.16
									c-0.76,1.6,0.41,3.45,2.19,3.45c0,0,4.21,0.17,9.38,0.35C81.74,93.08,77.63,86.95,80.09,85.35z"/>
							</g>
						</mask>
						<linearGradient id="SVGID_16_" gradientUnits="userSpaceOnUse" x1="80.486" y1="93.1857" x2="79.4345" y2="111.5454">
							<stop  offset="0" style="stop-color:#FFFFFF"/>
							<stop  offset="1" style="stop-color:#FFFFFF"/>
						</linearGradient>
						<path style="opacity:0.6;fill:url(#SVGID_16_);" d="M80.09,85.35c3.66-2.39,6.03-3.3,9.82-1.7c0.01-0.1,0.01-0.2,0.02-0.3
							l-2.31-2.67c-0.16-0.16-0.21-0.37-0.17-0.55h-7.2c-1.36,0-2.6,0.79-3.19,2.02l-5.28,11.16c-0.76,1.6,0.41,3.45,2.19,3.45
							c0,0,4.21,0.17,9.38,0.35C81.74,93.08,77.63,86.95,80.09,85.35z"/>
					</g>
				</g>
				<path class="st2" d="M122.12,113.9l13.34-0.83c0.45-0.03,0.8-0.4,0.8-0.86v-3.61c0-0.49-0.42-0.89-0.91-0.86l-13.34,0.83
					c-0.45,0.03-0.8,0.4-0.8,0.86v3.61C121.21,113.54,121.63,113.93,122.12,113.9z"/>
				<path class="st2" d="M78.55,113.9l-13.34-0.83c-0.45-0.03-0.8-0.4-0.8-0.86v-3.61c0-0.49,0.42-0.89,0.91-0.86l13.34,0.83
					c0.45,0.03,0.8,0.4,0.8,0.86v3.61C79.46,113.54,79.04,113.93,78.55,113.9z"/>
				<path class="st40" d="M124.18,121.83l9.99-0.64c0.31-0.02,0.54,0.27,0.47,0.56l-0.53,2.18c-0.05,0.2-0.23,0.35-0.44,0.35h-12.53
					c-0.14,0-0.23-0.14-0.17-0.26l0,0C121.55,122.75,122.79,121.91,124.18,121.83z"/>
				<path class="st40" d="M76.49,121.83l-9.99-0.64c-0.31-0.02-0.54,0.27-0.47,0.56l0.53,2.18c0.05,0.2,0.23,0.35,0.44,0.35h12.53
					c0.14,0,0.23-0.14,0.17-0.26l0,0C79.12,122.75,77.88,121.91,76.49,121.83z"/>
			</g>
			<polygon class="st41" points="108.03,88.21 102.42,79.27 105.82,79.94 			"/>
			<g>
				<g>
					<path class="st42" d="M69.74,76.94h-7.04c-0.49,0-0.89,0.4-0.89,0.89c0,0.49,0.4,0.89,0.89,0.89h7.04
						c0.49,0,0.89-0.4,0.89-0.89C70.63,77.34,70.23,76.94,69.74,76.94z"/>
				</g>
				<g>
					<path class="st42" d="M82.15,43.98c-0.25-0.43-0.79-0.57-1.22-0.33c-0.43,0.25-0.57,0.79-0.33,1.22l2.92,5.14
						c0.17,0.29,0.47,0.45,0.78,0.45c0.15,0,0.31-0.04,0.45-0.12c0.43-0.25,0.57-0.79,0.33-1.22L82.15,43.98z"/>
				</g>
				<g>
					<path class="st42" d="M138.73,76.94h-7.49c-0.49,0-0.89,0.4-0.89,0.89c0,0.49,0.4,0.89,0.89,0.89h7.49
						c0.49,0,0.89-0.4,0.89-0.89C139.62,77.34,139.22,76.94,138.73,76.94z"/>
				</g>
				<g>
					<g>
						<path class="st42" d="M140.73,54.34c-0.24-0.45-0.8-0.62-1.24-0.36l-12.87,7.42c-0.43,0.25-0.57,0.79-0.33,1.22
							c0.17,0.29,0.47,0.45,0.78,0.45c0.15,0,0.31-0.04,0.45-0.12l12.87-7.42C140.79,55.29,140.95,54.77,140.73,54.34L140.73,54.34z
							"/>
					</g>
				</g>
				<g>
					<path class="st42" d="M99.58,30.92v16.64c0,0.43,0.37,0.79,0.84,0.81l0,0c0.51,0.03,0.95-0.34,0.95-0.81V30.92
						c0-0.45-0.4-0.81-0.89-0.81l0,0C99.98,30.1,99.58,30.47,99.58,30.92z"/>
				</g>
				<g>
					<path class="st42" d="M120.57,43.65c-0.43-0.25-0.97-0.1-1.22,0.33l-3.08,5.14c-0.25,0.43-0.1,0.97,0.33,1.22
						c0.14,0.08,0.29,0.12,0.45,0.12c0.31,0,0.61-0.16,0.78-0.45l3.08-5.14C121.15,44.45,121,43.9,120.57,43.65z"/>
				</g>
				<g>
					<g>
						<path class="st42" d="M74.49,61.38l-12.27-7.05c-0.42-0.24-0.97-0.1-1.22,0.32l0,0c-0.25,0.43-0.11,0.98,0.32,1.23l12.32,7.08
							c0.14,0.08,0.29,0.12,0.45,0.12c0.33,0,0.64-0.18,0.8-0.5C75.1,62.15,74.91,61.62,74.49,61.38z"/>
					</g>
				</g>
				<g>
					<g>
						<path class="st42" d="M123.57,40.37c0,0.7-0.57,1.28-1.28,1.28c-0.7,0-1.28-0.57-1.28-1.28c0-0.7,0.57-1.28,1.28-1.28
							C123,39.09,123.57,39.66,123.57,40.37z"/>
					</g>
					<g>
						<path class="st42" d="M80.48,40.37c0,0.73-0.59,1.32-1.32,1.32c-0.73,0-1.32-0.59-1.32-1.32c0-0.73,0.59-1.32,1.32-1.32
							C79.89,39.05,80.48,39.64,80.48,40.37z"/>
					</g>
					<g>
						<circle class="st42" cx="144.05" cy="77.83" r="1.27"/>
					</g>
					<g>
						<path class="st42" d="M58.69,77.83c0,0.76-0.61,1.37-1.37,1.37c-0.76,0-1.37-0.61-1.37-1.37c0-0.76,0.61-1.37,1.37-1.37
							C58.07,76.46,58.69,77.08,58.69,77.83z"/>
					</g>
				</g>
			</g>
			<g>
				<path class="st43" d="M97.1,78.24l-10.3,9.75c-0.44,0.41-0.09,1.14,0.5,1.07l5.86-0.73c0.49-0.06,0.97,0.2,1.19,0.64l1.47,3.01
					c0.24,0.48,0.93,0.46,1.13-0.04l5.45-13.63c0.02-0.04-0.01-0.09-0.06-0.09h-5.22C97.12,78.22,97.11,78.23,97.1,78.24z"/>
				<path class="st43" d="M102.97,78.8l4.75,9.34c0.23,0.45,0.84,0.46,1.08,0.01l1.64-3.07c0.36-0.67,1.04-1.08,1.78-1.05l3.56,0.13
					c0.62,0.02,0.88-0.84,0.36-1.2l-8.31-5.73L102.97,78.8z"/>
			</g>
			<g>
				<defs>
					<path id="SVGID_18_" d="M102.42,78.31l-5.45,13.63c-0.2,0.5-0.9,0.53-1.13,0.04l-1.47-3.01c-0.22-0.45-0.7-0.7-1.19-0.64
						l-5.86,0.73c-0.6,0.07-0.94-0.65-0.5-1.07l10.3-9.75c0.01-0.01,0.03-0.02,0.04-0.02h5.22
						C102.41,78.22,102.44,78.27,102.42,78.31z M116.13,82.96l-8.31-5.73l-4.85,1.57l4.75,9.34c0.23,0.45,0.84,0.46,1.08,0.01
						l1.64-3.07c0.36-0.67,1.04-1.08,1.78-1.05l3.56,0.13C116.4,84.18,116.66,83.32,116.13,82.96z"/>
				</defs>
				<clipPath id="SVGID_17_">
					<use xlink:href="#SVGID_18_"  style="overflow:visible;"/>
				</clipPath>
				<path style="opacity:0.4;clip-path:url(#SVGID_17_);fill:#5E0D11;" d="M110.69,73.33L110.69,73.33c-1.25-2.87-4.84-3.84-7.36-2
					c-2.53-1.84-6.11-0.87-7.36,2l0,0c-1.2,2.75,0.67,4.84,2.75,7.13c1.05,1.16,4.54,4.13,4.62,4.2v0l0,0c0,0,0,0,0,0v0
					c0.08-0.07,3.56-3.03,4.62-4.2C110.02,78.17,111.9,76.09,110.69,73.33z"/>
			</g>
			<path class="st45" d="M85.95,59.42c3.06-4.86,13.41,10.34,16.28,14.38l0.19-0.92c0,0-10.83-21.02-19.13-15.61
				c-3.51,2.29,0.17,8.46,0.34,11.68c0.17,3.22-7.25,12.07-4.23,14.16c8.97,6.2,22.18-6.2,22.18-6.2l0.53-2.52
				C98.35,72.34,83.78,62.87,85.95,59.42z"/>
			<path class="st45" d="M118.01,71.24c0.45-2.39,3.83-6.64,1.44-8.71c-5.66-4.9-15.9,9.74-15.9,9.74l0.05,0.67
				c2.57-2.92,11.92-13.11,13.71-9.16c1.27,2.8-10.65,8.28-13.68,9.62l0.14,1.98c0,0,7.73,8.5,15.07,4.76
				C121.32,78.89,117.56,73.63,118.01,71.24z"/>
			<g>
				<defs>
					<path id="SVGID_20_" d="M102.42,72.88l-0.19,0.92C99.35,69.76,89,54.57,85.95,59.42c-2.17,3.45,12.4,12.92,16.16,14.97
						l-0.53,2.52c0,0-13.21,12.4-22.18,6.2c-3.02-2.09,4.4-10.94,4.23-14.16c-0.17-3.22-3.85-9.39-0.34-11.68
						C91.59,51.86,102.42,72.88,102.42,72.88z M118.01,71.24c0.45-2.39,3.83-6.64,1.44-8.71c-5.66-4.9-15.9,9.74-15.9,9.74
						l0.05,0.67c2.57-2.92,11.92-13.11,13.71-9.16c1.27,2.8-10.65,8.28-13.68,9.62l0.14,1.98c0,0,7.73,8.5,15.07,4.76
						C121.32,78.89,117.56,73.63,118.01,71.24z"/>
				</defs>
				<clipPath id="SVGID_19_">
					<use xlink:href="#SVGID_20_"  style="overflow:visible;"/>
				</clipPath>
				<path style="opacity:0.24;clip-path:url(#SVGID_19_);fill:#491314;" d="M108.95,73.06L108.95,73.06
					c-1.04-2.38-4.01-3.18-6.11-1.66c-2.1-1.53-5.07-0.72-6.11,1.66l0,0c-1,2.28,0.56,4.02,2.28,5.92c0.87,0.96,3.76,3.43,3.83,3.48
					v0c0,0,0,0,0,0l0,0v0c0.06-0.05,2.96-2.52,3.83-3.48C108.39,77.07,109.95,75.34,108.95,73.06z"/>
				<path style="clip-path:url(#SVGID_19_);fill:#EC2225;" d="M103.27,74.66c0,0-26.21-9.08-19.98-17.38
					C89.66,48.81,103.27,74.66,103.27,74.66z"/>
				<path style="clip-path:url(#SVGID_19_);fill:#EC2225;" d="M102.97,72.15c0,0,20.39-4.26,15.45-9.02
					C113.14,58.04,102.97,72.15,102.97,72.15z"/>
			</g>
			<g>
				<g>
					<defs>
						<path id="SVGID_22_" d="M108.16,72.26L108.16,72.26c-0.95-2.19-3.69-2.93-5.62-1.52c-1.93-1.41-4.66-0.67-5.62,1.52l0,0
							c-0.92,2.1,0.51,3.69,2.09,5.44c0.8,0.89,3.46,3.15,3.52,3.2v0l0,0l0,0v0c0.06-0.05,2.72-2.31,3.52-3.2
							C107.64,75.95,109.07,74.36,108.16,72.26z"/>
					</defs>
					<use xlink:href="#SVGID_22_"  style="overflow:visible;fill:#DD1F26;"/>
					<clipPath id="SVGID_21_">
						<use xlink:href="#SVGID_22_"  style="overflow:visible;"/>
					</clipPath>
					<path style="clip-path:url(#SVGID_21_);fill:#D02027;" d="M107.2,74.19L107.2,74.19c-0.79-1.7-3.06-2.27-4.66-1.18
						c-1.6-1.09-3.87-0.52-4.66,1.18l0,0c-0.76,1.63,0.43,2.87,1.74,4.22c0.67,0.69,2.87,2.45,2.92,2.49v0l0,0l0,0v0
						c0.05-0.04,2.26-1.8,2.92-2.49C106.78,77.06,107.97,75.82,107.2,74.19z"/>
				</g>
				<path class="st2" d="M98.23,72.38c-0.05-0.01-0.09-0.04-0.13-0.07c-0.16-0.13-0.18-0.37-0.05-0.53c0.8-0.97,2.11-1.34,3.26-0.91
					c0.2,0.07,0.3,0.29,0.22,0.49c-0.07,0.2-0.29,0.3-0.49,0.22c-0.84-0.32-1.81-0.04-2.41,0.68
					C98.53,72.38,98.37,72.42,98.23,72.38z"/>
			</g>
			<g>
				<g>
					<g>
						<path class="st49" d="M54.9,132.09l0.54-0.81c2.96-4.43,7.95-6.81,13.03-6.22l11.76,1.36l9.04,4.3l35.41,0.37l0.91,10.27
							l-64.79,7.71l-9.72,2.45l-2.84-18.58L54.9,132.09z"/>
						<path class="st49" d="M138.61,139.93l-24.85,2.75c-2.94,0.33-5.58-1.82-5.87-4.76l0,0c-0.28-2.9,1.81-5.48,4.7-5.8l24.85-2.75
							c2.94-0.33,5.58,1.82,5.87,4.76v0C143.6,137.02,141.5,139.61,138.61,139.93z"/>
						<path class="st50" d="M74.61,139.24l14.67-8.52l32.85,0.34l15.09-1.67c2.76-0.31,5.45,1.45,6.01,4.17
							c0.64,3.12-1.54,6.03-4.62,6.37l-14.98,1.66l-62.83,7.47l-9.72,2.45l-2.05-13.4C49.03,138.11,65.15,141.42,74.61,139.24z"/>
						<g>
							<defs>
								<path id="SVGID_24_" d="M74.62,139.06l14.66-8.34l32.85,0.34l15.09-1.67c2.76-0.31,5.45,1.45,6.01,4.17
									c0.64,3.12-1.54,6.03-4.62,6.37l-14.98,1.66l-62.83,7.47l-9.72,2.45l-2.05-13.4C49.03,138.11,65.16,141.24,74.62,139.06z"/>
							</defs>
							<clipPath id="SVGID_23_">
								<use xlink:href="#SVGID_24_"  style="overflow:visible;"/>
							</clipPath>
							<path style="opacity:0.11;clip-path:url(#SVGID_23_);fill:#F8BA86;" d="M74.61,144.21l16.22-2.66l31.3-2.96l15.09-1.15
								c2.76-0.21,6.99-3.3,7.55-1.43c0.64,2.14-3.08,8.43-6.16,8.67l-14.98,1.14l-62.83,5.13l-9.72,1.68l-0.68-5.24
								C50.39,147.39,65.15,145.71,74.61,144.21z"/>
						</g>
						<path class="st49" d="M102.99,133.9l-15.66,2.8l-17.04,3.15l9.94-13.44l21.6-2.8c2.98-0.38,5.65,1.62,5.97,4.46l0,0
							C108.13,130.92,105.97,133.53,102.99,133.9z"/>
						<path class="st52" d="M142.71,137.4c-0.2,1.24-1.15,2.25-2.39,2.38l-3.21,0.36l-0.21-2.1l1.21-0.54
							c1.05-0.47,2.2-0.59,3.31-0.37L142.71,137.4z"/>
						<path class="st53" d="M103.09,125.94c8.29,1.18,2.89,6.97,1.22,7.19l-3.59,0.47l-0.79-4.58c-0.21-1.21,0.55-2.38,1.74-2.7
							L103.09,125.94z"/>
					</g>
					<g>
						<polygon class="st54" points="41.11,160.84 54.73,158.82 47.73,130.01 36.77,131.64 						"/>
						<polygon class="st55" points="41.11,160.84 54.73,158.82 51.33,144.83 39.02,146.78 						"/>
						<polygon class="st56" points="-2.52,169.9 41.56,162.4 36.84,130.64 -2.52,136.89 						"/>
						<path class="st57" d="M41.51,135.15c0.09,0.58,0.62,0.98,1.2,0.89c0.58-0.09,0.98-0.62,0.89-1.2
							c-0.09-0.58-0.62-0.98-1.2-0.89C41.82,134.04,41.42,134.58,41.51,135.15z"/>
					</g>
				</g>
			</g>
		</g>
	</g>
</g>
<g>
	<defs>
		<circle id="SVGID_42_" cx="324.12" cy="100" r="100"/>
	</defs>
	<clipPath id="SVGID_25_">
		<use xlink:href="#SVGID_42_"  style="overflow:visible;"/>
	</clipPath>
	<g style="clip-path:url(#SVGID_25_);">
		<g>
			<path class="st108" d="M113.06,148.92c0.21-4.35,0.22-8.99-0.01-13.93c-0.96-21.23-17.75-38.47-39.65-38.47
				c-21.9,0-39.65,17.22-39.65,38.47c0,4.84,0.26,9.49,0.74,13.93H113.06z"/>
			<linearGradient id="SVGID_27_" gradientUnits="userSpaceOnUse" x1="51.9847" y1="23.7475" x2="357.8168" y2="200.3197">
				<stop  offset="0" style="stop-color:#FFFFFF"/>
				<stop  offset="0.223" style="stop-color:#FBFBFB"/>
				<stop  offset="0.454" style="stop-color:#EEEEEE"/>
				<stop  offset="0.6888" style="stop-color:#DADADA"/>
				<stop  offset="0.9247" style="stop-color:#BDBDBD"/>
				<stop  offset="1" style="stop-color:#B2B2B2"/>
			</linearGradient>
			<path style="fill:url(#SVGID_27_);" d="M396.55,108.46c-1.32-1.08-6.33-5.85-6.98-8.31c-0.71-2.69-1.01-5.48-1.49-8.22
				c-0.19-1.07-0.61-2.2-0.1-3.21c0.64-1.28,3.6-5.94,3.83-7.22c0.25-1.39-0.02-2.81-0.1-4.2c-0.08-1.36-0.01-2.73,0.24-4.07
				c0.32-1.73,1.48-4.02-1-4.06c-1.36-0.02-10.05-0.04-13.01-0.22c-5.94-0.36-11.81-1.15-17.59-2.59
				c-5.57-1.38-10.87-3.5-16.14-5.73c-5.45-2.3-29.15-10.83-31.72-11.67c-22.5-7.37-43.53-10.16-69.81-12.31
				c-13.7-1.12-41.04-0.39-53.71,1.3c-12.96,1.73-26.24,5.95-33.67,9.15c-5.48,2.35-33.51,14.65-46.1,22.64
				c-2.52,1.6-5.1,3.14-7.72,4.57c-0.78,0.43-3.95,0.61-6.1,0.71l0,0c-0.38,1.3-1.31,3.05-2.15,4.6c-1.59,2.93-2.74,2.57-5.84,2.95
				c-8.7,1.07-21.34,2.8-29.68,4.57c-16.25,3.44-30.16,8.15-43.89,14.51c-2.22,1.02-5.89,3.05-8.76,3.4c0.35,0.56,0.3,1.16,0.2,1.95
				c-0.66,5.29-1.3,10.53-1.85,15.84c-0.45,4.33-1.49,15.47-1.89,16.09c-0.62,0.98-1.23,2.03-0.96,3.33
				c0.36,1.73,2.42,4.08,4.27,4.77c4.46,1.67,25.11,3.26,36.49,3.69c0.91,0.03,1.29-0.49,1.1-1.23c-3.3-12.56-2.3-24,4.02-33.28
				c5.06-7.44,13.76-13.1,24.68-13.69c14.65-0.79,29.4,8,34.51,24.95c1.82,6.03,1.9,15.12,1.57,21.42h176.45
				c0.02-0.49-0.05-0.99-0.06-1.32c-0.84-17.62,2.46-24.56,7.04-30.59c4.5-5.94,11.7-12.8,27.73-12.4
				c17.34,0.44,26.11,14.27,28.06,18.73c3.9,8.93,4.24,16.52,4.5,19.94c0.06,0.82,0.02,2.75,0.46,3.32c0.74,0.96,3.46,0.54,4.73,0.4
				c7.69-0.82,15.34-2.06,22.91-3.66c4.08-0.86,9.59-2.22,12.15-3.34c1.74-0.76,4.5-4.12,4.78-6.82c0.42-4.11,1.46-16.31,1.71-23.05
				C397.67,109.24,397.05,108.87,396.55,108.46z"/>
			<defs>
				<filter id="Adobe_OpacityMaskFilter_6_" filterUnits="userSpaceOnUse" x="0.47" y="36.14" width="397.17" height="114.61">
					<feFlood  style="flood-color:white;flood-opacity:1" result="back"/>
					<feBlend  in="SourceGraphic" in2="back" mode="normal"/>
				</filter>
			</defs>
			<mask maskUnits="userSpaceOnUse" x="0.47" y="36.14" width="397.17" height="114.61" id="SVGID_29_">
				<g class="st110">
					<defs>
						<filter id="Adobe_OpacityMaskFilter_7_" filterUnits="userSpaceOnUse" x="0.47" y="36.14" width="397.17" height="114.61">
							<feFlood  style="flood-color:white;flood-opacity:1" result="back"/>
							<feBlend  in="SourceGraphic" in2="back" mode="normal"/>
						</filter>
					</defs>
					<mask maskUnits="userSpaceOnUse" x="0.47" y="36.14" width="397.17" height="114.61" id="SVGID_29_">
					</mask>
					<linearGradient id="SVGID_31_" gradientUnits="userSpaceOnUse" x1="190.9044" y1="32.7975" x2="200.0024" y2="136.7888">
						<stop  offset="0" style="stop-color:#000000"/>
						<stop  offset="0.5" style="stop-color:#1A1A1A"/>
						<stop  offset="0.5459" style="stop-color:#222222"/>
						<stop  offset="0.6207" style="stop-color:#3B3B3B"/>
						<stop  offset="0.7152" style="stop-color:#636363"/>
						<stop  offset="0.8257" style="stop-color:#9A9A9A"/>
						<stop  offset="0.9483" style="stop-color:#DFDFDF"/>
						<stop  offset="1" style="stop-color:#FFFFFF"/>
					</linearGradient>
					<path style="mask:url(#SVGID_29_);fill:url(#SVGID_31_);" d="M396.55,108.46c-1.32-1.08-6.33-5.85-6.98-8.31
						c-0.71-2.69-1.01-5.48-1.49-8.22c-0.19-1.07-0.61-2.2-0.1-3.21c0.64-1.28,3.6-5.94,3.83-7.22c0.25-1.39-0.02-2.81-0.1-4.2
						c-0.08-1.36-0.01-2.73,0.24-4.07c0.32-1.73,1.48-4.02-1-4.06c-1.36-0.02-10.05-0.04-13.01-0.22
						c-5.94-0.36-11.81-1.15-17.59-2.59c-5.57-1.38-10.87-3.5-16.14-5.73c-5.45-2.3-29.15-10.83-31.72-11.67
						c-22.5-7.37-43.53-10.16-69.81-12.31c-13.7-1.12-41.04-0.39-53.71,1.3c-12.96,1.73-26.24,5.95-33.67,9.15
						c-5.48,2.35-33.51,14.65-46.1,22.64c-2.52,1.6-5.1,3.14-7.72,4.57c-0.78,0.43-3.95,0.61-6.1,0.71l0,0
						c-0.38,1.3-1.31,3.05-2.15,4.6c-1.59,2.93-2.74,2.57-5.84,2.95c-8.7,1.07-21.34,2.8-29.68,4.57
						c-16.25,3.44-30.16,8.15-43.89,14.51c-2.22,1.02-5.89,3.05-8.76,3.4c0.35,0.56,0.3,1.16,0.2,1.95
						c-0.66,5.29-1.3,10.53-1.85,15.84c-0.45,4.33-1.49,15.47-1.89,16.09c-0.62,0.98-1.23,2.03-0.96,3.33
						c0.36,1.73,2.42,4.08,4.27,4.77c4.46,1.67,25.11,3.26,36.49,3.69c0.91,0.03,1.29-0.49,1.1-1.23c-3.3-12.56-2.3-24,4.02-33.28
						c5.06-7.44,13.76-13.1,24.68-13.69c14.65-0.79,29.4,8,34.51,24.95c1.82,6.03,1.9,15.12,1.57,21.42h176.45
						c0.02-0.49-0.05-0.99-0.06-1.32c-0.84-17.62,2.46-24.56,7.04-30.59c4.5-5.94,11.7-12.8,27.73-12.4
						c17.34,0.44,26.11,14.27,28.06,18.73c3.9,8.93,4.24,16.52,4.5,19.94c0.06,0.82,0.02,2.75,0.46,3.32
						c0.74,0.96,3.46,0.54,4.73,0.4c7.69-0.82,15.34-2.06,22.91-3.66c4.08-0.86,9.59-2.22,12.15-3.34c1.74-0.76,4.5-4.12,4.78-6.82
						c0.42-4.11,1.46-16.31,1.71-23.05C397.67,109.24,397.05,108.87,396.55,108.46z"/>
				</g>
			</mask>
			<linearGradient id="SVGID_33_" gradientUnits="userSpaceOnUse" x1="190.9044" y1="32.7975" x2="200.0024" y2="136.7888">
				<stop  offset="0" style="stop-color:#EDEDED"/>
				<stop  offset="0.5" style="stop-color:#E0E0E0"/>
				<stop  offset="0.6497" style="stop-color:#D7D7D7"/>
				<stop  offset="0.8929" style="stop-color:#BFBFBF"/>
				<stop  offset="1" style="stop-color:#B2B2B2"/>
			</linearGradient>
			<path style="fill:url(#SVGID_33_);" d="M396.55,108.46c-1.32-1.08-6.33-5.85-6.98-8.31c-0.71-2.69-1.01-5.48-1.49-8.22
				c-0.19-1.07-0.61-2.2-0.1-3.21c0.64-1.28,3.6-5.94,3.83-7.22c0.25-1.39-0.02-2.81-0.1-4.2c-0.08-1.36-0.01-2.73,0.24-4.07
				c0.32-1.73,1.48-4.02-1-4.06c-1.36-0.02-10.05-0.04-13.01-0.22c-5.94-0.36-11.81-1.15-17.59-2.59
				c-5.57-1.38-10.87-3.5-16.14-5.73c-5.45-2.3-29.15-10.83-31.72-11.67c-22.5-7.37-43.53-10.16-69.81-12.31
				c-13.7-1.12-41.04-0.39-53.71,1.3c-12.96,1.73-26.24,5.95-33.67,9.15c-5.48,2.35-33.51,14.65-46.1,22.64
				c-2.52,1.6-5.1,3.14-7.72,4.57c-0.78,0.43-3.95,0.61-6.1,0.71l0,0c-0.38,1.3-1.31,3.05-2.15,4.6c-1.59,2.93-2.74,2.57-5.84,2.95
				c-8.7,1.07-21.34,2.8-29.68,4.57c-16.25,3.44-30.16,8.15-43.89,14.51c-2.22,1.02-5.89,3.05-8.76,3.4c0.35,0.56,0.3,1.16,0.2,1.95
				c-0.66,5.29-1.3,10.53-1.85,15.84c-0.45,4.33-1.49,15.47-1.89,16.09c-0.62,0.98-1.23,2.03-0.96,3.33
				c0.36,1.73,2.42,4.08,4.27,4.77c4.46,1.67,25.11,3.26,36.49,3.69c0.91,0.03,1.29-0.49,1.1-1.23c-3.3-12.56-2.3-24,4.02-33.28
				c5.06-7.44,13.76-13.1,24.68-13.69c14.65-0.79,29.4,8,34.51,24.95c1.82,6.03,1.9,15.12,1.57,21.42h176.45
				c0.02-0.49-0.05-0.99-0.06-1.32c-0.84-17.62,2.46-24.56,7.04-30.59c4.5-5.94,11.7-12.8,27.73-12.4
				c17.34,0.44,26.11,14.27,28.06,18.73c3.9,8.93,4.24,16.52,4.5,19.94c0.06,0.82,0.02,2.75,0.46,3.32c0.74,0.96,3.46,0.54,4.73,0.4
				c7.69-0.82,15.34-2.06,22.91-3.66c4.08-0.86,9.59-2.22,12.15-3.34c1.74-0.76,4.5-4.12,4.78-6.82c0.42-4.11,1.46-16.31,1.71-23.05
				C397.67,109.24,397.05,108.87,396.55,108.46z"/>
			
				<rect x="64.05" y="53.4" transform="matrix(0.8783 0.4781 -0.4781 0.8783 41.4739 -22.3047)" class="st114" width="0.99" height="33.83"/>
			<g>
				
					<ellipse transform="matrix(0.1602 -0.9871 0.9871 0.1602 -74.0622 187.9141)" class="st115" cx="73.4" cy="137.48" rx="27.63" ry="27.63"/>
				
					<ellipse transform="matrix(0.1602 -0.9871 0.9871 0.1602 -74.0622 187.9141)" class="st116" cx="73.4" cy="137.48" rx="20.72" ry="20.72"/>
			</g>
			<linearGradient id="SVGID_35_" gradientUnits="userSpaceOnUse" x1="9.1202" y1="103.3357" x2="84.5562" y2="103.3357">
				<stop  offset="0" style="stop-color:#C6C6C6"/>
				<stop  offset="0.2094" style="stop-color:#C2C2C2"/>
				<stop  offset="0.4265" style="stop-color:#B6B5B5"/>
				<stop  offset="0.6469" style="stop-color:#A1A1A1"/>
				<stop  offset="0.8684" style="stop-color:#858484"/>
				<stop  offset="1" style="stop-color:#706F6F"/>
			</linearGradient>
			<path style="fill:url(#SVGID_35_);" d="M55.35,96.91c-2.94-0.87-7.11-1.44-10.9-1.95c-3.07-0.42-6.87-0.81-9.92-0.18
				c-3.48,0.72-7.11,2.36-10.44,3.68c-3.45,1.38-9.75,3.96-13.62,6.2c-1.34,0.77-1.59,1.09-1.14,2.53c0.33,1.07,0.98,2.65,1.5,3.67
				c0.89,1.72,2.66,1.34,4.3,1.25c3.8-0.21,12.34-1.28,20.93-3.86c7.74-2.33,14.9-5.89,17.62-8.24
				C54.8,99.05,57.17,97.45,55.35,96.91z"/>
			<path class="st119" d="M24.86,130.71c-0.89-1.98-1.82-3.93-2.72-5.9c-0.53-1.17-1.24-2.61-2.26-2.89
				c-1.12-0.3-5.35-1.02-4.86,0.35c0.18,0.5,1.97,4.16,2.41,5.21c1.13,2.69,2.72,5.74,3.24,8.65c0.73,4.08-0.91,5.21-3.97,6.07
				c-2.07,0.58-4.2,1.13-6.27,1.7c-1.89,0.52-3.67,0.7-2.39,1.72c0.8,0.64,2.15,0.7,3.34,0.4c2.77-0.69,12.91-2.24,14.69-4.86
				C28.35,137.76,26.27,133.86,24.86,130.71z"/>
			<linearGradient id="SVGID_37_" gradientUnits="userSpaceOnUse" x1="119.1274" y1="128.4216" x2="270.7309" y2="128.4216">
				<stop  offset="0" style="stop-color:#F6F6F6"/>
				<stop  offset="1" style="stop-color:#DADADA"/>
			</linearGradient>
			<path style="fill:url(#SVGID_37_);" d="M270.71,127.71c-0.33-1.44-9.99-2.24-12.49-2.44c-31.94-2.48-97.26-0.06-131.57,3.31
				c-1.62,0.16-6.1,0.65-7.29,2.02c-1.31,1.51,3.1,1.99,5.47,1.99c21.04,0,128.71-2.29,134.4-2.31
				C262.1,130.27,271.19,129.78,270.71,127.71z"/>
			<linearGradient id="SVGID_39_" gradientUnits="userSpaceOnUse" x1="94.1778" y1="89.1704" x2="326.6275" y2="89.1704">
				<stop  offset="0" style="stop-color:#C6C6C6"/>
				<stop  offset="0.2094" style="stop-color:#C2C2C2"/>
				<stop  offset="0.4265" style="stop-color:#B6B5B5"/>
				<stop  offset="0.6469" style="stop-color:#A1A1A1"/>
				<stop  offset="0.8684" style="stop-color:#858484"/>
				<stop  offset="1" style="stop-color:#706F6F"/>
			</linearGradient>
			<path style="fill:url(#SVGID_39_);" d="M347.66,79.93c-1.22-0.66-9.47-0.44-11.96-0.41c-4.42,0.06-50.31,1.57-92.52,3.53
				c-35.16,1.63-70.39,3.7-105.49,6.28c-8.72,0.64-35.03,3.05-39.17,3.53c-1.42,0.16-5.93,0.99-3.77,3c1.41,1.31,3.9,1.74,5.73,2.1
				c3.21,0.64,6.53,0.94,9.81,0.91c8.44-0.08,16.35-1.97,24.65-3.27c8.5-1.32,21.54-3.04,30.1-3.83
				c18.12-1.68,148.39-10.45,175.33-10.87C343.92,80.86,349.01,80.66,347.66,79.93z"/>
			<g>
				<path class="st114" d="M116.92,141.4c-0.15,0-0.29-0.11-0.32-0.26c-1.48-7.3-3.84-21.77-3.84-29.5
					c-0.01-10.27,1.49-25.92,4.36-35.97c0.05-0.18,0.24-0.28,0.41-0.23c0.18,0.05,0.28,0.23,0.23,0.41
					c-2.86,9.99-4.34,25.57-4.34,35.79c0,7.68,2.35,22.09,3.83,29.37c0.04,0.18-0.08,0.35-0.26,0.39
					C116.96,141.4,116.94,141.4,116.92,141.4z"/>
			</g>
			<g>
				<path class="st114" d="M265.62,141.4H107.47c-0.18,0-0.33-0.15-0.33-0.33s0.15-0.33,0.33-0.33h158.16c5.03,0,9.1-4.23,10.53-8.4
					c3.13-9.18,6.02-14.38,11.01-19.85c1.74-1.91,3.79-3.74,5.78-5.51c3.95-3.52,8.03-7.16,9.93-11.61
					c1.52-3.57,5.09-9.48,8.53-15.2c3.65-6.06,7.43-12.33,7.74-14.25c0.42-2.62-1.07-5.97-3.87-6.6c-0.18-0.04-0.29-0.22-0.25-0.39
					c0.04-0.18,0.21-0.29,0.39-0.25c3.16,0.7,4.85,4.43,4.38,7.35c-0.33,2.05-3.97,8.09-7.83,14.49c-3.44,5.7-6.99,11.59-8.49,15.12
					c-1.95,4.59-6.09,8.28-10.1,11.84c-1.97,1.76-4.02,3.58-5.73,5.46c-4.93,5.4-7.77,10.53-10.88,19.62
					C275.32,136.82,271.21,141.4,265.62,141.4z"/>
			</g>
			<g>
				<path class="st114" d="M192.27,92.65c-1.38,0-2.85-0.16-3.81-1.08c-0.13-0.13-0.13-0.34-0.01-0.47
					c0.13-0.13,0.34-0.13,0.47-0.01c1.01,0.98,2.89,0.92,4.4,0.88c0.26-0.01,0.51-0.02,0.74-0.02l0.82-0.01
					c1.67-0.01,3.25-0.02,4.9-0.12c0.38-0.02,0.83-0.04,1.32-0.05c2.84-0.09,7.6-0.24,8.33-2.89c0.05-0.18,0.23-0.28,0.41-0.23
					c0.18,0.05,0.28,0.23,0.23,0.41c-0.86,3.12-5.73,3.27-8.95,3.38c-0.49,0.02-0.93,0.03-1.3,0.05c-1.66,0.11-3.25,0.11-4.93,0.12
					l-0.82,0.01c-0.23,0-0.47,0.01-0.73,0.02C192.99,92.64,192.63,92.65,192.27,92.65z"/>
			</g>
			<g>
				<path class="st114" d="M13.42,112.55c-1.13,0-2.23-0.25-2.88-1.53c-0.08-0.16-0.02-0.36,0.14-0.45
					c0.16-0.08,0.36-0.02,0.45,0.14c0.68,1.32,1.94,1.23,3.4,1.12c0.2-0.02,0.4-0.03,0.59-0.04c3.69-0.21,12.23-1.25,20.86-3.85
					c8.01-2.41,14.99-6.01,17.5-8.17c0.16-0.14,0.34-0.29,0.54-0.44c0.61-0.5,1.76-1.43,1.68-1.83c-0.02-0.09-0.18-0.19-0.43-0.26
					c-2.93-0.87-7.14-1.44-10.85-1.94c-3.19-0.43-6.85-0.79-9.81-0.18c-0.18,0.04-0.35-0.08-0.39-0.26
					c-0.04-0.18,0.08-0.35,0.26-0.39c3.05-0.63,6.79-0.27,10.03,0.17c3.74,0.51,7.97,1.08,10.95,1.96c0.52,0.15,0.82,0.41,0.89,0.77
					c0.16,0.79-0.89,1.64-1.91,2.47c-0.19,0.15-0.37,0.3-0.52,0.43c-2.62,2.26-9.56,5.84-17.74,8.31
					c-8.69,2.62-17.3,3.67-21.01,3.88c-0.19,0.01-0.39,0.03-0.58,0.04C14.19,112.52,13.8,112.55,13.42,112.55z"/>
			</g>
			<g>
				<path class="st124" d="M72.28,128.05c0.05,0.16,0.1,0.33,0.15,0.49c0.18,0.58,0.45,1.45,0.27,1.66
					c-0.12,0.14-0.11,0.34,0.02,0.47c0.06,0.06,0.14,0.09,0.22,0.09c0.09,0,0.18-0.04,0.24-0.11c0.44-0.48,0.16-1.36-0.13-2.29
					c-0.05-0.16-0.1-0.32-0.15-0.48c-0.08-0.27-0.22-0.71-0.39-1.25c-0.63-1.97-2.1-6.58-1.77-7.39c0.16-0.4,2.73-0.64,4.58-0.43
					c0.18,0.02,0.34-0.11,0.37-0.29c0.02-0.18-0.11-0.34-0.29-0.37c-0.05,0-4.76-0.4-5.26,0.84c-0.35,0.86,0.41,3.64,1.75,7.84
					C72.06,127.35,72.2,127.79,72.28,128.05z"/>
				<path class="st124" d="M59.5,129.5c2.77,1.33,10.47,3.91,12.77,4.67c0.63,0.21,1.18,0.31,1.66,0.31c0.49,0,0.9-0.11,1.24-0.34
					c0.55-0.37,0.85-1.02,0.91-1.94c0.01-0.18-0.13-0.34-0.31-0.35c-0.19-0.01-0.34,0.13-0.35,0.31c-0.05,0.71-0.25,1.19-0.62,1.44
					c-0.47,0.32-1.25,0.3-2.31-0.06c-0.9-0.3-2.62-0.87-4.56-1.54c1.13-0.05,2.11-0.35,2.74-0.89c0.71-0.61,0.98-1.49,0.77-2.53
					c-0.04-0.18-0.21-0.3-0.39-0.26c-0.18,0.04-0.3,0.21-0.26,0.39c0.16,0.81-0.03,1.45-0.56,1.91c-1.07,0.92-3.4,1.01-5.66,0.2l0,0
					c-1.93-0.71-3.72-1.4-4.78-1.91c-0.75-0.36-0.73-0.84-0.56-2.64l0.02-0.24c0.17-1.77,5.53-5.52,8.56-6.35
					c0.18-0.05,0.28-0.23,0.23-0.41c-0.05-0.18-0.23-0.28-0.41-0.23c-3.01,0.83-8.83,4.71-9.04,6.92l-0.02,0.24
					C58.4,127.96,58.3,128.93,59.5,129.5z"/>
				<path class="st124" d="M73.04,132.47c0,0.49,0.4,0.89,0.89,0.89c0.49,0,0.89-0.4,0.89-0.89c0-0.49-0.4-0.89-0.89-0.89
					C73.44,131.58,73.04,131.98,73.04,132.47z M74.16,132.47c0,0.13-0.1,0.23-0.23,0.23c-0.13,0-0.23-0.1-0.23-0.23
					c0-0.13,0.1-0.23,0.23-0.23C74.06,132.24,74.16,132.34,74.16,132.47z"/>
				<path class="st124" d="M62.76,135.82c0.56-0.01,1.02-0.01,1.29-0.01c0.17,0,0.34,0,0.52,0c0.6,0,1.52-0.01,1.66,0.23
					c0.06,0.1,0.17,0.16,0.28,0.16c0.06,0,0.12-0.02,0.17-0.05c0.16-0.09,0.21-0.3,0.11-0.45c-0.33-0.56-1.26-0.56-2.23-0.55
					c-0.17,0-0.34,0-0.5,0c-0.28,0-0.74,0-1.31,0.01c-2.07,0.03-6.9,0.09-7.58-0.46c-0.33-0.27,0.19-2.8,0.92-4.51
					c0.07-0.17,0-0.36-0.17-0.43c-0.17-0.07-0.36,0-0.43,0.17c-0.02,0.04-1.77,4.43-0.73,5.28
					C55.47,135.8,58.35,135.88,62.76,135.82z"/>
				<path class="st124" d="M61.72,148.46c2.08-2.25,6.79-8.87,8.19-10.85c0.78-1.11,1.05-2.02,0.82-2.77
					c-0.19-0.63-0.73-1.11-1.59-1.44c-0.17-0.07-0.36,0.02-0.43,0.19c-0.06,0.17,0.02,0.36,0.19,0.43c0.66,0.25,1.07,0.59,1.2,1.01
					c0.17,0.54-0.08,1.28-0.73,2.2c-0.55,0.77-1.6,2.25-2.8,3.9c0.28-1.1,0.28-2.12-0.06-2.88c-0.38-0.86-1.14-1.37-2.2-1.48
					c-0.18-0.02-0.34,0.11-0.36,0.3c-0.02,0.18,0.11,0.34,0.3,0.36c0.82,0.08,1.38,0.45,1.66,1.09c0.57,1.29-0.03,3.54-1.46,5.47
					l0,0c-1.24,1.64-2.42,3.15-3.22,4.01c-0.56,0.61-1.02,0.46-2.69-0.23l-0.22-0.09c-1.65-0.68-3.67-6.89-3.58-10.04
					c0-0.18-0.14-0.33-0.32-0.34c0,0-0.01,0-0.01,0c-0.18,0-0.32,0.14-0.33,0.32c-0.09,3.12,1.93,9.82,3.99,10.66l0.22,0.09
					c0.92,0.38,1.61,0.66,2.19,0.66C60.93,149.05,61.33,148.88,61.72,148.46z"/>
				<path class="st124" d="M68.5,136.37c0.09,0.03,0.17,0.04,0.26,0.04c0.14,0,0.29-0.04,0.42-0.11c0.21-0.11,0.36-0.3,0.43-0.53
					c0.07-0.23,0.05-0.47-0.07-0.68c-0.11-0.21-0.3-0.36-0.53-0.43c-0.47-0.14-0.97,0.12-1.11,0.59
					C67.76,135.72,68.03,136.22,68.5,136.37z M68.54,135.45c0.04-0.12,0.17-0.19,0.29-0.15c0.12,0.04,0.19,0.17,0.15,0.29
					c-0.04,0.12-0.17,0.19-0.29,0.15C68.57,135.7,68.5,135.57,68.54,135.45z"/>
				<path class="st124" d="M68.8,145.79c0.06-0.16,0.11-0.32,0.17-0.49c0.19-0.57,0.49-1.44,0.75-1.5c0.18-0.04,0.29-0.21,0.25-0.39
					c-0.04-0.18-0.22-0.29-0.39-0.25c-0.63,0.14-0.93,1.01-1.24,1.94c-0.05,0.16-0.11,0.32-0.16,0.48c-0.09,0.26-0.24,0.7-0.41,1.24
					c-0.64,1.96-2.14,6.57-2.89,7.03c-0.36,0.23-2.59-1.08-3.97-2.33c-0.14-0.12-0.34-0.11-0.47,0.02
					c-0.12,0.14-0.11,0.34,0.02,0.47c0.03,0.03,2.92,2.5,4.34,2.5c0.16,0,0.31-0.03,0.42-0.11c0.79-0.49,1.8-3.19,3.17-7.39
					C68.57,146.48,68.71,146.05,68.8,145.79z"/>
				<path class="st124" d="M72.39,140.83c-0.8-1.1-1.57-1.65-2.36-1.67c-0.65-0.02-1.29,0.33-1.88,1.04
					c-0.12,0.14-0.1,0.35,0.05,0.47c0.14,0.12,0.35,0.1,0.47-0.05c0.45-0.55,0.9-0.82,1.35-0.8c0.57,0.02,1.19,0.49,1.85,1.4
					c0.55,0.76,1.61,2.24,2.79,3.91c-0.95-0.62-1.91-0.94-2.74-0.87c-0.93,0.08-1.66,0.64-2.11,1.6c-0.08,0.17,0,0.36,0.16,0.44
					c0.17,0.08,0.36,0,0.44-0.16c0.34-0.75,0.87-1.16,1.56-1.22c1.41-0.12,3.34,1.17,4.71,3.14c0,0,0,0,0,0
					c1.16,1.7,2.2,3.31,2.76,4.34c0.4,0.73,0.1,1.11-1.09,2.47l-0.16,0.18c-1.17,1.34-7.71,1.24-10.65,0.15
					c-0.17-0.06-0.36,0.02-0.42,0.19c-0.06,0.17,0.02,0.36,0.19,0.42c1.44,0.54,3.87,0.87,6.14,0.87c2.33,0,4.5-0.35,5.24-1.2
					l0.16-0.18c1.16-1.33,1.81-2.06,1.17-3.22C78.55,149.39,73.81,142.79,72.39,140.83z"/>
				<path class="st124" d="M69.52,141.96c0.16,0.11,0.34,0.17,0.52,0.17c0.28,0,0.55-0.13,0.73-0.37c0.29-0.4,0.2-0.96-0.2-1.25
					c-0.4-0.29-0.96-0.2-1.25,0.2C69.03,141.12,69.12,141.68,69.52,141.96z M69.85,141.1c0.04-0.05,0.09-0.08,0.15-0.09
					c0.01,0,0.03,0,0.04,0c0.05,0,0.09,0.01,0.13,0.04c0.05,0.04,0.08,0.09,0.09,0.15c0.01,0.06,0,0.12-0.04,0.17
					c-0.04,0.05-0.09,0.08-0.15,0.09c-0.06,0.01-0.12,0-0.17-0.04c-0.05-0.04-0.08-0.09-0.09-0.15
					C69.8,141.21,69.82,141.15,69.85,141.1z"/>
				<path class="st124" d="M80.97,145.15c-0.46-0.33-0.83-0.59-1.04-0.76c-0.13-0.1-0.28-0.21-0.41-0.31
					c-0.49-0.36-1.23-0.9-1.2-1.17c0.02-0.18-0.11-0.34-0.3-0.36c-0.19-0.02-0.34,0.11-0.36,0.3c-0.06,0.65,0.68,1.19,1.47,1.77
					c0.14,0.1,0.27,0.2,0.4,0.3c0.22,0.17,0.6,0.44,1.06,0.77c1.68,1.21,5.6,4.03,5.82,4.88c0.11,0.41-1.81,2.14-3.42,3.07
					c-0.16,0.09-0.21,0.29-0.12,0.45c0.06,0.11,0.17,0.16,0.29,0.16c0.06,0,0.11-0.01,0.17-0.04c0.04-0.02,4.06-2.51,3.73-3.81
					C86.81,149.5,84.55,147.72,80.97,145.15z"/>
				<path class="st124" d="M92.16,137.91l-0.12-0.2c-0.91-1.51-1.42-2.35-2.71-2.1c-3.02,0.58-10.74,3.09-13.04,3.85
					c-1.29,0.42-2.04,0.99-2.31,1.74c-0.22,0.62-0.08,1.33,0.43,2.1c0.1,0.15,0.3,0.2,0.46,0.1c0.15-0.1,0.2-0.3,0.1-0.46
					c-0.38-0.6-0.5-1.11-0.36-1.53c0.19-0.53,0.82-0.98,1.89-1.33c0.9-0.3,2.63-0.86,4.58-1.47c-0.88,0.71-1.48,1.54-1.66,2.35
					c-0.21,0.91,0.1,1.78,0.89,2.49c0.06,0.06,0.14,0.09,0.22,0.09c0.09,0,0.18-0.04,0.24-0.11c0.12-0.13,0.11-0.34-0.02-0.47
					c-0.61-0.56-0.84-1.18-0.69-1.86c0.31-1.38,2.13-2.83,4.42-3.53c0,0,0,0,0,0c1.97-0.58,3.82-1.09,4.97-1.31
					c0.81-0.16,1.09,0.24,2.02,1.79l0.12,0.2c0.92,1.52-1.15,7.72-3.09,10.2c-0.11,0.14-0.09,0.35,0.06,0.46
					c0.06,0.05,0.13,0.07,0.2,0.07c0.1,0,0.2-0.04,0.26-0.13C90.95,146.4,93.31,139.81,92.16,137.91z"/>
				<path class="st124" d="M75.96,142.72c0.18,0,0.37-0.06,0.53-0.18c0.19-0.14,0.32-0.35,0.35-0.59c0.04-0.24-0.02-0.47-0.17-0.66
					c-0.29-0.4-0.85-0.48-1.25-0.19c-0.39,0.29-0.48,0.85-0.19,1.25C75.42,142.59,75.69,142.72,75.96,142.72z M75.82,141.64
					c0.04-0.03,0.09-0.05,0.14-0.05c0.07,0,0.14,0.03,0.19,0.09v0c0.04,0.05,0.05,0.11,0.04,0.17c-0.01,0.06-0.04,0.12-0.09,0.15
					c-0.1,0.08-0.25,0.05-0.32-0.05C75.7,141.86,75.72,141.71,75.82,141.64z"/>
				<path class="st124" d="M81.98,133.4c-0.14,0.1-0.28,0.2-0.42,0.3c-0.49,0.35-1.24,0.89-1.48,0.78c-0.17-0.07-0.36,0-0.43,0.17
					c-0.07,0.17,0,0.36,0.17,0.43c0.11,0.05,0.21,0.07,0.33,0.07c0.53,0,1.15-0.45,1.8-0.92c0.14-0.1,0.27-0.2,0.41-0.29
					c0.23-0.16,0.6-0.43,1.06-0.77c1.65-1.21,5.49-4.04,6.41-4.04c0.01,0,0.02,0,0.03,0c0.43,0.03,1.48,2.38,1.87,4.2
					c0.04,0.18,0.21,0.29,0.39,0.25c0.18-0.04,0.29-0.21,0.25-0.39c-0.01-0.05-1.14-4.64-2.48-4.72c-0.02,0-0.03,0-0.05,0
					c-0.97,0-3.33,1.6-6.82,4.17C82.57,132.97,82.21,133.24,81.98,133.4z"/>
				<path class="st124" d="M77.12,138.08c0.33,0.25,0.73,0.38,1.21,0.38c0.28,0,0.59-0.04,0.93-0.13c0.18-0.05,0.28-0.23,0.23-0.4
					c-0.05-0.18-0.23-0.28-0.4-0.23c-0.68,0.18-1.21,0.14-1.56-0.13c-0.45-0.34-0.68-1.09-0.69-2.21c-0.01-0.94-0.01-2.76,0.01-4.81
					c0.41,1.05,1.01,1.88,1.72,2.3c0.38,0.23,0.79,0.34,1.21,0.34c0.47,0,0.95-0.14,1.44-0.42c0.16-0.09,0.21-0.29,0.12-0.45
					c-0.09-0.16-0.29-0.21-0.45-0.12c-0.72,0.41-1.38,0.44-1.98,0.08c-1.22-0.72-2.04-2.9-2-5.3c0,0,0,0,0,0
					c0.05-2.05,0.14-3.97,0.28-5.13c0.1-0.82,0.57-0.96,2.32-1.38l0.23-0.05c1.73-0.41,6.99,3.47,8.75,6.08
					c0.1,0.15,0.31,0.19,0.46,0.09c0.15-0.1,0.19-0.31,0.09-0.46c-1.75-2.59-7.28-6.86-9.45-6.35l-0.23,0.05
					c-1.72,0.4-2.67,0.62-2.83,1.94c-0.38,3.05-0.36,11.17-0.35,13.59C76.18,136.7,76.49,137.6,77.12,138.08z"/>
				<path class="st124" d="M78.72,135.58c-0.21-0.11-0.46-0.12-0.68-0.05c-0.47,0.16-0.72,0.66-0.56,1.13
					c0.13,0.37,0.47,0.61,0.85,0.61c0.09,0,0.19-0.01,0.28-0.05c0.23-0.08,0.41-0.24,0.51-0.45c0.11-0.21,0.12-0.46,0.05-0.68
					C79.09,135.87,78.93,135.69,78.72,135.58z M78.53,136.48c-0.03,0.06-0.08,0.1-0.13,0.12c-0.12,0.04-0.25-0.02-0.29-0.15
					c-0.04-0.12,0.02-0.25,0.15-0.29c0.02-0.01,0.05-0.01,0.07-0.01c0.04,0,0.07,0.01,0.1,0.02c0.06,0.03,0.1,0.08,0.12,0.13
					C78.56,136.37,78.56,136.43,78.53,136.48z"/>
			</g>
			<path class="st2" d="M42.85,96.33c-1.05-0.62-2.59-0.67-5.07-0.66c-1.74,0.01-5.85,0.66-4.87,1.36c0.39,0.28,4.82,0.31,5.64,0.47
				c1.53,0.3,0.25,1.87-0.63,3c-1.73,2.22-3.22,4.45-5.88,5.46c-3.11,1.18-7.26,2.08-10.54,2.84c-1.95,0.45-4.97,1.1-5.16,1.5
				c-0.23,0.49,3.26,0.1,3.61,0.05c3.73-0.54,8.33-1.66,11.97-2.54c2.88-0.7,4.63-1.9,6.72-4.1
				C39.64,102.65,45.25,97.73,42.85,96.33z"/>
			<path class="st2" d="M29.84,102.86c0,2.47,0,4.46-0.66,4.46c-0.66,0-0.66-2-0.66-4.46c0-2.47,0-4.46,0.66-4.46
				C29.84,98.4,29.84,100.4,29.84,102.86z"/>
			<g>
				<path class="st114" d="M19.43,122.15c-0.01,0-0.02,0-0.04,0c-3.91-0.44-8.13-1.01-12.54-1.68c-0.97-0.15-3.42-1.22-3.06-4.35
					c0.02-0.18,0.17-0.32,0.37-0.29c0.18,0.02,0.31,0.18,0.29,0.37c-0.36,3.15,2.48,3.62,2.51,3.62c4.4,0.67,8.61,1.23,12.52,1.68
					c0.18,0.02,0.31,0.18,0.29,0.37C19.74,122.03,19.6,122.15,19.43,122.15z"/>
			</g>
			<defs>
				<filter id="Adobe_OpacityMaskFilter_8_" filterUnits="userSpaceOnUse" x="80.49" y="126.4" width="0.64" height="0.66">
					<feFlood  style="flood-color:white;flood-opacity:1" result="back"/>
					<feBlend  in="SourceGraphic" in2="back" mode="normal"/>
				</filter>
			</defs>
			<mask maskUnits="userSpaceOnUse" x="80.49" y="126.4" width="0.64" height="0.66" id="SVGID_41_">
				<g class="st125">
					<defs>
						<filter id="Adobe_OpacityMaskFilter_9_" filterUnits="userSpaceOnUse" x="80.49" y="126.4" width="0.64" height="0.66">
							<feFlood  style="flood-color:white;flood-opacity:1" result="back"/>
							<feBlend  in="SourceGraphic" in2="back" mode="normal"/>
						</filter>
					</defs>
					<mask maskUnits="userSpaceOnUse" x="80.49" y="126.4" width="0.64" height="0.66" id="SVGID_41_">
					</mask>
					<linearGradient id="SVGID_43_" gradientUnits="userSpaceOnUse" x1="80.7485" y1="126.4074" x2="80.8635" y2="127.0598">
						<stop  offset="0" style="stop-color:#000000"/>
						<stop  offset="0.5" style="stop-color:#1A1A1A"/>
						<stop  offset="0.5459" style="stop-color:#222222"/>
						<stop  offset="0.6207" style="stop-color:#3B3B3B"/>
						<stop  offset="0.7152" style="stop-color:#636363"/>
						<stop  offset="0.8257" style="stop-color:#9A9A9A"/>
						<stop  offset="0.9483" style="stop-color:#DFDFDF"/>
						<stop  offset="1" style="stop-color:#FFFFFF"/>
					</linearGradient>
					<path style="mask:url(#SVGID_41_);fill:url(#SVGID_43_);" d="M80.81,126.4c-0.43,0-0.43,0.66,0,0.66
						C81.23,127.06,81.23,126.4,80.81,126.4z"/>
				</g>
			</mask>
			<linearGradient id="SVGID_44_" gradientUnits="userSpaceOnUse" x1="80.7485" y1="126.4074" x2="80.8635" y2="127.0598">
				<stop  offset="0" style="stop-color:#EDEDED"/>
				<stop  offset="0.5" style="stop-color:#E0E0E0"/>
				<stop  offset="0.6497" style="stop-color:#D7D7D7"/>
				<stop  offset="0.8929" style="stop-color:#BFBFBF"/>
				<stop  offset="1" style="stop-color:#B2B2B2"/>
			</linearGradient>
			<path class="st109" d="M80.81,126.4c-0.43,0-0.43,0.66,0,0.66C81.23,127.06,81.23,126.4,80.81,126.4z"/>
			<defs>
				<filter id="Adobe_OpacityMaskFilter_10_" filterUnits="userSpaceOnUse" x="81.59" y="127.06" width="0.64" height="0.66">
					<feFlood  style="flood-color:white;flood-opacity:1" result="back"/>
					<feBlend  in="SourceGraphic" in2="back" mode="normal"/>
				</filter>
			</defs>
			<mask maskUnits="userSpaceOnUse" x="81.59" y="127.06" width="0.64" height="0.66" id="SVGID_45_">
				<g class="st129">
					<defs>
						<filter id="Adobe_OpacityMaskFilter_11_" filterUnits="userSpaceOnUse" x="81.59" y="127.06" width="0.64" height="0.66">
							<feFlood  style="flood-color:white;flood-opacity:1" result="back"/>
							<feBlend  in="SourceGraphic" in2="back" mode="normal"/>
						</filter>
					</defs>
					<mask maskUnits="userSpaceOnUse" x="81.59" y="127.06" width="0.64" height="0.66" id="SVGID_45_">
					</mask>
					<linearGradient id="SVGID_46_" gradientUnits="userSpaceOnUse" x1="81.8499" y1="127.0683" x2="81.965" y2="127.7207">
						<stop  offset="0" style="stop-color:#000000"/>
						<stop  offset="0.5" style="stop-color:#1A1A1A"/>
						<stop  offset="0.5459" style="stop-color:#222222"/>
						<stop  offset="0.6207" style="stop-color:#3B3B3B"/>
						<stop  offset="0.7152" style="stop-color:#636363"/>
						<stop  offset="0.8257" style="stop-color:#9A9A9A"/>
						<stop  offset="0.9483" style="stop-color:#DFDFDF"/>
						<stop  offset="1" style="stop-color:#FFFFFF"/>
					</linearGradient>
					<path class="st112" d="M81.91,127.06c-0.43,0-0.43,0.66,0,0.66C82.33,127.72,82.33,127.06,81.91,127.06z"/>
				</g>
			</mask>
			<linearGradient id="SVGID_47_" gradientUnits="userSpaceOnUse" x1="81.8499" y1="127.0683" x2="81.965" y2="127.7207">
				<stop  offset="0" style="stop-color:#EDEDED"/>
				<stop  offset="0.5" style="stop-color:#E0E0E0"/>
				<stop  offset="0.6497" style="stop-color:#D7D7D7"/>
				<stop  offset="0.8929" style="stop-color:#BFBFBF"/>
				<stop  offset="1" style="stop-color:#B2B2B2"/>
			</linearGradient>
			<path class="st113" d="M81.91,127.06c-0.43,0-0.43,0.66,0,0.66C82.33,127.72,82.33,127.06,81.91,127.06z"/>
			<path class="st115" d="M79.18,79.62c-1.1,0.11-1.67-1.03-2.63-0.96c-3.03,0.23-14.65,1.68-18.92,2.72
				c-0.84,0.21-0.98,1.57-1.82,1.86c-0.8,0.27-6.04,1.65-6.83,1.86c-1.57,0.43-2.42-0.31-3.24,0.4c-0.61,0.54-0.4,0.75-1.42,1.13
				c-1.36,0.51-14.29,4.9-15.17,5.21c-1.17,0.41-1.82-0.55-2.67-0.27c-1.07,0.35-7.01,3.29-8.27,3.98
				c-1.05,0.58-0.62,1.56-1.16,1.84c-0.56,0.3-2.59,1.47-3.82,2.13c-1.62,0.87-6.34,3.31-7.1,3.77c-1.08,0.66-1.49,0.94-1.35,1.37
				c0.05,0.16,0.21,0.38,0.23,0.42c2.87-0.35,6.54-2.38,8.76-3.4c13.73-6.36,27.64-11.07,43.89-14.51
				c8.34-1.77,20.98-3.5,29.68-4.57c3.1-0.38,4.25-0.02,5.84-2.95c0.21-0.38,0.42-0.78,0.63-1.17
				C93.81,78.48,81.05,79.43,79.18,79.62z"/>
			<path class="st114" d="M88.72,73.54c1.56-0.14-4.57-7.57-7.71-11.53c-11.09-14-27.3-30.69-34.41-35.89
				c-5.14-3.77-19.33-13.63-22.21-14.83c-1.58-0.66-1.6,0.09-0.47,1.18c3.17,3.05,5.31,4.26,9.73,7.4
				c6.72,4.76,17.45,14.29,26.6,23.91c7.57,7.95,14.7,17.38,18.67,22.38C81.35,69.2,84.66,73.92,88.72,73.54z"/>
			<path class="st2" d="M96.51,71.4c-5.76-8.44-15.56-20.65-26.98-31.83C59.56,29.81,36.57,12.52,26.8,9.3
				c-1.15-0.38-3.02,0.14-3.48,1.19c-0.09,0.21-0.19,0.36-0.19,0.58c1.78,2.28,5.41,4.39,7.42,5.76
				C43.06,25.33,54.26,34.84,65.57,47c5.81,6.24,13.79,16.2,19.18,23.1c1.92,2.46,2.2,3.63,5.53,3.49c1.76-0.07,5.81-0.51,7.13-0.85
				C97.03,72.18,96.72,71.7,96.51,71.4z"/>
			<linearGradient id="SVGID_48_" gradientUnits="userSpaceOnUse" x1="113.5374" y1="59.1778" x2="317.0424" y2="59.1778">
				<stop  offset="0" style="stop-color:#367499"/>
				<stop  offset="1" style="stop-color:#27597A"/>
			</linearGradient>
			<path class="st118" d="M316.16,58.73c-11.84-4.87-25.63-10.03-39.22-12.68c-13.79-2.69-27.68-3.89-41.71-4.65
				c-14.18-0.77-28.47-1-42.55,0.98c-13.37,1.88-28.46,7-37.98,10.89c-12.85,5.25-25.23,11.5-37.27,18.39
				c-0.96,0.55-5.12,3.08-3.54,4.09c0.75,0.48,3.59,0.67,4.81,0.8c1.79,0.18,19.62,1.21,26.76,0.94
				c2.99-0.11,116.35-3.75,132.38-5.48c7.17-0.78,14.56-1.42,21.52-3.46c3.61-1.06,13.94-5.51,15.77-6.76
				C316.58,60.78,318.02,59.5,316.16,58.73z"/>
			<linearGradient id="SVGID_49_" gradientUnits="userSpaceOnUse" x1="134.3602" y1="72.3087" x2="290.6525" y2="52.1526">
				<stop  offset="0" style="stop-color:#3EC2CC"/>
				<stop  offset="1" style="stop-color:#367499"/>
			</linearGradient>
			<path class="st120" d="M212.33,51.47c-0.11-0.01-0.37-0.02-0.42-0.02c-23.13-0.47-46.49,4.48-66.52,16.16
				c-0.4,0.23-0.51,0.47-0.38,0.8c0.54,1.4,1.4,2.58,2.16,3.87c0.96,1.65,0.98,3.31,0.95,5.11c1.59-0.05,3.83-0.13,6.61-0.22
				c-0.62-1.48-1.27-2.94-1.93-4.4c-0.61-1.36-2.84-5.82-1.85-6.36c2.59-1.43,4.62,4.8,5.32,6.39c0.63,1.42,1.21,2.85,1.84,4.26
				c11.83-0.4,30.48-1.04,49.66-1.75c0.08-1.71,0.17-3.42,0.25-5.13c0.01-0.3-0.26-0.79-0.84-0.87c-1.76-0.25-4.03-1.47-3.79-3.44
				c0.25-1.99,0.71-3.94,1.13-5.89c0.36-1.66,0.59-3.67,1.82-4.96c1.35-1.43,3.93-1.44,5.75-1.49c0.49-0.01,0.57-0.12,0.61-0.49
				c0.01-0.07,0.07-0.61,0.08-0.74C212.84,51.69,212.66,51.49,212.33,51.47z"/>
			<path class="st2" d="M316.16,58.73c-0.39-0.16-0.78-0.32-1.17-0.48c-0.34,0.36-0.77,0.71-1.2,1.04
				c-1.82,1.38-12.08,6.27-15.67,7.44c-6.91,2.24-14.25,2.95-21.38,3.8c-15.92,1.9-128.58,5.58-131.54,5.71
				c-7.1,0.3-24.75-0.51-26.52-0.71c-1.21-0.14-4.03-0.35-4.78-0.87c-0.05-0.03-0.09-0.07-0.13-0.11c-0.3,0.47-0.33,0.9,0.13,1.19
				c0.75,0.48,3.59,0.67,4.81,0.8c1.79,0.18,19.62,1.21,26.76,0.94c2.99-0.11,116.35-3.75,132.38-5.48
				c7.17-0.78,14.56-1.42,21.52-3.46c3.61-1.06,13.94-5.51,15.77-6.76C316.58,60.78,318.02,59.5,316.16,58.73z"/>
			<path class="st140" d="M142.89,69.59c-0.24-1.86-0.93-3.86-2.51-5.18c-1.2-1.01-3.89-0.56-5.6,0.1
				c-2.38,0.92-9.27,4.44-7.75,7.87c1.49,3.34,7.79,4.63,11.07,4.97C143.1,77.85,143.39,73.44,142.89,69.59z"/>
			<path class="st141" d="M127.06,72.41c1.52,3.31,7.78,4.59,11.05,4.92c4.26,0.44,5.09-2.71,4.94-6.04c0,0-8.05,1.59-11.85,1.69
				C129.13,73.04,127.06,72.41,127.06,72.41z"/>
			<defs>
				<filter id="Adobe_OpacityMaskFilter_12_" filterUnits="userSpaceOnUse" x="0.47" y="36.14" width="397.17" height="114.61">
					<feFlood  style="flood-color:white;flood-opacity:1" result="back"/>
					<feBlend  in="SourceGraphic" in2="back" mode="normal"/>
				</filter>
			</defs>
			<mask maskUnits="userSpaceOnUse" x="0.47" y="36.14" width="397.17" height="114.61" id="SVGID_50_">
				<g class="st133">
					<defs>
						<filter id="Adobe_OpacityMaskFilter_13_" filterUnits="userSpaceOnUse" x="0.47" y="36.14" width="397.17" height="114.61">
							<feFlood  style="flood-color:white;flood-opacity:1" result="back"/>
							<feBlend  in="SourceGraphic" in2="back" mode="normal"/>
						</filter>
					</defs>
					<mask maskUnits="userSpaceOnUse" x="0.47" y="36.14" width="397.17" height="114.61" id="SVGID_50_">
					</mask>
					<linearGradient id="SVGID_51_" gradientUnits="userSpaceOnUse" x1="183.6405" y1="33.3168" x2="203.7782" y2="147.5228">
						<stop  offset="0" style="stop-color:#FFFFFF"/>
						<stop  offset="1" style="stop-color:#808080"/>
					</linearGradient>
					<path style="mask:url(#SVGID_50_);fill:url(#SVGID_51_);" d="M396.55,108.46c-1.32-1.08-6.33-5.85-6.98-8.31
						c-0.71-2.69-1.01-5.48-1.49-8.22c-0.19-1.07-0.61-2.2-0.1-3.21c0.64-1.28,3.6-5.94,3.83-7.22c0.25-1.39-0.02-2.81-0.1-4.2
						c-0.08-1.36-0.01-2.73,0.24-4.07c0.32-1.73,1.48-4.02-1-4.06c-1.36-0.02-10.05-0.04-13.01-0.22
						c-5.94-0.36-11.81-1.15-17.59-2.59c-5.57-1.38-10.87-3.5-16.14-5.73c-5.45-2.3-29.15-10.83-31.72-11.67
						c-22.5-7.37-43.53-10.16-69.81-12.31c-13.7-1.12-41.04-0.39-53.71,1.3c-12.96,1.73-26.24,5.95-33.67,9.15
						c-5.48,2.35-33.51,14.65-46.1,22.64c-2.52,1.6-5.1,3.14-7.72,4.57c-0.78,0.43-3.95,0.61-6.1,0.71l0,0
						c-0.38,1.3-1.31,3.05-2.15,4.6c-1.59,2.93-2.74,2.57-5.84,2.95c-8.7,1.07-21.34,2.8-29.68,4.57
						c-16.25,3.44-30.16,8.15-43.89,14.51c-2.22,1.02-5.89,3.05-8.76,3.4c0.35,0.56,0.3,1.16,0.2,1.95
						c-0.66,5.29-1.3,10.53-1.85,15.84c-0.45,4.33-1.49,15.47-1.89,16.09c-0.62,0.98-1.23,2.03-0.96,3.33
						c0.36,1.73,2.42,4.08,4.27,4.77c4.46,1.67,25.11,3.26,36.49,3.69c0.91,0.03,1.29-0.49,1.1-1.23c-3.3-12.56-2.3-24,4.02-33.28
						c5.06-7.44,13.76-13.1,24.68-13.69c14.65-0.79,29.4,8,34.51,24.95c1.82,6.03,1.9,15.12,1.57,21.42h176.45
						c0.02-0.49-0.05-0.99-0.06-1.32c-0.84-17.62,2.46-24.56,7.04-30.59c4.5-5.94,11.7-12.8,27.73-12.4
						c17.34,0.44,26.11,14.27,28.06,18.73c3.9,8.93,4.24,16.52,4.5,19.94c0.06,0.82,0.02,2.75,0.46,3.32
						c0.74,0.96,3.46,0.54,4.73,0.4c7.69-0.82,15.34-2.06,22.91-3.66c4.08-0.86,9.59-2.22,12.15-3.34c1.74-0.76,4.5-4.12,4.78-6.82
						c0.42-4.11,1.46-16.31,1.71-23.05C397.67,109.24,397.05,108.87,396.55,108.46z"/>
				</g>
			</mask>
			<linearGradient id="SVGID_52_" gradientUnits="userSpaceOnUse" x1="183.6405" y1="33.3168" x2="203.7782" y2="147.5228">
				<stop  offset="0" style="stop-color:#191538"/>
				<stop  offset="1" style="stop-color:#5C3123"/>
			</linearGradient>
			<path style="opacity:0.6;fill:url(#SVGID_52_);" d="M396.55,108.46c-1.32-1.08-6.33-5.85-6.98-8.31
				c-0.71-2.69-1.01-5.48-1.49-8.22c-0.19-1.07-0.61-2.2-0.1-3.21c0.64-1.28,3.6-5.94,3.83-7.22c0.25-1.39-0.02-2.81-0.1-4.2
				c-0.08-1.36-0.01-2.73,0.24-4.07c0.32-1.73,1.48-4.02-1-4.06c-1.36-0.02-10.05-0.04-13.01-0.22c-5.94-0.36-11.81-1.15-17.59-2.59
				c-5.57-1.38-10.87-3.5-16.14-5.73c-5.45-2.3-29.15-10.83-31.72-11.67c-22.5-7.37-43.53-10.16-69.81-12.31
				c-13.7-1.12-41.04-0.39-53.71,1.3c-12.96,1.73-26.24,5.95-33.67,9.15c-5.48,2.35-33.51,14.65-46.1,22.64
				c-2.52,1.6-5.1,3.14-7.72,4.57c-0.78,0.43-3.95,0.61-6.1,0.71l0,0c-0.38,1.3-1.31,3.05-2.15,4.6c-1.59,2.93-2.74,2.57-5.84,2.95
				c-8.7,1.07-21.34,2.8-29.68,4.57c-16.25,3.44-30.16,8.15-43.89,14.51c-2.22,1.02-5.89,3.05-8.76,3.4c0.35,0.56,0.3,1.16,0.2,1.95
				c-0.66,5.29-1.3,10.53-1.85,15.84c-0.45,4.33-1.49,15.47-1.89,16.09c-0.62,0.98-1.23,2.03-0.96,3.33
				c0.36,1.73,2.42,4.08,4.27,4.77c4.46,1.67,25.11,3.26,36.49,3.69c0.91,0.03,1.29-0.49,1.1-1.23c-3.3-12.56-2.3-24,4.02-33.28
				c5.06-7.44,13.76-13.1,24.68-13.69c14.65-0.79,29.4,8,34.51,24.95c1.82,6.03,1.9,15.12,1.57,21.42h176.45
				c0.02-0.49-0.05-0.99-0.06-1.32c-0.84-17.62,2.46-24.56,7.04-30.59c4.5-5.94,11.7-12.8,27.73-12.4
				c17.34,0.44,26.11,14.27,28.06,18.73c3.9,8.93,4.24,16.52,4.5,19.94c0.06,0.82,0.02,2.75,0.46,3.32c0.74,0.96,3.46,0.54,4.73,0.4
				c7.69-0.82,15.34-2.06,22.91-3.66c4.08-0.86,9.59-2.22,12.15-3.34c1.74-0.76,4.5-4.12,4.78-6.82c0.42-4.11,1.46-16.31,1.71-23.05
				C397.67,109.24,397.05,108.87,396.55,108.46z"/>
		</g>
		<path class="st156" d="M378.79,177.8c-1.59-3.7-11.82-6.21-23.67-9.11c-10.93-2.68-22.22-5.45-25.79-9.12
			c-1.99-2.04-2.93-4.25-2.81-6.54c0.19-3.62,2.87-7.55,8.19-11.99c0.02-0.02,0.03-0.03,0.05-0.04c8.21-6.84,4.46-12.52,1.15-17.52
			c-1.72-2.6-3.5-5.29-3.65-8.06c-0.06-1.04,0.16-2.44,0.4-4.06c0.06-0.42,0.13-0.87,0.19-1.33c-0.37-0.61-0.73-1.22-1.05-1.86
			c-0.01-0.01-0.01-0.03-0.02-0.04c-0.11,1.07-0.27,2.11-0.41,3.04c-0.25,1.69-0.47,3.15-0.41,4.32c0.17,3.13,2.05,5.96,3.86,8.71
			c3.45,5.21,6.42,9.7-0.9,15.8c-0.42,0.35-0.83,0.7-1.22,1.04c-4.85,4.3-7.3,8.21-7.5,11.92c-0.14,2.68,0.93,5.21,3.18,7.52
			c3.83,3.94,15.31,6.75,26.41,9.47c10.55,2.58,21.45,5.26,22.78,8.36c0.19,0.44,0.15,0.87-0.13,1.34
			c-1.45,2.52-10.6,5.97-45.94,8.04c-20.56,1.21-47.5,1.82-80.08,1.82h-402.2v1.3h402.2c32.6,0,59.57-0.61,80.16-1.82
			c29.25-1.72,44.62-4.56,46.99-8.69C379.07,179.47,379.14,178.63,378.79,177.8z"/>
	</g>
</g>
</svg>
