<?xml version="1.0" encoding="utf-8"?>
<!-- Generator: Adobe Illustrator 19.0.0, SVG Export Plug-In . SVG Version: 6.00 Build 0)  -->
<svg version="1.1" id="Layer_1" xmlns="http://www.w3.org/2000/svg" xmlns:xlink="http://www.w3.org/1999/xlink" x="0px" y="0px"
	 viewBox="0 0 414 412.5" style="enable-background:new 0 0 414 412.5;" xml:space="preserve">
<g id="XMLID_416_">
	<path id="XMLID_3801_" d="M286.5,292.4c-3.6-0.4-6.9,2.2-7.4,5.8c-0.4,3.6,2.2,6.9,5.8,7.4c69.7,8.2,106.8,30.3,106.8,43.1
		c0,18-70.6,43.1-185.5,43.1S20.7,366.6,20.7,348.7c0-12.8,37.1-34.9,106.8-43.1c3.6-0.4,6.2-3.7,5.8-7.4c-0.4-3.6-3.7-6.3-7.4-5.8
		C56.2,300.6,7.5,323.7,7.5,348.7c0,28,68.3,56.3,198.8,56.3S405,376.7,405,348.7C405,323.7,356.3,300.6,286.5,292.4z"/>
	<path id="XMLID_2624_" d="M205.1,370.2l101.6-146.8c38.1-50.8,32.6-134.4-11.8-178.8c-24-24-55.9-37.2-89.8-37.2
		s-65.8,13.2-89.8,37.2c-44.4,44.4-49.9,127.9-12,178.6L205.1,370.2z M206.2,87c25.6,0,46.4,20.8,46.4,46.4s-20.8,46.4-46.4,46.4
		s-46.4-20.8-46.4-46.4S180.7,87,206.2,87z"/>
</g>
</svg>
