<?xml version="1.0" encoding="utf-8"?>
<!-- Generator: Adobe Illustrator 19.0.0, SVG Export Plug-In . SVG Version: 6.00 Build 0)  -->
<svg version="1.1" id="Layer_1" xmlns="http://www.w3.org/2000/svg" xmlns:xlink="http://www.w3.org/1999/xlink" x="0px" y="0px"
	 viewBox="-124.2 737.1 370.4 313.2" style="enable-background:new -124.2 737.1 370.4 313.2;" xml:space="preserve">
<style type="text/css">
	.st0{fill:#FF0000;}
</style>
<path id="XMLID_3_" d="M165.6,890.5c24.8,8.6,58.4,29.1,42.5,83.1c-17.1,58.1-53.9,76.7-114.5,76.7h-217.8L79.1,858.6L42.3,993.4H62
	c14.5,0,23.7-9.2,27.6-21.1l65.8-235.2c47.4,0,99.9,5.5,89.5,74c-8.7,57.5-46.9,71-78.9,77C164,888.4,164,890.4,165.6,890.5z"/>
<polygon id="XMLID_2_" class="st0" points="171.2,736.9 -49.2,943 8.4,736.9 "/>
</svg>
