<?xml version="1.0" encoding="utf-8"?>
<!-- Generator: Adobe Illustrator 19.0.0, SVG Export Plug-In . SVG Version: 6.00 Build 0)  -->
<svg version="1.1" id="Layer_1" xmlns="http://www.w3.org/2000/svg" xmlns:xlink="http://www.w3.org/1999/xlink" x="0px" y="0px"
	 viewBox="-95 737 312 312" style="enable-background:new -95 737 312 312;" xml:space="preserve">
<style type="text/css">
	.st0{fill:#FFFFFF;stroke:#EC1C24;}
	.st1{fill:none;stroke:#EC1C24;}
	.st2{fill:#FFFFFF;}
	.st3{fill:none;}
	.st4{fill:#231F20;}
	.st5{fill:none;stroke:#D6DE23;stroke-width:2.500000e-003;}
	.st6{fill:none;stroke:#FFFFFF;stroke-width:0.2571;}
</style>
<path class="st0" d="M61,737c-86.2,0-156,69.8-156,156s69.8,156,156,156s156-69.8,156-156S147.2,737,61,737z M161,864l-1,3l-1,2
	c0,0,1,2-1,3l-2,4l-3,1l-1,1l1-1c1,2-1,4-1,4l-1,2h-1v1l-1,1c-0.3,0.4-0.6,0.7-1,1l-1,1l-1,1l-1,1l-1,1l-2,1h-1h-1l-1-1l-1,2l-1,11
	l-5,14v5l-2,6l-2,6l-2,9l-4,10l-8,15c0,0-4,4-5,8l-1,4l-2,4l-1,5l-1,3l-1,5v1h11v9l-6,6h-3l-4,4v6H7v-9h5l2-5l-3-4v-7h11v-5l-3-14
	l-1-11l-2-6l-6-10l-7-12l-2-9l-3-10l-1-3l-8-14c-3-4-3-7-3-7v-7l-1-1v1h-1v-1h-1l-1-2v-1h-2l-1-1l-1-1l-1-1l-2-2v-1l-2-2v-1l-1-3
	l-2-3l-1-2l-3-3l-3-4l-1-4l1-4l1-3v-4l1-1l2-3v-4v-1v-1v-2l1-1v-1v-3l1-11h1l1-4v-1v-1v-1l2-4l2-7l1-1l1-1v-1l1-1v-2l2-1l1-2l1,1
	l1-1l1-1l1-2l1-2l3-2v1l1-1v-1l2-1l3-2l1,1l1-1v-2l6-3h2l1-1l6-3l2,1v-2l8-2h1l1-1l7-2l4,2l1-3l7-1l2,3v-1l1-2l8-1l1,2l2-1v-1h9l1,3
	h1l1-4l4,1h5v2l1,1l3-2l8,1v3l3-2l6,1l1,2v1l3-2l6,2l1,2l1,1l2-1l6,3l1,2l2-1l4,2l1,1l1,2h2l5,3l1,2h2l2,2l1,3h1l3,2l-1-1l1,1l1,3
	l1,1c2,0,1,1,1,1l3,6h1l2,5l2,6h-1l1,4h1l2,15v23l2,2V864z"/>
<path class="st1" d="M161,864l-1,3l-1,2c0,0,1,2-1,3l-2,4l-3,1l-1,1l1-1c1,2-1,4-1,4l-1,2h-1v1l-1,1c-0.3,0.4-0.6,0.7-1,1l-1,1l-1,1
	l-1,1l-1,1l-2,1h-1h-1l-1-1l-1,2l-1,11l-5,14v5l-2,6l-2,6l-2,9l-4,10l-8,15c0,0-4,4-5,8l-1,4l-2,4l-1,5l-1,3l-1,5v1h11v9l-6,6h-3
	l-4,4v6H7v-9h5l2-5l-3-4v-7h11v-5l-3-14l-1-11l-2-6l-6-10l-7-12l-2-9l-3-10l-1-3l-8-14c-3-4-3-7-3-7v-7l-1-1v1h-1v-1h-1l-1-2v-1h-2
	l-1-1l-1-1l-1-1l-2-2v-1l-2-2v-1l-1-3l-2-3l-1-2l-3-3l-3-4l-1-4l1-4l1-3v-4l1-1l2-3v-4v-1v-1v-2l1-1v-1v-3l1-11h1l1-4v-1v-1v-1l2-4
	l2-7l1-1l1-1v-1l1-1v-2l2-1l1-2l1,1l1-1l1-1l1-2l1-2l3-2v1l1-1v-1l2-1l3-2l1,1l1-1v-2l6-3h2l1-1l6-3l2,1v-2l8-2h1l1-1l7-2l4,2l1-3
	l7-1l2,3v-1l1-2l8-1l1,2l2-1v-1h9l1,3h1l1-4l4,1h5v2l1,1l3-2l8,1v3l3-2l6,1l1,2v1l3-2l6,2l1,2l1,1l2-1l6,3l1,2l2-1l4,2l1,1l1,2h2
	l5,3l1,2h2l2,2l1,3h1l3,2l-1-1l1,1l1,3l1,1c2,0,1,1,1,1l3,6h1l2,5l2,6h-1l1,4h1l2,15v23l2,2V864z"/>
<path class="st2" d="M160,868c0,0-1,6-7,9h-1v3l-2,2v2h-1l-1,2h-1l-1,2l-1,1l-3,1l-2,1l-1-1h-1l-1,12l-5,13l-1,7l-2,7l-3,12l-4,10
	l-4,8l-8,11l-4,12l-5,15v1h-2l-11,1l-6,2l-3-1l-20-1l-36-1c0-5-1-23-6-37L3,939l-4-20l-11-21l-2-8l-1-1l-3-2v-1c-3-1-10-7-12-17
	l-7-8v-4l1-2v-3l1-2l-1-2l3-4v-1v-4v-1v-1l1-2v-2l2-14l1-4v-1v-1v-1l1-1l4-11h1l3-6l1-2h1l2-1l1-3l3-2h1v-1h2v-1l4-3h1l1,1l1-3l5-3
	h3v-2l6-2l2,1l1-2l7-2l2,1l1-2l6-2l5,2l1-3l6-1l3,3l1-3l7-1l2,2l2-1v-1h9v3h3l-1-3h10v3l4-2l7,1l1,3l2-2l7,1l1,4l3-2l6,2l1,2h3l6,2
	l1,2l2-1l4,3l2,2h1l5,3l2,3l1-1l3,2l1,4h2c0,0,3,2,3,6h2c0,0,2,1,2,6l2,1l3,10l1,4l1,1c0,0,3,14,2,35v2C159,858,162,858,160,868z"/>
<path class="st3" d="M9,902c0,0,30,8,38,7l2,1c0,1-6,7-3,16l-2,5l1,6l4,1l2,6l-1,7h-5l-5-6l-12-8l-7-18c0,0-5-8-8-8
	C13,911,7,905,9,902z M75,909c0,0,38-3,41-6v10l-4,8c0,0-4,1-5,6l-6,18l-3,2l-8,4l-3,2H77l-1-14l2-2l2,1l1-5l-1-3l-2-3v-10l-4-6
	L75,909z"/>
<path class="st4" d="M50,913h1H50z M62,923h-2c0,0-1-1,1-1l2-1l2-1h3l1,1l1,1v1l-2-1h-3v1l1,1l2,1h-4C62,925,62,923,62,923z"/>
<path class="st4" d="M67,920h1l1,1L67,920z M62,913v2l-1,1v1l-2,2l2,1l2-1h1v-2v-1h-1l-1,1l1,1l-1,1l-1-1v-2h1l1-2L62,913z M66,919
	v-3l2,3h-1H66z M68,912C68,912,67,912,68,912v1h5l-1-1H68z"/>
<path class="st4" d="M58,917h-2l-1,1l-2,1v-1v-1l1-2l3-1h3l1,2h-1h-1h-1h-2l1,1H58z M73,916l-2-2h-3v2l1,2l1-1h3V916z M69,916v-1
	V916h1H69z M68,920h1l1-1l-1-1v1L68,920z M61,927v2l1-1h1L61,927z"/>
<path class="st5" d="M27,937"/>
<path class="st4" d="M161,862v-2l-2-2h-2l-1,3l-3,3h-10l-5-1l-4,1l-3,2l-1,2l-1,4l-1,7c-2.2,3.9-4.2,7.9-6,12l-3,6l-1,4l-1,2l-2,8
	c0,6-2,7-2,7l-3,3l-4,4l-2,6l-1,4l-2,7l-1,3l-4,2l-5,2l-3,3H78l-1-3v-11h3l1-3l1-2v-4l-2-1h-1v-5l1-4l-1-4l-2-3l-2-1h-1
	c0.5,3.2,1.5,6.2,3,9v2l1,4v7l-1,3c0,0,0,2-2,2h-3v-1c0,0,2-1,1-2l-2-2l-1-1v-1h-8h-1l-2,2l-2,1l-3-1c0,0-2,0-2-2l-1-3c0,0,0-2,1-1
	l2,2v-2c0,0,0-2-2-2l-1-4v-2l1-2l1-2l2-2h1l3-1c0,0,1,1,1-1h-1l-4,1l1-2l1-2c0,0,1-2,3-2h9l2,2l2,1h1v-2l-2-2v-1h-1v1h-1h-3l-1-1
	l-2-1h-2l1,1l1,1h-1l-2-1h-2c0,0-1-1-4,1l-1,2l-1,1l-1,2l-1,1v-2v-1l2-3l1-1l-3,3l-3,2l-3,2l-1,5l-1,4v3l1,2l-1,3c0,0-2,2,0,5l1,3
	c0,0,1,2,3,2l2,2c0,0,2,2,1,6v3l-2,1h-3c0,0-3-7-6-8c0,0-5-1-7-3l-4-3c0,0-3-13-7-19l-8-8c0,0-3-1-4-6v-1v-2v-1l-1-6l-2-5l-4-6
	l-6-20l-1-3v1l-1,1l1,2c0,0,3,13,5,16c2.3,5,4.6,10,7,15l1,8c1,1-1,4,2,7l9,8c2,6.3,4.7,12.3,8,18v2l2,1l7,4c0,0,4,1,6,7
	c0,0,2,2,1,3l2,1h1l1-2h3l4,3l3,3l4,1c0,0,1-2-3-3l-4-5v-7c0,0,1-2,2,0l1,4l2,4l1,3l2,1l-1-3l-1-5v-4c0,0,0-2,1,1v2l1,2l1-3l1-2
	c0,0-2-1-1-4c0,0,0-2,3-2l5,1c0,0,0,2,2,1l2-1c0,0-2,3,0,7v7l-1,1h13v2c0,0-1,2,4,4l4,1l-2-3l-1-1c0,0-2,0,0-2l1-4l2-1l4-2l1,2l4-5
	l1-2l-2-5l1-2h1l3-9c0,0,0-3,4-5l3-4l2,3c0,0,1,1,2-3v-4l1-2h1l2-3l1-5l-1-2c0,0-2,0-1-3l2-4h1v3l4-8l2-7v-2l-1,2l-1-2l3-9l1-3l1-1
	v-1c0,0-2-1,1-2l8,1c2,0,4,1,9-1c0,0,1,1,4-2l2-3c0,0,3-1,1,2l-2,4l-8,3c0,0-1,2-2,1c0,0-2-1-2,1h-1l-2,1c-2,1-3,4-3,5l-1,4l-1,9v3
	l-1,4v5l-4,8c0,0-2,3,0,4l-1,3v5l-2-2l-1,2l-1,5l-1,2l1,2v3l-2,5v4l-3,5l-3,7l-8,13l-2,2l-2,4l-1,5l-2,4l-2,4v3l-2,5l-1,3v1h3v-1
	l1-5l2-4l1-4l1-4c2-2,2-5,2-5l5-8c5-7,6-10,7-15l5-10l2-9l1-5l3-7v-4l5-14l1-11v-2l2-10l2-1c4,1,8-1,10-2h1l2-1l3-4l1-3l1-3v-3
	L161,862z M48,933v-3l1,1L48,933z M46,935h2v2h-1h-1l-1-2H46z M79,934h1l1,1l-1,1v1l-1-1v-1C79,935,77,934,79,934z M150,871l3-1
	c0,0,1-2,3-2l3-4v-1c0,0,2-2,1,0v2l-1,2l-1,2c0,0-1,2-3,2l-4,1C151,872,148,873,150,871z M151,875l2-1l2-1h1l-2,1h-1L151,875z"/>
<path class="st4" d="M65,956l-1-2l1-1l1,1v2H65z M69,955v1h-1L69,955z M98,961l-1-2v-1l1-3l1-1v-1v-1l1,1v7l-1,3v-2H98z M105,964v-2
	l1-2h1l2-1h1l-2,4v3l-1,2v2h-2v-4V964z M8,916l1-4H8l-1,2L8,916z M16,932l-1-1l1,3c0,0,0,2,3,3l1,1h1c0,0,2-2-3-4L16,932z"/>
<path class="st5" d="M36,960"/>
<path class="st4" d="M43,998h-1l1-4l-3-2l-1,1l-2,1l-1,1c-1,0-2,0-1-3v-2v-2l2-3h-4c0,0-2,0-3-2l-1-2l1-3c0,0,0-2,2,0l1,2l2,2l2,1
	l1-1v-1l-3-2l-3-2l1-4l1-5l2-7v-1l-1,1l-1,2l-1-3l-3-9v-3l-2,3l-1,1l-1,4l1,6c0,0,0,3-2,3l-1-2l-1-4l-1-5c0,0,0-5-5-10l-6-8l-1-2
	l-3-3l-3-3l-4-15l-1-3v-1c0,0,1-1,2,2l1,1l1,1v1l1-3l-2-2l-1-3c0,0-3-1-3-4c0,0-2,3-3,0l-1-4l2,2l1,1v-1l1-1l-3-7l-1-4l-1-3v6
	c0,0,0,3-1,0l-1-4v-2l-1-3h1l2,1l-1-6l-2-8l-1-2l2-1v-4c0,0-1-2-3-1c0,0-6,1-13-4l-2,1h-1l-6-5v-1l-1-2v-3l1-1v-2l-1,2l-2,2l1,3
	c0,0-2,1-1,3l-2,4l1,4l4,4l3,3h10l3,1l2,4c0,0,2,4,2,16v7c0,0,0,3,3,7c2.9,5.7,5.9,11.4,9,17c2.1,6.2,3.7,12.6,5,19
	c4.3,9.5,9,18.9,14,28l2,11l3,14v5H43z M-35,859l1,1v1l-1-1V859z M-33,862h1c0,0,0,1,0,0H-33z M-28,862l-2-1l-3-3l-2-1v-2
	c-1-2,1-1,1-1v1l2,1l3,3l1,2V862z M-16,869h-2l-2-1h-2v-1h4l1,1h1l1,1H-16z M28,969v-2l1-1l1-2c0,0,0-3,1-2l1,3l-1,4l-1,3v2h-2v-3
	V969z M13,944l3,4l1,1v4l-3-4l-2-4C12,945,11,944,13,944z M-12,864l1,2h-1l-1-1L-12,864z M-13,889h1v1l-1,1v-1V889z M37,958l-1-1
	l2-1v-2h1v2L37,958z"/>
<path class="st4" d="M48,984H38l1-2l17-1l-2,2L48,984z M64,973l-1,1l-2,5l1,2l2-1v-5V973z M66,967h-1l1,4v7l2,2l10,2h1l-1-1l-7-3h-2
	l-2-6v-2L66,967z M53,996c0,0-2,1,0,1l6-3l1,2c0,0,2,0,1-4h-2L53,996z M67,996c0,0,0,2,1,0v-3l1-1l8,4c0,0,2,0,0-1l-7-4c0,0-3-2-3,1
	V996z M84,981l8,1c0,0,2,0,3-2l3-3c0,0,0-2-1,0l-5,3l-3,1H84z M92,991l1-2h1l1-1c0,0,0,2-3,5l-1,2l1,2v1h-4l2-3L92,991z M94,995v-1
	v-1l1-1h1v1l-1,1v1H94z M114,1008l-6,5h-3l-4,4v6H7v-9h5l2-5l-3-4v-7h65l5,2v-2h33V1008z"/>
<path class="st2" d="M13,1000h16l3,9l4-9h40c0,0,5,1,5,6c0,0,0,5-4,6l-2,1l4,3h8v-11h-3v-5h28v8h-6v-3H94v3h9v5h-9v3h4v5H74l-9-8h-4
	v3h3v5H40v-5h3l-4-8l-5,13h-5l-4-13l-4,8h3v4H10v-4h4l5-12h-6V1000z"/>
<path class="st2" d="M82,1010c0,0,0,2-3,3l2,2h3v-5H82z"/>
<path class="st4" d="M46,1005h9v11h-5L46,1005z"/>
<path class="st2" d="M50,1009h3v5h-1L50,1009z"/>
<path class="st4" d="M111,939l-1,1l-1,1l-1,1v3h1v-1v-1l1-2h1v-1V939z M-9,858c0,0,16-22,71-22c0,0,54-1,74,25l-3,1c0,0-12-22-71-24
	c0,0-46-1-69,22L-9,858z"/>
<path class="st4" d="M63,840c0,0-46-1-68,20l3,8l4,14c0,0,5,6,6,11c0,0,21,11,44,11c0,0,2-2,6-1l3-1h5l5,2l4,1c0,0,26,0,43-10l5-11
	c0,0,4-5,4-12l1-5l3-4C131,863,118,842,63,840z M122,875c-10,23-59,21-59,21c-64-4-60-28-60-28c5-26,60-24,60-24
	C131,850,122,875,122,875z"/>
<path class="st2" d="M102,849v1l2,2l1-1v-1l1,2l3-1l-1,1h-1v1l2,1l1-1h-1l1-1h1l1-1l-3-1l-2,1l-1-2l-2-1v1l-1,1L102,849z"/>
<path class="st2" d="M110,853l-1,1l2,1h1v-1l1,1l-1,1l2,1v-2h2v-1l-4-2l-1,1v1L110,853z M114,857h1l2-1l1-1l3,3l-1,1l-1-1l-1-1v1h-2
	h1l-1,1L114,857z"/>
<path class="st4" d="M113,854v-1l1,1H113z"/>
<path class="st2" d="M82,900h-2v1h3l1-1l-1-2h-2l1-1v1h2l-1-1h-3v1l1,1h1l1,1H82z M77,900v1h-2v-1v-3h3l1,2v2h-2V900h1l-1-2
	c0,0,1,0,0,0V900C76,900,76,901,77,900z M74,897v4l-3,1l-1-2c0,0-1-1,1-1l1-1v-1H74z M67,901v-1h-1v-1h1v-1h-1v1h-1v-2h4v5h-4v-2h1
	v1H67z M64,900v1h-3h-1l1-2l-1-1v-1h1l1,1v1v-2h2V900z M57,897v4h-3v-1h1v-2h-1v1h-1v-3L57,897z M52,901v-1v-3l-1-1l-2,1l-1,1v1
	l-1,1l3,1v-1v-2v-1l1,1v1l-1,1v1H52z M45,897v1h-2l1-2l2-1l2,2l-1,1l-1,2l-3-1v-1h2v1l1-1v-2L45,897z"/>
<path class="st4" d="M72,900h-1l1,1V900z M62,900v1V900z"/>
<path class="st2" d="M26,896l1-1h-1l1-1l1,3h1l1-1h-1l1-2h1v-1l-2-1l-1,1l1,1l-1,1v-3h-2l-1,3l-1,1H26z"/>
<path class="st2" d="M23,891h-1l1,1h-1l-1,1h-1v1l1,1l1-1l1-1v1h-1v1h3l-1-1v-1v-1h1v-1H23z"/>
<path class="st2" d="M21,890l-4-2l-1,2l1,1l1-1l1,1l-1,1l-1,1l2,1l1-1h-1l1-2l1,1V890z M12,888c0,0,1-2,2-1l2,1v1l-1,2h-2l-2-1v-1
	L12,888z M11,886l1,1v-1l-1-2l-1,1v-1l-1-1l-2,3l-1-1v1l1,1h1v-1l1-1l-1,3l2,1l1-1h-1L11,886z"/>
<path class="st4" d="M14,889v-1l-1,1v1L14,889z M-14,855c0,0,2,2-1,0l-10-5l-2,3h-1l1,2h4l2,1h3c2.7,0.4,5.3,0.7,8,1c0,0,1-1-1-2
	H-14z M-15,840l-3,2v2l2,2v1l-5-2l-2,3c4.6,2.5,9.3,4.8,14,7h1l2-2l3-3L-15,840z M-16,850h-2l-2-2l2,1L-16,850z M-11,846l-2-1l-1-1
	h2L-11,846z M-6,845l1,1v1l1,1l1,1l1,1l1-1L-6,845z M0,831l-4,2l2,2l2,2v1l-1-1l-2-2l-1-1v2l1,2v1l-2-2l-3-2l-2,1l-2,2l12,10l10-5
	L0,831z M-5,842l-2-2l-2-2l2,2L-5,842z M1,837l-2-3l2,2l2,3L1,837z M11,843l1-1l-4-6L11,843z M20,824l-8,2l2,5c0,2-1,0-1,0l-3-4
	l-6,2l9,13l13-4L20,824z M11,836l-3-4l-1-2l3,3l2,3H11z M18,830l-1-3l2,2c0,0,2,3,1,4L18,830z M41,810l1-2v-1h-1l-2,5v5l1-3L41,810z
	 M53,806l-1,3l-1,2v5c0,0-1,1-1-3c0,0-1-1,1-3l1-4H53z M64,807c0,0,0-2,1-1v1l-1,3l-1,4v2c0,0-1,1-1-2v-2L64,807z M78,807l-3,4l-1,2
	v4h1v-4l1-3L78,807z M41,798h-2v1L41,798z M40,805h-1l1,1V805z M89,807l-3,4v7l1-1v-5v-1l2-3l1-1H89z M145,863h1l1-1l3-2h3
	c0,0,1,0,0,0l-2,2l-3,1v1h2l-1-1h3l1-2l2-1l-1-2l-4,2l-2,1l-1,1L145,863z M145,861h-2l-2,1l2,1L145,861z M152,853h-3l-1,1l-1,1h-2
	l-2-1c0-2,1-1,1-1l1,1l1-1l1-1l2-2v-1l-2-2h-1l-7,6l-2,1l-2,2c-2,1,0,2,0,2l3,4h3l3-2l5-3l4-2L152,853z M140,855h-1v-1h1l2-3
	c4-2,5-1,5-1h-1l-2,3L140,855z M149,856l-2,1l-2,1l-2,1c0,0-1,0,0,0l1-1l2-2l2-1l2-1l1,1L149,856z M143,844l-2-2l-1,1l-3,2l-1,1h-2
	l-1-1v-1h1l1,1l1-2l1-3l-3-3l-1,1l-9,9l-1,2l8,5h1l5-5l6-4V844z M130,846h-2l1-1h1l2-4l2-1h2l-1,1l-3,2L130,846z M142,845l-2,1l-3,3
	l-2,1h-1v-1h1l1-1l2-1l3-2v-1L142,845z M139,850l-3,2l-3,2v1l1,1l1-1L139,850z M129,834l-2-1l-1-1l-1,1l-2,2l-2,2l-3-1v-1l2,1l1-1
	l1-5v-1l-1,1l-4-2c0,0-1-1-1,1l-6,10l-1,2c0,0-1,1,1,1l4,2l4,2l1-1l10-10V834z M115,837l-1,1l-1-1v-1l1-1l1-1l1-1l1-1l1-1
	c0,0,1,0,0,0l-1,3L115,837z M128,835l-2,3l-3,2l-1,1h-1l-1-1h2c0,0,0,1,0,0v-1l2-2l2-1l1-1H128z M129,837l-2,5l-2,3l-2,1l-2,1h-1v-1
	l4-3l4-5L129,837z M110,826l-3-2l-2,1l-2,4c0,0,0,2-1,1h-3v-1c0,0,0-1,0,0h2c0,0,2,1,2-1v-4l-2-2v1l-2-1h-4v-1l-1,4l-1,6l-2,4
	c0,0-1,3,1,2l10,3c0,0,2,1,2-1l6-12V826z M98,826l-1,2l-1,3l-1,1l-1-1h1l1-1v-2l1-3h1V826z M109,828l-3,6h-3v-1l2-1l1-2l1-2l1-1
	L109,828z M-15,889h-1l-1-1l1-1h1v-1v-1l-1-2v-5l-2-5l-2-2h-4c0,0-2,0,0,1h2v1h-2l-4-1v-1l-1-1h7l-1-1l-1,1c-1,0,0,0,0,0h-1h-1h-1
	l-3-1h-1l2,3l1,3l1,2v1l2,2v2l2,1l1,1l1,1l1,1l2,1l1,2h1v1h1V889z M-27,875l2,1h3l-2,1h-3V875z M-20,881h-4l-1-1l1-1l4,1l2,1H-20z
	 M50,906l-2,1c0,0-11,0-22-3l-17-6v-2l19,7l13,2L50,906z"/>
<path class="st4" d="M47,908l-1,2l-12-2h-1h-2l-9-2l-1-1h-1l-7-1l-4-1v-4c7.5,3,15.2,5.3,23,7L47,908z M77,907h-2l3-1c0,0,12,0,22-3
	l17-7l-1,3c0,0-12,5-19,6C97,905,89,908,77,907z"/>
<path class="st4" d="M78,908l-1,1l1,1c0,0,7,1,13-1h4l10-2v-1h3l7-2v-4c0,0-8,4-18,6C97,906,85,909,78,908z M153,878h-2c0,0,2,1,1,2
	v1h-3l-5,1v-1h-2l-1,3v3c-1,1,0,1,0,0v1l3-1h1v1l-2,1h-2c0,0-1,1,1,1c1,0,1,0,0,0l-2,1h2l2-1l1-1l1-1l1-1h1v-1l1-1l1-1l1-1l1-2
	C152,880,154,879,153,878z M144,886h-1h3H144z M149,884l-1,1v-1l1-1V884z M147,883l-1-1h2L147,883z M43,793h-1h-1H43z M38,785
	C38,785,38,784,38,785L38,785z M38,772L38,772z M38,768l2-1L38,768z M49,766h1v4l-3,4v-1l2-3V766z M61,766h1v3l-2,4h-1l2-4V766z
	 M85,768c0,0,0-2,1,0v4l-2,3l-1-1l2-2V768z M73,767h1c1,1,0,3-1,4l-1,3h-1l2-4V767z M94,769c0,0,0,2,2,1L94,769z M95,778l-1-1h-2h2
	L95,778z M94,784h-2H94z M95,786v1l-2,1v-1L95,786z M95,790h-2h-1H95z M94,792h-2H94z M93,808h-1h-1H93z M94,798l-1,1l-1-1H94z
	 M93,800h-2H93z M93,801h-2l-1,1h1L93,801z M92,797l-1-1L92,797z M117,809l-1-1l-1,2c0,0,0,2,1,1c0,0,1,1,2-1L117,809z M126,812
	l-1,3c0,0,0,2,1,1l1-1v-1L126,812z M152,840l1,1l-1,2v-2V840z M121,793h-1H121z"/>
<path class="st4" d="M159,857v-1v-5v-6v-11c0,0-1-12-3-14v4c0,0,0,1,0,0l-1-3v-2v-3h1l-2-6l-2-5l-1-1l-3-5c0,0,1-1-1-1l-1-1
	c0,0,0-2-2-3v-1v1l-2-2h-1l-1-3l-2-2h-1h-1l-1-2l-5-4l-2,1l-1-2l-1-1l-4-2l-2,1l-1-2l-6-3l-2,1l-1-1l-1-2l-6-2l-3,2l-1-1l-1-2l-6-2
	l-2,3v-3l-8-1l-3,2l-1-2v-1h-5l-5-1v4h-1l-1-4l-9,1v1h-2l-1-1h-8l-1,3v1l-2-3l-7,1l-1,3l-4-2l-7,2l-1,1h-2l-7,2l-1,1h-1l-6,3l-1,1H3
	l-6,3v2h-1v1l-2,4l1,1l-1,1l-1,2v1h-2v-2l1-2l1-2l1-4l-3,2l-1,1v1l-1,1l-1,3v4l-2,3l-1,1h-1v-2l2-4l1-3l1-1v-1v-1l-3,2l-1,2l-1,2
	l-1,1l-1,2v-1v-1l-2,2l-1,1l-1,2v1l-1,1l-1,1l-1,1l-2,7l-1,3v2l-1,1v3c0,0,0,1,0,0l1-1v3l-1,1v3h-1v-2v-2l-2,11v8l-1,1v7h-1l1,1l1,2
	v2h2v1l1,1h1l-1-1c0,0-2-2-1-6l1-5l-1-4l1-2h1v9h1v1h-1l-1,1l1,2l1,1v2l2-2l-2-6v-3l2-4c0,0,1,0,0,0v8l1,3l3-4l-1-6c0,0-1-1,1-7v-2
	l-1-3l2-3l-1-2v-2l2-1v2h-1v2l1,1l1,1l-1,2l1,3v1l-2,6l1,4l1,1l2-2v-7h1l2,3l1,1l4-2l-1-5l1-1c1.3,1.1,2.6,2.1,4,3l-1,1l5-2l-1-5
	l1-1l3,2c0,0,0,1,0,0h1v2l3-1l3-2l-1-6l3-7l-1-2v-4l2-3l2,1h1l-1,3v3h-1l-2-1l2,3l1,1v-1h1l-1,2l-1,2v1l-1,1v2l1,1l-1,1v-2h-1v5l8-2
	v-4v-3v-2l2-4v-4l2-6l3,1v2l-1,2v4l-3-2l1,3h2v4c0,0-2,2-1,3c0,1.7,0,3.3,0,5h4v-1h2v-1v-2v-2v-2v-2h1l1-1l-1-1v-1h1l1-3l-1-1v-1
	l1-3l1-2h1l1,1v1h1v-3l1-2l0,0l-1-1v-2h1v-1l-2,1l-1-1l-1-1h2l2-1h1l1,1h2l-1-1h-3h-2l-1-2h1v-1l-1-1v-1h1l-1-1l-1-1l1-1h2v-1h-2v-1
	l1-1h1l1,1c0,0,1,0,0,0v-1h-1l-2-2l1-1h1l-1-1h1v-1c0,0-2,0-1-1v-1h1v-1l-1-1v-1h1v-1l5-1v4l-3,5l1,3l-2,3c0.3,1.8,1,3.5,2,5h3l-1-3
	v-1l2-2l-1-3l1-3l2-3l1-6h6l1,5l-2,2l-1,2l1,2l-1,2l-1,2v2l2,3v1h2l1-1l-1-3v-1l1-2v-2v-3l3-3v-2v-4h7v5l-1,2l-1,2v5l-1,1l1,4l1,1
	l3,1v-1c0,0-2-3-1-4l1-2v-2v-3l2-4l1-5h7v5l-2,4l1,3l-2,4l2,5l2,1l1-1v-1l-1-4l1-3v-2v-2l2-4l1-4l6,1l1,5c0,0-3,3-3,5l1,3l-1,3v1
	l2,4h3v-1c0,0-2-3-1-4l1-2l-1-3l1-2l1-2v-2l1-4l2,1v1h2l-1,1l-2,1l1,1l1,1l-1,1h-2h1l1,1l1,1c0,0,1,0,0,0v1l1,1h-1h-1v2h-3l1,1h3
	l-1,1v1h2v1h-1h-1v1h1v2l-1,1h1l1,1l0,0l-1,1l1,1h1v1l-1,1h-2h-1h1l1,1h1v1l1,1l-1,1v2l1,1v1l-1,1v5c0,0,1,0,0,0h-1l-1,1l-1,2l-1,3
	l1,3v4l1,1l1-1l2,1h3v1l2,1v-1v-6l1-1l2-1l1-2v-1l-1-1l-1-1v-2h1l1-1h1v2l1,2l-1,3l-2,2v6c0,0-1,1,1,2l4,1l1-2v-4l2-3l1-1v-2v-5l1-2
	l-1-3v-2h2l1,1l1,4v4l-1,2v2l1,2l-1,2h-1v1l-1,2v5l1,1l4,2l1-1l1-5v-1v1l1,1l1-1l2-1l-1-1h-2l1-2v-3v-2l1-2c0,0,1-1-1-3c0,0-1-4,1-4
	l1,1l2,4v3l-1,3v6l-2,2v7l2,1l2,1l1-1l1-4l1-3l1-2l-1-5l1-3v-2v-2h2l1,4v3l-1,1l-1-1v-2l-1,1v3h2v2l1,3l-1,1l-2-1v-1v1l-1,1l-1,1v1
	h2v7l1,1l3,2v-1l1-5l2-3v-2v-3v-2v1l1,2h1v6h-2h-1v3h1v7l1,1l2,1v-1l1-4l1-1v1l1,1v6l1,2l1,1l1-1l1-5v-2l1-2v-2v-1h1l1,2v4l-2,4v3
	l-1,3l1,1l1,2l1-3l1-3l1-1v2l-1,8v1l2-6h1v1l-1,5v1l1-1h1V857z M-31,841l-1,4v-3v-2C-32,840-31,839-31,841z M-23,805l-2,3l-1,1v-1
	l2-4L-23,805z M-27,848l-1-2C-26,847-27,848-27,848z M-23,844l-1-3v-3l1,1V844z M-19,800l-1,2l-2,1l2-4L-19,800z M97,813h-1v1l-1,1
	l1,1h1l-1,1h-1v3c0,1,0,0,0,0v-2v-5l1-2l1-1V813z M154,848l-1,2v-3l1-2V848z M129,783c0,0,0-2,2,0l1,4v1h-2c0,0,0-2-1-1v-2V783z
	 M107,775v-3c0,0,0-1,0,0l1,4l-2,4v-1l1-3V775z M33,776l-1,1h-1l-1,1l-1-1l-1-1l2-3l1-5l2,1v4l1,1L33,776z M32,791L32,791z M31,795
	v-1V795z M30,782l-1,2h-2c-1-1,2-4,2-4C31,781,30,782,30,782z M2,802c2-1,2,1,2,1l-1,1l-1-1V802z M-17,839l-1-1l-1-2l1-4v3l1,2V839z
	 M-13,826l-1,4v1h-1l-2-1v-1l2-4v-2l1,1l1,1V826z M-12,829v-1V829z M-10,833l-1-3L-10,833z M-4,821l-2,5h-1l-2-1l1-4v-3l2,1l1,1
	L-4,821z M-2,822l-1,3v2l-1-3c0-2,2-3,2-3V822z M5,817l-1,3l-1,3v1l-3-2l-1-1l2-6h2l1,1L5,817z M5,810l-1,2H3l-2-1c-1-2,1-5,1-5l3,2
	V810z M7,818v1l-1,1l1,4l-1,1l-1-4l1-3l1-1V818z M14,799l-1,1l-1-1c0,0,1-2,2-1V799z M18,814l-1,2l-1,1v5c0,1,0,0,0,0v-5l2-4V814z
	 M24,797h-2l1-2h2L24,797z M28,812l-1,4l1,3h-1v-5L28,812l1-3L28,812z M30,799l1-1l1,1H30z M31,803l-1-1h2L31,803z M32,796
	c0,0,2,0,1,1C33,797,32,798,32,796z M34,793C37,793,34,793,34,793l1,2c1,1,0,0,0,0h-1v1l-1-1L34,793z M97,782v-2l1,1l1-2
	c1,2-1,3-1,3H97z M99,814l-1,1v-1l1-2V814z M99,788l1-1l-1-2l1-1l2,1l1,2l-1,2h-2L99,788z M100,791h1C101,793,100,791,100,791z
	 M101,820v-4l1-2v4L101,820z M103,777v-1l-2,1v2l1-1l1,2v2h-2l-1-1v-2l1-3v-2c-1-2,2-4,2-4l1,4C105,775,104,776,103,777z M111,816
	l-1,2l-1,4c0,2-1,0-1,0l1-5l1-1l2-3v1L111,816z M114,779h-1h-1l-1-1v-1v-2l2-1l1,1V779z M116,783h-1l2-3l-1-3c2-1,1,1,1,1l1,3
	L116,783z M122,818l-2,4v3l-1,1v-5l3-4V818z M125,787v-1l1-4l-1-3h1l1,3L125,787z M130,825l-1,4l-1,1l1-4l2-4L130,825z M133,792v-1
	l1-3l-1-3c1-1,2,4,2,4L133,792z M137,831l-1,4h1h-1v-4l3-3L137,831z M139,797l1-2l-1-5l1,1l1,4l-1,2H139z M143,840v-3V840z M143,837
	c0-2,2-2,2-2L143,837z M146,802v-2l-1-4l2,4L146,802z M149,846v-2V846z M150,841l-1-1c1-2,2-1,2-1L150,841z M61,1005v3h11
	c0,0,2,0,2-2l-2-1H61z"/>
<path class="st4" d="M55,852h-1v-1h2v-1h-1l-1-1h1v-1l-1-1v-1c0,0-11,0-20,3c0,0-2,0,0,1c0,0,8,4,18,5h3l-1-1l1-1h1L55,852z M52,849
	v-1V849C52,850,52,849,52,849z M52,853l-1-1h1c0,0,0-1,0,0V853z M53,854h-1v-1h1V854z M54,848h-1l-1-1h2V848z M78,848h-2l-2-1l-1,1
	l-1-1l-1,1l-1-1v1l-1,1h1v3l-1,1h2c2,1,0,1,0,1l-1,1h-1h1c17,0,21-4,21-4L78,848z M71,849v-1l1,1H71z M72,852h-1v-1L72,852z M73,854
	v-1V854z"/>
<path class="st4" d="M29,850l-9,4l-1,1l1,3c0,0,10,14,45,15c0,0,34-1,42-15c0,0,1-1-1-2l-11-4c0,0-11,6-29,6C66,858,44,859,29,850z
	 M18,856l1,3l-1,2l1,1c0,0-2-1-2,1l-1,1v2l-1-6L18,856z"/>
<path class="st4" d="M108,860l-1-1l1-1c0,0-5-6,0,0l2,2l1,3v4l-1,1h-1v-1h1v-1v-1l-1-1c0,0-1,0,0,0l1-1l-1-1h-2l1-1V860z M55,878
	l-1-1v-2c0,0,1,0,0,0l-2-1l-13-3c0,0-10-3-12-5h-2v1h-1c0,0-1,0,0,0l1,1l-1,1h-1v1l1,1h-2c0,0,4,4,14,7c0,0,10,3,17,3h1v-1v-2H55z
	 M24,868v-1l1,1H24z M52,875v1h-1L52,875z M52,881l-1-1l1-1V881z M52,878h-1l1-1V878z M102,873h-1l-1-1l1-1c0,0,1-1,0,0l-1-1l1-2
	l-1-1h-1c1,0-7,4-13,5l-13,2h-1l0,0h-1l-1,1l2,2h-1v1l-1,1h1v1l-1,1v1l17-2c0,0,11-2,12-4l2-2L102,873C102,873,103,873,102,873z
	 M72,881L72,881z M73,880l-1-1h1V880z M98,872C99,872,98,873,98,872v-1l1,1H98z M99,870v-1v-1l1,1L99,870z"/>
<path class="st4" d="M17,854c0,0-12,13,10,22c0,0,11,7,38,7c0,0,28,2,41-8c0,0,11-8,4-17c0,0,17,7,4,21c0,0-12,12-50,12
	c0,0-43-2-54-16C10,875-2,864,17,854z"/>
<path class="st4" d="M65,893c0,0-58-1-60-26c0,0-3,9,9,16c8,5,24,11,51,12c0,0,18,0,33-4c15-5,26-13,22-23C120,868,125,892,65,893z"
	/>
<path class="st6" d="M-27,853c0,0,18-36,89-35c44,1,79,14,94,41"/>
<path class="st4" d="M71,819l1,16l12,1l6-16h-7v-8l2-5v-4l1-3v-4l-1-2v-1h-2h-2l2,5l-1,2l-1,4v4l-2,2l-1,4v4l-3,1h-3l-1-6
	c0,0-1-2,2-5l1-3l-1-3l1-3v-4l-1-2c0,1,0-2-2-1h-2c0,0,2,5,1,6l-1,3l1,4l-2,4l-1,4l-1,5h-6v9l-1-9l-1-5l1-3l2-3v-6l1-3l1-3
	c0,0,0-4-3-4c0,0-3-1-2,1l1,3v2l-2,4l1,3l-2,5l-2,5v5h-5l1,8l2,8h13c0,0,1,2,2-16H71z M51,826v1l-1-1v-1v-3l1,2V826z M62,827l-1-2
	l1-3V827z M74,825l-1,1v2l-1-1l1-3v-2l1,1V825z M76,824l-1,3c0,1,0,0,0,0v-1v-3l1-2V824z M87,826l-2,3v-3l2-4V826z M44,828l-1-6
	l-1-3l1-7c0-2-1-1-1-1v7l-1,2h-5l-1-4v-3l1-2v-1l1-1l1-1c1,0,0,0,0,0l-1-1v-1l1-1v-2h-1v-1v-1l1-1l-1-1l-1,3l-1,1v1l-1-1v2l1,2v1
	l-2,6v11c1,3-1,0-1,0l-1-4l-3,1h-4v-2l-1-2c1-1-2-2-2-2l-2-1v1l2,1l1,2l1,3v3l2,7l2,6l17-3V828z M30,831h-1l-1-3l-1-3l2,3l1,2V831z
	 M43,830h-3l-1-3v-4l1,2v2l1,2h2V830z M117,818v-1l-1-1h-1l-2,2v3l-1,2v3l-2,4l-3,5l-2,5v1l2,1l5-13l1-3v-4l1-3h3V818z"/>
<path class="st4" d="M69,816l-1,5l-1,9v5h3v-5v-6v-3L69,816z M93,795l-1-1h-2l2,1l1,2l1,3v1l-1,3h-1l-1,1h1v1l1,2v1l-2,4l-1,2v6l1,2
	l-3,6l-2,7v1h3l1-1l1-8l2-4v-2l-2-6l1-2l2-5v-2v-2l1-4l1-1l-1-3c0,0-1,0,0,0h1v4l-1,2v1l1-1l1-1l1-3l-1-2v-1h-1h1v-1h-3H93z M45,824
	l1,11h4l-1-6l-1-6l-1-6l-1-4l1-2c0-2,3-5,3-5c1-1-1-3-1-3v-3c2-1,1-3,1-3l-1-5h-4l2,3l-1,2v2v6l-3,4l1,2L45,824z"/>
</svg>
