<?xml version="1.0" encoding="utf-8"?>
<!-- Generator: Adobe Illustrator 23.0.1, SVG Export Plug-In . SVG Version: 6.00 Build 0)  -->
<svg version="1.1" id="Layer_1" xmlns="http://www.w3.org/2000/svg" xmlns:xlink="http://www.w3.org/1999/xlink" x="0px" y="0px"
	 viewBox="0 0 200 200" style="enable-background:new 0 0 200 200;" xml:space="preserve">
<style type="text/css">
	.st0{fill:#DDDDDD;}
	.st1{fill:#67DAF9;}
	.st2{fill:#FFFFFF;}
	.st3{fill:#3A4241;}
	.st4{fill:#DD463E;}
	.st5{fill:#BBB8BB;}
	.st6{fill:#F7FEFB;}
	.st7{fill:#F96046;}
	.st8{fill:#4FA7B5;}
	.st9{fill:#CC3A2F;}
	.st10{fill:#4F5655;}
	.st11{fill:#FC7F6B;}
	.st12{fill:#FFF8F3;}
	.st13{fill:#E8E7E6;}
	.st14{fill:none;stroke:#FFFFFF;stroke-width:2;stroke-miterlimit:10;}
	.st15{clip-path:url(#SVGID_4_);}
	.st16{fill:#D02027;}
	.st17{fill:#C52127;}
	.st18{fill:#221E1F;}
	.st19{fill:#979797;}
	.st20{fill:#5E6C69;}
	.st21{fill:#DDF1F9;}
	.st22{fill:#EC1C24;}
	.st23{fill:#FFDD15;}
	.st24{fill:#F6921E;}
	.st25{fill:#FAAF41;}
	.st26{fill:#D58228;}
	.st27{fill:#BD202E;}
	.st28{fill:#EA8F8F;}
	.st29{fill:#ECD829;}
	.st30{fill:#F7EC33;}
	.st31{fill:#D4BE29;}
	.st32{fill:#ED9626;}
	.st33{fill:#FBF9EF;}
	.st34{fill:#38331E;}
	.st35{fill:#726944;}
	.st36{fill:#BCB499;}
	.st37{fill:#564C22;}
	.st38{fill:#BFB68D;}
	.st39{fill:none;stroke:#000000;stroke-width:2;stroke-linecap:round;stroke-linejoin:round;stroke-miterlimit:10;}
	.st40{fill:none;stroke:#000000;stroke-width:3;stroke-linecap:round;stroke-miterlimit:10;}
	.st41{fill:none;stroke:#FFFFFF;stroke-linecap:round;stroke-linejoin:round;stroke-miterlimit:10;}
	.st42{clip-path:url(#SVGID_8_);}
	.st43{fill:#232323;}
	.st44{fill:#ED2424;}
	.st45{fill:#E42526;}
	.st46{fill:#EE4244;}
	.st47{fill:#2D2525;}
	.st48{fill:#4A3D3D;}
	.st49{opacity:0.6;fill:#FFFFFF;}
	.st50{fill:#4E5C61;}
	.st51{clip-path:url(#SVGID_10_);fill:#5F7982;}
	.st52{clip-path:url(#SVGID_10_);fill:#50595C;}
	.st53{opacity:0.64;clip-path:url(#SVGID_10_);fill:#FFFFFF;}
	.st54{filter:url(#Adobe_OpacityMaskFilter);}
	.st55{filter:url(#Adobe_OpacityMaskFilter_1_);}
	.st56{clip-path:url(#SVGID_10_);mask:url(#SVGID_11_);fill:url(#SVGID_12_);}
	.st57{opacity:0.25;clip-path:url(#SVGID_10_);fill:url(#SVGID_13_);}
	.st58{clip-path:url(#SVGID_10_);}
	.st59{filter:url(#Adobe_OpacityMaskFilter_2_);}
	.st60{filter:url(#Adobe_OpacityMaskFilter_3_);}
	.st61{mask:url(#SVGID_14_);fill:url(#SVGID_15_);}
	.st62{opacity:0.6;fill:url(#SVGID_16_);}
	.st63{filter:url(#Adobe_OpacityMaskFilter_4_);}
	.st64{filter:url(#Adobe_OpacityMaskFilter_5_);}
	.st65{mask:url(#SVGID_17_);fill:url(#SVGID_18_);}
	.st66{opacity:0.6;fill:url(#SVGID_19_);}
	.st67{fill:#261F1F;}
	.st68{opacity:0.24;fill:#231F20;}
	.st69{fill:#ED1F45;}
	.st70{opacity:0.4;clip-path:url(#SVGID_21_);fill:#5E0D11;}
	.st71{fill:#DD1F26;}
	.st72{opacity:0.24;clip-path:url(#SVGID_23_);fill:#491314;}
	.st73{clip-path:url(#SVGID_23_);fill:#EC2225;}
	.st74{clip-path:url(#SVGID_25_);fill:#D02027;}
	.st75{fill:#F8BA86;}
	.st76{opacity:0.27;fill:#F8BA86;}
	.st77{opacity:0.11;clip-path:url(#SVGID_27_);fill:#F8BA86;}
	.st78{fill:#F4CDAB;}
	.st79{fill:#F7DAC1;}
	.st80{fill:#EEF3F6;}
	.st81{fill:#E1EAEF;}
	.st82{fill:#1B4A54;}
	.st83{fill:#0A343D;}
	.st84{fill:#EBF6F8;}
	.st85{opacity:0.28;clip-path:url(#SVGID_29_);fill:#005E8B;}
	.st86{fill:#468B96;}
	.st87{fill:#355357;}
	.st88{fill:#31747E;}
	.st89{opacity:0.5;}
	.st90{opacity:0.26;clip-path:url(#SVGID_31_);fill:#003545;}
	.st91{fill:#C2D72E;}
	.st92{opacity:0.11;fill:#394D79;}
	.st93{fill:#434343;}
	.st94{fill:#CE2227;}
	.st95{fill:#EE4041;}
	.st96{opacity:0.88;fill:#A7D8DF;}
	.st97{clip-path:url(#SVGID_33_);fill:#5F7982;}
	.st98{clip-path:url(#SVGID_33_);fill:#50595C;}
	.st99{opacity:0.64;clip-path:url(#SVGID_33_);fill:#FFFFFF;}
	.st100{opacity:0.2;clip-path:url(#SVGID_35_);fill:#981C1F;}
	.st101{fill:#161D23;}
	.st102{fill:#850A16;}
	.st103{fill:#991016;}
	.st104{fill:#AB1227;}
	.st105{fill:#94111D;}
	.st106{fill:#323136;}
	.st107{fill:#444444;}
	.st108{fill:#6B6B6B;}
	.st109{fill:#A8A8A8;}
	.st110{fill:#EFEFEF;}
	.st111{fill:#3F3F3F;}
	.st112{fill:#2A2B2A;}
	.st113{fill:#DD9A07;}
	.st114{fill:#F2AF08;}
	.st115{clip-path:url(#SVGID_37_);}
	.st116{clip-path:url(#SVGID_39_);fill:#5F7982;}
	.st117{clip-path:url(#SVGID_39_);fill:#50595C;}
	.st118{opacity:0.64;clip-path:url(#SVGID_39_);fill:#FFFFFF;}
	.st119{opacity:0.2;clip-path:url(#SVGID_41_);fill:#981C1F;}
	.st120{fill:#FFC295;}
	.st121{fill:#DEAE80;}
	.st122{fill:#D1D3D4;}
	.st123{fill:#D4A476;}
	.st124{fill:#F6E2CA;}
	.st125{fill:#F1F2F2;}
	.st126{fill:#D6A678;}
	.st127{fill:#034E6E;}
	.st128{opacity:0.24;fill:#C7DCFF;}
	.st129{fill:#EC463A;}
	.st130{fill:#BCBEC0;}
	.st131{fill:#0E366B;}
	.st132{fill:#E6E7E8;}
</style>
<circle class="st0" cx="100" cy="100" r="100"/>
<g>
	<defs>
		<circle id="SVGID_36_" cx="100" cy="100" r="100"/>
	</defs>
	<clipPath id="SVGID_2_">
		<use xlink:href="#SVGID_36_"  style="overflow:visible;"/>
	</clipPath>
	<g style="clip-path:url(#SVGID_2_);">
		<g>
			<path class="st93" d="M50.94,110.49h-20.8c-0.55,0-1,0.45-1,1v34.57c0,0.55,0.45,1,1,1h20.8c0.55,0,1-0.45,1-1v-34.57
				C51.94,110.94,51.49,110.49,50.94,110.49z"/>
			<path class="st43" d="M169.66,110.54h-20.8c-0.55,0-1,0.45-1,1v34.57c0,0.55,0.45,1,1,1h20.8c0.55,0,1-0.45,1-1v-34.57
				C170.66,110.99,170.21,110.54,169.66,110.54z"/>
			<path class="st44" d="M29.96,76.98h9.82c0.5,0,0.91,0.38,0.95,0.88l0,0.02c0.1,1.29,0.44,2.54,0.99,3.71l1.74,3.71
				c0.22,0.48,0.02,1.04-0.46,1.27l-2.6,1.22c-0.48,0.22-1.04,0.02-1.27-0.46l-0.99-2.11c-0.37-0.79-1.16-1.29-2.03-1.29h-5.08
				c-0.45,0-0.84-0.31-0.93-0.76l-1.07-5.04C28.9,77.54,29.35,76.98,29.96,76.98z"/>
			<path class="st94" d="M170.07,76.98h-9.81c-0.5,0-0.91,0.38-0.95,0.88l0,0c-0.1,1.3-0.44,2.57-1,3.75l-1.73,3.69
				c-0.22,0.48-0.02,1.04,0.46,1.27l2.6,1.22c0.48,0.22,1.04,0.02,1.27-0.46l0.99-2.11c0.37-0.79,1.16-1.29,2.03-1.29H169
				c0.45,0,0.84-0.31,0.93-0.76l1.07-5.04C171.13,77.54,170.68,76.98,170.07,76.98z"/>
			<path class="st44" d="M162.35,141.63H35.79c-3.16,0-5.64-2.47-5.73-5.57l-1.07-36.53c-0.25-8.51,6.58-15.54,15.09-15.54h111.7
				c8.51,0,15.34,7.03,15.09,15.54l-1.07,36.53C169.7,139.17,167.16,141.63,162.35,141.63z"/>
			<path class="st95" d="M159.84,103.21l-19.26,1.29c-4.44,0.3-8.26,2.76-10.22,6.64l-0.53,1.05H70.49l-0.53-1.04
				c-1.99-3.89-5.85-6.34-10.31-6.6l-22.92-1.34c-1.34,0-3.63-0.75-3.54-1.69l1.01-10.71c0.23-2.4,6.85-4.36,14.64-4.36
				c0,0,39.29,3.58,52.12,3.58c12.73,0,50.09-3.58,50.09-3.58c7.79,0,14.41,1.96,14.64,4.36l1.01,10.71
				C166.76,102.46,164.46,103.21,159.84,103.21z"/>
			<path class="st44" d="M47.98,80.39l9.63-20.35c1.06-2.25,3.32-3.68,5.81-3.68h73.34c2.48,0,4.74,1.43,5.81,3.68l9.63,20.35
				c0.81,1.71,0.41,3.57-0.7,4.82h6.24l-13.05-27.58c-1.2-2.53-3.75-4.15-6.55-4.15c0,0-28.53-0.59-38.04-0.59
				c-9.51,0-38.04,0.59-38.04,0.59c-2.8,0-5.35,1.61-6.55,4.15L42.44,85.2h6.24C47.57,83.95,47.17,82.09,47.98,80.39z"/>
			<path class="st44" d="M128.17,133.43h-56.1c-2.26,0-3.96-2.08-3.51-4.3l3.96-19.36c0.34-1.67,1.81-2.86,3.51-2.86h48.19
				c1.7,0,3.17,1.2,3.51,2.86l3.96,19.36C132.13,131.35,130.44,133.43,128.17,133.43z"/>
			<path class="st47" d="M128.17,136.85h-56.1c-2.26,0-3.96-2.08-3.51-4.3l3.96-19.36c0.34-1.67,1.81-2.86,3.51-2.86h48.19
				c1.7,0,3.17,1.2,3.51,2.86l3.96,19.36C132.13,134.77,130.44,136.85,128.17,136.85z"/>
			<path class="st48" d="M128.39,136.85H75.75c-2.13,0-3.72-1.86-3.29-3.85l3.71-17.34c0.32-1.49,1.69-2.56,3.29-2.56h45.22
				c1.6,0,2.97,1.07,3.29,2.56l3.71,17.34C132.11,134.99,130.52,136.85,128.39,136.85z"/>
			<path class="st96" d="M136.76,56.36H63.41c-2.48,0-4.74,1.43-5.81,3.68l-9.63,20.35c-1.38,2.92,0.75,6.29,3.98,6.29
				c0,0,36.09,1.45,48.12,1.45c12.03,0,48.12-1.45,48.12-1.45c3.23,0,5.37-3.37,3.98-6.29l-9.63-20.35
				C141.5,57.79,139.24,56.36,136.76,56.36z"/>
			<path class="st50" d="M109.71,63.35H88.82c-0.25,0-0.45-0.2-0.45-0.45v-3.03c0-0.25,0.2-0.45,0.45-0.45h20.89
				c0.25,0,0.45,0.2,0.45,0.45v3.03C110.16,63.15,109.96,63.35,109.71,63.35z"/>
			<g>
				<defs>
					<path id="SVGID_38_" d="M136.76,56.36H63.41c-2.48,0-4.74,1.43-5.81,3.68l-9.63,20.35c-1.38,2.92,0.75,6.29,3.98,6.29
						c0,0,36.09,1.45,48.12,1.45c12.03,0,48.12-1.45,48.12-1.45c3.23,0,5.37-3.37,3.98-6.29l-9.63-20.35
						C141.5,57.79,139.24,56.36,136.76,56.36z"/>
				</defs>
				<clipPath id="SVGID_4_">
					<use xlink:href="#SVGID_38_"  style="overflow:visible;"/>
				</clipPath>
				<path style="clip-path:url(#SVGID_4_);fill:#5F7982;" d="M133.27,95.87h-20.09c-2.3,0-4.06-2.05-3.71-4.32l2.48-16.24
					c0.28-1.83,1.86-3.19,3.71-3.19h15.14c1.86,0,3.43,1.35,3.71,3.19l2.48,16.24C137.33,93.82,135.57,95.87,133.27,95.87z"/>
				<path style="clip-path:url(#SVGID_4_);fill:#5F7982;" d="M85.36,95.87H65.27c-2.3,0-4.06-2.05-3.71-4.32l2.48-16.24
					c0.28-1.83,1.86-3.19,3.71-3.19h15.14c1.86,0,3.43,1.35,3.71,3.19l2.48,16.24C89.42,93.82,87.66,95.87,85.36,95.87z"/>
				<path style="clip-path:url(#SVGID_4_);fill:#50595C;" d="M160.49,92.5H41.4c-1.45,0-0.99-1.23,0.91-2.66l7.2-5.4
					c1.38-1.04,3.37-1.84,4.51-1.84h93.83c1.14,0,3.13,0.8,4.51,1.84l7.2,5.4C161.48,91.27,161.94,92.5,160.49,92.5z"/>
				<path style="clip-path:url(#SVGID_4_);fill:#50595C;" d="M140.64,82.6c0,2.12-5.79,3.84-12.92,3.84
					c-7.14,0-12.92-1.72-12.92-3.84c0-2.12,5.79-3.84,12.92-3.84C134.86,78.76,140.64,80.48,140.64,82.6z"/>
				
					<rect x="64.7" y="71.47" transform="matrix(-0.5952 0.8036 -0.8036 -0.5952 216.2196 44.8973)" style="opacity:0.64;clip-path:url(#SVGID_4_);fill:#FFFFFF;" width="64.21" height="10.87"/>
				
					<rect x="52.8" y="75.56" transform="matrix(-0.5952 0.8036 -0.8036 -0.5952 197.5508 55.0741)" style="opacity:0.64;clip-path:url(#SVGID_4_);fill:#FFFFFF;" width="64.21" height="3.47"/>
			</g>
			<path class="st2" d="M60.42,117.92l-24.32-1.52c-0.82-0.05-1.46-0.73-1.46-1.56v-6.58c0-0.9,0.76-1.62,1.66-1.56l24.32,1.52
				c0.82,0.05,1.47,0.73,1.47,1.56v6.58C62.08,117.27,61.32,117.98,60.42,117.92z"/>
			<path class="st2" d="M139.85,117.92l24.32-1.52c0.82-0.05,1.47-0.73,1.47-1.56v-6.58c0-0.9-0.76-1.62-1.66-1.56l-24.32,1.52
				c-0.82,0.05-1.47,0.73-1.47,1.56v6.58C138.19,117.27,138.95,117.98,139.85,117.92z"/>
			<path class="st67" d="M56.66,132.39l-18.21-1.17c-0.56-0.03-0.98,0.49-0.85,1.03l0.97,3.97c0.09,0.37,0.42,0.63,0.81,0.63h22.84
				c0.25,0,0.41-0.26,0.31-0.48l0,0C61.46,134.06,59.2,132.53,56.66,132.39z"/>
			<path class="st67" d="M143.61,132.39l18.21-1.17c0.56-0.03,0.98,0.49,0.85,1.03l-0.97,3.97c-0.09,0.37-0.42,0.63-0.81,0.63
				h-22.84c-0.25,0-0.41-0.26-0.31-0.48l0,0C138.81,134.06,141.07,132.53,143.61,132.39z"/>
			<g>
				<defs>
					<path id="SVGID_40_" d="M157.12,83.99l-12.48-26.37c-0.31-2.53-2.86-4.15-5.66-4.15H62.9c-2.8,0-5.35,1.61-6.55,4.15L43.87,84
						c-8.41,0.11-15.13,7.09-14.88,15.53l1.07,36.53c0.09,3.1,2.82,5.57,5.73,5.57h126.56c4.81,0,7.35-2.47,7.44-5.57l1.07-36.53
						C171.1,91.82,165.4,85.14,157.12,83.99z"/>
				</defs>
				<clipPath id="SVGID_6_">
					<use xlink:href="#SVGID_40_"  style="overflow:visible;"/>
				</clipPath>
				<polygon style="opacity:0.2;clip-path:url(#SVGID_6_);fill:#981C1F;" points="80.49,161.19 156.25,58.91 226.47,110.92 
					150.7,206.77 				"/>
			</g>
		</g>
		<g>
			<g>
				<path class="st120" d="M178.62,144.57c-0.02-0.09-0.06-0.18-0.12-0.28c-1.92-3.1-4.48-7.03-6.93-10.24
					c-1.6-2.1-4.14-5.46-5.44-6.68c-1.61-1.52-1.7-0.83-5.2-2.06c-2.29-0.8-5.02-2.71-7.44-2.54c-2.48,0.17-5.28,2.04-6.82,3.98
					c-1.54,1.95-1.62,3.04-2.21,5.46c-0.45,1.88,2.34,2.85,3.28,1.43c0.32-0.48,0.55-0.78,0.77-1.13c0.07-0.11,0.14-0.22,0.21-0.34
					c0.08-0.14,0.17-0.29,0.26-0.47c0.39-0.76,0.83-1.56,1.54-2.02c0.08-0.06,0.17-0.11,0.27-0.15c0.63-0.3,1.37-0.3,2.07-0.29
					c0.51,0.01,1.06,0.02,1.61,0.04c0.17,0.01,0.34,0.01,0.5,0.02c0.36,0.01,0.72,0.02,1.06,0.03c0.23,0.01,0.45,0.01,0.67,0.01
					c0,0.05,0,0.1,0,0.15c0.01,0.29,0.04,0.6,0.08,0.91c0.07,0.47,0.18,0.95,0.34,1.41c0.1,0.29,0.22,0.57,0.36,0.82
					c0.04,0.08,0.09,0.17,0.14,0.25c0.33,0.53,0.75,0.95,1.27,1.14c1.57,1.61,2.81,0.28,3.54,1.65c0.31,0.58,0.39,0.85,0.29,1.23
					c-0.05,0.19-0.14,0.4-0.27,0.69c-0.7,1.54-1.39,3.09-2.09,4.63c-0.4,0.88-0.99,1.87-0.69,2.79c0.47,1.43,0.67,2.02,4.31,5.52
					c1.83,1.76,4.52,2.66,5.97,3.74c0.27,0.2,0.5,0.41,0.65,0.61c0.05,0.06,0.09,0.12,0.12,0.18c0.82,1.46,4.39,6.39,8.85,12.41
					h11.71v-5.49c-5.62-7.22-10.45-13.46-10.58-13.7C179.98,146.89,179.27,145.66,178.62,144.57z"/>
				<path class="st121" d="M158.19,149.47c1.02,0.56,1.97,1.53,3.1,1.26c0.25-0.06,0.86-0.42,1.49-0.84
					c0.81-0.54,1.67-1.19,1.9-1.43c1.33-1.46,0.02-2.24-0.3-4.19c-0.11-0.69-0.43-1.45-1.09-1.66c-0.64-0.19,0.18,1.11-0.22,1.65
					c-0.07,0.1-0.26,0.26-0.51,0.46c-1.14,0.89-3.37,2-3.68,2.44c0.26-0.71,0.45-0.73,0.73-1.1c0.19-0.25,0.32-0.43,0.29-0.55
					c0.62-1.29,1.15-2.6,1.97-3.7c-0.03-0.1-0.05-0.21-0.07-0.32c0,0,0,0,0,0c-0.01-0.06-0.02-0.12-0.03-0.18
					c-0.02-0.14-0.05-0.28-0.09-0.42c-0.16-0.56-0.47-1.08-1-1.24c-0.16-0.05-0.31-0.06-0.47-0.04c-0.75,0.91-1.06,2.13-2.04,2.95
					c-0.14,0.12-0.3,0.29-0.45,0.48c-0.52,0.65-1.06,1.61-1.3,2.19c-0.21,0.51-0.43,0.88-0.52,1.24c-0.02,0.08-0.03,0.17-0.04,0.25
					c-0.01,0.27,0.06,0.55,0.28,0.9C156.71,148.55,157.06,148.84,158.19,149.47z"/>
				<g>
					<path class="st122" d="M155.85,146.73c0.84,0.66,1.81,1.27,2.82,1.04c0.58-0.13,2.99-1.84,3.39-2.28
						c0.25-0.28,0.41-0.53,0.5-0.77c-5.3,3.49-2.53,1.35-2.66,0.79c0.62-1.29,1.15-2.6,1.97-3.7c-0.04-0.16-0.08-0.32-0.11-0.5
						c-0.11-0.69-0.43-1.45-1.09-1.65c-0.16-0.05-0.31-0.06-0.47-0.04c-0.75,0.91-1.06,2.13-2.04,2.95
						c-0.62,0.52-1.44,1.92-1.75,2.67C156.14,145.87,155.87,146.28,155.85,146.73z"/>
				</g>
				<path class="st121" d="M155.49,146.16c0.13,0.11,0.26,0.21,0.4,0.32c0.81,0.62,1.74,1.17,2.7,0.94
					c0.05-0.01,0.11-0.03,0.18-0.07c0.16-0.07,0.38-0.19,0.63-0.34c0.18-0.11,0.37-0.23,0.57-0.36c0.82-0.54,1.72-1.21,1.98-1.48
					c0.01-0.01,0.01-0.01,0.02-0.02c1.21-1.32,0.24-2.08-0.18-3.67c0,0,0,0,0,0c-0.04-0.16-0.08-0.34-0.11-0.52
					c0-0.02-0.01-0.05-0.01-0.07c-0.12-0.67-0.44-1.39-1.08-1.58c-0.64-0.19-1.31,0.24-1.71,0.77c-0.4,0.54-1.39,2.47-1.77,3
					c-0.06,0.08-0.12-0.09,0.09-0.87c0.85-1.76,1.53-3.57,3.03-4.83c-0.07,0.06-0.29,0.06-0.37,0.07c0.16-0.54,0.4-1.42-0.08-1.88
					c-0.42-0.4-1.07-0.21-1.5,0.06c-1.26,0.79-2.4,1.95-3.53,2.95c-0.01,0.01-0.02,0.01-0.02,0.02c-0.07,0.06-0.14,0.13-0.22,0.19
					c-0.05,0.04-0.09,0.08-0.14,0.12c-0.6,0.51-1.47,1.38-1.81,2.12c0,0,0,0,0,0c-0.01,0.02-0.02,0.05-0.03,0.07
					c-0.1,0.25-0.13,0.48-0.1,0.69c0.04,0.33,0.21,0.63,0.43,0.93c0.07,0.1,0.14,0.2,0.22,0.3c0.15,0.2,0.31,0.41,0.46,0.64
					C154.11,144.56,154.65,145.46,155.49,146.16z"/>
				<path class="st123" d="M157.88,141.75c-0.17,0.3-0.34,0.6-0.48,0.84c0.04-0.03,0.08-0.05,0.12-0.08
					C157.75,142.32,157.86,142.05,157.88,141.75z"/>
				<g>
					<path class="st122" d="M153.07,142.99c0.14-0.02,0.28-0.02,0.43-0.03c0.09,0,0.17,0,0.25,0c1.67-0.02,2.55-0.07,3.06-0.17
						c0.1-0.02,0.19-0.04,0.26-0.06c0.08-0.22,0.15-0.44,0.12-0.54c0.2-0.41,0.38-0.82,0.58-1.23c-0.01-0.04-0.03-0.08-0.05-0.12
						c-0.36-0.85-1.08-1.53-1.95-1.83c-0.36-0.12-0.92-0.17-1.27-0.26c-0.05,0.04-0.09,0.08-0.14,0.12
						c-0.62,0.52-1.53,1.44-1.84,2.19C152.21,141.83,152.61,142.37,153.07,142.99z"/>
				</g>
				<g>
					<path class="st121" d="M150.9,142.79c0.65,0.15,1.29-0.03,1.95-0.09c0.14-0.02,0.28-0.02,0.43-0.03c0.09,0,0.17,0,0.25,0
						c1.67-0.02,2.55-0.07,3.06-0.17c0.3-0.06,0.48-0.13,0.61-0.21c0,0,0.01-0.01,0.01-0.01c0.03-0.02,0.06-0.04,0.09-0.07
						c0.3-0.24,0.39-0.62,0.36-1.01c-0.02-0.22-0.08-0.45-0.16-0.65c-0.36-0.85-1.08-1.53-1.95-1.83c-0.23-0.08-0.53-0.12-0.81-0.17
						c-0.02,0-0.03,0-0.05-0.01c-0.33-0.05-0.61-0.11-0.69-0.22c-0.13-0.18-0.24-0.41-0.31-0.68c-0.18-0.64-0.18-1.45,0.09-2.05
						c0.67-1.52,2.41-2.05,3.86-2.71c0.03-0.01,0.07-0.03,0.1-0.05c0.13-0.06,0.26-0.12,0.39-0.19c-0.52-0.96-1-1.65-1.33-2.25
						c-0.05-0.09-0.09-0.18-0.14-0.26c-0.34,0.01-0.79,0.08-1.29,0.19c-1.44,0.32-3.34,0.99-4.44,1.51
						c-0.49,0.23-0.98,0.5-1.28,0.94c-0.26,0.39-0.16,0.6-0.18,0.97c0,0.09-0.02,0.18-0.04,0.29c-1,4.58-0.68,6.62-0.39,7.32
						C149.34,142.13,150.11,142.61,150.9,142.79z"/>
					<path class="st124" d="M153.53,142.66c1.67-0.02,2.55-0.07,3.06-0.17c0.04-0.17-0.06-0.6-0.38-0.9
						c-0.64-0.61-1.39-1.23-2.27-1.22c-0.53,0.01-1.43,0.37-1.56,0.97C152.26,141.97,152.96,142.46,153.53,142.66z"/>
				</g>
				<g>
					<path class="st125" d="M150.53,129.69c0.08-0.06,0.17-0.11,0.27-0.15c0.63-0.3,1.37-0.3,2.07-0.29c1,0.02,2.13,0.06,3.18,0.08
						c0.23,0.01,0.45,0.01,0.67,0.01c0,0.05,0,0.1,0,0.15c0.05,1.63,0.71,3.98,2.19,4.53c1.57,1.61,2.81,0.28,3.54,1.65
						c0.31,0.58,0.39,0.85,0.29,1.23c0.66-0.47,1.04-1.11,0.99-1.81c-0.11-1.58-2.42-3.59-3.72-4.64c-0.99-0.81-7.73-4.4-7.77-4.43
						c-1.02,0.11-2.09,1.08-2.07,2.1C150.17,128.68,150.32,129.19,150.53,129.69z"/>
				</g>
				<path class="st126" d="M148.5,131.05c-0.68-0.98-1.64-2.11-1.51-3.3c0.14-1.32,1.53-2.61,2.9-2.4c1.7,0.27,3.26,1.45,4.47,2.61
					c1.33,1.26,2.48,3.09,3.88,4.27c1.4,1.18,3.93,2.38,5.76,2.29c-1.37,1.28-0.81,3.55-2.99,4.11c-3.06,0.79-0.1,6.9-4.98,0.3
					c-1.37-1.85-2.03-1.77-3.68-3.29C150.82,134.24,149.72,132.8,148.5,131.05z"/>
				<g>
					<path class="st123" d="M160.23,129.73c-0.61,1.28-0.81,2.61-0.92,3.96l-0.52-0.3C158.89,132.16,159.46,130.71,160.23,129.73z"
						/>
					<path class="st123" d="M156.71,129.34c0.02-0.69-0.07-1.15,0.99-3.05c-0.71,0.86-1.29,1.98-1.53,3.04
						C156.39,129.34,156.5,129.34,156.71,129.34z"/>
					<path class="st123" d="M152.53,124.11c0.1,1.39,0.28,2.61,0.81,3.77l-0.49,0.03C152.37,126.85,152.36,125.34,152.53,124.11z"/>
				</g>
				<g>
					<path class="st122" d="M160.22,137.36c-0.07,0.06-0.29,0.06-0.37,0.07c0.16-0.54,0.4-1.42-0.08-1.88
						c-0.42-0.4-1.07-0.21-1.5,0.06c-1.26,0.79-2.4,1.95-3.53,2.95c-0.02,0-0.03,0-0.05-0.01c0.01,0.01,0.02,0.02,0.02,0.03
						c0.21,0.24,0.42,0.51,0.64,0.85c0.43,0.66,1.12,1.71,1.84,2.83c0,0.01,0.01,0.01,0.01,0.02c0.03-0.02,0.06-0.04,0.09-0.07
						c0.3-0.24,0.39-0.62,0.36-1.01c0.04-0.08,0.07-0.15,0.11-0.23C158.4,139.63,159.07,138.34,160.22,137.36z"/>
				</g>
				<g>
					<path class="st122" d="M159.97,146.65c0.1,0.15,0.23,0.35,0.39,0.58c0.15,0.19,1.21,1.48,2.41,2.66
						c0.81-0.54,1.67-1.19,1.9-1.43c1.33-1.46,0.02-2.24-0.3-4.19c-0.11-0.69-0.43-1.45-1.09-1.66c-0.64-0.19,0.18,1.11-0.22,1.65
						c-0.07,0.1-0.26,0.26-0.51,0.46c-0.17,0.14-0.38,0.29-0.6,0.45c0.01-0.01,0.01-0.01,0.02-0.02c1.21-1.32,0.24-2.08-0.18-3.67
						c0,0,0,0,0,0c-0.01-0.06-0.02-0.12-0.03-0.18c-0.02-0.14-0.05-0.28-0.09-0.42c-0.12-0.67-0.44-1.39-1.08-1.58
						c-0.64-0.19-1.31,0.24-1.71,0.77c-0.22,0.29-0.62,1.01-0.99,1.68c-0.17,0.3-0.33,0.59-0.48,0.83c0.1,0.15,0.2,0.31,0.3,0.46
						c0.72,1.13,1.43,2.24,1.9,3.01c0.05,0.09,0.11,0.17,0.15,0.25c0,0,0.07,0.11,0.19,0.31
						C159.96,146.62,159.96,146.64,159.97,146.65z"/>
				</g>
				<g>
					<path class="st122" d="M149.47,133.77c2.06,2.58,3.22,3.15,4.22,3.88c-0.18-0.64-0.18-1.45,0.09-2.05
						c0.67-1.52,2.41-2.05,3.86-2.71c0.03-0.01,0.07-0.03,0.1-0.05c-0.08-0.07-0.16-0.13-0.24-0.2c-0.8-0.68-1.47-1.5-2.13-2.3
						c-1.44,0.32-3.34,0.99-4.44,1.51c-0.49,0.23-0.98,0.5-1.28,0.94C149.39,133.19,149.49,133.4,149.47,133.77z"/>
				</g>
				<g>
					<path class="st122" d="M152.87,129.25c0.51,0.01,1.06,0.02,1.61,0.04c-0.26-0.29-0.52-0.57-0.79-0.83
						c-1.21-1.15-2.77-2.34-4.47-2.61c-1.37-0.21-2.76,1.09-2.9,2.4c-0.12,1.16,0.72,2.21,2.11,4.15c0.03,0.04,0.06,0.08,0.09,0.12
						c0.07-0.11,0.14-0.22,0.21-0.34c0.08-0.14,0.17-0.29,0.26-0.47c0.39-0.76,0.83-1.56,1.54-2.02c0.08-0.06,0.17-0.11,0.27-0.15
						C151.43,129.23,152.16,129.24,152.87,129.25z"/>
				</g>
				<g>
					<path class="st127" d="M166.43,146.36l-22.96-30.73l-3.47,2.59l22.96,30.73C165.61,149.58,166.52,149.2,166.43,146.36z"/>
					<path class="st127" d="M115.2,114.88c-6.87-8.28-5.72-20.56,2.56-27.43c8.28-6.87,20.56-5.72,27.43,2.56
						c6.87,8.28,5.72,20.56-2.56,27.43C134.35,124.3,122.07,123.16,115.2,114.88z M141.19,115.7c7.32-6.07,8.33-16.93,2.26-24.25
						c-6.07-7.32-16.93-8.33-24.25-2.26c-7.32,6.07-8.33,16.93-2.26,24.25C123.01,120.76,133.87,121.77,141.19,115.7z"/>
					<path class="st128" d="M116.94,113.44c-6.07-7.32-5.06-18.18,2.26-24.25c7.32-6.07,18.18-5.06,24.25,2.26
						c6.07,7.32,5.06,18.18-2.26,24.25C133.87,121.77,123.01,120.76,116.94,113.44z"/>
					<path class="st2" d="M144.68,101.68l-0.63-0.11c-0.54-6.91-5.59-12.7-12.39-14.16l0.18-1.06
						C139.38,87.42,144.94,94.04,144.68,101.68z"/>
					<path class="st129" d="M167.6,150.78l-0.64,0.48c-1.54,1.16-3.73,0.85-4.89-0.7l-19.6-26.11c-0.39-0.52-0.29-1.27,0.24-1.66
						l4.34-3.26c0.52-0.39,1.27-0.29,1.66,0.24l19.6,26.11C169.46,147.43,169.14,149.62,167.6,150.78z"/>
					<path class="st130" d="M145.19,90c-6.58-7.93-18.11-9.31-26.35-3.39l1.36,1.81c7.28-5.2,17.45-3.97,23.25,3.02
						c6.07,7.32,5.06,18.18-2.26,24.25c-0.11,0.09-0.22,0.17-0.33,0.26l26.36,35.12l0.39-0.29c1.54-1.16,1.86-3.35,0.7-4.89
						l-19.6-26.11c-0.39-0.52-1.14-0.63-1.66-0.24l-0.41,0.31l-2.7-3.61C151.01,109.22,151.68,97.83,145.19,90z"/>
				</g>
				<g>
					<path class="st120" d="M155.66,139.21c1.02,1.55,3.43,5.28,4.39,6.87c0,0,0.21,0.36,0.61,0.93c0.21,0.27,2.24,2.71,3.89,3.97
						c2.67,2.02,5.43,2.32,8.47,0.55c1.67-0.97,3.89-3.07,4.53-3.77c-1.1-1.84-4.02-4.84-3.83-5.79c0.3-1.55-0.31-3.12-0.91-4.59
						c-0.71-1.73-1.61-3.66-3.39-4.25c-2.14-0.71-4.34,0.89-6.6,1c-4.91,0.24-6.43-3.59-8.85-5.9c-1.21-1.15-2.77-2.34-4.47-2.61
						c-1.37-0.21-2.76,1.09-2.9,2.4c-0.12,1.16,0.72,2.21,2.11,4.15C152.78,137.8,153.85,136.45,155.66,139.21z"/>
					<g>
						<path class="st125" d="M155.66,139.21c1.02,1.55,3.43,5.28,4.39,6.87c0,0,0.21,0.36,0.61,0.93c0.21,0.27,2.24,2.71,3.89,3.97
							c0.86,0.65,1.86,1.38,2.94,1.88c-1.57-1.15-3.01-3.03-4.41-4.41c-2.19-2.16-3.67-4.69-5.2-7.24c-1.5-2.5-3.74-4.66-6.04-6.38
							c-0.6-0.45-2.31-1.96-3.23-3.28c-0.89-1.26-1.81-2.37-1.99-3.51c-0.12,1.16,0.72,2.21,2.11,4.15
							C152.78,137.8,153.85,136.45,155.66,139.21z"/>
					</g>
					<path class="st124" d="M149.67,131.2l2.32-2.09c0.26-0.24,0.3-0.63,0.09-0.92l-0.82-1.12c-0.73-1-2.13-1.21-3.13-0.47
						c-1.19,0.88-1.25,2.28-0.57,3.2l1.12,1.33C148.93,131.43,149.38,131.46,149.67,131.2z"/>
				</g>
			</g>
			<g>
				<g>
					
						<rect x="168.02" y="149.99" transform="matrix(0.781 -0.6245 0.6245 0.781 -56.0849 142.7379)" class="st2" width="14.93" height="2.69"/>
					<polygon class="st131" points="168.64,157.59 176.37,167.48 191.32,167.48 191.32,156.56 183.09,146.04 					"/>
					<polygon class="st132" points="168.81,154.95 170.03,156.48 168.64,157.59 176.37,167.48 188.1,167.48 174.64,150.29 					"/>
				</g>
				<g>
					<path class="st2" d="M171.1,159.42c0.21,0.46,0.74,0.66,1.2,0.45c0.46-0.21,0.66-0.74,0.45-1.2c-0.21-0.46-0.74-0.66-1.2-0.45
						C171.1,158.42,170.9,158.96,171.1,159.42z"/>
					<path class="st2" d="M173.41,162.34c0.21,0.46,0.74,0.66,1.2,0.45c0.46-0.21,0.66-0.74,0.45-1.2c-0.21-0.46-0.74-0.66-1.2-0.45
						C173.41,161.35,173.21,161.89,173.41,162.34z"/>
				</g>
			</g>
		</g>
	</g>
</g>
</svg>
