<?xml version="1.0" encoding="utf-8"?>
<!-- Generator: Adobe Illustrator 19.0.0, SVG Export Plug-In . SVG Version: 6.00 Build 0)  -->
<svg version="1.1" id="Layer_1" xmlns="http://www.w3.org/2000/svg" xmlns:xlink="http://www.w3.org/1999/xlink" x="0px" y="0px"
	 viewBox="-173 789.5 468 222.7" style="enable-background:new -173 789.5 468 222.7;" xml:space="preserve">
<style type="text/css">
	.st0{fill:#0071BB;}
	.st1{fill:#EC1C24;}
</style>
<g>
	<path class="st0" d="M-118.1,1012.1c0,0,22.1-113.7,29.9-153.7c7.8-40.1,54.3-68.9,102.3-68.9c48.1,0,280.9,0,280.9,0l-55.2,57.7
		c0,0-176,0-196.8,0S9.7,859.5,5.5,881C1.3,902.6-20,1012.2-20,1012.2h-98.1V1012.1z"/>
	<path class="st1" d="M-166.9,895.2c0.2,0,0.7,0,1.6,0c26.6,0,359,0,359,0L98,995.1c0,0-53.5-35.8-91.9-51.8s-149-36.8-173-36.8
		C-173.3,906.4-176.5,895.2-166.9,895.2L-166.9,895.2z"/>
</g>
</svg>
