<?xml version="1.0" encoding="utf-8"?>
<!-- Generator: Adobe Illustrator 23.0.1, SVG Export Plug-In . SVG Version: 6.00 Build 0)  -->
<svg version="1.1" id="Layer_1" xmlns="http://www.w3.org/2000/svg" xmlns:xlink="http://www.w3.org/1999/xlink" x="0px" y="0px"
	 viewBox="0 0 200 200" style="enable-background:new 0 0 200 200;" xml:space="preserve">
<style type="text/css">
	.st0{fill:#DDDDDD;}
	.st1{fill:#67DAF9;}
	.st2{fill:#FFFFFF;}
	.st3{fill:#3A4241;}
	.st4{fill:#DD463E;}
	.st5{fill:#BBB8BB;}
	.st6{fill:#F7FEFB;}
	.st7{fill:#F96046;}
	.st8{fill:#4FA7B5;}
	.st9{fill:#CC3A2F;}
	.st10{fill:#4F5655;}
	.st11{fill:#FC7F6B;}
	.st12{fill:#FFF8F3;}
	.st13{fill:#E8E7E6;}
	.st14{fill:none;stroke:#FFFFFF;stroke-width:2;stroke-miterlimit:10;}
	.st15{clip-path:url(#SVGID_4_);}
	.st16{fill:#D02027;}
	.st17{fill:#C52127;}
	.st18{fill:#221E1F;}
	.st19{fill:#979797;}
	.st20{fill:#5E6C69;}
	.st21{fill:#DDF1F9;}
	.st22{fill:#EC1C24;}
	.st23{fill:#FFDD15;}
	.st24{fill:#F6921E;}
	.st25{fill:#FAAF41;}
	.st26{fill:#D58228;}
	.st27{fill:#BD202E;}
	.st28{fill:#EA8F8F;}
	.st29{fill:#ECD829;}
	.st30{fill:#F7EC33;}
	.st31{fill:#D4BE29;}
	.st32{fill:#ED9626;}
	.st33{fill:#FBF9EF;}
	.st34{fill:#38331E;}
	.st35{fill:#726944;}
	.st36{fill:#BCB499;}
	.st37{fill:#564C22;}
	.st38{fill:#BFB68D;}
	.st39{fill:none;stroke:#000000;stroke-width:2;stroke-linecap:round;stroke-linejoin:round;stroke-miterlimit:10;}
	.st40{fill:none;stroke:#000000;stroke-width:3;stroke-linecap:round;stroke-miterlimit:10;}
	.st41{fill:none;stroke:#FFFFFF;stroke-linecap:round;stroke-linejoin:round;stroke-miterlimit:10;}
	.st42{clip-path:url(#SVGID_8_);}
	.st43{fill:#232323;}
	.st44{fill:#ED2424;}
	.st45{fill:#E42526;}
	.st46{fill:#EE4244;}
	.st47{fill:#2D2525;}
	.st48{fill:#4A3D3D;}
	.st49{opacity:0.6;fill:#FFFFFF;}
	.st50{fill:#4E5C61;}
	.st51{clip-path:url(#SVGID_10_);fill:#5F7982;}
	.st52{clip-path:url(#SVGID_10_);fill:#50595C;}
	.st53{opacity:0.64;clip-path:url(#SVGID_10_);fill:#FFFFFF;}
	.st54{filter:url(#Adobe_OpacityMaskFilter);}
	.st55{filter:url(#Adobe_OpacityMaskFilter_1_);}
	.st56{clip-path:url(#SVGID_10_);mask:url(#SVGID_11_);fill:url(#SVGID_12_);}
	.st57{opacity:0.25;clip-path:url(#SVGID_10_);fill:url(#SVGID_13_);}
	.st58{clip-path:url(#SVGID_10_);}
	.st59{filter:url(#Adobe_OpacityMaskFilter_2_);}
	.st60{filter:url(#Adobe_OpacityMaskFilter_3_);}
	.st61{mask:url(#SVGID_14_);fill:url(#SVGID_15_);}
	.st62{opacity:0.6;fill:url(#SVGID_16_);}
	.st63{filter:url(#Adobe_OpacityMaskFilter_4_);}
	.st64{filter:url(#Adobe_OpacityMaskFilter_5_);}
	.st65{mask:url(#SVGID_17_);fill:url(#SVGID_18_);}
	.st66{opacity:0.6;fill:url(#SVGID_19_);}
	.st67{fill:#261F1F;}
	.st68{opacity:0.24;fill:#231F20;}
	.st69{fill:#ED1F45;}
	.st70{opacity:0.4;clip-path:url(#SVGID_21_);fill:#5E0D11;}
	.st71{fill:#DD1F26;}
	.st72{opacity:0.24;clip-path:url(#SVGID_23_);fill:#491314;}
	.st73{clip-path:url(#SVGID_23_);fill:#EC2225;}
	.st74{clip-path:url(#SVGID_25_);fill:#D02027;}
	.st75{fill:#F8BA86;}
	.st76{opacity:0.27;fill:#F8BA86;}
	.st77{opacity:0.11;clip-path:url(#SVGID_27_);fill:#F8BA86;}
	.st78{fill:#F4CDAB;}
	.st79{fill:#F7DAC1;}
	.st80{fill:#EEF3F6;}
	.st81{fill:#E1EAEF;}
	.st82{fill:#1B4A54;}
	.st83{fill:#0A343D;}
	.st84{fill:#EBF6F8;}
	.st85{opacity:0.28;clip-path:url(#SVGID_29_);fill:#005E8B;}
	.st86{fill:#468B96;}
	.st87{fill:#355357;}
	.st88{fill:#31747E;}
	.st89{opacity:0.5;}
	.st90{opacity:0.26;clip-path:url(#SVGID_31_);fill:#003545;}
	.st91{fill:#C2D72E;}
	.st92{opacity:0.11;fill:#394D79;}
	.st93{fill:#434343;}
	.st94{fill:#CE2227;}
	.st95{fill:#EE4041;}
	.st96{opacity:0.88;fill:#A7D8DF;}
	.st97{clip-path:url(#SVGID_33_);fill:#5F7982;}
	.st98{clip-path:url(#SVGID_33_);fill:#50595C;}
	.st99{opacity:0.64;clip-path:url(#SVGID_33_);fill:#FFFFFF;}
	.st100{opacity:0.2;clip-path:url(#SVGID_35_);fill:#981C1F;}
	.st101{fill:#161D23;}
	.st102{fill:#850A16;}
	.st103{fill:#991016;}
	.st104{fill:#AB1227;}
	.st105{fill:#94111D;}
	.st106{fill:#323136;}
	.st107{fill:#444444;}
	.st108{fill:#6B6B6B;}
	.st109{fill:#A8A8A8;}
	.st110{fill:#EFEFEF;}
	.st111{fill:#3F3F3F;}
	.st112{fill:#2A2B2A;}
	.st113{fill:#DD9A07;}
	.st114{fill:#F2AF08;}
	.st115{clip-path:url(#SVGID_37_);}
	.st116{clip-path:url(#SVGID_39_);fill:#5F7982;}
	.st117{clip-path:url(#SVGID_39_);fill:#50595C;}
	.st118{opacity:0.64;clip-path:url(#SVGID_39_);fill:#FFFFFF;}
	.st119{opacity:0.2;clip-path:url(#SVGID_41_);fill:#981C1F;}
	.st120{fill:#FFC295;}
	.st121{fill:#DEAE80;}
	.st122{fill:#D1D3D4;}
	.st123{fill:#D4A476;}
	.st124{fill:#F6E2CA;}
	.st125{fill:#F1F2F2;}
	.st126{fill:#D6A678;}
	.st127{fill:#034E6E;}
	.st128{opacity:0.24;fill:#C7DCFF;}
	.st129{fill:#EC463A;}
	.st130{fill:#BCBEC0;}
	.st131{fill:#0E366B;}
	.st132{fill:#E6E7E8;}
</style>
<circle class="st0" cx="100" cy="100" r="100"/>
<g>
	<polygon class="st1" points="101.31,44.19 57.31,97.58 90.74,97.58 	"/>
	
		<ellipse transform="matrix(0.2319 -0.9727 0.9727 0.2319 -50.9241 132.587)" class="st2" cx="58.49" cy="98.54" rx="6.16" ry="6.16"/>
	
		<ellipse transform="matrix(0.1591 -0.9873 0.9873 0.1591 -39.3748 145.6339)" class="st2" cx="65.81" cy="95.93" rx="6.16" ry="6.16"/>
	<circle class="st2" cx="73.62" cy="97.59" r="6.16"/>
	<circle class="st2" cx="83.43" cy="92.38" r="6.16"/>
	
		<ellipse transform="matrix(0.2319 -0.9727 0.9727 0.2319 -19.6522 153.7319)" class="st2" cx="87.52" cy="89.31" rx="6.16" ry="6.16"/>
	<circle class="st2" cx="78.28" cy="97.59" r="6.16"/>
	<ellipse class="st2" cx="87.52" cy="98.54" rx="8.81" ry="7.65"/>
	<circle class="st2" cx="96.28" cy="102.64" r="5.05"/>
	<circle class="st2" cx="101.62" cy="107.69" r="5.05"/>
	<circle class="st2" cx="50.31" cy="102.64" r="5.05"/>
	<circle class="st2" cx="44.29" cy="104.93" r="5.05"/>
	<g>
		<polygon class="st3" points="158.92,144.87 153.3,150.88 37.48,152.97 26.14,151.69 22.57,146.9 41.93,132.33 108.53,128.54 
			151.79,134.35 		"/>
		<path class="st4" d="M120.79,147.23l-62.18,0.03c0,0,0.16-12.89-12.54-13.18c-12.7-0.28-12.01,12.59-12.01,12.59l0.04,2.07
			c0,0-8.95-0.72-11.54-1.84c0,0-0.94-1.66-1.3-3.33c-0.37-1.67-0.11-5.13-0.11-5.13l2.11-1.38c0,0-0.83-7.98,0.54-10.88
			c0,0-1.3-3.08-0.96-4.96l14.55-16.02c0,0,41.66-9.58,62.01-1.26c21.39,8.74,28.35,14.03,28.35,14.03s20.49,3.33,27.29,7.77
			c2.72,2.2,4.54,5.2,5.17,7.54l-1.28,11.59l-14.11,0.96c0,0,0.64-11.44-10.58-12.34C124.72,132.73,121.68,138.46,120.79,147.23z"/>
		
			<ellipse transform="matrix(0.9997 -0.0224 0.0224 0.9997 -3.2548 3.0239)" class="st3" cx="133.26" cy="146.7" rx="11.23" ry="10.77"/>
		
			<ellipse transform="matrix(0.9997 -0.0224 0.0224 0.9997 -3.2875 1.0691)" class="st3" cx="46.08" cy="147.27" rx="11.23" ry="10.77"/>
		
			<ellipse transform="matrix(0.9997 -0.0224 0.0224 0.9997 -3.2831 1.0697)" class="st5" cx="46.08" cy="146.99" rx="6.74" ry="6.46"/>
		<path class="st6" d="M42.01,147c0.05,2.16,1.91,3.87,4.16,3.82c2.25-0.05,4.04-1.84,3.99-4c-0.05-2.16-1.91-3.87-4.16-3.82
			S41.96,144.84,42.01,147z"/>
		
			<ellipse transform="matrix(0.9997 -0.0224 0.0224 0.9997 -3.2546 3.0177)" class="st5" cx="133.26" cy="146.99" rx="6.74" ry="6.46"/>
		<path class="st7" d="M23.36,127.91h133.9c-0.64-0.76-1.36-1.48-2.17-2.14c-6.8-4.43-27.29-7.77-27.29-7.77s-6.95-5.29-28.35-14.03
			c-20.34-8.31-62.01,1.26-62.01,1.26L22.9,121.25c-0.34,1.88,0.96,4.96,0.96,4.96C23.64,126.67,23.48,127.25,23.36,127.91z"/>
		<path class="st6" d="M36.13,122.49c0,0-9.53-5.66-13.14-1.07c0,0-0.95,2.5,1.1,5.09l8.98-0.22L36.13,122.49z"/>
		<path class="st6" d="M157.13,131.79c0,0-1.71-6.93-16.69-7.03l6.53,5.26C146.97,130.02,155.31,133.69,157.13,131.79z"/>
		<path class="st6" d="M84.57,125.71c-0.02,0.56,2,1.1,4.51,1.22c2.52,0.12,4.57-0.24,4.6-0.79c0.02-0.56-2-1.1-4.51-1.22
			C86.65,124.8,84.59,125.16,84.57,125.71z"/>
		<path class="st6" d="M53.1,126.29c-0.02,0.56,2,1.1,4.51,1.22c2.52,0.12,4.57-0.24,4.6-0.79c0.02-0.56-2-1.1-4.51-1.22
			S53.12,125.73,53.1,126.29z"/>
		<path class="st3" d="M45.28,108.97c0,0,6.65-4.21,26.47-5.04L74,119.98l-21.73-0.53C52.28,119.46,45.81,116.43,45.28,108.97z"/>
		<path class="st8" d="M47.19,109.36c0,0,5.85-3.7,23.27-4.43l1.98,14.11l-19.1-0.46C53.35,118.58,47.66,115.92,47.19,109.36z"/>
		<path class="st3" d="M75.36,103.56c0,0,25.12-2.11,48.07,18.29l-45.73-1.81L75.36,103.56z"/>
		<path class="st8" d="M76.93,104.46c0,0,22.28-1.87,42.64,16.23L79,119.08L76.93,104.46z"/>
		<polygon class="st9" points="43.17,104.07 43.87,127.91 46.69,134.11 47.43,134.11 44.74,127.92 43.93,103.93 		"/>
		<polygon class="st9" points="72.45,100.66 78.8,147.23 80.06,147.23 73.51,100.58 		"/>
		<polygon class="st9" points="117.44,121.62 119.57,127.91 119.24,147.23 120.21,147.23 120.69,127.83 118.61,121.67 		"/>
		<path class="st10" d="M110.04,120.3c0,0,1.87-4.5,0-6.68c3.36,2,7.2,4.86,9.52,7.06L110.04,120.3z"/>
		<path class="st3" d="M115.39,119.62c0,0-2.53-4.48-5.82-5.38c-1.01,0.06-2.99,4.02,0.45,5.75
			C114.05,122.02,115.39,119.62,115.39,119.62z"/>
		<path class="st11" d="M115.46,119.49c0.5-1.19-2.47-5.64-5.86-5.33c-0.87,0.06-2.57,2.88,0.28,4.45
			C112.38,120,114.97,120.68,115.46,119.49z"/>
		<polygon class="st12" points="78.23,113.62 82.59,104.56 85.91,104.93 79,119.08 		"/>
		<polygon class="st12" points="90.93,119.55 96.44,106.94 101.62,108.87 96.87,119.78 		"/>
		<polygon class="st12" points="99.86,119.9 104.07,110.39 107.62,112.21 104.35,120.08 		"/>
		<polygon class="st12" points="53.35,118.58 59.82,105.88 63.64,105.41 56.67,118.66 		"/>
		<polygon class="st12" points="70.47,104.93 63.89,118.84 66.54,118.9 71.02,109.22 		"/>
		<path class="st6" d="M129.19,147c0.05,2.16,1.91,3.87,4.16,3.82c2.25-0.05,4.04-1.84,3.99-4c-0.05-2.16-1.91-3.87-4.16-3.82
			C130.93,143.05,129.14,144.84,129.19,147z"/>
	</g>
	<g>
		<rect x="104.62" y="44.2" class="st13" width="28.86" height="1.44"/>
		<rect x="129.93" y="43.34" class="st3" width="30.73" height="3.17"/>
		<path class="st3" d="M174.79,47.88h-16.74c-0.87,0-1.57-0.7-1.57-1.57v-2.77c0-0.87,0.7-1.57,1.57-1.57h17.35
			c0.63,0,1.2,0.38,1.45,0.96l0.51,1.2c0.21,0.5,0.15,1.07-0.16,1.52l-1.11,1.58C175.78,47.63,175.3,47.88,174.79,47.88z"/>
		<path class="st3" d="M178.53,57.89l-2.06,0.69c-0.33,0.11-0.69-0.09-0.77-0.44c-0.91-4.11-1.98-7.85-3.47-10.59
			c-0.18-0.32-0.02-0.72,0.33-0.84l2.06-0.69c0.27-0.09,0.57,0.02,0.71,0.27c1.44,2.57,2.56,6.54,3.59,10.9
			C178.99,57.49,178.82,57.79,178.53,57.89z"/>
		<path class="st3" d="M166.46,61.17l-0.5-2.14c-0.07-0.3,0.1-0.6,0.39-0.7l10.75-3.51c0.32-0.1,0.66,0.08,0.75,0.4l0.61,2.1
			c0.09,0.31-0.08,0.63-0.38,0.73l-10.87,3.55C166.89,61.7,166.54,61.5,166.46,61.17z"/>
		<path class="st3" d="M167.78,60.29l-0.75,0.28c-0.33,0.12-0.69-0.07-0.78-0.41c-1.26-4.81-2.98-9.5-5.23-14.05
			c-0.16-0.32-0.01-0.7,0.32-0.82l0.75-0.28c0.27-0.1,0.58,0.01,0.72,0.26c2.45,4.35,4.27,9.1,5.34,14.34
			C168.22,59.9,168.06,60.19,167.78,60.29z"/>
		<g>
			<g>
				<path class="st3" d="M162.64,46.4c0.67,0.95,1.39,1.71,2.47,2.2c0.53,0.24,1.16,0.23,1.66,0.46c1.09,0.5,0.89,0.73,0.81,2.02
					c-0.19,3.07-0.09,5.83,2.01,8.24c1.27,1.46,3.38-0.67,2.12-2.12c-2.33-2.69-0.28-5.91-1.23-8.87c-0.84-2.61-3.88-1.49-5.25-3.44
					C164.13,43.32,161.53,44.81,162.64,46.4L162.64,46.4z"/>
			</g>
		</g>
		<rect x="101.31" y="43.31" class="st3" width="9.04" height="3.22"/>
	</g>
	<polygon class="st2" points="33.98,102.43 35.35,107.85 39.34,108.48 35.56,110.16 34.28,115.83 32.54,110.08 28.85,108.74 
		32.64,107.85 	"/>
	<polygon class="st2" points="151.9,137.41 153.27,142.83 157.26,143.46 153.48,145.14 152.2,150.81 150.46,145.06 146.77,143.72 
		150.56,142.83 	"/>
	<polygon class="st2" points="111.84,102.85 112.67,106.13 115.08,106.51 112.79,107.53 112.02,110.96 110.97,107.48 108.73,106.66 
		111.03,106.13 	"/>
	<polygon class="st2" points="63.56,138.94 64.4,142.22 66.81,142.6 64.52,143.62 63.75,147.05 62.69,143.57 60.46,142.76 
		62.76,142.22 	"/>
	<circle class="st14" cx="99.86" cy="89.31" r="3.15"/>
	<circle class="st14" cx="41.14" cy="89.77" r="3.15"/>
	<circle class="st14" cx="109.84" cy="87.74" r="1.57"/>
	<path class="st14" d="M71.97,63.43c0,0.87-0.7,1.57-1.57,1.57c-0.87,0-1.57-0.7-1.57-1.57c0-0.87,0.7-1.57,1.57-1.57
		C71.26,61.86,71.97,62.57,71.97,63.43z"/>
	<path class="st1" d="M157.31,55.13c0,0-1.54,2.05-1.02,3.36c0.53,1.31,1.75,0.65,1.94,0.04C158.61,57.23,157.31,55.13,157.31,55.13
		z"/>
	<path class="st1" d="M152.12,65.8c0,0-1.54,2.05-1.02,3.36c0.53,1.31,1.75,0.65,1.94,0.04C153.42,67.91,152.12,65.8,152.12,65.8z"
		/>
	<path class="st1" d="M148.94,55.99c0,0-1.54,2.05-1.02,3.36c0.53,1.31,1.75,0.65,1.94,0.04C150.24,58.1,148.94,55.99,148.94,55.99z
		"/>
	<path class="st1" d="M146.92,73.02c0,0-1.54,2.05-1.02,3.36c0.53,1.31,1.75,0.65,1.94,0.04C148.22,75.13,146.92,73.02,146.92,73.02
		z"/>
	<path class="st1" d="M104.34,49.71c0,0-1.57,2.09-1.04,3.42c0.54,1.33,1.79,0.67,1.97,0.04C105.66,51.85,104.34,49.71,104.34,49.71
		z"/>
	<path class="st1" d="M107.8,56.63c0,0-1.57,2.09-1.04,3.42c0.54,1.33,1.79,0.67,1.97,0.04C109.12,58.78,107.8,56.63,107.8,56.63z"
		/>
	<path class="st1" d="M103.18,64.14c0,0-1.57,2.09-1.04,3.42c0.54,1.33,1.79,0.67,1.97,0.04C104.51,66.28,103.18,64.14,103.18,64.14
		z"/>
	
		<ellipse transform="matrix(0.9212 -0.3892 0.3892 0.9212 -37.733 24.5639)" class="st2" cx="41.76" cy="105.41" rx="3.05" ry="3.05"/>
	<circle class="st2" cx="54.94" cy="101.02" r="4.12"/>
	<circle class="st2" cx="50.55" cy="102.38" r="3.31"/>
	<circle class="st2" cx="46.47" cy="105.41" r="3.05"/>
	
		<ellipse transform="matrix(0.1607 -0.987 0.987 0.1607 -21.3587 179.6038)" class="st2" cx="94.93" cy="102.36" rx="3.05" ry="3.05"/>
	<circle class="st2" cx="99.33" cy="104.56" r="3.05"/>
	<circle class="st2" cx="90.63" cy="99.88" r="3.05"/>
	<circle class="st2" cx="85.33" cy="99.88" r="3.05"/>
	<circle class="st2" cx="65.64" cy="98.54" r="4.49"/>
	<circle class="st2" cx="72.57" cy="96.83" r="4.49"/>
	<circle class="st2" cx="78.71" cy="97.59" r="4.49"/>
	<circle class="st2" cx="103.74" cy="106.94" r="3.05"/>
	
		<ellipse transform="matrix(0.1607 -0.987 0.987 0.1607 -49.0633 143.4574)" class="st2" cx="59.82" cy="100.58" rx="3.05" ry="3.05"/>
	<g>
		<g>
			<path class="st2" d="M92.49,56.23c-7.5,10.45-15.01,20.9-22.51,31.34c-0.28,0.39,0.37,0.77,0.65,0.38
				c7.5-10.45,15.01-20.9,22.51-31.34C93.42,56.21,92.77,55.84,92.49,56.23L92.49,56.23z"/>
		</g>
	</g>
	<g>
		<g>
			<path class="st2" d="M91.5,64.01c-4.15,7.63-8.31,15.25-12.46,22.88c-0.16,0.29,0.28,0.54,0.44,0.26
				c4.15-7.63,8.31-15.25,12.46-22.88C92.09,63.98,91.65,63.72,91.5,64.01L91.5,64.01z"/>
		</g>
	</g>
	<g>
		<g>
			<path class="st2" d="M96.43,59.49c-3.34,9.6-6.67,19.2-10.01,28.8c-0.13,0.36,0.45,0.52,0.57,0.16c3.34-9.6,6.67-19.2,10.01-28.8
				C97.13,59.28,96.56,59.13,96.43,59.49L96.43,59.49z"/>
		</g>
	</g>
</g>
</svg>
