<?xml version="1.0" encoding="utf-8"?>
<!-- Generator: Adobe Illustrator 23.0.1, SVG Export Plug-In . SVG Version: 6.00 Build 0)  -->
<svg version="1.1" id="Layer_1" xmlns="http://www.w3.org/2000/svg" xmlns:xlink="http://www.w3.org/1999/xlink" x="0px" y="0px"
	 viewBox="0 0 200 200" style="enable-background:new 0 0 200 200;" xml:space="preserve">
<style type="text/css">
	.st0{fill:#DDDDDD;}
	.st1{fill:#67DAF9;}
	.st2{fill:#FFFFFF;}
	.st3{fill:#3A4241;}
	.st4{fill:#DD463E;}
	.st5{fill:#BBB8BB;}
	.st6{fill:#F7FEFB;}
	.st7{fill:#F96046;}
	.st8{fill:#4FA7B5;}
	.st9{fill:#CC3A2F;}
	.st10{fill:#4F5655;}
	.st11{fill:#FC7F6B;}
	.st12{fill:#FFF8F3;}
	.st13{fill:#E8E7E6;}
	.st14{fill:none;stroke:#FFFFFF;stroke-width:2;stroke-miterlimit:10;}
	.st15{clip-path:url(#SVGID_4_);}
	.st16{fill:#D02027;}
	.st17{fill:#C52127;}
	.st18{fill:#221E1F;}
	.st19{fill:#979797;}
	.st20{fill:#5E6C69;}
	.st21{fill:#DDF1F9;}
	.st22{fill:#EC1C24;}
	.st23{fill:#FFDD15;}
	.st24{fill:#F6921E;}
	.st25{fill:#FAAF41;}
	.st26{fill:#D58228;}
	.st27{fill:#BD202E;}
	.st28{fill:#EA8F8F;}
	.st29{fill:#ECD829;}
	.st30{fill:#F7EC33;}
	.st31{fill:#D4BE29;}
	.st32{fill:#ED9626;}
	.st33{fill:#FBF9EF;}
	.st34{fill:#38331E;}
	.st35{fill:#726944;}
	.st36{fill:#BCB499;}
	.st37{fill:#564C22;}
	.st38{fill:#BFB68D;}
	.st39{fill:none;stroke:#000000;stroke-width:2;stroke-linecap:round;stroke-linejoin:round;stroke-miterlimit:10;}
	.st40{fill:none;stroke:#000000;stroke-width:3;stroke-linecap:round;stroke-miterlimit:10;}
	.st41{fill:none;stroke:#FFFFFF;stroke-linecap:round;stroke-linejoin:round;stroke-miterlimit:10;}
	.st42{clip-path:url(#SVGID_8_);}
	.st43{fill:#232323;}
	.st44{fill:#ED2424;}
	.st45{fill:#E42526;}
	.st46{fill:#EE4244;}
	.st47{fill:#2D2525;}
	.st48{fill:#4A3D3D;}
	.st49{opacity:0.6;fill:#FFFFFF;}
	.st50{fill:#4E5C61;}
	.st51{clip-path:url(#SVGID_10_);fill:#5F7982;}
	.st52{clip-path:url(#SVGID_10_);fill:#50595C;}
	.st53{opacity:0.64;clip-path:url(#SVGID_10_);fill:#FFFFFF;}
	.st54{filter:url(#Adobe_OpacityMaskFilter);}
	.st55{filter:url(#Adobe_OpacityMaskFilter_1_);}
	.st56{clip-path:url(#SVGID_10_);mask:url(#SVGID_11_);fill:url(#SVGID_12_);}
	.st57{opacity:0.25;clip-path:url(#SVGID_10_);fill:url(#SVGID_13_);}
	.st58{clip-path:url(#SVGID_10_);}
	.st59{filter:url(#Adobe_OpacityMaskFilter_2_);}
	.st60{filter:url(#Adobe_OpacityMaskFilter_3_);}
	.st61{mask:url(#SVGID_14_);fill:url(#SVGID_15_);}
	.st62{opacity:0.6;fill:url(#SVGID_16_);}
	.st63{filter:url(#Adobe_OpacityMaskFilter_4_);}
	.st64{filter:url(#Adobe_OpacityMaskFilter_5_);}
	.st65{mask:url(#SVGID_17_);fill:url(#SVGID_18_);}
	.st66{opacity:0.6;fill:url(#SVGID_19_);}
	.st67{fill:#261F1F;}
	.st68{opacity:0.24;fill:#231F20;}
	.st69{fill:#ED1F45;}
	.st70{opacity:0.4;clip-path:url(#SVGID_21_);fill:#5E0D11;}
	.st71{fill:#DD1F26;}
	.st72{opacity:0.24;clip-path:url(#SVGID_23_);fill:#491314;}
	.st73{clip-path:url(#SVGID_23_);fill:#EC2225;}
	.st74{clip-path:url(#SVGID_25_);fill:#D02027;}
	.st75{fill:#F8BA86;}
	.st76{opacity:0.27;fill:#F8BA86;}
	.st77{opacity:0.11;clip-path:url(#SVGID_27_);fill:#F8BA86;}
	.st78{fill:#F4CDAB;}
	.st79{fill:#F7DAC1;}
	.st80{fill:#EEF3F6;}
	.st81{fill:#E1EAEF;}
	.st82{fill:#1B4A54;}
	.st83{fill:#0A343D;}
	.st84{fill:#EBF6F8;}
	.st85{opacity:0.28;clip-path:url(#SVGID_29_);fill:#005E8B;}
	.st86{fill:#468B96;}
	.st87{fill:#355357;}
	.st88{fill:#31747E;}
	.st89{opacity:0.5;}
	.st90{opacity:0.26;clip-path:url(#SVGID_31_);fill:#003545;}
	.st91{fill:#C2D72E;}
	.st92{opacity:0.11;fill:#394D79;}
	.st93{fill:#434343;}
	.st94{fill:#CE2227;}
	.st95{fill:#EE4041;}
	.st96{opacity:0.88;fill:#A7D8DF;}
	.st97{clip-path:url(#SVGID_33_);fill:#5F7982;}
	.st98{clip-path:url(#SVGID_33_);fill:#50595C;}
	.st99{opacity:0.64;clip-path:url(#SVGID_33_);fill:#FFFFFF;}
	.st100{opacity:0.2;clip-path:url(#SVGID_35_);fill:#981C1F;}
	.st101{fill:#161D23;}
	.st102{fill:#850A16;}
	.st103{fill:#991016;}
	.st104{fill:#AB1227;}
	.st105{fill:#94111D;}
	.st106{fill:#323136;}
	.st107{fill:#444444;}
	.st108{fill:#6B6B6B;}
	.st109{fill:#A8A8A8;}
	.st110{fill:#EFEFEF;}
	.st111{fill:#3F3F3F;}
	.st112{fill:#2A2B2A;}
	.st113{fill:#DD9A07;}
	.st114{fill:#F2AF08;}
	.st115{clip-path:url(#SVGID_37_);}
	.st116{clip-path:url(#SVGID_39_);fill:#5F7982;}
	.st117{clip-path:url(#SVGID_39_);fill:#50595C;}
	.st118{opacity:0.64;clip-path:url(#SVGID_39_);fill:#FFFFFF;}
	.st119{opacity:0.2;clip-path:url(#SVGID_41_);fill:#981C1F;}
	.st120{fill:#FFC295;}
	.st121{fill:#DEAE80;}
	.st122{fill:#D1D3D4;}
	.st123{fill:#D4A476;}
	.st124{fill:#F6E2CA;}
	.st125{fill:#F1F2F2;}
	.st126{fill:#D6A678;}
	.st127{fill:#034E6E;}
	.st128{opacity:0.24;fill:#C7DCFF;}
	.st129{fill:#EC463A;}
	.st130{fill:#BCBEC0;}
	.st131{fill:#0E366B;}
	.st132{fill:#E6E7E8;}
</style>
<circle class="st0" cx="100" cy="100" r="100"/>
<g>
	<defs>
		<circle id="SVGID_1_" cx="100" cy="100" r="100"/>
	</defs>
	<clipPath id="SVGID_2_">
		<use xlink:href="#SVGID_1_"  style="overflow:visible;"/>
	</clipPath>
</g>
<g>
	
		<ellipse transform="matrix(0.9637 -0.2669 0.2669 0.9637 -22.0186 30.1796)" class="st84" cx="100" cy="96.08" rx="71.9" ry="71.9"/>
	<g>
		<defs>
			
				<ellipse id="SVGID_28_" transform="matrix(0.9242 -0.382 0.382 0.9242 -29.117 45.4815)" cx="100" cy="96.08" rx="64.69" ry="64.69"/>
		</defs>
		<use xlink:href="#SVGID_28_"  style="overflow:visible;fill:#87D2DD;"/>
		<clipPath id="SVGID_4_">
			<use xlink:href="#SVGID_28_"  style="overflow:visible;"/>
		</clipPath>
		<polygon style="opacity:0.28;clip-path:url(#SVGID_4_);fill:#005E8B;" points="177.03,103.45 133.33,59.76 114.83,57.08 
			99.22,63.11 95.36,85.23 65.99,114.6 119.89,168.51 142.39,157.69 168.02,135.59 		"/>
	</g>
	<path class="st2" d="M133.16,115.42l-27.07,23.77c-3.49,3.06-8.71,3.06-12.19,0l-27.07-23.77c-2-1.75-3.14-4.28-3.14-6.94v-41.9
		c0-4.6,3.39-8.5,7.94-9.15L98.7,53.6c0.86-0.12,1.73-0.12,2.59,0l27.07,3.84c4.56,0.65,7.94,4.55,7.94,9.15v41.9
		C136.31,111.14,135.16,113.67,133.16,115.42z"/>
	<path class="st86" d="M123.44,92.04c0,12.95-10.49,23.44-23.44,23.44c-12.95,0-23.44-10.49-23.44-23.44
		C76.56,79.1,87.05,68.6,100,68.6C112.95,68.6,123.44,79.1,123.44,92.04z"/>
	<path class="st87" d="M126.85,112.39l-21.91,19.98c-2.82,2.57-7.05,2.57-9.87,0l-21.91-19.98c-1.62-1.47-2.54-3.6-2.54-5.84V71.34
		c0-3.87,2.74-7.15,6.43-7.69l21.91-3.22c0.7-0.1,1.4-0.1,2.1,0l21.91,3.22c3.69,0.54,6.43,3.82,6.43,7.69v35.21
		C129.39,108.79,128.46,110.92,126.85,112.39z"/>
	<path class="st88" d="M124.82,111.17l-20.26,18.54c-2.61,2.39-6.52,2.39-9.13,0l-20.26-18.54c-1.5-1.37-2.35-3.34-2.35-5.42V73.07
		c0-3.59,2.54-6.63,5.95-7.14l20.26-2.99c0.64-0.1,1.3-0.1,1.94,0l20.26,2.99c3.41,0.5,5.95,3.55,5.95,7.14v32.69
		C127.17,107.83,126.32,109.81,124.82,111.17z"/>
	<g class="st89">
		<defs>
			<path id="SVGID_30_" class="st89" d="M133.16,115.42l-27.07,23.77c-3.49,3.06-8.71,3.06-12.19,0l-27.07-23.77
				c-2-1.75-3.14-4.28-3.14-6.94v-41.9c0-4.6,3.39-8.5,7.94-9.15L98.7,53.6c0.86-0.12,1.73-0.12,2.59,0l27.07,3.84
				c4.56,0.65,7.94,4.55,7.94,9.15v41.9C136.31,111.14,135.16,113.67,133.16,115.42z"/>
		</defs>
		<clipPath id="SVGID_6_">
			<use xlink:href="#SVGID_30_"  style="overflow:visible;"/>
		</clipPath>
		<rect x="100" y="50.19" style="opacity:0.26;clip-path:url(#SVGID_6_);fill:#003545;" width="36.31" height="91.29"/>
	</g>
	<polygon class="st91" points="99.38,103.33 88,92.67 92.86,88.12 99.38,94.23 112.49,81.94 117.34,86.49 	"/>
	<path class="st92" d="M163.73,172.01c0,2.1-23.11,3.8-51.62,3.8c-28.51,0-51.62-1.7-51.62-3.8c0-2.1,23.56-2.45,52.07-2.45
		C141.08,169.56,163.73,169.91,163.73,172.01z"/>
	<path class="st93" d="M71.92,151.49H61.13c-0.55,0-1,0.45-1,1v18.52c0,0.55,0.45,1,1,1h10.79c0.55,0,1-0.45,1-1v-18.52
		C72.92,151.94,72.48,151.49,71.92,151.49z"/>
	<path class="st43" d="M138.55,151.52h-10.79c-0.55,0-1,0.45-1,1v18.52c0,0.55,0.45,1,1,1h10.79c0.55,0,1-0.45,1-1v-18.52
		C139.55,151.97,139.1,151.52,138.55,151.52z"/>
	<path class="st44" d="M60.59,132.69h5.51c0.28,0,0.51,0.21,0.53,0.49l0,0.01c0.06,0.72,0.24,1.43,0.55,2.08l0.98,2.08
		c0.13,0.27,0.01,0.59-0.26,0.71l-1.46,0.68c-0.27,0.13-0.59,0.01-0.71-0.26l-0.56-1.19c-0.21-0.44-0.65-0.72-1.14-0.72h-2.85
		c-0.25,0-0.47-0.18-0.52-0.42l-0.6-2.83C60,133,60.25,132.69,60.59,132.69z"/>
	<path class="st94" d="M139.22,132.69h-5.51c-0.28,0-0.51,0.21-0.53,0.49l0,0c-0.06,0.73-0.25,1.44-0.56,2.1l-0.97,2.07
		c-0.13,0.27-0.01,0.59,0.26,0.71l1.46,0.68c0.27,0.13,0.59,0.01,0.71-0.26l0.56-1.19c0.21-0.44,0.65-0.72,1.14-0.72h2.85
		c0.25,0,0.47-0.18,0.52-0.42l0.6-2.83C139.81,133,139.56,132.69,139.22,132.69z"/>
	<path class="st44" d="M134.88,168.97H63.86c-1.77,0-3.17-1.38-3.22-3.12l-0.6-20.5c-0.14-4.77,3.69-8.72,8.47-8.72h62.68
		c4.78,0,8.61,3.95,8.47,8.72l-0.6,20.5C139.01,167.58,137.58,168.97,134.88,168.97z"/>
	<path class="st95" d="M133.48,147.41l-10.81,0.72c-2.49,0.17-4.63,1.55-5.73,3.73l-0.3,0.59h-33.3l-0.3-0.58
		c-1.12-2.18-3.28-3.56-5.79-3.7l-12.86-0.75c-0.75,0-2.04-0.42-1.99-0.95l0.57-6.01c0.13-1.35,3.84-2.45,8.21-2.45
		c0,0,22.05,2.01,29.25,2.01c7.14,0,28.11-2.01,28.11-2.01c4.37,0,8.09,1.1,8.21,2.45l0.57,6.01
		C137.36,146.98,136.07,147.41,133.48,147.41z"/>
	<path class="st44" d="M70.7,134.6l5.4-11.42c0.6-1.26,1.86-2.06,3.26-2.06h41.15c1.39,0,2.66,0.8,3.26,2.06l5.4,11.42
		c0.45,0.96,0.23,2-0.39,2.7h3.5l-7.32-15.48c-0.67-1.42-2.1-2.33-3.68-2.33c0,0-16.01-0.33-21.35-0.33
		c-5.34,0-21.35,0.33-21.35,0.33c-1.57,0-3,0.91-3.68,2.33L67.6,137.3h3.5C70.47,136.6,70.25,135.56,70.7,134.6z"/>
	<path class="st44" d="M115.7,164.36H84.22c-1.27,0-2.22-1.17-1.97-2.41l2.22-10.87c0.19-0.93,1.01-1.61,1.97-1.61h27.04
		c0.95,0,1.78,0.67,1.97,1.61l2.22,10.87C117.93,163.2,116.98,164.36,115.7,164.36z"/>
	<path class="st47" d="M115.7,166.28H84.22c-1.27,0-2.22-1.17-1.97-2.41l2.22-10.87c0.19-0.93,1.01-1.61,1.97-1.61h27.04
		c0.95,0,1.78,0.67,1.97,1.61l2.22,10.87C117.93,165.12,116.98,166.28,115.7,166.28z"/>
	<path class="st48" d="M115.83,166.28H86.29c-1.19,0-2.09-1.04-1.85-2.16l2.08-9.73c0.18-0.84,0.95-1.44,1.85-1.44h25.37
		c0.9,0,1.67,0.6,1.85,1.44l2.08,9.73C117.91,165.24,117.02,166.28,115.83,166.28z"/>
	<path class="st96" d="M120.52,121.12H79.37c-1.39,0-2.66,0.8-3.26,2.06l-5.4,11.42c-0.78,1.64,0.42,3.53,2.24,3.53
		c0,0,20.25,0.82,27,0.82c6.75,0,27-0.82,27-0.82c1.82,0,3.01-1.89,2.24-3.53l-5.4-11.42C123.18,121.92,121.92,121.12,120.52,121.12
		z"/>
	<path class="st50" d="M105.15,125.04H93.82c-0.25,0-0.45-0.2-0.45-0.45v-1.31c0-0.25,0.2-0.45,0.45-0.45h11.33
		c0.25,0,0.45,0.2,0.45,0.45v1.31C105.6,124.84,105.4,125.04,105.15,125.04z"/>
	<g>
		<defs>
			<path id="SVGID_32_" d="M120.52,121.12H79.37c-1.39,0-2.66,0.8-3.26,2.06l-5.4,11.42c-0.78,1.64,0.42,3.53,2.24,3.53
				c0,0,20.25,0.82,27,0.82c6.75,0,27-0.82,27-0.82c1.82,0,3.01-1.89,2.24-3.53l-5.4-11.42
				C123.18,121.92,121.92,121.12,120.52,121.12z"/>
		</defs>
		<clipPath id="SVGID_8_">
			<use xlink:href="#SVGID_32_"  style="overflow:visible;"/>
		</clipPath>
		<path style="clip-path:url(#SVGID_8_);fill:#5F7982;" d="M118.56,143.29h-11.27c-1.29,0-2.28-1.15-2.08-2.43l1.39-9.11
			c0.16-1.03,1.04-1.79,2.08-1.79h8.5c1.04,0,1.93,0.76,2.08,1.79l1.39,9.11C120.84,142.14,119.85,143.29,118.56,143.29z"/>
		<path style="clip-path:url(#SVGID_8_);fill:#5F7982;" d="M91.68,143.29H80.41c-1.29,0-2.28-1.15-2.08-2.43l1.39-9.11
			c0.16-1.03,1.04-1.79,2.08-1.79h8.5c1.04,0,1.93,0.76,2.08,1.79l1.39,9.11C93.96,142.14,92.97,143.29,91.68,143.29z"/>
		<path style="clip-path:url(#SVGID_8_);fill:#50595C;" d="M133.84,141.4H67.02c-0.81,0-0.56-0.69,0.51-1.49l4.04-3.03
			c0.77-0.58,1.89-1.03,2.53-1.03h52.65c0.64,0,1.76,0.45,2.53,1.03l4.04,3.03C134.39,140.71,134.65,141.4,133.84,141.4z"/>
		<path style="clip-path:url(#SVGID_8_);fill:#50595C;" d="M122.7,135.84c0,1.19-3.25,2.16-7.25,2.16c-4.01,0-7.25-0.97-7.25-2.16
			c0-1.19,3.25-2.16,7.25-2.16C119.46,133.69,122.7,134.65,122.7,135.84z"/>
		
			<rect x="80.08" y="129.6" transform="matrix(-0.5952 0.8036 -0.8036 -0.5952 263.0837 132.7738)" style="opacity:0.64;clip-path:url(#SVGID_8_);fill:#FFFFFF;" width="36.03" height="6.1"/>
		
			<rect x="73.41" y="131.89" transform="matrix(-0.5952 0.8036 -0.8036 -0.5952 252.6078 138.4841)" style="opacity:0.64;clip-path:url(#SVGID_8_);fill:#FFFFFF;" width="36.03" height="1.95"/>
	</g>
	<path class="st2" d="M77.69,155.66l-13.65-0.85c-0.46-0.03-0.82-0.41-0.82-0.87v-3.69c0-0.51,0.43-0.91,0.93-0.88l13.65,0.85
		c0.46,0.03,0.82,0.41,0.82,0.88v3.69C78.62,155.3,78.19,155.7,77.69,155.66z"/>
	<path class="st2" d="M122.26,155.66l13.65-0.85c0.46-0.03,0.82-0.41,0.82-0.87v-3.69c0-0.51-0.43-0.91-0.93-0.88l-13.65,0.85
		c-0.46,0.03-0.82,0.41-0.82,0.88v3.69C121.33,155.3,121.75,155.7,122.26,155.66z"/>
	<path class="st67" d="M75.58,163.78l-10.22-0.66c-0.31-0.02-0.55,0.27-0.48,0.58l0.54,2.23c0.05,0.21,0.24,0.36,0.45,0.36H78.7
		c0.14,0,0.23-0.14,0.17-0.27l0,0C78.27,164.72,77,163.86,75.58,163.78z"/>
	<path class="st67" d="M124.37,163.78l10.22-0.66c0.31-0.02,0.55,0.27,0.48,0.58l-0.54,2.23c-0.05,0.21-0.24,0.36-0.45,0.36h-12.82
		c-0.14,0-0.23-0.14-0.17-0.27l0,0C121.67,164.72,122.94,163.86,124.37,163.78z"/>
	<g>
		<defs>
			<path id="SVGID_34_" d="M131.95,136.62l-7-14.8c-0.17-1.42-1.61-2.33-3.18-2.33H79.08c-1.57,0-3,0.91-3.68,2.33l-7,14.8
				c-4.72,0.06-8.49,3.98-8.35,8.72l0.6,20.5c0.05,1.74,1.58,3.12,3.22,3.12h71.02c2.7,0,4.13-1.38,4.18-3.12l0.6-20.5
				C139.79,141.01,136.6,137.27,131.95,136.62z"/>
		</defs>
		<clipPath id="SVGID_10_">
			<use xlink:href="#SVGID_34_"  style="overflow:visible;"/>
		</clipPath>
		<polygon style="opacity:0.2;clip-path:url(#SVGID_10_);fill:#981C1F;" points="88.95,179.94 131.46,122.55 170.86,151.73 
			128.35,205.52 		"/>
	</g>
</g>
</svg>
