<?xml version="1.0" encoding="utf-8"?>
<!-- Generator: Adobe Illustrator 23.0.1, SVG Export Plug-In . SVG Version: 6.00 Build 0)  -->
<svg version="1.1" id="Layer_1" xmlns="http://www.w3.org/2000/svg" xmlns:xlink="http://www.w3.org/1999/xlink" x="0px" y="0px"
	 viewBox="0 0 200 200" style="enable-background:new 0 0 200 200;" xml:space="preserve">
<style type="text/css">
	.st0{fill:#DDDDDD;}
	.st1{fill:#67DAF9;}
	.st2{fill:#FFFFFF;}
	.st3{fill:#3A4241;}
	.st4{fill:#DD463E;}
	.st5{fill:#BBB8BB;}
	.st6{fill:#F7FEFB;}
	.st7{fill:#F96046;}
	.st8{fill:#4FA7B5;}
	.st9{fill:#CC3A2F;}
	.st10{fill:#4F5655;}
	.st11{fill:#FC7F6B;}
	.st12{fill:#FFF8F3;}
	.st13{fill:#E8E7E6;}
	.st14{fill:none;stroke:#FFFFFF;stroke-width:2;stroke-miterlimit:10;}
	.st15{clip-path:url(#SVGID_4_);}
	.st16{fill:#D02027;}
	.st17{fill:#C52127;}
	.st18{fill:#221E1F;}
	.st19{fill:#979797;}
	.st20{fill:#5E6C69;}
	.st21{fill:#DDF1F9;}
	.st22{fill:#EC1C24;}
	.st23{fill:#FFDD15;}
	.st24{fill:#F6921E;}
	.st25{fill:#FAAF41;}
	.st26{fill:#D58228;}
	.st27{fill:#BD202E;}
	.st28{fill:#EA8F8F;}
	.st29{fill:#ECD829;}
	.st30{fill:#F7EC33;}
	.st31{fill:#D4BE29;}
	.st32{fill:#ED9626;}
	.st33{fill:#FBF9EF;}
	.st34{fill:#38331E;}
	.st35{fill:#726944;}
	.st36{fill:#BCB499;}
	.st37{fill:#564C22;}
	.st38{fill:#BFB68D;}
	.st39{fill:none;stroke:#000000;stroke-width:2;stroke-linecap:round;stroke-linejoin:round;stroke-miterlimit:10;}
	.st40{fill:none;stroke:#000000;stroke-width:3;stroke-linecap:round;stroke-miterlimit:10;}
	.st41{fill:none;stroke:#FFFFFF;stroke-linecap:round;stroke-linejoin:round;stroke-miterlimit:10;}
	.st42{clip-path:url(#SVGID_8_);}
	.st43{fill:#232323;}
	.st44{fill:#ED2424;}
	.st45{fill:#E42526;}
	.st46{fill:#EE4244;}
	.st47{fill:#2D2525;}
	.st48{fill:#4A3D3D;}
	.st49{opacity:0.6;fill:#FFFFFF;}
	.st50{fill:#4E5C61;}
	.st51{clip-path:url(#SVGID_10_);fill:#5F7982;}
	.st52{clip-path:url(#SVGID_10_);fill:#50595C;}
	.st53{opacity:0.64;clip-path:url(#SVGID_10_);fill:#FFFFFF;}
	.st54{filter:url(#Adobe_OpacityMaskFilter);}
	.st55{filter:url(#Adobe_OpacityMaskFilter_1_);}
	.st56{clip-path:url(#SVGID_10_);mask:url(#SVGID_11_);fill:url(#SVGID_12_);}
	.st57{opacity:0.25;clip-path:url(#SVGID_10_);fill:url(#SVGID_13_);}
	.st58{clip-path:url(#SVGID_10_);}
	.st59{filter:url(#Adobe_OpacityMaskFilter_2_);}
	.st60{filter:url(#Adobe_OpacityMaskFilter_3_);}
	.st61{mask:url(#SVGID_14_);fill:url(#SVGID_15_);}
	.st62{opacity:0.6;fill:url(#SVGID_16_);}
	.st63{filter:url(#Adobe_OpacityMaskFilter_4_);}
	.st64{filter:url(#Adobe_OpacityMaskFilter_5_);}
	.st65{mask:url(#SVGID_17_);fill:url(#SVGID_18_);}
	.st66{opacity:0.6;fill:url(#SVGID_19_);}
	.st67{fill:#261F1F;}
	.st68{opacity:0.24;fill:#231F20;}
	.st69{fill:#ED1F45;}
	.st70{opacity:0.4;clip-path:url(#SVGID_21_);fill:#5E0D11;}
	.st71{fill:#DD1F26;}
	.st72{opacity:0.24;clip-path:url(#SVGID_23_);fill:#491314;}
	.st73{clip-path:url(#SVGID_23_);fill:#EC2225;}
	.st74{clip-path:url(#SVGID_25_);fill:#D02027;}
	.st75{fill:#F8BA86;}
	.st76{opacity:0.27;fill:#F8BA86;}
	.st77{opacity:0.11;clip-path:url(#SVGID_27_);fill:#F8BA86;}
	.st78{fill:#F4CDAB;}
	.st79{fill:#F7DAC1;}
	.st80{fill:#EEF3F6;}
	.st81{fill:#E1EAEF;}
	.st82{fill:#1B4A54;}
	.st83{fill:#0A343D;}
	.st84{fill:#EBF6F8;}
	.st85{opacity:0.28;clip-path:url(#SVGID_29_);fill:#005E8B;}
	.st86{fill:#468B96;}
	.st87{fill:#355357;}
	.st88{fill:#31747E;}
	.st89{opacity:0.5;}
	.st90{opacity:0.26;clip-path:url(#SVGID_31_);fill:#003545;}
	.st91{fill:#C2D72E;}
	.st92{opacity:0.11;fill:#394D79;}
	.st93{fill:#434343;}
	.st94{fill:#CE2227;}
	.st95{fill:#EE4041;}
	.st96{opacity:0.88;fill:#A7D8DF;}
	.st97{clip-path:url(#SVGID_33_);fill:#5F7982;}
	.st98{clip-path:url(#SVGID_33_);fill:#50595C;}
	.st99{opacity:0.64;clip-path:url(#SVGID_33_);fill:#FFFFFF;}
	.st100{opacity:0.2;clip-path:url(#SVGID_35_);fill:#981C1F;}
	.st101{fill:#161D23;}
	.st102{fill:#850A16;}
	.st103{fill:#991016;}
	.st104{fill:#AB1227;}
	.st105{fill:#94111D;}
	.st106{fill:#323136;}
	.st107{fill:#444444;}
	.st108{fill:#6B6B6B;}
	.st109{fill:#A8A8A8;}
	.st110{fill:#EFEFEF;}
	.st111{fill:#3F3F3F;}
	.st112{fill:#2A2B2A;}
	.st113{fill:#DD9A07;}
	.st114{fill:#F2AF08;}
	.st115{clip-path:url(#SVGID_37_);}
	.st116{clip-path:url(#SVGID_39_);fill:#5F7982;}
	.st117{clip-path:url(#SVGID_39_);fill:#50595C;}
	.st118{opacity:0.64;clip-path:url(#SVGID_39_);fill:#FFFFFF;}
	.st119{opacity:0.2;clip-path:url(#SVGID_41_);fill:#981C1F;}
	.st120{fill:#FFC295;}
	.st121{fill:#DEAE80;}
	.st122{fill:#D1D3D4;}
	.st123{fill:#D4A476;}
	.st124{fill:#F6E2CA;}
	.st125{fill:#F1F2F2;}
	.st126{fill:#D6A678;}
	.st127{fill:#034E6E;}
	.st128{opacity:0.24;fill:#C7DCFF;}
	.st129{fill:#EC463A;}
	.st130{fill:#BCBEC0;}
	.st131{fill:#0E366B;}
	.st132{fill:#E6E7E8;}
</style>
<circle class="st0" cx="100" cy="100" r="100"/>
<g>
	<defs>
		<circle id="SVGID_5_" cx="100" cy="100" r="100"/>
	</defs>
	<clipPath id="SVGID_2_">
		<use xlink:href="#SVGID_5_"  style="overflow:visible;"/>
	</clipPath>
</g>
<g>
	<defs>
		<circle id="SVGID_7_" cx="100" cy="100" r="100"/>
	</defs>
	<clipPath id="SVGID_4_">
		<use xlink:href="#SVGID_7_"  style="overflow:visible;"/>
	</clipPath>
	<g class="st15">
		<g>
			<path class="st43" d="M127.52,109.82h10.45c0.57,0,1.03,0.46,1.03,1.03v18c0,0.57-0.46,1.03-1.03,1.03h-10.45
				c-0.57,0-1.03-0.46-1.03-1.03v-18C126.49,110.28,126.95,109.82,127.52,109.82z"/>
			<path class="st43" d="M62.89,109.85h10.45c0.57,0,1.03,0.46,1.03,1.03v18c0,0.57-0.46,1.03-1.03,1.03H62.89
				c-0.57,0-1.03-0.46-1.03-1.03v-18C61.86,110.31,62.32,109.85,62.89,109.85z"/>
			<path class="st44" d="M138.35,90.77h-4.51c-0.33,0-0.61,0.26-0.64,0.59l0,0c-0.07,0.88-0.3,1.74-0.68,2.54l-1.12,2.39
				c-0.17,0.36-0.01,0.79,0.34,0.95l1.61,0.76c0.36,0.17,0.79,0.01,0.95-0.34l0.62-1.31c0.26-0.56,0.82-0.91,1.44-0.91h1.99
				c1.1,0,2.05-0.77,2.28-1.85l0,0C140.94,92.13,139.83,90.77,138.35,90.77z"/>
			<path class="st45" d="M62.45,90.77h4.51c0.33,0,0.61,0.26,0.64,0.59l0,0c0.07,0.87,0.3,1.73,0.67,2.52l1.17,2.48
				c0.15,0.32,0.01,0.7-0.31,0.85l-1.74,0.82c-0.32,0.15-0.7,0.01-0.85-0.31l-0.67-1.42c-0.25-0.53-0.78-0.87-1.37-0.87h-2.04
				c-1.1,0-2.05-0.77-2.28-1.85l0,0C59.86,92.13,60.97,90.77,62.45,90.77z"/>
			<path class="st44" d="M66.21,126.9h69.43c1.73,0,3.1-1.35,3.15-3.05l0.59-20.04c0.14-4.67-3.61-8.53-8.28-8.53H69.81
				c-4.67,0-8.42,3.86-8.28,8.53l0.59,20.04C62.17,125.55,63.57,126.9,66.21,126.9z"/>
			<path class="st46" d="M67.58,105.83l10.57,0.71c2.44,0.16,4.53,1.51,5.61,3.64l0.29,0.57h32.56l0.29-0.57
				c1.09-2.13,3.21-3.48,5.66-3.62l12.57-0.74c0.73,0,1.99-0.41,1.94-0.93l-0.55-5.88c-0.12-1.32-3.76-2.39-8.03-2.39
				c0,0-21.55,1.97-28.59,1.97c-6.98,0-27.48-1.97-27.48-1.97c-4.27,0-7.91,1.08-8.03,2.39l-0.55,5.88
				C63.79,105.41,65.05,105.83,67.58,105.83z"/>
			<path class="st44" d="M128.95,93.31l-5.28-11.16c-0.58-1.23-1.82-2.02-3.19-2.02H80.25c-1.36,0-2.6,0.79-3.19,2.02l-5.28,11.16
				c-0.44,0.94-0.23,1.96,0.38,2.64h-3.42l7.16-15.13c0.66-1.39,2.06-2.27,3.59-2.27c0,0,15.65-0.32,20.87-0.32
				c5.22,0,20.87,0.32,20.87,0.32c1.54,0,2.94,0.89,3.59,2.27l7.16,15.13h-3.42C129.17,95.26,129.39,94.24,128.95,93.31z"/>
			<path class="st44" d="M84.95,122.4h30.77c1.24,0,2.17-1.14,1.92-2.36l-2.17-10.62c-0.19-0.91-0.99-1.57-1.92-1.57H87.12
				c-0.93,0-1.74,0.66-1.92,1.57l-2.17,10.62C82.78,121.26,83.71,122.4,84.95,122.4z"/>
			<path class="st47" d="M115.73,124.28H84.95c-1.24,0-2.17-1.14-1.92-2.36l2.17-10.62c0.19-0.91,0.99-1.57,1.92-1.57h26.43
				c0.93,0,1.74,0.66,1.92,1.57l2.17,10.62C117.9,123.14,116.97,124.28,115.73,124.28z"/>
			<path class="st48" d="M115.85,124.28H86.97c-1.17,0-2.04-1.02-1.8-2.11l2.04-9.51c0.18-0.82,0.93-1.41,1.8-1.41h24.8
				c0.88,0,1.63,0.59,1.81,1.41l2.04,9.51C117.89,123.26,117.02,124.28,115.85,124.28z"/>
			<path class="st49" d="M80.25,80.13h40.23c1.36,0,2.6,0.79,3.19,2.02l5.28,11.16c0.76,1.6-0.41,3.45-2.19,3.45
				c0,0-19.8,0.8-26.4,0.8c-6.6,0-26.4-0.8-26.4-0.8c-1.77,0-2.94-1.85-2.19-3.45l5.28-11.16C77.64,80.91,78.88,80.13,80.25,80.13z"
				/>
			<path class="st50" d="M95.91,83.96h9.79c0.59,0,1.08-0.48,1.08-1.08l0,0c0-0.59-0.48-1.08-1.08-1.08h-9.79
				c-0.59,0-1.08,0.48-1.08,1.08l0,0C94.84,83.48,95.32,83.96,95.91,83.96z"/>
			<g>
				<defs>
					<path id="SVGID_9_" d="M80.25,80.13l40.98-1.58c1.36,0,1.85,2.37,2.43,3.6l5.28,11.16c0.76,1.6-0.41,3.45-2.19,3.45
						c0,0-19.8,0.8-26.4,0.8c-6.6,0-26.4-0.8-26.4-0.8c-1.77,0-2.94-1.85-2.19-3.45l5.28-11.16C77.64,80.91,78.88,80.13,80.25,80.13
						z"/>
				</defs>
				<clipPath id="SVGID_6_">
					<use xlink:href="#SVGID_9_"  style="overflow:visible;"/>
				</clipPath>
				<path style="clip-path:url(#SVGID_6_);fill:#5F7982;" d="M82.16,101.8h11.02c1.26,0,2.23-1.12,2.04-2.37l-1.36-8.91
					c-0.15-1.01-1.02-1.75-2.04-1.75h-8.3c-1.02,0-1.88,0.74-2.04,1.75l-1.36,8.91C79.93,100.68,80.9,101.8,82.16,101.8z"/>
				<path style="clip-path:url(#SVGID_6_);fill:#5F7982;" d="M108.44,101.8h11.02c1.26,0,2.23-1.12,2.04-2.37l-1.36-8.91
					c-0.15-1.01-1.02-1.75-2.04-1.75h-8.3c-1.02,0-1.88,0.74-2.04,1.75l-1.36,8.91C106.21,100.68,107.18,101.8,108.44,101.8z"/>
				<path style="clip-path:url(#SVGID_6_);fill:#50595C;" d="M67.23,99.95h65.32c0.8,0,0.54-0.67-0.5-1.46l-3.95-2.96
					c-0.76-0.57-1.85-1.01-2.48-1.01H74.15c-0.63,0-1.72,0.44-2.48,1.01l-3.95,2.96C66.68,99.28,66.43,99.95,67.23,99.95z"/>
				<path style="clip-path:url(#SVGID_6_);fill:#50595C;" d="M78.11,94.52c0,1.16,3.17,2.11,7.09,2.11c3.92,0,7.09-0.94,7.09-2.11
					c0-1.16-3.17-2.11-7.09-2.11C81.29,92.41,78.11,93.36,78.11,94.52z"/>
				
					<rect x="78.1" y="92.7" transform="matrix(-0.5952 0.8036 -0.8036 -0.5952 229.5723 75.7125)" style="opacity:0.64;clip-path:url(#SVGID_6_);fill:#FFFFFF;" width="35.23" height="5.96"/>
				
					<rect x="71.58" y="94.94" transform="matrix(-0.5952 0.8036 -0.8036 -0.5952 219.3311 81.295)" style="opacity:0.64;clip-path:url(#SVGID_6_);fill:#FFFFFF;" width="35.23" height="1.9"/>
				<defs>
					<filter id="Adobe_OpacityMaskFilter" filterUnits="userSpaceOnUse" x="79.32" y="72.39" width="40.64" height="39.87">
						<feFlood  style="flood-color:white;flood-opacity:1" result="back"/>
						<feBlend  in="SourceGraphic" in2="back" mode="normal"/>
					</filter>
				</defs>
				<mask maskUnits="userSpaceOnUse" x="79.32" y="72.39" width="40.64" height="39.87" id="SVGID_8_">
					<g class="st54">
						<defs>
							<filter id="Adobe_OpacityMaskFilter_1_" filterUnits="userSpaceOnUse" x="79.32" y="72.39" width="40.64" height="39.87">
								<feFlood  style="flood-color:white;flood-opacity:1" result="back"/>
								<feBlend  in="SourceGraphic" in2="back" mode="normal"/>
							</filter>
						</defs>
						<mask maskUnits="userSpaceOnUse" x="79.32" y="72.39" width="40.64" height="39.87" id="SVGID_8_">
						</mask>
						<linearGradient id="SVGID_10_" gradientUnits="userSpaceOnUse" x1="99.6611" y1="93.9042" x2="99.5501" y2="78.9934">
							<stop  offset="0" style="stop-color:#333333"/>
							<stop  offset="1" style="stop-color:#FFFFFF"/>
						</linearGradient>
						<path style="clip-path:url(#SVGID_6_);mask:url(#SVGID_8_);fill:url(#SVGID_10_);" d="M117.86,89.89
							c-0.39-2.4,3.52-7.55,1.08-8.87c-1.88-1.02-3.8-1.21-5.63-0.95l2.99-1.94c0.53-0.35,0.3-1.21-0.33-1.21l-3.56,0.03
							c-0.73,0.01-1.4-0.42-1.75-1.1l-1.56-3.11c-0.23-0.45-0.84-0.46-1.08-0.02l-1.79,3.29c-1.19-0.46-2.47-0.71-3.82-0.71
							c-1.85,0-3.59,0.47-5.1,1.3c-0.22-0.01-0.45,0.1-0.57,0.33l0,0.01c-1.39,0.88-2.57,2.07-3.43,3.47l-5.17-0.79
							c-0.59-0.09-0.96,0.63-0.53,1.05l1.91,2.68c-0.01,0.1-0.02,0.2-0.02,0.3c-3.79-1.6-5.76-0.7-9.42,1.69
							c-3.08,2,4.1,11.06,3.85,14.27c-0.26,3.21-4.1,9.28-0.65,11.67c7.32,5.07,17.28-11.17,19.21-14.49
							c0.13-0.03,0.28-0.09,0.45-0.17c2.05-0.1,3.95-0.78,5.54-1.88c3.28,3.39,7.5,6.42,10.57,3.9
							C121.51,96.63,118.25,92.29,117.86,89.89z"/>
					</g>
				</mask>
				<linearGradient id="SVGID_11_" gradientUnits="userSpaceOnUse" x1="99.6611" y1="93.9042" x2="99.5501" y2="78.9934">
					<stop  offset="0" style="stop-color:#FFFFFF"/>
					<stop  offset="1" style="stop-color:#ED2424"/>
				</linearGradient>
				<path style="opacity:0.25;clip-path:url(#SVGID_6_);fill:url(#SVGID_11_);" d="M117.86,89.89c-0.39-2.4,3.52-7.55,1.08-8.87
					c-1.88-1.02-3.8-1.21-5.63-0.95l2.99-1.94c0.53-0.35,0.3-1.21-0.33-1.21l-3.56,0.03c-0.73,0.01-1.4-0.42-1.75-1.1l-1.56-3.11
					c-0.23-0.45-0.84-0.46-1.08-0.02l-1.79,3.29c-1.19-0.46-2.47-0.71-3.82-0.71c-1.85,0-3.59,0.47-5.1,1.3
					c-0.22-0.01-0.45,0.1-0.57,0.33l0,0.01c-1.39,0.88-2.57,2.07-3.43,3.47l-5.17-0.79c-0.59-0.09-0.96,0.63-0.53,1.05l1.91,2.68
					c-0.01,0.1-0.02,0.2-0.02,0.3c-3.79-1.6-5.76-0.7-9.42,1.69c-3.08,2,4.1,11.06,3.85,14.27c-0.26,3.21-4.1,9.28-0.65,11.67
					c7.32,5.07,17.28-11.17,19.21-14.49c0.13-0.03,0.28-0.09,0.45-0.17c2.05-0.1,3.95-0.78,5.54-1.88c3.28,3.39,7.5,6.42,10.57,3.9
					C121.51,96.63,118.25,92.29,117.86,89.89z"/>
				<g style="clip-path:url(#SVGID_6_);">
					<path class="st49" d="M102.5,96.79c-0.12,0.2-0.27,0.46-0.45,0.75c2.45-0.03,5.82-0.12,9.28-0.23
						c-0.99-0.76-1.95-1.66-2.84-2.58c-1.59,1.1-3.49,1.78-5.54,1.88C102.78,96.7,102.63,96.76,102.5,96.79z"/>
					<defs>
						<filter id="Adobe_OpacityMaskFilter_2_" filterUnits="userSpaceOnUse" x="116.43" y="80.13" width="12.75" height="16.89">
							<feFlood  style="flood-color:white;flood-opacity:1" result="back"/>
							<feBlend  in="SourceGraphic" in2="back" mode="normal"/>
						</filter>
					</defs>
					<mask maskUnits="userSpaceOnUse" x="116.43" y="80.13" width="12.75" height="16.89" id="SVGID_12_">
						<g class="st59">
							<defs>
								<filter id="Adobe_OpacityMaskFilter_3_" filterUnits="userSpaceOnUse" x="116.43" y="80.13" width="12.75" height="16.89">
									<feFlood  style="flood-color:white;flood-opacity:1" result="back"/>
									<feBlend  in="SourceGraphic" in2="back" mode="normal"/>
								</filter>
							</defs>
							<mask maskUnits="userSpaceOnUse" x="116.43" y="80.13" width="12.75" height="16.89" id="SVGID_12_">
							</mask>
							<linearGradient id="SVGID_13_" gradientUnits="userSpaceOnUse" x1="122.6811" y1="93.6513" x2="122.4409" y2="105.9142">
								<stop  offset="0" style="stop-color:#FFFFFF"/>
								<stop  offset="1" style="stop-color:#000000"/>
							</linearGradient>
							<path style="mask:url(#SVGID_12_);fill:url(#SVGID_13_);" d="M128.95,93.31l-5.28-11.16c-0.58-1.23-1.82-2.02-3.19-2.02
								h-4.05c0.84,0.16,1.68,0.44,2.51,0.89c2.44,1.32-1.47,6.47-1.08,8.87c0.3,1.87,2.35,4.92,2.08,7.13
								c3.93-0.14,6.82-0.26,6.82-0.26C128.54,96.76,129.71,94.91,128.95,93.31z"/>
						</g>
					</mask>
					<linearGradient id="SVGID_14_" gradientUnits="userSpaceOnUse" x1="122.6811" y1="93.6513" x2="122.4409" y2="105.9142">
						<stop  offset="0" style="stop-color:#FFFFFF"/>
						<stop  offset="1" style="stop-color:#FFFFFF"/>
					</linearGradient>
					<path style="opacity:0.6;fill:url(#SVGID_14_);" d="M128.95,93.31l-5.28-11.16c-0.58-1.23-1.82-2.02-3.19-2.02h-4.05
						c0.84,0.16,1.68,0.44,2.51,0.89c2.44,1.32-1.47,6.47-1.08,8.87c0.3,1.87,2.35,4.92,2.08,7.13c3.93-0.14,6.82-0.26,6.82-0.26
						C128.54,96.76,129.71,94.91,128.95,93.31z"/>
					<defs>
						<filter id="Adobe_OpacityMaskFilter_4_" filterUnits="userSpaceOnUse" x="71.54" y="80.13" width="18.39" height="16.98">
							<feFlood  style="flood-color:white;flood-opacity:1" result="back"/>
							<feBlend  in="SourceGraphic" in2="back" mode="normal"/>
						</filter>
					</defs>
					<mask maskUnits="userSpaceOnUse" x="71.54" y="80.13" width="18.39" height="16.98" id="SVGID_15_">
						<g class="st63">
							<defs>
								<filter id="Adobe_OpacityMaskFilter_5_" filterUnits="userSpaceOnUse" x="71.54" y="80.13" width="18.39" height="16.98">
									<feFlood  style="flood-color:white;flood-opacity:1" result="back"/>
									<feBlend  in="SourceGraphic" in2="back" mode="normal"/>
								</filter>
							</defs>
							<mask maskUnits="userSpaceOnUse" x="71.54" y="80.13" width="18.39" height="16.98" id="SVGID_15_">
							</mask>
							<linearGradient id="SVGID_16_" gradientUnits="userSpaceOnUse" x1="80.486" y1="93.1857" x2="79.4345" y2="111.5454">
								<stop  offset="0" style="stop-color:#FFFFFF"/>
								<stop  offset="1" style="stop-color:#000000"/>
							</linearGradient>
							<path style="mask:url(#SVGID_15_);fill:url(#SVGID_16_);" d="M80.09,85.35c3.66-2.39,6.03-3.3,9.82-1.7
								c0.01-0.1,0.01-0.2,0.02-0.3l-2.31-2.67c-0.16-0.16-0.21-0.37-0.17-0.55h-7.2c-1.36,0-2.6,0.79-3.19,2.02l-5.28,11.16
								c-0.76,1.6,0.41,3.45,2.19,3.45c0,0,4.21,0.17,9.38,0.35C81.74,93.08,77.63,86.95,80.09,85.35z"/>
						</g>
					</mask>
					<linearGradient id="SVGID_17_" gradientUnits="userSpaceOnUse" x1="80.486" y1="93.1857" x2="79.4345" y2="111.5454">
						<stop  offset="0" style="stop-color:#FFFFFF"/>
						<stop  offset="1" style="stop-color:#FFFFFF"/>
					</linearGradient>
					<path style="opacity:0.6;fill:url(#SVGID_17_);" d="M80.09,85.35c3.66-2.39,6.03-3.3,9.82-1.7c0.01-0.1,0.01-0.2,0.02-0.3
						l-2.31-2.67c-0.16-0.16-0.21-0.37-0.17-0.55h-7.2c-1.36,0-2.6,0.79-3.19,2.02l-5.28,11.16c-0.76,1.6,0.41,3.45,2.19,3.45
						c0,0,4.21,0.17,9.38,0.35C81.74,93.08,77.63,86.95,80.09,85.35z"/>
				</g>
			</g>
			<path class="st2" d="M122.12,113.9l13.34-0.83c0.45-0.03,0.8-0.4,0.8-0.86v-3.61c0-0.49-0.42-0.89-0.91-0.86l-13.34,0.83
				c-0.45,0.03-0.8,0.4-0.8,0.86v3.61C121.21,113.54,121.63,113.93,122.12,113.9z"/>
			<path class="st2" d="M78.55,113.9l-13.34-0.83c-0.45-0.03-0.8-0.4-0.8-0.86v-3.61c0-0.49,0.42-0.89,0.91-0.86l13.34,0.83
				c0.45,0.03,0.8,0.4,0.8,0.86v3.61C79.46,113.54,79.04,113.93,78.55,113.9z"/>
			<path class="st67" d="M124.18,121.83l9.99-0.64c0.31-0.02,0.54,0.27,0.47,0.56l-0.53,2.18c-0.05,0.2-0.23,0.35-0.44,0.35h-12.53
				c-0.14,0-0.23-0.14-0.17-0.26l0,0C121.55,122.75,122.79,121.91,124.18,121.83z"/>
			<path class="st67" d="M76.49,121.83l-9.99-0.64c-0.31-0.02-0.54,0.27-0.47,0.56l0.53,2.18c0.05,0.2,0.23,0.35,0.44,0.35h12.53
				c0.14,0,0.23-0.14,0.17-0.26l0,0C79.12,122.75,77.88,121.91,76.49,121.83z"/>
		</g>
		<polygon class="st68" points="108.03,88.21 102.42,79.27 105.82,79.94 		"/>
		<g>
			<g>
				<path class="st69" d="M69.74,76.94h-7.04c-0.49,0-0.89,0.4-0.89,0.89c0,0.49,0.4,0.89,0.89,0.89h7.04c0.49,0,0.89-0.4,0.89-0.89
					C70.63,77.34,70.23,76.94,69.74,76.94z"/>
			</g>
			<g>
				<path class="st69" d="M82.15,43.98c-0.25-0.43-0.79-0.57-1.22-0.33c-0.43,0.25-0.57,0.79-0.33,1.22l2.92,5.14
					c0.17,0.29,0.47,0.45,0.78,0.45c0.15,0,0.31-0.04,0.45-0.12c0.43-0.25,0.57-0.79,0.33-1.22L82.15,43.98z"/>
			</g>
			<g>
				<path class="st69" d="M138.73,76.94h-7.49c-0.49,0-0.89,0.4-0.89,0.89c0,0.49,0.4,0.89,0.89,0.89h7.49
					c0.49,0,0.89-0.4,0.89-0.89C139.62,77.34,139.22,76.94,138.73,76.94z"/>
			</g>
			<g>
				<g>
					<path class="st69" d="M140.73,54.34c-0.24-0.45-0.8-0.62-1.24-0.36l-12.87,7.42c-0.43,0.25-0.57,0.79-0.33,1.22
						c0.17,0.29,0.47,0.45,0.78,0.45c0.15,0,0.31-0.04,0.45-0.12l12.87-7.42C140.79,55.29,140.95,54.77,140.73,54.34L140.73,54.34z"
						/>
				</g>
			</g>
			<g>
				<path class="st69" d="M99.58,30.92v16.64c0,0.43,0.37,0.79,0.84,0.81l0,0c0.51,0.03,0.95-0.34,0.95-0.81V30.92
					c0-0.45-0.4-0.81-0.89-0.81l0,0C99.98,30.1,99.58,30.47,99.58,30.92z"/>
			</g>
			<g>
				<path class="st69" d="M120.57,43.65c-0.43-0.25-0.97-0.1-1.22,0.33l-3.08,5.14c-0.25,0.43-0.1,0.97,0.33,1.22
					c0.14,0.08,0.29,0.12,0.45,0.12c0.31,0,0.61-0.16,0.78-0.45l3.08-5.14C121.15,44.45,121,43.9,120.57,43.65z"/>
			</g>
			<g>
				<g>
					<path class="st69" d="M74.49,61.38l-12.27-7.05c-0.42-0.24-0.97-0.1-1.22,0.32l0,0c-0.25,0.43-0.11,0.98,0.32,1.23l12.32,7.08
						c0.14,0.08,0.29,0.12,0.45,0.12c0.33,0,0.64-0.18,0.8-0.5C75.1,62.15,74.91,61.62,74.49,61.38z"/>
				</g>
			</g>
			<g>
				<g>
					<path class="st69" d="M123.57,40.37c0,0.7-0.57,1.28-1.28,1.28c-0.7,0-1.28-0.57-1.28-1.28c0-0.7,0.57-1.28,1.28-1.28
						C123,39.09,123.57,39.66,123.57,40.37z"/>
				</g>
				<g>
					<path class="st69" d="M80.48,40.37c0,0.73-0.59,1.32-1.32,1.32c-0.73,0-1.32-0.59-1.32-1.32c0-0.73,0.59-1.32,1.32-1.32
						C79.89,39.05,80.48,39.64,80.48,40.37z"/>
				</g>
				<g>
					<circle class="st69" cx="144.05" cy="77.83" r="1.27"/>
				</g>
				<g>
					<path class="st69" d="M58.69,77.83c0,0.76-0.61,1.37-1.37,1.37c-0.76,0-1.37-0.61-1.37-1.37c0-0.76,0.61-1.37,1.37-1.37
						C58.07,76.46,58.69,77.08,58.69,77.83z"/>
				</g>
			</g>
		</g>
		<g>
			<path class="st17" d="M97.1,78.24l-10.3,9.75c-0.44,0.41-0.09,1.14,0.5,1.07l5.86-0.73c0.49-0.06,0.97,0.2,1.19,0.64l1.47,3.01
				c0.24,0.48,0.93,0.46,1.13-0.04l5.45-13.63c0.02-0.04-0.01-0.09-0.06-0.09h-5.22C97.12,78.22,97.11,78.23,97.1,78.24z"/>
			<path class="st17" d="M102.97,78.8l4.75,9.34c0.23,0.45,0.84,0.46,1.08,0.01l1.64-3.07c0.36-0.67,1.04-1.08,1.78-1.05l3.56,0.13
				c0.62,0.02,0.88-0.84,0.36-1.2l-8.31-5.73L102.97,78.8z"/>
		</g>
		<g>
			<defs>
				<path id="SVGID_20_" d="M102.42,78.31l-5.45,13.63c-0.2,0.5-0.9,0.53-1.13,0.04l-1.47-3.01c-0.22-0.45-0.7-0.7-1.19-0.64
					l-5.86,0.73c-0.6,0.07-0.94-0.65-0.5-1.07l10.3-9.75c0.01-0.01,0.03-0.02,0.04-0.02h5.22
					C102.41,78.22,102.44,78.27,102.42,78.31z M116.13,82.96l-8.31-5.73l-4.85,1.57l4.75,9.34c0.23,0.45,0.84,0.46,1.08,0.01
					l1.64-3.07c0.36-0.67,1.04-1.08,1.78-1.05l3.56,0.13C116.4,84.18,116.66,83.32,116.13,82.96z"/>
			</defs>
			<clipPath id="SVGID_18_">
				<use xlink:href="#SVGID_20_"  style="overflow:visible;"/>
			</clipPath>
			<path style="opacity:0.4;clip-path:url(#SVGID_18_);fill:#5E0D11;" d="M110.69,73.33L110.69,73.33c-1.25-2.87-4.84-3.84-7.36-2
				c-2.53-1.84-6.11-0.87-7.36,2l0,0c-1.2,2.75,0.67,4.84,2.75,7.13c1.05,1.16,4.54,4.13,4.62,4.2v0l0,0c0,0,0,0,0,0v0
				c0.08-0.07,3.56-3.03,4.62-4.2C110.02,78.17,111.9,76.09,110.69,73.33z"/>
		</g>
		<path class="st71" d="M85.95,59.42c3.06-4.86,13.41,10.34,16.28,14.38l0.19-0.92c0,0-10.83-21.02-19.13-15.61
			c-3.51,2.29,0.17,8.46,0.34,11.68c0.17,3.22-7.25,12.07-4.23,14.16c8.97,6.2,22.18-6.2,22.18-6.2l0.53-2.52
			C98.35,72.34,83.78,62.87,85.95,59.42z"/>
		<path class="st71" d="M118.01,71.24c0.45-2.39,3.83-6.64,1.44-8.71c-5.66-4.9-15.9,9.74-15.9,9.74l0.05,0.67
			c2.57-2.92,11.92-13.11,13.71-9.16c1.27,2.8-10.65,8.28-13.68,9.62l0.14,1.98c0,0,7.73,8.5,15.07,4.76
			C121.32,78.89,117.56,73.63,118.01,71.24z"/>
		<g>
			<defs>
				<path id="SVGID_22_" d="M102.42,72.88l-0.19,0.92C99.35,69.76,89,54.57,85.95,59.42c-2.17,3.45,12.4,12.92,16.16,14.97
					l-0.53,2.52c0,0-13.21,12.4-22.18,6.2c-3.02-2.09,4.4-10.94,4.23-14.16c-0.17-3.22-3.85-9.39-0.34-11.68
					C91.59,51.86,102.42,72.88,102.42,72.88z M118.01,71.24c0.45-2.39,3.83-6.64,1.44-8.71c-5.66-4.9-15.9,9.74-15.9,9.74l0.05,0.67
					c2.57-2.92,11.92-13.11,13.71-9.16c1.27,2.8-10.65,8.28-13.68,9.62l0.14,1.98c0,0,7.73,8.5,15.07,4.76
					C121.32,78.89,117.56,73.63,118.01,71.24z"/>
			</defs>
			<clipPath id="SVGID_19_">
				<use xlink:href="#SVGID_22_"  style="overflow:visible;"/>
			</clipPath>
			<path style="opacity:0.24;clip-path:url(#SVGID_19_);fill:#491314;" d="M108.95,73.06L108.95,73.06
				c-1.04-2.38-4.01-3.18-6.11-1.66c-2.1-1.53-5.07-0.72-6.11,1.66l0,0c-1,2.28,0.56,4.02,2.28,5.92c0.87,0.96,3.76,3.43,3.83,3.48
				v0c0,0,0,0,0,0l0,0v0c0.06-0.05,2.96-2.52,3.83-3.48C108.39,77.07,109.95,75.34,108.95,73.06z"/>
			<path style="clip-path:url(#SVGID_19_);fill:#EC2225;" d="M103.27,74.66c0,0-26.21-9.08-19.98-17.38
				C89.66,48.81,103.27,74.66,103.27,74.66z"/>
			<path style="clip-path:url(#SVGID_19_);fill:#EC2225;" d="M102.97,72.15c0,0,20.39-4.26,15.45-9.02
				C113.14,58.04,102.97,72.15,102.97,72.15z"/>
		</g>
		<g>
			<g>
				<defs>
					<path id="SVGID_24_" d="M108.16,72.26L108.16,72.26c-0.95-2.19-3.69-2.93-5.62-1.52c-1.93-1.41-4.66-0.67-5.62,1.52l0,0
						c-0.92,2.1,0.51,3.69,2.09,5.44c0.8,0.89,3.46,3.15,3.52,3.2v0l0,0l0,0v0c0.06-0.05,2.72-2.31,3.52-3.2
						C107.64,75.95,109.07,74.36,108.16,72.26z"/>
				</defs>
				<use xlink:href="#SVGID_24_"  style="overflow:visible;fill:#DD1F26;"/>
				<clipPath id="SVGID_21_">
					<use xlink:href="#SVGID_24_"  style="overflow:visible;"/>
				</clipPath>
				<path style="clip-path:url(#SVGID_21_);fill:#D02027;" d="M107.2,74.19L107.2,74.19c-0.79-1.7-3.06-2.27-4.66-1.18
					c-1.6-1.09-3.87-0.52-4.66,1.18l0,0c-0.76,1.63,0.43,2.87,1.74,4.22c0.67,0.69,2.87,2.45,2.92,2.49v0l0,0l0,0v0
					c0.05-0.04,2.26-1.8,2.92-2.49C106.78,77.06,107.97,75.82,107.2,74.19z"/>
			</g>
			<path class="st2" d="M98.23,72.38c-0.05-0.01-0.09-0.04-0.13-0.07c-0.16-0.13-0.18-0.37-0.05-0.53c0.8-0.97,2.11-1.34,3.26-0.91
				c0.2,0.07,0.3,0.29,0.22,0.49c-0.07,0.2-0.29,0.3-0.49,0.22c-0.84-0.32-1.81-0.04-2.41,0.68C98.53,72.38,98.37,72.42,98.23,72.38
				z"/>
		</g>
		<g>
			<g>
				<g>
					<path class="st75" d="M54.9,132.09l0.54-0.81c2.96-4.43,7.95-6.81,13.03-6.22l11.76,1.36l9.04,4.3l35.41,0.37l0.91,10.27
						l-64.79,7.71l-9.72,2.45l-2.84-18.58L54.9,132.09z"/>
					<path class="st75" d="M138.61,139.93l-24.85,2.75c-2.94,0.33-5.58-1.82-5.87-4.76l0,0c-0.28-2.9,1.81-5.48,4.7-5.8l24.85-2.75
						c2.94-0.33,5.58,1.82,5.87,4.76v0C143.6,137.02,141.5,139.61,138.61,139.93z"/>
					<path class="st76" d="M74.61,139.24l14.67-8.52l32.85,0.34l15.09-1.67c2.76-0.31,5.45,1.45,6.01,4.17
						c0.64,3.12-1.54,6.03-4.62,6.37l-14.98,1.66l-62.83,7.47l-9.72,2.45l-2.05-13.4C49.03,138.11,65.15,141.42,74.61,139.24z"/>
					<g>
						<defs>
							<path id="SVGID_26_" d="M74.62,139.06l14.66-8.34l32.85,0.34l15.09-1.67c2.76-0.31,5.45,1.45,6.01,4.17
								c0.64,3.12-1.54,6.03-4.62,6.37l-14.98,1.66l-62.83,7.47l-9.72,2.45l-2.05-13.4C49.03,138.11,65.16,141.24,74.62,139.06z"/>
						</defs>
						<clipPath id="SVGID_23_">
							<use xlink:href="#SVGID_26_"  style="overflow:visible;"/>
						</clipPath>
						<path style="opacity:0.11;clip-path:url(#SVGID_23_);fill:#F8BA86;" d="M74.61,144.21l16.22-2.66l31.3-2.96l15.09-1.15
							c2.76-0.21,6.99-3.3,7.55-1.43c0.64,2.14-3.08,8.43-6.16,8.67l-14.98,1.14l-62.83,5.13l-9.72,1.68l-0.68-5.24
							C50.39,147.39,65.15,145.71,74.61,144.21z"/>
					</g>
					<path class="st75" d="M102.99,133.9l-15.66,2.8l-17.04,3.15l9.94-13.44l21.6-2.8c2.98-0.38,5.65,1.62,5.97,4.46l0,0
						C108.13,130.92,105.97,133.53,102.99,133.9z"/>
					<path class="st78" d="M142.71,137.4c-0.2,1.24-1.15,2.25-2.39,2.38l-3.21,0.36l-0.21-2.1l1.21-0.54
						c1.05-0.47,2.2-0.59,3.31-0.37L142.71,137.4z"/>
					<path class="st79" d="M103.09,125.94c8.29,1.18,2.89,6.97,1.22,7.19l-3.59,0.47l-0.79-4.58c-0.21-1.21,0.55-2.38,1.74-2.7
						L103.09,125.94z"/>
				</g>
				<g>
					<polygon class="st80" points="41.11,160.84 54.73,158.82 47.73,130.01 36.77,131.64 					"/>
					<polygon class="st81" points="41.11,160.84 54.73,158.82 51.33,144.83 39.02,146.78 					"/>
					<polygon class="st82" points="-2.52,169.9 41.56,162.4 36.84,130.64 -2.52,136.89 					"/>
					<path class="st83" d="M41.51,135.15c0.09,0.58,0.62,0.98,1.2,0.89c0.58-0.09,0.98-0.62,0.89-1.2c-0.09-0.58-0.62-0.98-1.2-0.89
						C41.82,134.04,41.42,134.58,41.51,135.15z"/>
				</g>
			</g>
		</g>
	</g>
</g>
</svg>
