<?xml version="1.0" encoding="utf-8"?>
<!-- Generator: Adobe Illustrator 23.0.1, SVG Export Plug-In . SVG Version: 6.00 Build 0)  -->
<svg version="1.1" id="Layer_1" xmlns="http://www.w3.org/2000/svg" xmlns:xlink="http://www.w3.org/1999/xlink" x="0px" y="0px"
	 viewBox="0 0 200 200" style="enable-background:new 0 0 200 200;" xml:space="preserve">
<style type="text/css">
	.st0{clip-path:url(#SVGID_2_);}
	.st1{opacity:0.51;fill:#98A175;}
	.st2{fill:#080C0D;}
	.st3{fill:#FD1A16;}
	.st4{opacity:0.25;fill:#DDDBDB;}
	.st5{fill:#CF1712;}
	.st6{fill:#172224;}
	.st7{fill:#FEFDEF;}
	.st8{fill:#A6A7A8;}
	.st9{fill:#CCCCCC;stroke:#1A1A1A;stroke-miterlimit:10;}
	.st10{fill:#B0140F;}
	.st11{fill:#094349;}
	.st12{fill:#B20808;}
	.st13{opacity:0.15;fill:#79D4E1;}
	.st14{fill:#04242B;}
	.st15{fill:#D1DAF2;}
	.st16{fill:#B21616;}
	.st17{fill:#F04341;}
	.st18{opacity:0.5;fill:#700C09;}
	.st19{fill:#E4EBF9;}
	.st20{fill:#BF1111;}
	.st21{opacity:0.14;fill:#DDDBDB;}
	.st22{opacity:0.36;fill:#444B4D;}
	.st23{opacity:0.74;}
	.st24{fill:#4D4D4D;}
	.st25{fill:#9E9D9E;}
	.st26{opacity:0.22;fill:#444B4D;}
	.st27{fill:#911A1D;}
	.st28{fill:#BD2225;}
	.st29{fill:#232323;}
	.st30{fill:#B01F24;}
	.st31{fill:#C92127;}
	.st32{fill:#B72025;}
	.st33{fill:#333333;}
	.st34{fill:#1C1717;}
	.st35{fill:#BA2026;}
	.st36{fill:#1E1E1E;}
	.st37{fill:#4E5C61;}
	.st38{clip-path:url(#SVGID_4_);fill:#607983;}
	.st39{clip-path:url(#SVGID_4_);fill:#50646B;}
	.st40{clip-path:url(#SVGID_4_);fill:#2F3435;}
	.st41{clip-path:url(#SVGID_4_);fill:#373C3D;}
	.st42{opacity:0.56;fill:#FFFFFF;}
	.st43{opacity:0.56;fill:#919191;}
	.st44{fill:#B8272B;}
	.st45{fill:#F2F2F2;}
	.st46{fill:#261F1F;}
	.st47{fill:#212121;}
	.st48{opacity:0.51;fill:#444B4D;}
	.st49{opacity:0.35;fill:#FFFFFF;}
	.st50{opacity:0.62;fill:#DEDFE2;}
	.st51{fill:#553256;}
	.st52{fill:#2E3E5B;}
	.st53{fill:#332A29;}
	.st54{fill:#7F5D44;}
	.st55{fill:#A9ABA8;}
	.st56{fill:#3F3534;}
	.st57{fill:#4F4D4C;}
	.st58{opacity:0.25;fill:#69747C;}
	.st59{fill:#364A7C;}
	.st60{fill:#435A89;}
	.st61{fill:#98B4DB;}
	.st62{fill:#EBEFF2;}
	.st63{fill:#FCA78D;}
	.st64{fill:#FFFFFF;}
	.st65{fill:#F79673;}
	.st66{fill:#EA8A6C;}
	.st67{fill:#744628;}
	.st68{fill:#D38462;}
	.st69{fill:#844F31;}
	.st70{fill:#242D22;}
	.st71{fill:#9D9F9A;}
	.st72{fill:#8F918A;}
	.st73{fill:#FF0609;}
	.st74{fill:#2C2D29;}
	.st75{opacity:0.8;fill:#FFFFFF;}
	.st76{opacity:0.2;}
	.st77{fill:#0098D4;}
	.st78{fill:#E2B698;}
	.st79{fill:#F7C79F;}
	.st80{fill:#F0F0F0;}
	.st81{fill:#CACACA;}
	.st82{fill:#E4E4E4;}
	.st83{fill:#979797;}
	.st84{fill:#AF9B89;}
	.st85{fill:#626262;}
	.st86{fill:#BEAB97;}
	.st87{fill:#B1B1B1;}
	.st88{fill:url(#SVGID_5_);}
	.st89{clip-path:url(#SVGID_7_);}
	.st90{fill:#1B6DB3;}
	.st91{fill:#878787;}
	.st92{fill:#C6C6C6;}
	.st93{fill:#3C3C3B;}
	.st94{fill:#F5B493;}
	.st95{fill:#432918;}
	.st96{fill:#EB9C7A;}
	.st97{fill:#223A61;}
	.st98{fill:#496999;}
	.st99{fill:#314D7A;}
	.st100{fill:#EDEDED;}
	.st101{fill:url(#SVGID_8_);}
	.st102{clip-path:url(#SVGID_10_);}
	.st103{fill:#999999;}
	.st104{fill:url(#SVGID_11_);}
	.st105{fill:#DD73BB;}
	.st106{fill:#D144A4;}
	.st107{fill:#C61089;}
	.st108{fill:#960E63;}
	.st109{fill:url(#SVGID_12_);}
	.st110{fill:url(#SVGID_13_);}
	.st111{fill:#8383BF;}
	.st112{fill:#585AA7;}
	.st113{fill:#2D3091;}
	.st114{fill:#1E1F72;}
	.st115{fill:url(#SVGID_14_);}
	.st116{fill:url(#SVGID_15_);}
	.st117{fill:#66CEF5;}
	.st118{fill:#34BDF1;}
	.st119{fill:#01AFEE;}
	.st120{fill:#0090DE;}
	.st121{fill:url(#SVGID_16_);}
	.st122{fill:url(#SVGID_17_);}
	.st123{fill:#67C996;}
	.st124{fill:#34B775;}
	.st125{fill:#009C52;}
	.st126{fill:#007D3B;}
	.st127{fill:url(#SVGID_18_);}
	.st128{fill:url(#SVGID_19_);}
	.st129{fill:#FEE068;}
	.st130{fill:#FFD538;}
	.st131{fill:#FFC905;}
	.st132{fill:#FFAE00;}
	.st133{fill:url(#SVGID_20_);}
	.st134{fill:url(#SVGID_21_);}
	.st135{fill:#F8AC7A;}
	.st136{fill:#F4914D;}
	.st137{fill:#F77128;}
	.st138{fill:#F65400;}
	.st139{fill:url(#SVGID_22_);}
	.st140{fill:url(#SVGID_23_);}
	.st141{fill:#F4777D;}
	.st142{fill:#F04951;}
	.st143{fill:#EB1C24;}
	.st144{fill:#B11519;}
	.st145{fill:url(#SVGID_24_);}
	.st146{fill:#383838;}
	.st147{fill:#ED2424;}
	.st148{fill:#CE2227;}
	.st149{fill:#EE4041;}
	.st150{fill:#2D2525;}
	.st151{fill:#4A3D3D;}
	.st152{opacity:0.88;fill:#A7D8DF;}
	.st153{clip-path:url(#SVGID_26_);fill:#5F7982;}
	.st154{clip-path:url(#SVGID_26_);fill:#50595C;}
	.st155{opacity:0.64;clip-path:url(#SVGID_26_);fill:#FFFFFF;}
	.st156{fill:#2E2A2A;}
	.st157{opacity:0.2;clip-path:url(#SVGID_28_);fill:#981C1F;}
	.st158{clip-path:url(#SVGID_30_);fill:#FFFFFF;}
	.st159{opacity:0.64;clip-path:url(#SVGID_32_);fill:#FFFFFF;}
	.st160{clip-path:url(#SVGID_34_);}
	.st161{fill:none;}
	.st162{fill:#1E0D0D;}
	.st163{fill:#1A568C;}
	.st164{fill:#F7A282;}
	.st165{fill:#EF9073;}
	.st166{fill:#6A98D0;}
	.st167{fill:#3D71B7;}
	.st168{fill:#5A382F;}
	.st169{fill:#F4F9FC;}
	.st170{fill:#EEA53F;}
	.st171{fill:#8E5C3F;}
</style>
<g>
	<defs>
		<rect id="SVGID_33_" y="-24.3" width="200" height="200"/>
	</defs>
	<clipPath id="SVGID_2_">
		<use xlink:href="#SVGID_33_"  style="overflow:visible;"/>
	</clipPath>
	<g class="st0">
		<g>
			<g>
				<polygon class="st2" points="104.01,138.34 108.5,140.25 186.57,140.25 189.45,137.83 188.47,131.07 187.38,124.86 
					186.18,118.54 184.55,111.45 179.39,104.48 173.89,98.49 170.26,95.09 162.3,90.77 155.2,89.03 145.83,89.03 137.22,89.79 
					127.3,92.83 119.24,98.06 112.61,104.7 108.36,113.73 105.64,122.57 				"/>
				<path class="st3" d="M455.99,101.49v6.26c-0.59,19.57-0.8,20.38-6.27,22.32c-9.66,3.43-23.69,5.29-23.69,5.29
					c-0.29-8.8-1.78-23.56-10.59-33.91c-5.89-6.92-15.06-11.86-29.34-11.71c-4.04,0.04-7.68,0.53-10.94,1.36
					c-0.3,0.07-0.59,0.15-0.88,0.24c-9.7,2.7-15.97,8.47-19.64,14.55c-0.32,0.52-0.61,1.04-0.89,1.57
					c-7.78,14.78-6.03,32.4-6.03,32.4l-63.71,0.16h-0.87l-87.79,0.21l-0.89,0l-7.9,0.02c-1.02-14.79-3.17-22.84-5.66-28.31
					c-1.06-2.35-2.19-4.22-3.31-5.95c-5.97-9.2-17.37-14.95-30.93-15.07c-13.77-0.13-26.77,6.78-33.48,18.2
					c-0.79,1.35-1.47,2.75-2.05,4.18c-5.07,12.45-2.65,26.95-2.65,26.95s-16.64,0-26.62-5.68c0,0-5.48-4.85-15.08-20.55v-10.77
					l5.48-8.03l-1.76-10.74l-0.78-4.73c0,0-0.06-0.23,0.23-0.73c0.48-0.85,1.97-2.47,6.5-4.94c1.89-1.03,4.29-2.2,7.37-3.54
					c0,0,3-1.35,8.84-3.17c7.07-2.22,18.32-5.13,33.45-7.21c0,0,25.64-3.52,48.16-4.11l-0.6,0.01c0,0,0.09-0.05,0.26-0.15
					c3.62-2.04,43.6-24.47,63.97-31.39c0,0,0.01,0,0.03-0.01h0c0.49-0.22,5.6-2.46,13.94-4.52c5.26-1.3,11.82-2.52,19.31-3.1
					c23.8-1.87,57.05-1.24,83.79,0.88c23.43,1.86,45.43,3.83,60.37,6.56c3.3,0.6,2.99,1.82,2.99,1.82c-1.96,0.64-2.9,1.57-3.26,2.54
					c-0.12,0.3-0.17,0.61-0.18,0.92c-0.09,1.91,1.49,3.72,1.49,3.72c3.52,4.18,10.31,11.35,10.31,11.35
					c0.53,0.59,1.07,1.14,1.61,1.65c1.15,1.1,2.32,2.03,3.49,2.83c4.38,2.99,8.77,4.01,12.35,4.34c0.28,0.03,0.55,0.05,0.82,0.07
					c0.58,0.03,1.13,0.13,1.65,0.28c1.21,0.33,2.3,0.91,3.2,1.62c0.2,0.15,0.4,0.31,0.58,0.47c0.01,0.01,0.02,0.02,0.03,0.03
					c0.35,0.31,0.67,0.64,0.95,0.98c0.46,0.54,0.83,1.09,1.09,1.61c0.08,0.14,0.14,0.28,0.2,0.42c0.1,0.24,0.2,0.48,0.29,0.73
					c0.39,1.01,0.72,2.07,1.01,3.17c0.24,0.91,0.45,1.85,0.63,2.81c0.07,0.4,0.14,0.81,0.2,1.22c1.78,11.39-0.27,25.16-1.16,30.22
					c-0.23,1.27-0.38,1.99-0.38,1.99L455.99,101.49z"/>
				<path class="st4" d="M453.96,62.9c-45.01,2.36-133.8,5.31-133.8,5.31c-22.03,0.78-64.21,2.27-85.63,2.47
					c-29.09,0.28-77.08,0.62-102.77,1.24c-25.3,0.6-43.01,2.73-55.3,5.22c1.93-1.05,4.4-2.26,7.56-3.62c0,0,3.08-1.38,9.07-3.25
					c60.96-12.2,162.19-14.72,162.19-14.72c61.52,2.15,135.51-2.9,176.51-6.36c1.89-0.16,3.71-0.31,5.46-0.47
					c2.27,2.16,4.61,3.71,6.89,4.81c1.95,0.95,3.87,1.57,5.68,1.97c0.2,0.15,0.4,0.31,0.58,0.47c0.01,0.01,0.02,0.02,0.03,0.03
					c0.35,0.31,0.67,0.64,0.95,0.98c0.46,0.54,0.83,1.09,1.09,1.61c0.08,0.14,0.14,0.28,0.2,0.42c0.1,0.24,0.2,0.48,0.29,0.73
					C453.34,60.74,453.68,61.8,453.96,62.9z"/>
				<path class="st5" d="M111.15,113.29c-5.07,12.45-2.65,26.95-2.65,26.95s-16.64,0-26.62-5.68c0,0-5.48-4.85-15.08-20.55v-0.01
					C78.91,113.83,94.08,113.59,111.15,113.29z"/>
				<path class="st5" d="M257.8,109.97c23.54-0.71,59.43-1.92,96.84-4.08c-0.32,0.52-0.61,1.04-0.89,1.57
					c-7.78,14.78-6.03,32.4-6.03,32.4l-63.71,0.16h-0.87l-87.79,0.21l-0.89,0l-7.9,0.02c-1.02-14.79-3.17-22.84-5.66-28.31
					C206.72,111.37,233.21,110.72,257.8,109.97z"/>
				<g>
					<path class="st6" d="M179.39,128.44c0,1.63-0.12,3.23-0.35,4.79c-2.32,15.98-16.07,28.25-32.69,28.25
						c-18.25,0-33.04-14.79-33.04-33.04c0-0.45,0.01-0.9,0.03-1.34c0.7-17.62,15.21-31.7,33.01-31.7
						C164.59,95.4,179.39,110.2,179.39,128.44z"/>
					<g>
						<path class="st7" d="M146.84,121.38c0,1.56-0.02,4.34-1.58,4.34c-1.55,0-4.05-2.78-4.05-4.34c0-1.56,1.26-2.82,2.82-2.82
							C145.58,118.56,146.84,119.82,146.84,121.38z"/>
						<path class="st7" d="M142.6,122.44c0.92,1.26,2.53,3.52,1.27,4.44c-1.26,0.91-4.91,0.13-5.83-1.13
							c-0.91-1.26-0.64-3.03,0.62-3.94C139.92,120.9,141.68,121.18,142.6,122.44z"/>
						<path class="st7" d="M139.78,125.79c1.48,0.48,4.12,1.36,3.64,2.84c-0.48,1.48-3.9,3-5.38,2.51
							c-1.48-0.48-2.29-2.07-1.81-3.55C136.71,126.12,138.3,125.31,139.78,125.79z"/>
						<path class="st7" d="M139.48,130.15c1.48-0.48,4.13-1.32,4.61,0.16c0.48,1.48-1.39,4.71-2.87,5.19
							c-1.48,0.48-3.07-0.33-3.56-1.81C137.19,132.23,138,130.64,139.48,130.15z"/>
						<path class="st7" d="M141.8,133.86c0.92-1.26,2.57-3.49,3.83-2.58c1.26,0.91,1.65,4.63,0.73,5.89
							c-0.91,1.26-2.68,1.54-3.94,0.62C141.16,136.89,140.88,135.12,141.8,133.86z"/>
						<path class="st7" d="M145.85,135.5c0-1.56,0.03-4.34,1.59-4.34c1.56,0,4.05,2.78,4.05,4.34c0,1.56-1.26,2.82-2.82,2.82
							C147.12,138.32,145.85,137.06,145.85,135.5z"/>
						<path class="st7" d="M150.1,134.44c-0.91-1.26-2.53-3.52-1.27-4.44c1.26-0.91,4.91-0.13,5.83,1.13
							c0.92,1.26,0.64,3.02-0.62,3.94C152.78,135.98,151.01,135.7,150.1,134.44z"/>
						<path class="st7" d="M152.91,131.09c-1.48-0.48-4.12-1.36-3.64-2.84c0.48-1.48,3.9-3,5.38-2.52c1.48,0.48,2.3,2.07,1.81,3.55
							C155.98,130.76,154.39,131.57,152.91,131.09z"/>
						<path class="st7" d="M153.21,126.73c-1.48,0.48-4.13,1.32-4.61-0.16c-0.48-1.48,1.39-4.71,2.87-5.2
							c1.48-0.48,3.07,0.33,3.56,1.81C155.51,124.66,154.7,126.25,153.21,126.73z"/>
						<path class="st7" d="M150.9,123.02c-0.92,1.26-2.57,3.5-3.83,2.58c-1.26-0.92-1.65-4.63-0.73-5.89
							c0.92-1.26,2.68-1.54,3.94-0.63C151.53,120,151.81,121.76,150.9,123.02z"/>
						<polygon class="st8" points="147.14,126.89 145.56,126.89 144.44,103.92 148.25,103.92 						"/>
						<polygon class="st8" points="146.07,126.72 144.8,127.65 130.39,109.72 133.47,107.48 						"/>
						<polygon class="st8" points="145.11,127.21 144.63,128.71 122.44,122.67 123.61,119.05 						"/>
						<polygon class="st8" points="144.63,128.17 145.11,129.67 123.61,137.83 122.44,134.21 						"/>
						<polygon class="st8" points="144.8,129.23 146.07,130.16 133.47,149.4 130.39,147.16 						"/>
						<polygon class="st8" points="145.56,129.99 147.14,129.99 148.25,152.97 144.44,152.97 						"/>
						<polygon class="st8" points="146.62,130.16 147.9,129.23 162.3,147.16 159.22,149.4 						"/>
						<polygon class="st8" points="147.58,129.67 148.07,128.17 170.26,134.21 169.08,137.83 						"/>
						<polygon class="st8" points="148.07,128.71 147.58,127.21 169.08,119.05 170.26,122.67 						"/>
						<polygon class="st8" points="147.9,127.65 146.62,126.72 159.22,107.48 162.3,109.72 						"/>
						<g>
							<path class="st7" d="M146.35,153.98c-14.08,0-25.54-11.46-25.54-25.54c0-14.08,11.46-25.54,25.54-25.54
								c14.08,0,25.54,11.46,25.54,25.54C171.89,142.52,160.43,153.98,146.35,153.98z M146.35,104.93
								c-12.96,0-23.51,10.54-23.51,23.51s10.55,23.51,23.51,23.51c12.96,0,23.51-10.55,23.51-23.51S159.31,104.93,146.35,104.93z"
								/>
						</g>
						<path class="st7" d="M149.52,128.44c0,1.75-1.42,3.17-3.17,3.17c-1.75,0-3.17-1.42-3.17-3.17c0-1.75,1.42-3.17,3.17-3.17
							C148.1,125.27,149.52,126.69,149.52,128.44z"/>
						<path class="st9" d="M145.12,120.93c0,0.67-0.54,1.22-1.22,1.22c-0.67,0-1.22-0.55-1.22-1.22c0-0.67,0.55-1.22,1.22-1.22
							C144.58,119.7,145.12,120.25,145.12,120.93z"/>
						<path class="st9" d="M138.82,127.29c0.64,0.21,0.99,0.9,0.79,1.54c-0.21,0.64-0.9,0.99-1.54,0.78
							c-0.64-0.21-0.99-0.9-0.79-1.54C137.49,127.43,138.18,127.08,138.82,127.29z"/>
						<path class="st9" d="M142.92,135.25c0.4-0.55,1.16-0.67,1.71-0.28c0.55,0.4,0.66,1.16,0.27,1.71
							c-0.4,0.55-1.16,0.67-1.71,0.27C142.65,136.55,142.52,135.79,142.92,135.25z"/>
						<path class="st9" d="M151.76,133.8c-0.4-0.55-0.27-1.31,0.27-1.71c0.55-0.4,1.31-0.27,1.71,0.27c0.4,0.55,0.28,1.31-0.27,1.71
							C152.92,134.47,152.15,134.35,151.76,133.8z"/>
						<path class="st9" d="M153.12,124.95c-0.64,0.21-1.33-0.14-1.54-0.78c-0.21-0.64,0.15-1.33,0.79-1.54
							c0.64-0.21,1.33,0.14,1.54,0.78C154.11,124.06,153.76,124.74,153.12,124.95z"/>
					</g>
				</g>
				<g>
					<path class="st10" d="M195.36,140.23l-0.89,0c-7.51-41.2-3.05-72.19-3-72.49l0.03-0.17l10.22-7.64l0.52,0.7l-9.94,7.43
						C191.91,70.56,188.13,100.72,195.36,140.23z"/>
				</g>
				<path class="st11" d="M246.71,25.13c0,0-22.84,8.09-54.42,32.37c0,0-12.33,0.09-18.35-1.57c3.62-2.04,43.6-24.48,63.97-31.39
					c0,0,0.01,0,0.04-0.02h0C240.98,24.55,244.26,24.7,246.71,25.13z"/>
				<path class="st11" d="M393.06,41.19c-2.07,2.7-5.98,6.88-9.7,9.67c-0.74,0.56-1.48,1.06-2.19,1.48c0,0-1.7,1.48-7.3,2.36
					c-0.94,0.15-1.99,0.28-3.16,0.39c-4.66,0.42-9.45,0.78-14.56,1.09c-0.1,0.01-0.21,0.01-0.32,0.02
					c-9.07,0.56-19.17,1.01-31.4,1.49c-7.4,0.3-15.59,0.61-24.79,0.96c-1.31,0.05-2.64,0.1-3.99,0.15
					c-1.79,0.07-3.67,0.14-5.62,0.23c-2.56,0.11-5.25,0.23-8.04,0.35c-5.75,0.26-11.95,0.54-18.44,0.82
					c-5.6,0.24-11.43,0.48-17.38,0.69c-3.89,0.14-7.84,0.27-11.82,0.39c-5.86,0.17-11.77,0.31-17.67,0.4
					c-0.26,0-0.52,0.01-0.78,0.01c-5.7,0.09-11.38,0.13-16.96,0.1c0,0,3.77-3.28,9.89-7.94c2.25-1.71,4.82-3.61,7.64-5.6
					c0.92-0.65,1.86-1.31,2.83-1.98c2.32-1.6,4.78-3.23,7.34-4.85c3.61-2.29,7.43-4.57,11.35-6.7c4.88-2.65,9.93-5.08,14.98-7.05
					c1.34-0.52,2.76-1.01,4.26-1.45c8.43-2.52,19.09-3.81,30.86-4.41h0c0.15-0.01,0.3-0.01,0.44-0.02
					c4.78-0.23,9.73-0.35,14.79-0.39c3.28-0.03,6.6-0.02,9.94,0.01c2.86,0.03,5.55,0.07,8.08,0.13c10.78,0.26,18.68,0.84,25.19,1.59
					c3.8,0.45,7.13,0.96,10.27,1.5c0.04,0.01,0.08,0.01,0.12,0.02c0.52,0.09,1.04,0.18,1.56,0.27
					C375.47,28.01,395.78,37.65,393.06,41.19z"/>
				<path class="st14" d="M216.47,48.26L215.9,61.7c-5.7,0.09-11.38,0.13-16.96,0.1C198.95,61.81,205.99,55.67,216.47,48.26z"/>
				<path class="st15" d="M114.09,80.54c-1.41,2.88-2.48,2.73-8.14,4.11c-4.88,1.2-12.13,1.88-19.54,2.08c-0.06,0-0.13,0-0.2,0
					c-1.58,0.04-3.16,0.06-4.73,0.06c0,0-2.17-0.32-4.85-0.85c-1.99-0.39-4.25-0.89-6.12-1.46l-0.78-4.73c0,0-0.06-0.23,0.23-0.73
					c1.79-0.53,4.03-1.15,6.63-1.8c3.01-0.75,6.51-1.52,10.33-2.2c0.21-0.04,0.43-0.07,0.64-0.11c8.38-1.46,18.28-2.46,28.18-1.81
					C117.7,73.23,116.6,75.4,114.09,80.54z"/>
				<path class="st16" d="M90.09,119.32c-0.11,3.2-0.82,5.12-2.54,5.35c-4.44,0.61-9.72-0.42-9.72-0.42l-6.92-9.63l-0.13-10.7
					l5.35-8.52c7.57-0.63,10.63-0.47,11.32,2.07c0.27,1,0.52,2,0.73,3.03c0.79,3.76,1.25,7.9,1.72,13.61
					C90.07,116.1,90.14,117.84,90.09,119.32z"/>
				<path class="st15" d="M90.09,119.32c-1.01-0.71-2.17-4.47-2.75-9.1c-0.65-5.23-0.3-9.57,0.78-9.71c0.02,0,0.04,0,0.06,0
					c0.79,3.76,1.25,7.9,1.72,13.61C90.07,116.1,90.14,117.84,90.09,119.32z"/>
				<path class="st19" d="M86.21,86.74c-1.58,0.04-3.16,0.06-4.73,0.06c0,0-2.17-0.32-4.85-0.85c-1.02-4.25-0.61-7.07-0.04-8.72
					c3.01-0.75,6.51-1.52,10.33-2.2c0.21-0.04,0.43-0.07,0.64-0.11C86.49,78.83,86.03,83.85,86.21,86.74z"/>
			</g>
		</g>
		<rect x="-13.85" y="-20.78" class="st161" width="200" height="200"/>
		<g>
			<path class="st162" d="M77.09,159.16c0,0-0.35,2.76,0,5.66c0,0,3.39,0.96,6.08,0.27v-0.76c0,0,4.38,0.6,6.22,0.76h5.44
				c0,0,0.36-1.39-0.42-2.18c-0.78-0.78-9.4-2.46-10.03-5.92L77.09,159.16z"/>
			<path class="st162" d="M21.75,149.15c0,0-2.36-2.05-7.55-2.17c0,0-1.59,3.15-1.42,5.91l0.75,0.15c0,0-1.43,4.19-1.94,5.96
				l-1.04,5.34c0,0,1.3,0.62,2.21,0c0.91-0.61,4.21-8.75,7.73-8.71L21.75,149.15z"/>
			<path class="st163" d="M61.63,139.37c0,0,5.42,23.09,2.19,25.73c-3.23,2.64-32.48-3.13-43.78-6.52c0,0-3.01-8.03,1.94-10.3
				l26.44,3.82c0,0-9.17-8.37-10.06-16.77L61.63,139.37z"/>
			<polygon class="st164" points="101.42,86.34 105.66,86.54 104.31,90.99 100.06,91.77 			"/>
			<g>
				<g>
					<path class="st164" d="M68.73,53.02c0,0,0.13,0.66,0,1.25c0,0,0.09,0.66-0.35,1.17c-0.45,0.51-0.51,2.06-0.7,3.64
						c0,0-0.3,1.28-1.76,1.26c-0.95-0.01-1.42,0.03-4.07-0.51c0,0-1.09-0.23-2.33-0.56c0.24,2.17,0.62,4.35,0.95,5.99
						c0,0,1.24,1.52,2.74,3.45H41.98c1.72-2.83,3.54-3.88,3.54-3.88c3.64-3.68,5.59-6.66,5.35-10.7c-0.82-1.4-5.73-10.37-2.15-16.57
						c2.36-4.11,5.93-5.15,9.01-5.14v0c3.33,0.11,5.25,0.53,7.72,2.7c0,0,4.15,2.98,3.21,10.02c0,0-0.89,1.33,1.34,5.02
						c0,0,0.83,1.12,0.31,1.58C69.87,52.1,68.73,53.02,68.73,53.02z"/>
					<path class="st165" d="M53.2,53.23c1.22,3.95,4.59,5.5,6.41,6.06c-0.04-0.01-0.07-0.02-0.1-0.03c0.18,1.66,0.45,3.32,0.71,4.74
						C52.83,62.16,53.2,53.23,53.2,53.23z"/>
				</g>
				<path class="st166" d="M39,82.68c0.09-1.39,0.16-2.71,0.21-3.95c0.04-1.13,0.57-4.49,0.57-4.49c0.02-0.08,0.04-0.16,0.06-0.24
					c0.06-0.25,0.13-0.49,0.19-0.73c0.02-0.08,0.04-0.15,0.06-0.22c0.07-0.25,0.15-0.49,0.23-0.73l0-0.01
					c0.27-0.8,0.57-1.52,0.88-2.18c0.02-0.04,0.04-0.09,0.06-0.13c0.09-0.18,0.18-0.36,0.27-0.53c0.03-0.06,0.06-0.12,0.09-0.17
					c0.09-0.17,0.18-0.32,0.27-0.48c0.03-0.05,0.06-0.1,0.09-0.16c0.09-0.15,0.19-0.3,0.28-0.45c0.02-0.03,0.04-0.05,0.05-0.08
					c0.32-0.47,0.63-0.89,0.93-1.25c0.02-0.03,0.05-0.06,0.08-0.09c0.09-0.1,0.16-0.19,0.25-0.29c0.03-0.04,0.07-0.08,0.11-0.11
					c0.08-0.09,0.15-0.16,0.22-0.24c0.04-0.04,0.07-0.08,0.11-0.11c0.07-0.07,0.14-0.14,0.21-0.21c0.04-0.03,0.07-0.06,0.1-0.09
					c0.22-0.21,0.41-0.37,0.58-0.51c0.03-0.03,0.07-0.06,0.1-0.08c0.04-0.03,0.08-0.06,0.11-0.09c0.03-0.02,0.06-0.04,0.09-0.06
					c0.03-0.02,0.06-0.04,0.08-0.06c0.03-0.02,0.05-0.04,0.08-0.05c0.02-0.01,0.04-0.03,0.06-0.03c0.02-0.02,0.04-0.03,0.06-0.04
					c0.01,0,0.02-0.01,0.02-0.02c0.01-0.01,0.03-0.01,0.03-0.01c0.27-0.28,0.54-0.55,0.79-0.82c1.11-1.18,2.04-2.3,2.76-3.41
					c0,0,0,0.01,0,0.02c4.14,5.47,7.48,7.12,10.54,7.43c0.52,0.05,1.64-0.34,2.52-0.72c0.76,0.96,1.68,2.14,2.6,3.33
					c0,0,0.01,0.01,0.01,0.01c0,0.01,0.01,0.02,0.02,0.03h0c0.58,0.77,1.15,1.53,1.67,2.25c0,0.01,0.01,0.01,0.01,0.01
					c0.01,0.02,0.02,0.03,0.04,0.05c0.16,0.22,0.31,0.44,0.46,0.65c0.01,0.01,0.02,0.03,0.03,0.04c0.01,0.01,0.01,0.02,0.02,0.03
					c0.14,0.21,0.29,0.41,0.42,0.6c0.01,0.02,0.03,0.04,0.04,0.06c0.13,0.19,0.25,0.37,0.36,0.54c0,0.01,0.01,0.01,0.01,0.02
					c0,0.01,0.01,0.02,0.02,0.03c0.11,0.18,0.21,0.33,0.3,0.48c0.57,0.98,1.96,3.72,2.97,7.21H39z"/>
				<path class="st167" d="M39.2,78.73c0.02-0.54,0.15-1.56,0.28-2.5c0.78-0.15,1.93-0.55,2.5-1.6c0,0,0.81-12.77,10.01-10.62l0,0
					c0.62,0.61,7.82,2.99,10.22,16.13c0,0,3.25-0.37,7.55-1.27c1.84,4.45,3.96,12,1.07,18.33c0,0-3.37,18.03-3.93,26.88
					c0,0-0.31,5.4-2.03,6.24c-1.71,0.84-25.16-4.41-27.8-7.34C34.31,119.41,38.71,93.16,39.2,78.73z"/>
				<path class="st168" d="M68.37,38.1c0,0,0.66,1.32-1.49,0.66c-1.19-0.37-6.27-0.91-7.92,0c-1.65,0.91-1.37,5.89-2.25,6.54
					c0,0-0.91,1.21-2.28,1.21c-1.02,0-2.64-2.23-3.55-1.73c-0.91,0.5-0.06,5.44,2.32,6.1c0,0,0.07,1.33-0.51,2.35
					c-0.58,1.03-1.22,3.07-1.89,2.84c-0.66-0.24-1.08-3.96-2.07-5.02c-0.99-1.07-6.93-10.39,0.5-17.24
					C49.23,33.81,60.94,24.74,68.37,38.1z"/>
			</g>
			<path class="st169" d="M67.07,36.04c0,0-15.82,1.69-20.56,10.9c0,0-0.69,0.82-1.68-0.69c-0.99-1.51-3.35-10.37,2.68-14.7
				C53.55,27.22,63.06,27.15,67.07,36.04z"/>
			<path class="st169" d="M57.25,38.52c0,0,5.96,2.83,10.48,0.42c0,0,2.5-1.4,7.92-2.27c0,0,0.09-0.28-0.66-0.47
				c-0.75-0.19-8.76-1.75-8.76-1.75S57.59,37.56,57.25,38.52z"/>
			<path class="st166" d="M76.97,95.23c-3.41,0.18-5.71-1.49-5.71-1.49c-6.21-2.82-19.8-14.08-19.8-14.08
				c-2.53-2.19-9.81-6.2-3.37-11.97c0,0,3.48-6.27,28.13,18.53c0,0,23.82-0.38,26.34-0.01c0,0,0.95,2.82-0.54,5.73
				C102.02,91.94,79.18,95.11,76.97,95.23z"/>
			<path class="st170" d="M60.2,80.06c0.13,0.65,0.54,1.12,0.92,1.05c0.38-0.07,0.59-0.66,0.47-1.31c-0.13-0.65-0.54-1.12-0.92-1.05
				C60.29,78.82,60.08,79.41,60.2,80.06z"/>
			<path class="st171" d="M108.94,89.5c0,0-3.49,1.99-5.01,1.67c-0.73-0.15-1.27-3.41,0.77-4.83c0,0,3.77-2.69,7.38-2.67
				c1.37,0.01,3.96,2.16,4.52,3.33c0,0,0.2,0.94-0.71,0.78c-0.91-0.15-3.03-1.5-3.03-1.5s-0.21,0.76-0.61,0.78
				C112.24,87.06,110.02,88.88,108.94,89.5z"/>
			<path class="st167" d="M36.16,116.1c7.92,3.55,21.5,1.41,27.42,3.27c6.48-3.97,22.47-8.07,29.99-8.29c0,0,1.75,0.69,2.69,4.84
				c0.94,4.15-6.65,31.3-10.33,41.07c0,0-7.11,4.04-9.75,3.09c-2.64-0.94,2.13-28.13,2.13-28.13s-12.84,10.19-21.59,13.07
				C30.6,153.63,35.45,117.04,36.16,116.1z"/>
		</g>
	</g>
</g>
</svg>
